                1       032:32:32:32:32:3 11dBm   Nov 17,   201801:32:10.780481000 7          6
                20.00642432:32:32:32:32:3  9Bm N  ov 17, 2018 0 1:32:10.786905000  7         13
                3 0.0821732:32:32:32:32:3 11dBm   Nov 17,   201801:32:10.862651000 7        ###
                40.16309832:32:32:32:32:3  9Bm N  ov 17, 2018 0 1:32:10.943579000  7        ###
                50.55467432:32:32:32:32:3 11dBm   Nov 17,   201801:32:11.335155000 7        ###
                61.00663232:32:32:32:32:3  8Bm N  ov 17, 2018 0 1:32:11.787113000  7
                71.14527432:32:32:32:32:3 10dBm   Nov 17,   201801:32:11.925755000 7
                81.18649332:32:32:32:32:3 10dBm   Nov 17,   201801:32:11.966974000 7
                91.81713432:32:32:32:32:3 11dBm   Nov 17,   201801:32:12.597615000 7
               102.01271832:32:32:32:32:3  8Bm N  ov 17, 2018 0 1:32:12.793199000  7
               112.15538332:32:32:32:32:3 10dBm   Nov 17,   201801:32:12.935864000 7
               122.29671432:32:32:32:32:3  9Bm N  ov 17, 2018 0 1:32:13.077195000  7
               132.42458132:32:32:32:32:3  9Bm N  ov 17, 2018 0 1:32:13.205062000  7
               143.59877132:32:32:32:32:3  8Bm N  ov 17, 2018 0 1:32:14.379252000  7
               153.96140932:32:32:32:32:3 10dBm   Nov 17,   201801:32:14.741890000 7
               164.02785932:32:32:32:32:3 11dBm   Nov 17,   201801:32:14.808340000 7
               17 4.1187832:32:32:32:32:3  9Bm N  ov 17, 2018 0 1:32:14.899261000  7
               18 4.9124532:32:32:32:32:3  9Bm N  ov 17, 2018 0 1:32:15.692931000  7
               195.35687232:32:32:32:32:3  9Bm N  ov 17, 2018 0 1:32:16.137353000  7
               205.96877832:32:32:32:32:3 11dBm   Nov 17,   201801:32:16.749259000 7
               216.68433132:32:32:32:32:3  9Bm N  ov 17, 2018 0 1:32:17.464812000  7
               227.10631832:32:32:32:32:3 10dBm   Nov 17,   201801:32:17.886799000 7
               237.66204532:32:32:32:32:3 10dBm   Nov 17,   201801:32:18.442526000 7
               24 8.1368332:32:32:32:32:3 11dBm   Nov 17,   201801:32:18.917311000 7
               258.26232232:32:32:32:32:3 10dBm   Nov 17,   201801:32:19.042803000 7
               268.73790132:32:32:32:32:3 10dBm   Nov 17,   201801:32:19.518382000 7
               279.32474632:32:32:32:32:3 10dBm   Nov 17,   201801:32:20.105227000 7
               289.44214932:32:32:32:32:3 10dBm   Nov 17,   201801:32:20.222630000 7
               299.66948532:32:32:32:32:3 11dBm   Nov 17,   201801:32:20.449966000 7
               309.91145632:32:32:32:32:3 11dBm   Nov 17,   201801:32:20.691937000 7
            31  1 0.0717432:32:32:32:32:3 10dBm   Nov 17,   201801:32:20.852221000 7
            32  11.39871532:32:32:32:32:3 10dBm   Nov 17,   201801:32:22.179196000 7
            33  13.08404632:32:32:32:32:3 10dBm   Nov 17,   201801:32:23.864527000 7
            34  13.62122132:32:32:32:32:3 10dBm   Nov 17,   201801:32:24.401702000 7
            35  13.74013632:32:32:32:32:3 11dBm   Nov 17,   201801:32:24.520617000 7
            36  13.86040432:32:32:32:32:3 11dBm   Nov 17,   201801:32:24.640885000 7
            37  14.87014632:32:32:32:32:3 11dBm   Nov 17,   201801:32:25.650627000 7
            38  15.03481632:32:32:32:32:3 10dBm   Nov 17,   201801:32:25.815297000 7
            39  15.60379832:32:32:32:32:3 10dBm   Nov 17,   201801:32:26.384279000 7
            40  15.79139632:32:32:32:32:3 11dBm   Nov 17,   201801:32:26.571877000 7
            41  17.31692232:32:32:32:32:3 10dBm   Nov 17,   201801:32:28.097403000 7
            42  17.47720132:32:32:32:32:3 10dBm   Nov 17,   201801:32:28.257682000 7
            43  17.66102232:32:32:32:32:3  8Bm N  ov 17, 2018 0 1:32:28.441503000  7
            44  17.69924132:32:32:32:32:3  8Bm N  ov 17, 2018 0 1:32:28.479722000  7
            45  17.94942432:32:32:32:32:3  7Bm N  ov 17, 2018 0 1:32:28.729905000  7
            46  18.40951432:32:32:32:32:3 11dBm   Nov 17,   201801:32:29.189995000 7
            47  19.13057832:32:32:32:32:3 10dBm   Nov 17,   201801:32:29.911059000 7
            48  19.96399932:32:32:32:32:3  8Bm N  ov 17, 2018 0 1:32:30.744480000  7
            49  20.10092432:32:32:32:32:3 11dBm   Nov 17,   201801:32:30.881405000 7
            50  20.78160932:32:32:32:32:3 11dBm   Nov 17,   201801:32:31.562090000 7
            51  20.92014932:32:32:32:32:3  9Bm N  ov 17, 2018 0 1:32:31.700630000  7
            52  2 1.5221332:32:32:32:32:3 11dBm   Nov 17,   201801:32:32.302611000 7
            53  22.26158532:32:32:32:32:3 10dBm   Nov 17,   201801:32:33.042066000 7
            54  2 3.7424432:32:32:32:32:3 11dBm   Nov 17,   201801:32:34.522921000 7
            55  23.81890332:32:32:32:32:3 10dBm   Nov 17,   201801:32:34.599384000 7
            56  23.85565632:32:32:32:32:3 11dBm   Nov 17,   201801:32:34.636137000 7
            57  2 4.7796132:32:32:32:32:3  8Bm N  ov 17, 2018 0 1:32:35.560091000  7
            58  24.87850332:32:32:32:32:3 11dBm   Nov 17,   201801:32:35.658984000 7
            59  25.35247432:32:32:32:32:3 11dBm   Nov 17,   201801:32:36.132955000 7
            60  25.78372632:32:32:32:32:3 11dBm   Nov 17,   201801:32:36.564207000 7
            61  26.45886232:32:32:32:32:3  9Bm N  ov 17, 2018 0 1:32:37.239343000  7
            62  27.29423532:32:32:32:32:3 11dBm   Nov 17,   201801:32:38.074716000 7
            63  27.75429432:32:32:32:32:3  9Bm N  ov 17, 2018 0 1:32:38.534775000  7
            64  28.19281132:32:32:32:32:3 12dBm   Nov 17,   201801:32:38.973292000 7
            65  28.82687832:32:32:32:32:3  9Bm N  ov 17, 2018 0 1:32:39.607359000  7
            66  28.97906732:32:32:32:32:3 10dBm   Nov 17,   201801:32:39.759548000 7
            67  29.80560932:32:32:32:32:3 10dBm   Nov 17,   201801:32:40.586090000 7
            68  29.97837332:32:32:32:32:3 11dBm   Nov 17,   201801:32:40.758854000 7
            69  30.21068632:32:32:32:32:3 11dBm   Nov 17,   201801:32:40.991167000 7
            70  3 0.3784332:32:32:32:32:3 10dBm   Nov 17,   201801:32:41.158911000 7
            71  30.50235432:32:32:32:32:3  8Bm N  ov 17, 2018 0 1:32:41.282835000  7
            72  30.55465332:32:32:32:32:3  9Bm N  ov 17, 2018 0 1:32:41.335134000  7
            73  31.53691132:32:32:32:32:3  8Bm N  ov 17, 2018 0 1:32:42.317392000  7
            74  31.76045832:32:32:32:32:3 11dBm   Nov 17,   201801:32:42.540939000 7
            75  32.31105432:32:32:32:32:3  8Bm N  ov 17, 2018 0 1:32:43.091535000  7
            76  32.45285832:32:32:32:32:3 11dBm   Nov 17,   201801:32:43.233339000 7
            77  32.57518732:32:32:32:32:3 10dBm   Nov 17,   201801:32:43.355668000 7
            78  32.75339232:32:32:32:32:3 11dBm   Nov 17,   201801:32:43.533873000 7
            79  32.97411932:32:32:32:32:3  9Bm N  ov 17, 2018 0 1:32:43.754600000  7
            80  33.13894632:32:32:32:32:3  8Bm N  ov 17, 2018 0 1:32:43.919427000  7
            81  3  4.271632:32:32:32:32:3 11dBm   Nov 17,   201801:32:45.052081000 7
            82  34.40862432:32:32:32:32:3 12dBm   Nov 17,   201801:32:45.189105000 7
            83  34.43810632:32:32:32:32:3  8Bm N  ov 17, 2018 0 1:32:45.218587000  7
            84  34.55794232:32:32:32:32:3 11dBm   Nov 17,   201801:32:45.338423000 7
            85  34.99147732:32:32:32:32:3 11dBm   Nov 17,   201801:32:45.771958000 7
            86  36.12248432:32:32:32:32:3 11dBm   Nov 17,   201801:32:46.902965000 7
            87  37.44355932:32:32:32:32:3 10dBm   Nov 17,   201801:32:48.224040000 7
            88  37.64725332:32:32:32:32:3 11dBm   Nov 17,   201801:32:48.427734000 7
            89  37.80930632:32:32:32:32:3 10dBm   Nov 17,   201801:32:48.589787000 7
            90  37.93602832:32:32:32:32:3 11dBm   Nov 17,   201801:32:48.716509000 7
            91  38.18212432:32:32:32:32:3 10dBm   Nov 17,   201801:32:48.962605000 7
            92  38.38927732:32:32:32:32:3  8Bm N  ov 17, 2018 0 1:32:49.169758000  7
            93  38.61648832:32:32:32:32:3 11dBm   Nov 17,   201801:32:49.396969000 7
            94  38.85448132:32:32:32:32:3 10dBm   Nov 17,   201801:32:49.634962000 7
            95  39.15183532:32:32:32:32:3 11dBm   Nov 17,   201801:32:49.932316000 7
            96  39.30955532:32:32:32:32:3 11dBm   Nov 17,   201801:32:50.090036000 7
            97  40.06363832:32:32:32:32:3 10dBm   Nov 17,   201801:32:50.844119000 7
            98  40.52561232:32:32:32:32:3 11dBm   Nov 17,   201801:32:51.306093000 7
            99  40.68718832:32:32:32:32:3 11dBm   Nov 17,   201801:32:51.467669000 7
           100  41.12902832:32:32:32:32:3  9Bm N  ov 17, 2018 0 1:32:51.909509000  7
           101  41.47098532:32:32:32:32:3 11dBm   Nov 17,   201801:32:52.251466000 7
           102  42.14624232:32:32:32:32:3 11dBm   Nov 17,   201801:32:52.926723000 7
           103  42.66228932:32:32:32:32:3 11dBm   Nov 17,   201801:32:53.442770000 7
           104  42.80473732:32:32:32:32:3 10dBm   Nov 17,   201801:32:53.585218000 7
           105  43.12781132:32:32:32:32:3  9Bm N  ov 17, 2018 0 1:32:53.908292000  7
           106  43.43953232:32:32:32:32:3 11dBm   Nov 17,   201801:32:54.220013000 7
           107  4  3.701932:32:32:32:32:3 11dBm   Nov 17,   201801:32:54.482381000 7
           108  43.95289232:32:32:32:32:3 11dBm   Nov 17,   201801:32:54.733373000 7
           109  45.09317932:32:32:32:32:3  9Bm N  ov 17, 2018 0 1:32:55.873660000  7
           110  45.47758832:32:32:32:32:3  9Bm N  ov 17, 2018 0 1:32:56.258069000  7
           111  46.07844532:32:32:32:32:3 10dBm   Nov 17,   201801:32:56.858926000 7
           112  46.61368632:32:32:32:32:3 11dBm   Nov 17,   201801:32:57.394167000 7
           113  46.82582532:32:32:32:32:3  9Bm N  ov 17, 2018 0 1:32:57.606306000  7
           114  47.09366732:32:32:32:32:3 10dBm   Nov 17,   201801:32:57.874148000 7
           115  47.10188832:32:32:32:32:3  8Bm N  ov 17, 2018 0 1:32:57.882369000  7
           116  47.46317532:32:32:32:32:3 10dBm   Nov 17,   201801:32:58.243656000 7
           117  48.19430332:32:32:32:32:3 10dBm   Nov 17,   201801:32:58.974784000 7
           118  48.25280732:32:32:32:32:3 11dBm   Nov 17,   201801:32:59.033288000 7
           119  48.32335432:32:32:32:32:3 10dBm   Nov 17,   201801:32:59.103835000 7
           120  48.44651232:32:32:32:32:3 12dBm   Nov 17,   201801:32:59.226993000 7
           121  4 9.4101932:32:32:32:32:3 10dBm   Nov 17,   201801:33:00.190671000 7
           122  49.78949832:32:32:32:32:3 10dBm   Nov 17,   201801:33:00.569979000 7
           123  50.10483532:32:32:32:32:3  8Bm N  ov 17, 2018 0 1:33:00.885316000  7
           124  50.25511532:32:32:32:32:3  9Bm N  ov 17, 2018 0 1:33:01.035596000  7
           125  5 0.3830632:32:32:32:32:3  9Bm N  ov 17, 2018 0 1:33:01.163541000  7
           126  51.19830132:32:32:32:32:3 10dBm   Nov 17,   201801:33:01.978782000 7
           127  51.41387632:32:32:32:32:3 10dBm   Nov 17,   201801:33:02.194357000 7
           128  51.92529432:32:32:32:32:3 10dBm   Nov 17,   201801:33:02.705775000 7
           129  5 2.0438132:32:32:32:32:3 10dBm   Nov 17,   201801:33:02.824291000 7
           130  52.18676532:32:32:32:32:3 12dBm   Nov 17,   201801:33:02.967246000 7
           131  52.31242832:32:32:32:32:3 11dBm   Nov 17,   201801:33:03.092909000 7
           132  52.92022132:32:32:32:32:3 10dBm   Nov 17,   201801:33:03.700702000 7
           133  54.38447632:32:32:32:32:3 11dBm   Nov 17,   201801:33:05.164957000 7
           134  5 5.0396232:32:32:32:32:3 11dBm   Nov 17,   201801:33:05.820101000 7
           135  55.47591832:32:32:32:32:3 12dBm   Nov 17,   201801:33:06.256399000 7
           136  55.84746732:32:32:32:32:3 11dBm   Nov 17,   201801:33:06.627948000 7
           137  56.34629132:32:32:32:32:3 10dBm   Nov 17,   201801:33:07.126772000 7
           138  56.82111332:32:32:32:32:3  9Bm N  ov 17, 2018 0 1:33:07.601594000  7
           139  57.05198532:32:32:32:32:3  8Bm N  ov 17, 2018 0 1:33:07.832466000  7
           140  57.64236932:32:32:32:32:3  9Bm N  ov 17, 2018 0 1:33:08.422850000  7
           141  57.96845132:32:32:32:32:3 11dBm   Nov 17,   201801:33:08.748932000 7
           142  58.24252432:32:32:32:32:3  9Bm N  ov 17, 2018 0 1:33:09.023005000  7
           143  58.78761932:32:32:32:32:3 10dBm   Nov 17,   201801:33:09.568100000 7
           144  5 9.2023532:32:32:32:32:3  6Bm N  ov 17, 2018 0 1:33:09.982831000  7
           145  59.36221632:32:32:32:32:3 10dBm   Nov 17,   201801:33:10.142697000 7
           146  60.09664732:32:32:32:32:3 11dBm   Nov 17,   201801:33:10.877128000 7
           147  60.49659832:32:32:32:32:3  7Bm N  ov 17, 2018 0 1:33:11.277079000  7
           148  60.50433632:32:32:32:32:3  9Bm N  ov 17, 2018 0 1:33:11.284817000  7
           149  61.44719932:32:32:32:32:3 10dBm   Nov 17,   201801:33:12.227680000 7
           150  61.57579132:32:32:32:32:3 10dBm   Nov 17,   201801:33:12.356272000 7
           151  61.95138332:32:32:32:32:3 10dBm   Nov 17,   201801:33:12.731864000 7
           152  62.07409832:32:32:32:32:3  9Bm N  ov 17, 2018 0 1:33:12.854579000  7
           153  63.02983632:32:32:32:32:3 10dBm   Nov 17,   201801:33:13.810317000 7
           154  63.13197532:32:32:32:32:3 10dBm   Nov 17,   201801:33:13.912456000 7
           155  63.30558432:32:32:32:32:3 10dBm   Nov 17,   201801:33:14.086065000 7
           156  63.52914432:32:32:32:32:3 10dBm   Nov 17,   201801:33:14.309625000 7
           157  63.80860332:32:32:32:32:3 11dBm   Nov 17,   201801:33:14.589084000 7
           158  64.03329532:32:32:32:32:3  7Bm N  ov 17, 2018 0 1:33:14.813776000  7
           159  64.28305732:32:32:32:32:3 10dBm   Nov 17,   201801:33:15.063538000 7
           160  64.54018132:32:32:32:32:3  9Bm N  ov 17, 2018 0 1:33:15.320662000  7
           161  65.06678832:32:32:32:32:3 11dBm   Nov 17,   201801:33:15.847269000 7
           162  65.30356132:32:32:32:32:3 12dBm   Nov 17,   201801:33:16.084042000 7
           163  65.88446832:32:32:32:32:3 10dBm   Nov 17,   201801:33:16.664949000 7
           164  66.01838132:32:32:32:32:3 10dBm   Nov 17,   201801:33:16.798862000 7
           165  66.62519232:32:32:32:32:3 11dBm   Nov 17,   201801:33:17.405673000 7
           166  66.76879632:32:32:32:32:3 11dBm   Nov 17,   201801:33:17.549277000 7
           167  67.41708332:32:32:32:32:3 10dBm   Nov 17,   201801:33:18.197564000 7
           168  67.76487932:32:32:32:32:3  9Bm N  ov 17, 2018 0 1:33:18.545360000  7
           169  68.21195432:32:32:32:32:3 11dBm   Nov 17,   201801:33:18.992435000 7
           170  68.24240232:32:32:32:32:3 10dBm   Nov 17,   201801:33:19.022883000 7
           171  68.66500232:32:32:32:32:3 12dBm   Nov 17,   201801:33:19.445483000 7
           172  68.70696332:32:32:32:32:3 13dBm   Nov 17,   201801:33:19.487444000 7
           173  69.43648832:32:32:32:32:3 10dBm   Nov 17,   201801:33:20.216969000 7
           174  69.52337632:32:32:32:32:3 11dBm   Nov 17,   201801:33:20.303857000 7
           175  69.64570832:32:32:32:32:3 11dBm   Nov 17,   201801:33:20.426189000 7
           176  69.90281832:32:32:32:32:3 11dBm   Nov 17,   201801:33:20.683299000 7
           177  70.06753832:32:32:32:32:3 10dBm   Nov 17,   201801:33:20.848019000 7
           178  72.40535732:32:32:32:32:3  7Bm N  ov 17, 2018 0 1:33:23.185838000  7
           179  72.45345732:32:32:32:32:3 10dBm   Nov 17,   201801:33:23.233938000 7
           180  72.82090532:32:32:32:32:3 11dBm   Nov 17,   201801:33:23.601386000 7
           181  7 5.0861432:32:32:32:32:3 11dBm   Nov 17,   201801:33:25.866621000 7
           182  75.14168932:32:32:32:32:3 11dBm   Nov 17,   201801:33:25.922170000 7
           183  76.05036532:32:32:32:32:3  9Bm N  ov 17, 2018 0 1:33:26.830846000  7
           184  76.99500632:32:32:32:32:3 10dBm   Nov 17,   201801:33:27.775487000 7
           185  77.10563932:32:32:32:32:3 10dBm   Nov 17,   201801:33:27.886120000 7
           186  77.35147132:32:32:32:32:3  9Bm N  ov 17, 2018 0 1:33:28.131952000  7
           187  77.52803432:32:32:32:32:3 10dBm   Nov 17,   201801:33:28.308515000 7
           188  78.06472532:32:32:32:32:3 11dBm   Nov 17,   201801:33:28.845206000 7
           189  78.23269132:32:32:32:32:3 10dBm   Nov 17,   201801:33:29.013172000 7
           190  78.73755932:32:32:32:32:3 10dBm   Nov 17,   201801:33:29.518040000 7
           191  78.85128832:32:32:32:32:3  9Bm N  ov 17, 2018 0 1:33:29.631769000  7
           192  79.02363932:32:32:32:32:3 10dBm   Nov 17,   201801:33:29.804120000 7
           193  80.03103232:32:32:32:32:3 10dBm   Nov 17,   201801:33:30.811513000 7
