    1   0.000000 32:32:32:32:32:32 4dBm Nov 17, 2018 01:58:40.305591000 +07
    2   0.033989 32:32:32:32:32:32 3dBm Nov 17, 2018 01:58:40.339580000 +07
    3   0.303884 32:32:32:32:32:32 3dBm Nov 17, 2018 01:58:40.609475000 +07
    4   0.913958 32:32:32:32:32:32 5dBm Nov 17, 2018 01:58:41.219549000 +07
    5   1.379411 32:32:32:32:32:32 3dBm Nov 17, 2018 01:58:41.685002000 +07
    6   1.704980 32:32:32:32:32:32 4dBm Nov 17, 2018 01:58:42.010571000 +07
    7   2.107774 32:32:32:32:32:32 4dBm Nov 17, 2018 01:58:42.413365000 +07
    8   2.317894 32:32:32:32:32:32 5dBm Nov 17, 2018 01:58:42.623485000 +07
    9   2.439600 32:32:32:32:32:32 4dBm Nov 17, 2018 01:58:42.745191000 +07
   10   3.257634 32:32:32:32:32:32 5dBm Nov 17, 2018 01:58:43.563225000 +07
   11   3.461536 32:32:32:32:32:32 6dBm Nov 17, 2018 01:58:43.767127000 +07
   12   3.577033 32:32:32:32:32:32 4dBm Nov 17, 2018 01:58:43.882624000 +07
   13   3.613294 32:32:32:32:32:32 6dBm Nov 17, 2018 01:58:43.918885000 +07
   14   4.084465 32:32:32:32:32:32 5dBm Nov 17, 2018 01:58:44.390056000 +07
   15   4.179103 32:32:32:32:32:32 6dBm Nov 17, 2018 01:58:44.484694000 +07
   16   4.449084 32:32:32:32:32:32 6dBm Nov 17, 2018 01:58:44.754675000 +07
   17   4.563623 32:32:32:32:32:32 2dBm Nov 17, 2018 01:58:44.869214000 +07
   18   5.533581 32:32:32:32:32:32 5dBm Nov 17, 2018 01:58:45.839172000 +07
   19   5.680317 32:32:32:32:32:32 5dBm Nov 17, 2018 01:58:45.985908000 +07
   20   5.698562 32:32:32:32:32:32 6dBm Nov 17, 2018 01:58:46.004153000 +07
   21   5.792677 32:32:32:32:32:32 5dBm Nov 17, 2018 01:58:46.098268000 +07
   22   5.848528 32:32:32:32:32:32 6dBm Nov 17, 2018 01:58:46.154119000 +07
   23   6.646657 32:32:32:32:32:32 5dBm Nov 17, 2018 01:58:46.952248000 +07
   24   7.840059 32:32:32:32:32:32 4dBm Nov 17, 2018 01:58:48.145650000 +07
   25   8.595155 32:32:32:32:32:32 3dBm Nov 17, 2018 01:58:48.900746000 +07
   26   8.865489 32:32:32:32:32:32 5dBm Nov 17, 2018 01:58:49.171080000 +07
   27   9.079643 32:32:32:32:32:32 5dBm Nov 17, 2018 01:58:49.385234000 +07
   28   9.097979 32:32:32:32:32:32 4dBm Nov 17, 2018 01:58:49.403570000 +07
   29  10.127981 32:32:32:32:32:32 4dBm Nov 17, 2018 01:58:50.433572000 +07
   30  13.635280 32:32:32:32:32:32 3dBm Nov 17, 2018 01:58:53.940871000 +07
   31  13.797852 32:32:32:32:32:32 6dBm Nov 17, 2018 01:58:54.103443000 +07
   32  13.819373 32:32:32:32:32:32 5dBm Nov 17, 2018 01:58:54.124964000 +07
   33  14.462067 32:32:32:32:32:32 5dBm Nov 17, 2018 01:58:54.767658000 +07
   34  14.490782 32:32:32:32:32:32 3dBm Nov 17, 2018 01:58:54.796373000 +07
   35  14.535232 32:32:32:32:32:32 5dBm Nov 17, 2018 01:58:54.840823000 +07
   36  14.928387 32:32:32:32:32:32 5dBm Nov 17, 2018 01:58:55.233978000 +07
   37  14.974037 32:32:32:32:32:32 6dBm Nov 17, 2018 01:58:55.279628000 +07
   38  14.979948 32:32:32:32:32:32 5dBm Nov 17, 2018 01:58:55.285539000 +07
   39  15.208369 32:32:32:32:32:32 5dBm Nov 17, 2018 01:58:55.513960000 +07
   40  15.332337 32:32:32:32:32:32 5dBm Nov 17, 2018 01:58:55.637928000 +07
   41  15.439581 32:32:32:32:32:32 6dBm Nov 17, 2018 01:58:55.745172000 +07
   42  16.264441 32:32:32:32:32:32 6dBm Nov 17, 2018 01:58:56.570032000 +07
   43  17.256576 32:32:32:32:32:32 2dBm Nov 17, 2018 01:58:57.562167000 +07
   44  18.608217 32:32:32:32:32:32 5dBm Nov 17, 2018 01:58:58.913808000 +07
   45  18.982406 32:32:32:32:32:32 6dBm Nov 17, 2018 01:58:59.287997000 +07
   46  19.297322 32:32:32:32:32:32 5dBm Nov 17, 2018 01:58:59.602913000 +07
   47  26.596214 32:32:32:32:32:32 5dBm Nov 17, 2018 01:59:06.901805000 +07
   48  27.079531 32:32:32:32:32:32 5dBm Nov 17, 2018 01:59:07.385122000 +07
   49  27.700082 32:32:32:32:32:32 4dBm Nov 17, 2018 01:59:08.005673000 +07
   50  28.009070 32:32:32:32:32:32 4dBm Nov 17, 2018 01:59:08.314661000 +07
   51  28.029929 32:32:32:32:32:32 5dBm Nov 17, 2018 01:59:08.335520000 +07
   52  29.337140 32:32:32:32:32:32 4dBm Nov 17, 2018 01:59:09.642731000 +07
   53  29.422622 32:32:32:32:32:32 5dBm Nov 17, 2018 01:59:09.728213000 +07
   54  29.636690 32:32:32:32:32:32 5dBm Nov 17, 2018 01:59:09.942281000 +07
   55  29.688698 32:32:32:32:32:32 5dBm Nov 17, 2018 01:59:09.994289000 +07
   56  29.970695 32:32:32:32:32:32 5dBm Nov 17, 2018 01:59:10.276286000 +07
   57  30.035334 32:32:32:32:32:32 6dBm Nov 17, 2018 01:59:10.340925000 +07
   58  30.090305 32:32:32:32:32:32 4dBm Nov 17, 2018 01:59:10.395896000 +07
   59  31.224053 32:32:32:32:32:32 3dBm Nov 17, 2018 01:59:11.529644000 +07
   60  31.613812 32:32:32:32:32:32 4dBm Nov 17, 2018 01:59:11.919403000 +07
   61  31.848106 32:32:32:32:32:32 2dBm Nov 17, 2018 01:59:12.153697000 +07
   62  32.316921 32:32:32:32:32:32 5dBm Nov 17, 2018 01:59:12.622512000 +07
   63  32.701688 32:32:32:32:32:32 5dBm Nov 17, 2018 01:59:13.007279000 +07
   64  32.835290 32:32:32:32:32:32 2dBm Nov 17, 2018 01:59:13.140881000 +07
   65  33.161238 32:32:32:32:32:32 5dBm Nov 17, 2018 01:59:13.466829000 +07
   66  34.313471 32:32:32:32:32:32 0dBm Nov 17, 2018 01:59:14.619062000 +07
   67  34.749147 32:32:32:32:32:32 3dBm Nov 17, 2018 01:59:15.054738000 +07
   68  34.767774 32:32:32:32:32:32 4dBm Nov 17, 2018 01:59:15.073365000 +07
   69  35.878544 32:32:32:32:32:32 6dBm Nov 17, 2018 01:59:16.184135000 +07
   70  35.918380 32:32:32:32:32:32 3dBm Nov 17, 2018 01:59:16.223971000 +07
   71  36.040792 32:32:32:32:32:32 5dBm Nov 17, 2018 01:59:16.346383000 +07
   72  36.497437 32:32:32:32:32:32 5dBm Nov 17, 2018 01:59:16.803028000 +07
   73  37.279358 32:32:32:32:32:32 5dBm Nov 17, 2018 01:59:17.584949000 +07
   74  37.352611 32:32:32:32:32:32 4dBm Nov 17, 2018 01:59:17.658202000 +07
   75  37.438512 32:32:32:32:32:32 5dBm Nov 17, 2018 01:59:17.744103000 +07
   76  37.537056 32:32:32:32:32:32 5dBm Nov 17, 2018 01:59:17.842647000 +07
   77  37.668630 32:32:32:32:32:32 5dBm Nov 17, 2018 01:59:17.974221000 +07
   78  37.771237 32:32:32:32:32:32 3dBm Nov 17, 2018 01:59:18.076828000 +07
   79  38.204997 32:32:32:32:32:32 5dBm Nov 17, 2018 01:59:18.510588000 +07
   80  38.766932 32:32:32:32:32:32 6dBm Nov 17, 2018 01:59:19.072523000 +07
   81  39.015844 32:32:32:32:32:32 6dBm Nov 17, 2018 01:59:19.321435000 +07
   82  39.368991 32:32:32:32:32:32 4dBm Nov 17, 2018 01:59:19.674582000 +07
   83  39.586365 32:32:32:32:32:32 5dBm Nov 17, 2018 01:59:19.891956000 +07
   84  39.701555 32:32:32:32:32:32 5dBm Nov 17, 2018 01:59:20.007146000 +07
   85  39.782184 32:32:32:32:32:32 4dBm Nov 17, 2018 01:59:20.087775000 +07
   86  39.802000 32:32:32:32:32:32 4dBm Nov 17, 2018 01:59:20.107591000 +07
   87  40.150870 32:32:32:32:32:32 6dBm Nov 17, 2018 01:59:20.456461000 +07
   88  40.781696 32:32:32:32:32:32 5dBm Nov 17, 2018 01:59:21.087287000 +07
   89  47.116997 32:32:32:32:32:32 5dBm Nov 17, 2018 01:59:27.422588000 +07
   90  47.879740 32:32:32:32:32:32 5dBm Nov 17, 2018 01:59:28.185331000 +07
   91  47.965284 32:32:32:32:32:32 4dBm Nov 17, 2018 01:59:28.270875000 +07
   92  48.109928 32:32:32:32:32:32 2dBm Nov 17, 2018 01:59:28.415519000 +07
   93  48.777373 32:32:32:32:32:32 6dBm Nov 17, 2018 01:59:29.082964000 +07
   94  48.802518 32:32:32:32:32:32 4dBm Nov 17, 2018 01:59:29.108109000 +07
   95  51.940892 32:32:32:32:32:32 6dBm Nov 17, 2018 01:59:32.246483000 +07
   96  52.378077 32:32:32:32:32:32 4dBm Nov 17, 2018 01:59:32.683668000 +07
   97  52.604031 32:32:32:32:32:32 6dBm Nov 17, 2018 01:59:32.909622000 +07
   98  52.882299 32:32:32:32:32:32 5dBm Nov 17, 2018 01:59:33.187890000 +07
   99  55.824780 32:32:32:32:32:32 3dBm Nov 17, 2018 01:59:36.130371000 +07
  100  57.709299 32:32:32:32:32:32 5dBm Nov 17, 2018 01:59:38.014890000 +07
  101  60.006253 32:32:32:32:32:32 6dBm Nov 17, 2018 01:59:40.311844000 +07
  102  61.934271 32:32:32:32:32:32 6dBm Nov 17, 2018 01:59:42.239862000 +07
  103  65.286040 32:32:32:32:32:32 5dBm Nov 17, 2018 01:59:45.591631000 +07
  104  65.426173 32:32:32:32:32:32 3dBm Nov 17, 2018 01:59:45.731764000 +07
  105  65.730905 32:32:32:32:32:32 5dBm Nov 17, 2018 01:59:46.036496000 +07
  106  66.001502 32:32:32:32:32:32 6dBm Nov 17, 2018 01:59:46.307093000 +07
  107  66.846206 32:32:32:32:32:32 6dBm Nov 17, 2018 01:59:47.151797000 +07
  108  66.880125 32:32:32:32:32:32 4dBm Nov 17, 2018 01:59:47.185716000 +07
  109  67.127119 32:32:32:32:32:32 5dBm Nov 17, 2018 01:59:47.432710000 +07
  110  67.709602 32:32:32:32:32:32 4dBm Nov 17, 2018 01:59:48.015193000 +07
  111  68.081869 32:32:32:32:32:32 6dBm Nov 17, 2018 01:59:48.387460000 +07
  112  68.168977 32:32:32:32:32:32 4dBm Nov 17, 2018 01:59:48.474568000 +07
  113  68.280309 32:32:32:32:32:32 4dBm Nov 17, 2018 01:59:48.585900000 +07
  114  68.350490 32:32:32:32:32:32 6dBm Nov 17, 2018 01:59:48.656081000 +07
  115  68.529478 32:32:32:32:32:32 3dBm Nov 17, 2018 01:59:48.835069000 +07
  116  68.857854 32:32:32:32:32:32 2dBm Nov 17, 2018 01:59:49.163445000 +07
  117  69.245050 32:32:32:32:32:32 6dBm Nov 17, 2018 01:59:49.550641000 +07
  118  70.467571 32:32:32:32:32:32 5dBm Nov 17, 2018 01:59:50.773162000 +07
  119  70.668839 32:32:32:32:32:32 6dBm Nov 17, 2018 01:59:50.974430000 +07
  120  70.804402 32:32:32:32:32:32 6dBm Nov 17, 2018 01:59:51.109993000 +07
  121  70.984817 32:32:32:32:32:32 4dBm Nov 17, 2018 01:59:51.290408000 +07
  122  71.137559 32:32:32:32:32:32 4dBm Nov 17, 2018 01:59:51.443150000 +07
  123  71.242621 32:32:32:32:32:32 6dBm Nov 17, 2018 01:59:51.548212000 +07
  124  71.391554 32:32:32:32:32:32 6dBm Nov 17, 2018 01:59:51.697145000 +07
  125  71.508142 32:32:32:32:32:32 5dBm Nov 17, 2018 01:59:51.813733000 +07
  126  71.535289 32:32:32:32:32:32 6dBm Nov 17, 2018 01:59:51.840880000 +07
  127  71.573410 32:32:32:32:32:32 6dBm Nov 17, 2018 01:59:51.879001000 +07
  128  71.627389 32:32:32:32:32:32 5dBm Nov 17, 2018 01:59:51.932980000 +07
  129  72.317503 32:32:32:32:32:32 4dBm Nov 17, 2018 01:59:52.623094000 +07
  130  72.401863 32:32:32:32:32:32 6dBm Nov 17, 2018 01:59:52.707454000 +07
  131  72.645850 32:32:32:32:32:32 6dBm Nov 17, 2018 01:59:52.951441000 +07
  132  72.780571 32:32:32:32:32:32 4dBm Nov 17, 2018 01:59:53.086162000 +07
  133  72.998007 32:32:32:32:32:32 4dBm Nov 17, 2018 01:59:53.303598000 +07
  134  73.641290 32:32:32:32:32:32 4dBm Nov 17, 2018 01:59:53.946881000 +07
  135  74.159173 32:32:32:32:32:32 4dBm Nov 17, 2018 01:59:54.464764000 +07
  136  75.953812 32:32:32:32:32:32 5dBm Nov 17, 2018 01:59:56.259403000 +07
  137  76.011791 32:32:32:32:32:32 4dBm Nov 17, 2018 01:59:56.317382000 +07
  138  76.373302 32:32:32:32:32:32 6dBm Nov 17, 2018 01:59:56.678893000 +07
  139  77.020515 32:32:32:32:32:32 5dBm Nov 17, 2018 01:59:57.326106000 +07
  140  90.004725 32:32:32:32:32:32 4dBm Nov 17, 2018 02:00:10.310316000 +07
  141  91.601786 32:32:32:32:32:32 2dBm Nov 17, 2018 02:00:11.907377000 +07
  142  91.684254 32:32:32:32:32:32 2dBm Nov 17, 2018 02:00:11.989845000 +07
  143  92.643344 32:32:32:32:32:32 4dBm Nov 17, 2018 02:00:12.948935000 +07
  144  92.910959 32:32:32:32:32:32 5dBm Nov 17, 2018 02:00:13.216550000 +07
  145  93.269990 32:32:32:32:32:32 3dBm Nov 17, 2018 02:00:13.575581000 +07
  146  93.969111 32:32:32:32:32:32 2dBm Nov 17, 2018 02:00:14.274702000 +07
  147  96.325598 32:32:32:32:32:32 4dBm Nov 17, 2018 02:00:16.631189000 +07
  148  96.471974 32:32:32:32:32:32 5dBm Nov 17, 2018 02:00:16.777565000 +07
  149  96.651532 32:32:32:32:32:32 7dBm Nov 17, 2018 02:00:16.957123000 +07
  150  96.733523 32:32:32:32:32:32 4dBm Nov 17, 2018 02:00:17.039114000 +07
  151  97.173379 32:32:32:32:32:32 5dBm Nov 17, 2018 02:00:17.478970000 +07
  152 110.645592 32:32:32:32:32:32 5dBm Nov 17, 2018 02:00:30.951183000 +07
  153 110.776899 32:32:32:32:32:32 4dBm Nov 17, 2018 02:00:31.082490000 +07
  154 110.835157 32:32:32:32:32:32 6dBm Nov 17, 2018 02:00:31.140748000 +07
  155 111.040778 32:32:32:32:32:32 4dBm Nov 17, 2018 02:00:31.346369000 +07
  156 111.085967 32:32:32:32:32:32 5dBm Nov 17, 2018 02:00:31.391558000 +07
  157 111.293727 32:32:32:32:32:32 4dBm Nov 17, 2018 02:00:31.599318000 +07
  158 111.678184 32:32:32:32:32:32 5dBm Nov 17, 2018 02:00:31.983775000 +07
  159 111.744073 32:32:32:32:32:32 5dBm Nov 17, 2018 02:00:32.049664000 +07
  160 111.862893 32:32:32:32:32:32 3dBm Nov 17, 2018 02:00:32.168484000 +07
  161 113.517046 32:32:32:32:32:32 5dBm Nov 17, 2018 02:00:33.822637000 +07
  162 114.322963 32:32:32:32:32:32 6dBm Nov 17, 2018 02:00:34.628554000 +07
  163 114.839860 32:32:32:32:32:32 4dBm Nov 17, 2018 02:00:35.145451000 +07
  164 114.920259 32:32:32:32:32:32 4dBm Nov 17, 2018 02:00:35.225850000 +07
  165 115.377456 32:32:32:32:32:32 3dBm Nov 17, 2018 02:00:35.683047000 +07
  166 115.690657 32:32:32:32:32:32 6dBm Nov 17, 2018 02:00:35.996248000 +07
  167 115.884215 32:32:32:32:32:32 4dBm Nov 17, 2018 02:00:36.189806000 +07
  168 116.052906 32:32:32:32:32:32 4dBm Nov 17, 2018 02:00:36.358497000 +07
  169 116.154673 32:32:32:32:32:32 6dBm Nov 17, 2018 02:00:36.460264000 +07
  170 116.193017 32:32:32:32:32:32 5dBm Nov 17, 2018 02:00:36.498608000 +07
  171 116.624610 32:32:32:32:32:32 6dBm Nov 17, 2018 02:00:36.930201000 +07
  172 116.952516 32:32:32:32:32:32 4dBm Nov 17, 2018 02:00:37.258107000 +07
  173 117.139222 32:32:32:32:32:32 4dBm Nov 17, 2018 02:00:37.444813000 +07
  174 117.170427 32:32:32:32:32:32 7dBm Nov 17, 2018 02:00:37.476018000 +07
  175 117.238732 32:32:32:32:32:32 5dBm Nov 17, 2018 02:00:37.544323000 +07
  176 117.356255 32:32:32:32:32:32 4dBm Nov 17, 2018 02:00:37.661846000 +07
  177 117.389735 32:32:32:32:32:32 5dBm Nov 17, 2018 02:00:37.695326000 +07
  178 117.679304 32:32:32:32:32:32 7dBm Nov 17, 2018 02:00:37.984895000 +07
  179 117.795869 32:32:32:32:32:32 4dBm Nov 17, 2018 02:00:38.101460000 +07
  180 117.941051 32:32:32:32:32:32 4dBm Nov 17, 2018 02:00:38.246642000 +07
  181 118.074504 32:32:32:32:32:32 4dBm Nov 17, 2018 02:00:38.380095000 +07
  182 118.132214 32:32:32:32:32:32 6dBm Nov 17, 2018 02:00:38.437805000 +07
  183 118.171271 32:32:32:32:32:32 5dBm Nov 17, 2018 02:00:38.476862000 +07
  184 118.189171 32:32:32:32:32:32 5dBm Nov 17, 2018 02:00:38.494762000 +07
  185 118.566525 32:32:32:32:32:32 5dBm Nov 17, 2018 02:00:38.872116000 +07
  186 118.640470 32:32:32:32:32:32 5dBm Nov 17, 2018 02:00:38.946061000 +07
  187 118.730465 32:32:32:32:32:32 5dBm Nov 17, 2018 02:00:39.036056000 +07
  188 119.245075 32:32:32:32:32:32 4dBm Nov 17, 2018 02:00:39.550666000 +07
  189 119.333279 32:32:32:32:32:32 5dBm Nov 17, 2018 02:00:39.638870000 +07
  190 119.458638 32:32:32:32:32:32 5dBm Nov 17, 2018 02:00:39.764229000 +07
  191 119.689581 32:32:32:32:32:32 6dBm Nov 17, 2018 02:00:39.995172000 +07
  192 119.757532 32:32:32:32:32:32 5dBm Nov 17, 2018 02:00:40.063123000 +07
  193 119.967604 32:32:32:32:32:32 5dBm Nov 17, 2018 02:00:40.273195000 +07
  194 120.349309 32:32:32:32:32:32 5dBm Nov 17, 2018 02:00:40.654900000 +07
  195 121.038482 32:32:32:32:32:32 7dBm Nov 17, 2018 02:00:41.344073000 +07
  196 121.273371 32:32:32:32:32:32 4dBm Nov 17, 2018 02:00:41.578962000 +07
  197 121.396824 32:32:32:32:32:32 5dBm Nov 17, 2018 02:00:41.702415000 +07
  198 121.535899 32:32:32:32:32:32 7dBm Nov 17, 2018 02:00:41.841490000 +07
  199 121.567492 32:32:32:32:32:32 4dBm Nov 17, 2018 02:00:41.873083000 +07
  200 121.754432 32:32:32:32:32:32 5dBm Nov 17, 2018 02:00:42.060023000 +07
  201 122.039431 32:32:32:32:32:32 5dBm Nov 17, 2018 02:00:42.345022000 +07
  202 122.582253 32:32:32:32:32:32 5dBm Nov 17, 2018 02:00:42.887844000 +07
  203 122.704690 32:32:32:32:32:32 6dBm Nov 17, 2018 02:00:43.010281000 +07
  204 122.732850 32:32:32:32:32:32 5dBm Nov 17, 2018 02:00:43.038441000 +07
  205 123.197635 32:32:32:32:32:32 6dBm Nov 17, 2018 02:00:43.503226000 +07
  206 123.293977 32:32:32:32:32:32 6dBm Nov 17, 2018 02:00:43.599568000 +07
  207 123.422556 32:32:32:32:32:32 6dBm Nov 17, 2018 02:00:43.728147000 +07
  208 123.689260 32:32:32:32:32:32 5dBm Nov 17, 2018 02:00:43.994851000 +07
  209 124.393371 32:32:32:32:32:32 5dBm Nov 17, 2018 02:00:44.698962000 +07
  210 124.473695 32:32:32:32:32:32 5dBm Nov 17, 2018 02:00:44.779286000 +07
  211 124.667135 32:32:32:32:32:32 3dBm Nov 17, 2018 02:00:44.972726000 +07
  212 124.732476 32:32:32:32:32:32 5dBm Nov 17, 2018 02:00:45.038067000 +07
  213 125.155454 32:32:32:32:32:32 2dBm Nov 17, 2018 02:00:45.461045000 +07
  214 125.234296 32:32:32:32:32:32 5dBm Nov 17, 2018 02:00:45.539887000 +07
  215 125.573720 32:32:32:32:32:32 5dBm Nov 17, 2018 02:00:45.879311000 +07
  216 126.732570 32:32:32:32:32:32 6dBm Nov 17, 2018 02:00:47.038161000 +07
  217 129.461514 32:32:32:32:32:32 5dBm Nov 17, 2018 02:00:49.767105000 +07
  218 129.559185 32:32:32:32:32:32 5dBm Nov 17, 2018 02:00:49.864776000 +07
  219 129.592239 32:32:32:32:32:32 4dBm Nov 17, 2018 02:00:49.897830000 +07
  220 129.873434 32:32:32:32:32:32 7dBm Nov 17, 2018 02:00:50.179025000 +07
  221 130.587944 32:32:32:32:32:32 5dBm Nov 17, 2018 02:00:50.893535000 +07
  222 131.075754 32:32:32:32:32:32 3dBm Nov 17, 2018 02:00:51.381345000 +07
  223 131.171405 32:32:32:32:32:32 5dBm Nov 17, 2018 02:00:51.476996000 +07
  224 131.191812 32:32:32:32:32:32 5dBm Nov 17, 2018 02:00:51.497403000 +07
  225 131.210954 32:32:32:32:32:32 6dBm Nov 17, 2018 02:00:51.516545000 +07
  226 131.399484 32:32:32:32:32:32 5dBm Nov 17, 2018 02:00:51.705075000 +07
  227 131.476164 32:32:32:32:32:32 6dBm Nov 17, 2018 02:00:51.781755000 +07
  228 131.563865 32:32:32:32:32:32 7dBm Nov 17, 2018 02:00:51.869456000 +07
  229 131.677523 32:32:32:32:32:32 5dBm Nov 17, 2018 02:00:51.983114000 +07
  230 131.708349 32:32:32:32:32:32 4dBm Nov 17, 2018 02:00:52.013940000 +07
  231 131.996489 32:32:32:32:32:32 4dBm Nov 17, 2018 02:00:52.302080000 +07
  232 132.719781 32:32:32:32:32:32 5dBm Nov 17, 2018 02:00:53.025372000 +07
  233 133.249714 32:32:32:32:32:32 5dBm Nov 17, 2018 02:00:53.555305000 +07
  234 133.461131 32:32:32:32:32:32 6dBm Nov 17, 2018 02:00:53.766722000 +07
  235 134.159180 32:32:32:32:32:32 5dBm Nov 17, 2018 02:00:54.464771000 +07
  236 137.871622 32:32:32:32:32:32 6dBm Nov 17, 2018 02:00:58.177213000 +07
  237 138.006877 32:32:32:32:32:32 4dBm Nov 17, 2018 02:00:58.312468000 +07
  238 138.835055 32:32:32:32:32:32 3dBm Nov 17, 2018 02:00:59.140646000 +07
  239 138.955198 32:32:32:32:32:32 6dBm Nov 17, 2018 02:00:59.260789000 +07
  240 139.781500 32:32:32:32:32:32 5dBm Nov 17, 2018 02:01:00.087091000 +07
  241 140.598467 32:32:32:32:32:32 1dBm Nov 17, 2018 02:01:00.904058000 +07
  242 143.735196 32:32:32:32:32:32 5dBm Nov 17, 2018 02:01:04.040787000 +07
  243 144.960442 32:32:32:32:32:32 3dBm Nov 17, 2018 02:01:05.266033000 +07
  244 145.255660 32:32:32:32:32:32 5dBm Nov 17, 2018 02:01:05.561251000 +07
  245 145.316490 32:32:32:32:32:32 3dBm Nov 17, 2018 02:01:05.622081000 +07
  246 145.412688 32:32:32:32:32:32 7dBm Nov 17, 2018 02:01:05.718279000 +07
  247 145.593885 32:32:32:32:32:32 6dBm Nov 17, 2018 02:01:05.899476000 +07
  248 146.417078 32:32:32:32:32:32 3dBm Nov 17, 2018 02:01:06.722669000 +07
  249 146.656018 32:32:32:32:32:32 4dBm Nov 17, 2018 02:01:06.961609000 +07
  250 147.090034 32:32:32:32:32:32 5dBm Nov 17, 2018 02:01:07.395625000 +07
  251 147.229882 32:32:32:32:32:32 2dBm Nov 17, 2018 02:01:07.535473000 +07
  252 147.253070 32:32:32:32:32:32 5dBm Nov 17, 2018 02:01:07.558661000 +07
  253 147.270567 32:32:32:32:32:32 6dBm Nov 17, 2018 02:01:07.576158000 +07
  254 147.292525 32:32:32:32:32:32 5dBm Nov 17, 2018 02:01:07.598116000 +07
  255 147.434063 32:32:32:32:32:32 7dBm Nov 17, 2018 02:01:07.739654000 +07
  256 147.553622 32:32:32:32:32:32 6dBm Nov 17, 2018 02:01:07.859213000 +07
  257 147.790843 32:32:32:32:32:32 6dBm Nov 17, 2018 02:01:08.096434000 +07
  258 148.166445 32:32:32:32:32:32 6dBm Nov 17, 2018 02:01:08.472036000 +07
  259 148.634376 32:32:32:32:32:32 3dBm Nov 17, 2018 02:01:08.939967000 +07
  260 148.788957 32:32:32:32:32:32 2dBm Nov 17, 2018 02:01:09.094548000 +07
  261 149.083045 32:32:32:32:32:32 5dBm Nov 17, 2018 02:01:09.388636000 +07
  262 149.348058 32:32:32:32:32:32 5dBm Nov 17, 2018 02:01:09.653649000 +07
  263 149.407818 32:32:32:32:32:32 5dBm Nov 17, 2018 02:01:09.713409000 +07
  264 149.425619 32:32:32:32:32:32 5dBm Nov 17, 2018 02:01:09.731210000 +07
  265 149.480003 32:32:32:32:32:32 5dBm Nov 17, 2018 02:01:09.785594000 +07
  266 150.489549 32:32:32:32:32:32 4dBm Nov 17, 2018 02:01:10.795140000 +07
  267 150.716805 32:32:32:32:32:32 7dBm Nov 17, 2018 02:01:11.022396000 +07
  268 150.734375 32:32:32:32:32:32 5dBm Nov 17, 2018 02:01:11.039966000 +07
  269 150.934188 32:32:32:32:32:32 5dBm Nov 17, 2018 02:01:11.239779000 +07
  270 150.990186 32:32:32:32:32:32 4dBm Nov 17, 2018 02:01:11.295777000 +07
  271 151.025551 32:32:32:32:32:32 4dBm Nov 17, 2018 02:01:11.331142000 +07
  272 151.137126 32:32:32:32:32:32 5dBm Nov 17, 2018 02:01:11.442717000 +07
  273 151.398758 32:32:32:32:32:32 6dBm Nov 17, 2018 02:01:11.704349000 +07
  274 151.714400 32:32:32:32:32:32 7dBm Nov 17, 2018 02:01:12.019991000 +07
  275 151.892152 32:32:32:32:32:32 5dBm Nov 17, 2018 02:01:12.197743000 +07
  276 152.739608 32:32:32:32:32:32 4dBm Nov 17, 2018 02:01:13.045199000 +07
  277 152.943439 32:32:32:32:32:32 5dBm Nov 17, 2018 02:01:13.249030000 +07
  278 157.370136 32:32:32:32:32:32 5dBm Nov 17, 2018 02:01:17.675727000 +07
