    1   0.000000 32:32:32:32:32:32 19dBm Nov 17, 2018 01:16:42.644557000 +07
    2   0.122709 32:32:32:32:32:32 20dBm Nov 17, 2018 01:16:42.767266000 +07
    3   0.138574 32:32:32:32:32:32 20dBm Nov 17, 2018 01:16:42.783131000 +07
    4   0.305578 32:32:32:32:32:32 19dBm Nov 17, 2018 01:16:42.950135000 +07
    5   0.327956 32:32:32:32:32:32 20dBm Nov 17, 2018 01:16:42.972513000 +07
    6   0.446694 32:32:32:32:32:32 18dBm Nov 17, 2018 01:16:43.091251000 +07
    7   0.508645 32:32:32:32:32:32 21dBm Nov 17, 2018 01:16:43.153202000 +07
    8   0.547065 32:32:32:32:32:32 18dBm Nov 17, 2018 01:16:43.191622000 +07
    9   0.641184 32:32:32:32:32:32 19dBm Nov 17, 2018 01:16:43.285741000 +07
   10   0.780455 32:32:32:32:32:32 20dBm Nov 17, 2018 01:16:43.425012000 +07
   11   0.857840 32:32:32:32:32:32 19dBm Nov 17, 2018 01:16:43.502397000 +07
   12   1.071750 32:32:32:32:32:32 20dBm Nov 17, 2018 01:16:43.716307000 +07
   13   1.093807 32:32:32:32:32:32 19dBm Nov 17, 2018 01:16:43.738364000 +07
   14   1.224214 32:32:32:32:32:32 19dBm Nov 17, 2018 01:16:43.868771000 +07
   15   1.247504 32:32:32:32:32:32 19dBm Nov 17, 2018 01:16:43.892061000 +07
   16   1.273795 32:32:32:32:32:32 19dBm Nov 17, 2018 01:16:43.918352000 +07
   17   1.290105 32:32:32:32:32:32 20dBm Nov 17, 2018 01:16:43.934662000 +07
   18   1.308095 32:32:32:32:32:32 20dBm Nov 17, 2018 01:16:43.952652000 +07
   19   1.323452 32:32:32:32:32:32 20dBm Nov 17, 2018 01:16:43.968009000 +07
   20   1.538641 32:32:32:32:32:32 20dBm Nov 17, 2018 01:16:44.183198000 +07
   21   1.571796 32:32:32:32:32:32 17dBm Nov 17, 2018 01:16:44.216353000 +07
   22   1.596021 32:32:32:32:32:32 19dBm Nov 17, 2018 01:16:44.240578000 +07
   23   1.653610 32:32:32:32:32:32 18dBm Nov 17, 2018 01:16:44.298167000 +07
   24   1.670518 32:32:32:32:32:32 20dBm Nov 17, 2018 01:16:44.315075000 +07
   25   1.828905 32:32:32:32:32:32 19dBm Nov 17, 2018 01:16:44.473462000 +07
   26   1.931385 32:32:32:32:32:32 20dBm Nov 17, 2018 01:16:44.575942000 +07
   27   1.985848 32:32:32:32:32:32 19dBm Nov 17, 2018 01:16:44.630405000 +07
   28   2.111890 32:32:32:32:32:32 18dBm Nov 17, 2018 01:16:44.756447000 +07
   29   2.175028 32:32:32:32:32:32 19dBm Nov 17, 2018 01:16:44.819585000 +07
   30   2.206141 32:32:32:32:32:32 20dBm Nov 17, 2018 01:16:44.850698000 +07
   31   2.303883 32:32:32:32:32:32 19dBm Nov 17, 2018 01:16:44.948440000 +07
   32   2.608377 32:32:32:32:32:32 17dBm Nov 17, 2018 01:16:45.252934000 +07
   33   2.614858 32:32:32:32:32:32 20dBm Nov 17, 2018 01:16:45.259415000 +07
   34   2.716846 32:32:32:32:32:32 17dBm Nov 17, 2018 01:16:45.361403000 +07
   35   2.754082 32:32:32:32:32:32 19dBm Nov 17, 2018 01:16:45.398639000 +07
   36   3.016850 32:32:32:32:32:32 20dBm Nov 17, 2018 01:16:45.661407000 +07
   37   3.138274 32:32:32:32:32:32 20dBm Nov 17, 2018 01:16:45.782831000 +07
   38   3.280339 32:32:32:32:32:32 19dBm Nov 17, 2018 01:16:45.924896000 +07
   39   3.300128 32:32:32:32:32:32 21dBm Nov 17, 2018 01:16:45.944685000 +07
   40   3.397720 32:32:32:32:32:32 21dBm Nov 17, 2018 01:16:46.042277000 +07
   41   3.471098 32:32:32:32:32:32 18dBm Nov 17, 2018 01:16:46.115655000 +07
   42   3.492828 32:32:32:32:32:32 20dBm Nov 17, 2018 01:16:46.137385000 +07
   43   3.508455 32:32:32:32:32:32 18dBm Nov 17, 2018 01:16:46.153012000 +07
   44   3.525633 32:32:32:32:32:32 19dBm Nov 17, 2018 01:16:46.170190000 +07
   45   3.570070 32:32:32:32:32:32 16dBm Nov 17, 2018 01:16:46.214627000 +07
   46   3.619413 32:32:32:32:32:32 20dBm Nov 17, 2018 01:16:46.263970000 +07
   47   4.083703 32:32:32:32:32:32 21dBm Nov 17, 2018 01:16:46.728260000 +07
   48   4.106792 32:32:32:32:32:32 19dBm Nov 17, 2018 01:16:46.751349000 +07
   49   4.171551 32:32:32:32:32:32 20dBm Nov 17, 2018 01:16:46.816108000 +07
   50   4.386712 32:32:32:32:32:32 19dBm Nov 17, 2018 01:16:47.031269000 +07
   51   4.402749 32:32:32:32:32:32 19dBm Nov 17, 2018 01:16:47.047306000 +07
   52   4.552182 32:32:32:32:32:32 20dBm Nov 17, 2018 01:16:47.196739000 +07
   53   4.592163 32:32:32:32:32:32 20dBm Nov 17, 2018 01:16:47.236720000 +07
   54   4.607669 32:32:32:32:32:32 20dBm Nov 17, 2018 01:16:47.252226000 +07
   55   4.730869 32:32:32:32:32:32 19dBm Nov 17, 2018 01:16:47.375426000 +07
   56   4.960976 32:32:32:32:32:32 20dBm Nov 17, 2018 01:16:47.605533000 +07
   57   4.993387 32:32:32:32:32:32 19dBm Nov 17, 2018 01:16:47.637944000 +07
   58   5.093292 32:32:32:32:32:32 20dBm Nov 17, 2018 01:16:47.737849000 +07
   59   5.484265 32:32:32:32:32:32 19dBm Nov 17, 2018 01:16:48.128822000 +07
   60   5.550627 32:32:32:32:32:32 18dBm Nov 17, 2018 01:16:48.195184000 +07
   61   5.570421 32:32:32:32:32:32 20dBm Nov 17, 2018 01:16:48.214978000 +07
   62   5.588645 32:32:32:32:32:32 20dBm Nov 17, 2018 01:16:48.233202000 +07
   63   5.757552 32:32:32:32:32:32 20dBm Nov 17, 2018 01:16:48.402109000 +07
   64   6.176699 32:32:32:32:32:32 20dBm Nov 17, 2018 01:16:48.821256000 +07
   65   6.247259 32:32:32:32:32:32 18dBm Nov 17, 2018 01:16:48.891816000 +07
   66   6.529744 32:32:32:32:32:32 18dBm Nov 17, 2018 01:16:49.174301000 +07
   67   6.546358 32:32:32:32:32:32 19dBm Nov 17, 2018 01:16:49.190915000 +07
   68   6.755145 32:32:32:32:32:32 20dBm Nov 17, 2018 01:16:49.399702000 +07
   69   6.922017 32:32:32:32:32:32 20dBm Nov 17, 2018 01:16:49.566574000 +07
   70   6.967170 32:32:32:32:32:32 20dBm Nov 17, 2018 01:16:49.611727000 +07
   71   6.985756 32:32:32:32:32:32 20dBm Nov 17, 2018 01:16:49.630313000 +07
   72   7.108962 32:32:32:32:32:32 20dBm Nov 17, 2018 01:16:49.753519000 +07
   73   7.363865 32:32:32:32:32:32 19dBm Nov 17, 2018 01:16:50.008422000 +07
   74   7.427826 32:32:32:32:32:32 21dBm Nov 17, 2018 01:16:50.072383000 +07
   75   7.606573 32:32:32:32:32:32 19dBm Nov 17, 2018 01:16:50.251130000 +07
   76   7.643890 32:32:32:32:32:32 19dBm Nov 17, 2018 01:16:50.288447000 +07
   77   7.664464 32:32:32:32:32:32 18dBm Nov 17, 2018 01:16:50.309021000 +07
   78   7.691029 32:32:32:32:32:32 20dBm Nov 17, 2018 01:16:50.335586000 +07
   79   7.724701 32:32:32:32:32:32 20dBm Nov 17, 2018 01:16:50.369258000 +07
   80   7.829217 32:32:32:32:32:32 20dBm Nov 17, 2018 01:16:50.473774000 +07
   81   7.859769 32:32:32:32:32:32 20dBm Nov 17, 2018 01:16:50.504326000 +07
   82   7.876203 32:32:32:32:32:32 19dBm Nov 17, 2018 01:16:50.520760000 +07
   83   7.896754 32:32:32:32:32:32 16dBm Nov 17, 2018 01:16:50.541311000 +07
   84   7.926345 32:32:32:32:32:32 19dBm Nov 17, 2018 01:16:50.570902000 +07
   85   7.930307 32:32:32:32:32:32 19dBm Nov 17, 2018 01:16:50.574864000 +07
   86   7.990622 32:32:32:32:32:32 20dBm Nov 17, 2018 01:16:50.635179000 +07
   87   8.126891 32:32:32:32:32:32 20dBm Nov 17, 2018 01:16:50.771448000 +07
   88   8.206847 32:32:32:32:32:32 19dBm Nov 17, 2018 01:16:50.851404000 +07
   89   8.245071 32:32:32:32:32:32 20dBm Nov 17, 2018 01:16:50.889628000 +07
   90   8.299782 32:32:32:32:32:32 20dBm Nov 17, 2018 01:16:50.944339000 +07
   91   8.318499 32:32:32:32:32:32 19dBm Nov 17, 2018 01:16:50.963056000 +07
   92   8.382212 32:32:32:32:32:32 19dBm Nov 17, 2018 01:16:51.026769000 +07
   93   8.408345 32:32:32:32:32:32 16dBm Nov 17, 2018 01:16:51.052902000 +07
   94   8.531673 32:32:32:32:32:32 18dBm Nov 17, 2018 01:16:51.176230000 +07
   95   8.745595 32:32:32:32:32:32 18dBm Nov 17, 2018 01:16:51.390152000 +07
   96   8.879267 32:32:32:32:32:32 19dBm Nov 17, 2018 01:16:51.523824000 +07
   97   9.092816 32:32:32:32:32:32 20dBm Nov 17, 2018 01:16:51.737373000 +07
   98   9.124203 32:32:32:32:32:32 20dBm Nov 17, 2018 01:16:51.768760000 +07
   99   9.176490 32:32:32:32:32:32 20dBm Nov 17, 2018 01:16:51.821047000 +07
  100   9.220042 32:32:32:32:32:32 20dBm Nov 17, 2018 01:16:51.864599000 +07
  101   9.504534 32:32:32:32:32:32 20dBm Nov 17, 2018 01:16:52.149091000 +07
  102   9.507354 32:32:32:32:32:32 19dBm Nov 17, 2018 01:16:52.151911000 +07
  103   9.624539 32:32:32:32:32:32 20dBm Nov 17, 2018 01:16:52.269096000 +07
  104   9.787184 32:32:32:32:32:32 20dBm Nov 17, 2018 01:16:52.431741000 +07
  105   9.861680 32:32:32:32:32:32 18dBm Nov 17, 2018 01:16:52.506237000 +07
  106  10.165230 32:32:32:32:32:32 19dBm Nov 17, 2018 01:16:52.809787000 +07
  107  10.183590 32:32:32:32:32:32 20dBm Nov 17, 2018 01:16:52.828147000 +07
  108  10.226762 32:32:32:32:32:32 18dBm Nov 17, 2018 01:16:52.871319000 +07
  109  10.291619 32:32:32:32:32:32 19dBm Nov 17, 2018 01:16:52.936176000 +07
  110  10.428806 32:32:32:32:32:32 19dBm Nov 17, 2018 01:16:53.073363000 +07
  111  10.525035 32:32:32:32:32:32 19dBm Nov 17, 2018 01:16:53.169592000 +07
  112  10.628297 32:32:32:32:32:32 19dBm Nov 17, 2018 01:16:53.272854000 +07
  113  11.051325 32:32:32:32:32:32 19dBm Nov 17, 2018 01:16:53.695882000 +07
  114  11.122156 32:32:32:32:32:32 18dBm Nov 17, 2018 01:16:53.766713000 +07
  115  11.288776 32:32:32:32:32:32 18dBm Nov 17, 2018 01:16:53.933333000 +07
  116  11.427990 32:32:32:32:32:32 18dBm Nov 17, 2018 01:16:54.072547000 +07
  117  11.868128 32:32:32:32:32:32 17dBm Nov 17, 2018 01:16:54.512685000 +07
  118  11.891953 32:32:32:32:32:32 19dBm Nov 17, 2018 01:16:54.536510000 +07
  119  11.970713 32:32:32:32:32:32 18dBm Nov 17, 2018 01:16:54.615270000 +07
  120  12.102379 32:32:32:32:32:32 19dBm Nov 17, 2018 01:16:54.746936000 +07
  121  12.205168 32:32:32:32:32:32 20dBm Nov 17, 2018 01:16:54.849725000 +07
  122  12.252476 32:32:32:32:32:32 17dBm Nov 17, 2018 01:16:54.897033000 +07
  123  12.261539 32:32:32:32:32:32 19dBm Nov 17, 2018 01:16:54.906096000 +07
  124  12.358245 32:32:32:32:32:32 20dBm Nov 17, 2018 01:16:55.002802000 +07
  125  12.419984 32:32:32:32:32:32 17dBm Nov 17, 2018 01:16:55.064541000 +07
  126  12.505427 32:32:32:32:32:32 19dBm Nov 17, 2018 01:16:55.149984000 +07
  127  12.678242 32:32:32:32:32:32 19dBm Nov 17, 2018 01:16:55.322799000 +07
  128  12.728239 32:32:32:32:32:32 19dBm Nov 17, 2018 01:16:55.372796000 +07
  129  12.877559 32:32:32:32:32:32 18dBm Nov 17, 2018 01:16:55.522116000 +07
  130  12.992781 32:32:32:32:32:32 20dBm Nov 17, 2018 01:16:55.637338000 +07
  131  13.278324 32:32:32:32:32:32 20dBm Nov 17, 2018 01:16:55.922881000 +07
  132  13.430787 32:32:32:32:32:32 19dBm Nov 17, 2018 01:16:56.075344000 +07
  133  13.595558 32:32:32:32:32:32 20dBm Nov 17, 2018 01:16:56.240115000 +07
  134  13.680385 32:32:32:32:32:32 17dBm Nov 17, 2018 01:16:56.324942000 +07
  135  13.710964 32:32:32:32:32:32 21dBm Nov 17, 2018 01:16:56.355521000 +07
  136  13.734108 32:32:32:32:32:32 16dBm Nov 17, 2018 01:16:56.378665000 +07
  137  13.746009 32:32:32:32:32:32 20dBm Nov 17, 2018 01:16:56.390566000 +07
  138  13.795687 32:32:32:32:32:32 19dBm Nov 17, 2018 01:16:56.440244000 +07
  139  13.814759 32:32:32:32:32:32 19dBm Nov 17, 2018 01:16:56.459316000 +07
  140  13.882246 32:32:32:32:32:32 19dBm Nov 17, 2018 01:16:56.526803000 +07
  141  13.910913 32:32:32:32:32:32 20dBm Nov 17, 2018 01:16:56.555470000 +07
  142  13.919250 32:32:32:32:32:32 20dBm Nov 17, 2018 01:16:56.563807000 +07
  143  13.984131 32:32:32:32:32:32 17dBm Nov 17, 2018 01:16:56.628688000 +07
  144  14.157543 32:32:32:32:32:32 19dBm Nov 17, 2018 01:16:56.802100000 +07
  145  14.189956 32:32:32:32:32:32 20dBm Nov 17, 2018 01:16:56.834513000 +07
  146  14.207757 32:32:32:32:32:32 20dBm Nov 17, 2018 01:16:56.852314000 +07
  147  14.272182 32:32:32:32:32:32 17dBm Nov 17, 2018 01:16:56.916739000 +07
  148  14.342832 32:32:32:32:32:32 19dBm Nov 17, 2018 01:16:56.987389000 +07
  149  14.465039 32:32:32:32:32:32 18dBm Nov 17, 2018 01:16:57.109596000 +07
  150  14.508076 32:32:32:32:32:32 20dBm Nov 17, 2018 01:16:57.152633000 +07
  151  14.523515 32:32:32:32:32:32 20dBm Nov 17, 2018 01:16:57.168072000 +07
  152  14.541831 32:32:32:32:32:32 20dBm Nov 17, 2018 01:16:57.186388000 +07
  153  14.572233 32:32:32:32:32:32 19dBm Nov 17, 2018 01:16:57.216790000 +07
  154  14.601838 32:32:32:32:32:32 17dBm Nov 17, 2018 01:16:57.246395000 +07
  155  15.022439 32:32:32:32:32:32 19dBm Nov 17, 2018 01:16:57.666996000 +07
  156  15.271355 32:32:32:32:32:32 20dBm Nov 17, 2018 01:16:57.915912000 +07
  157  15.321373 32:32:32:32:32:32 19dBm Nov 17, 2018 01:16:57.965930000 +07
  158  15.333801 32:32:32:32:32:32 19dBm Nov 17, 2018 01:16:57.978358000 +07
  159  15.397017 32:32:32:32:32:32 19dBm Nov 17, 2018 01:16:58.041574000 +07
  160  15.672864 32:32:32:32:32:32 19dBm Nov 17, 2018 01:16:58.317421000 +07
  161  15.767381 32:32:32:32:32:32 20dBm Nov 17, 2018 01:16:58.411938000 +07
  162  15.820668 32:32:32:32:32:32 20dBm Nov 17, 2018 01:16:58.465225000 +07
  163  15.892447 32:32:32:32:32:32 20dBm Nov 17, 2018 01:16:58.537004000 +07
  164  15.913701 32:32:32:32:32:32 20dBm Nov 17, 2018 01:16:58.558258000 +07
  165  16.083004 32:32:32:32:32:32 19dBm Nov 17, 2018 01:16:58.727561000 +07
  166  16.134010 32:32:32:32:32:32 18dBm Nov 17, 2018 01:16:58.778567000 +07
  167  16.194140 32:32:32:32:32:32 20dBm Nov 17, 2018 01:16:58.838697000 +07
  168  16.215915 32:32:32:32:32:32 20dBm Nov 17, 2018 01:16:58.860472000 +07
  169  16.294953 32:32:32:32:32:32 19dBm Nov 17, 2018 01:16:58.939510000 +07
  170  16.398831 32:32:32:32:32:32 19dBm Nov 17, 2018 01:16:59.043388000 +07
  171  16.478553 32:32:32:32:32:32 19dBm Nov 17, 2018 01:16:59.123110000 +07
  172  16.513102 32:32:32:32:32:32 19dBm Nov 17, 2018 01:16:59.157659000 +07
  173  16.707525 32:32:32:32:32:32 20dBm Nov 17, 2018 01:16:59.352082000 +07
  174  17.080619 32:32:32:32:32:32 16dBm Nov 17, 2018 01:16:59.725176000 +07
  175  17.087561 32:32:32:32:32:32 19dBm Nov 17, 2018 01:16:59.732118000 +07
  176  17.113506 32:32:32:32:32:32 19dBm Nov 17, 2018 01:16:59.758063000 +07
  177  17.137034 32:32:32:32:32:32 19dBm Nov 17, 2018 01:16:59.781591000 +07
  178  17.380217 32:32:32:32:32:32 17dBm Nov 17, 2018 01:17:00.024774000 +07
  179  17.408541 32:32:32:32:32:32 20dBm Nov 17, 2018 01:17:00.053098000 +07
  180  17.538798 32:32:32:32:32:32 18dBm Nov 17, 2018 01:17:00.183355000 +07
  181  17.752652 32:32:32:32:32:32 20dBm Nov 17, 2018 01:17:00.397209000 +07
  182  17.774465 32:32:32:32:32:32 19dBm Nov 17, 2018 01:17:00.419022000 +07
  183  17.782550 32:32:32:32:32:32 19dBm Nov 17, 2018 01:17:00.427107000 +07
  184  17.837843 32:32:32:32:32:32 19dBm Nov 17, 2018 01:17:00.482400000 +07
  185  18.163234 32:32:32:32:32:32 20dBm Nov 17, 2018 01:17:00.807791000 +07
  186  18.223789 32:32:32:32:32:32 16dBm Nov 17, 2018 01:17:00.868346000 +07
  187  18.254375 32:32:32:32:32:32 17dBm Nov 17, 2018 01:17:00.898932000 +07
  188  18.340140 32:32:32:32:32:32 19dBm Nov 17, 2018 01:17:00.984697000 +07
  189  18.366892 32:32:32:32:32:32 20dBm Nov 17, 2018 01:17:01.011449000 +07
  190  18.390639 32:32:32:32:32:32 20dBm Nov 17, 2018 01:17:01.035196000 +07
  191  18.392637 32:32:32:32:32:32 18dBm Nov 17, 2018 01:17:01.037194000 +07
  192  18.591809 32:32:32:32:32:32 19dBm Nov 17, 2018 01:17:01.236366000 +07
  193  18.663649 32:32:32:32:32:32 19dBm Nov 17, 2018 01:17:01.308206000 +07
  194  18.701613 32:32:32:32:32:32 20dBm Nov 17, 2018 01:17:01.346170000 +07
  195  18.735112 32:32:32:32:32:32 19dBm Nov 17, 2018 01:17:01.379669000 +07
  196  18.869570 32:32:32:32:32:32 19dBm Nov 17, 2018 01:17:01.514127000 +07
  197  18.937543 32:32:32:32:32:32 17dBm Nov 17, 2018 01:17:01.582100000 +07
  198  19.090460 32:32:32:32:32:32 19dBm Nov 17, 2018 01:17:01.735017000 +07
  199  19.153629 32:32:32:32:32:32 19dBm Nov 17, 2018 01:17:01.798186000 +07
  200  19.231257 32:32:32:32:32:32 19dBm Nov 17, 2018 01:17:01.875814000 +07
  201  19.271469 32:32:32:32:32:32 20dBm Nov 17, 2018 01:17:01.916026000 +07
  202  19.314706 32:32:32:32:32:32 19dBm Nov 17, 2018 01:17:01.959263000 +07
  203  19.544311 32:32:32:32:32:32 19dBm Nov 17, 2018 01:17:02.188868000 +07
  204  19.577120 32:32:32:32:32:32 17dBm Nov 17, 2018 01:17:02.221677000 +07
  205  19.696219 32:32:32:32:32:32 20dBm Nov 17, 2018 01:17:02.340776000 +07
  206  19.827395 32:32:32:32:32:32 19dBm Nov 17, 2018 01:17:02.471952000 +07
  207  19.842779 32:32:32:32:32:32 20dBm Nov 17, 2018 01:17:02.487336000 +07
  208  19.862665 32:32:32:32:32:32 19dBm Nov 17, 2018 01:17:02.507222000 +07
  209  19.888364 32:32:32:32:32:32 18dBm Nov 17, 2018 01:17:02.532921000 +07
  210  19.905113 32:32:32:32:32:32 19dBm Nov 17, 2018 01:17:02.549670000 +07
  211  20.143969 32:32:32:32:32:32 18dBm Nov 17, 2018 01:17:02.788526000 +07
  212  20.217494 32:32:32:32:32:32 18dBm Nov 17, 2018 01:17:02.862051000 +07
  213  20.289446 32:32:32:32:32:32 19dBm Nov 17, 2018 01:17:02.934003000 +07
  214  20.438285 32:32:32:32:32:32 19dBm Nov 17, 2018 01:17:03.082842000 +07
  215  20.479577 32:32:32:32:32:32 20dBm Nov 17, 2018 01:17:03.124134000 +07
  216  20.505286 32:32:32:32:32:32 20dBm Nov 17, 2018 01:17:03.149843000 +07
  217  20.536791 32:32:32:32:32:32 20dBm Nov 17, 2018 01:17:03.181348000 +07
  218  20.745738 32:32:32:32:32:32 19dBm Nov 17, 2018 01:17:03.390295000 +07
  219  20.941501 32:32:32:32:32:32 21dBm Nov 17, 2018 01:17:03.586058000 +07
  220  20.959698 32:32:32:32:32:32 20dBm Nov 17, 2018 01:17:03.604255000 +07
  221  20.974814 32:32:32:32:32:32 21dBm Nov 17, 2018 01:17:03.619371000 +07
  222  21.311195 32:32:32:32:32:32 20dBm Nov 17, 2018 01:17:03.955752000 +07
  223  21.343138 32:32:32:32:32:32 21dBm Nov 17, 2018 01:17:03.987695000 +07
  224  21.588584 32:32:32:32:32:32 18dBm Nov 17, 2018 01:17:04.233141000 +07
  225  21.625416 32:32:32:32:32:32 19dBm Nov 17, 2018 01:17:04.269973000 +07
  226  21.670562 32:32:32:32:32:32 19dBm Nov 17, 2018 01:17:04.315119000 +07
  227  21.729856 32:32:32:32:32:32 20dBm Nov 17, 2018 01:17:04.374413000 +07
  228  21.798025 32:32:32:32:32:32 18dBm Nov 17, 2018 01:17:04.442582000 +07
  229  21.864749 32:32:32:32:32:32 20dBm Nov 17, 2018 01:17:04.509306000 +07
  230  21.910258 32:32:32:32:32:32 18dBm Nov 17, 2018 01:17:04.554815000 +07
  231  21.928559 32:32:32:32:32:32 19dBm Nov 17, 2018 01:17:04.573116000 +07
  232  22.023871 32:32:32:32:32:32 19dBm Nov 17, 2018 01:17:04.668428000 +07
  233  22.067554 32:32:32:32:32:32 19dBm Nov 17, 2018 01:17:04.712111000 +07
  234  22.095493 32:32:32:32:32:32 18dBm Nov 17, 2018 01:17:04.740050000 +07
  235  22.128266 32:32:32:32:32:32 19dBm Nov 17, 2018 01:17:04.772823000 +07
  236  22.301197 32:32:32:32:32:32 19dBm Nov 17, 2018 01:17:04.945754000 +07
  237  22.426053 32:32:32:32:32:32 18dBm Nov 17, 2018 01:17:05.070610000 +07
  238  22.490359 32:32:32:32:32:32 17dBm Nov 17, 2018 01:17:05.134916000 +07
  239  22.535725 32:32:32:32:32:32 19dBm Nov 17, 2018 01:17:05.180282000 +07
  240  22.663563 32:32:32:32:32:32 19dBm Nov 17, 2018 01:17:05.308120000 +07
  241  22.820335 32:32:32:32:32:32 20dBm Nov 17, 2018 01:17:05.464892000 +07
  242  22.881153 32:32:32:32:32:32 18dBm Nov 17, 2018 01:17:05.525710000 +07
  243  23.375425 32:32:32:32:32:32 18dBm Nov 17, 2018 01:17:06.019982000 +07
  244  23.500744 32:32:32:32:32:32 19dBm Nov 17, 2018 01:17:06.145301000 +07
  245  23.672072 32:32:32:32:32:32 19dBm Nov 17, 2018 01:17:06.316629000 +07
  246  23.774657 32:32:32:32:32:32 19dBm Nov 17, 2018 01:17:06.419214000 +07
  247  23.956995 32:32:32:32:32:32 17dBm Nov 17, 2018 01:17:06.601552000 +07
  248  24.245261 32:32:32:32:32:32 20dBm Nov 17, 2018 01:17:06.889818000 +07
  249  24.284958 32:32:32:32:32:32 21dBm Nov 17, 2018 01:17:06.929515000 +07
  250  24.327859 32:32:32:32:32:32 17dBm Nov 17, 2018 01:17:06.972416000 +07
  251  24.343208 32:32:32:32:32:32 17dBm Nov 17, 2018 01:17:06.987765000 +07
  252  24.371077 32:32:32:32:32:32 19dBm Nov 17, 2018 01:17:07.015634000 +07
  253  24.401917 32:32:32:32:32:32 19dBm Nov 17, 2018 01:17:07.046474000 +07
  254  24.491961 32:32:32:32:32:32 19dBm Nov 17, 2018 01:17:07.136518000 +07
  255  24.731791 32:32:32:32:32:32 21dBm Nov 17, 2018 01:17:07.376348000 +07
  256  24.822820 32:32:32:32:32:32 18dBm Nov 17, 2018 01:17:07.467377000 +07
  257  24.942085 32:32:32:32:32:32 20dBm Nov 17, 2018 01:17:07.586642000 +07
  258  24.995178 32:32:32:32:32:32 20dBm Nov 17, 2018 01:17:07.639735000 +07
  259  25.267444 32:32:32:32:32:32 19dBm Nov 17, 2018 01:17:07.912001000 +07
  260  25.322048 32:32:32:32:32:32 20dBm Nov 17, 2018 01:17:07.966605000 +07
  261  25.737729 32:32:32:32:32:32 19dBm Nov 17, 2018 01:17:08.382286000 +07
  262  25.791531 32:32:32:32:32:32 20dBm Nov 17, 2018 01:17:08.436088000 +07
  263  25.945213 32:32:32:32:32:32 20dBm Nov 17, 2018 01:17:08.589770000 +07
  264  25.968371 32:32:32:32:32:32 19dBm Nov 17, 2018 01:17:08.612928000 +07
  265  25.973459 32:32:32:32:32:32 18dBm Nov 17, 2018 01:17:08.618016000 +07
  266  26.097851 32:32:32:32:32:32 19dBm Nov 17, 2018 01:17:08.742408000 +07
  267  26.205619 32:32:32:32:32:32 19dBm Nov 17, 2018 01:17:08.850176000 +07
  268  26.235780 32:32:32:32:32:32 18dBm Nov 17, 2018 01:17:08.880337000 +07
  269  26.330404 32:32:32:32:32:32 18dBm Nov 17, 2018 01:17:08.974961000 +07
  270  26.392006 32:32:32:32:32:32 21dBm Nov 17, 2018 01:17:09.036563000 +07
  271  26.426446 32:32:32:32:32:32 19dBm Nov 17, 2018 01:17:09.071003000 +07
  272  26.470136 32:32:32:32:32:32 19dBm Nov 17, 2018 01:17:09.114693000 +07
  273  26.690488 32:32:32:32:32:32 20dBm Nov 17, 2018 01:17:09.335045000 +07
  274  26.869771 32:32:32:32:32:32 18dBm Nov 17, 2018 01:17:09.514328000 +07
  275  27.024001 32:32:32:32:32:32 19dBm Nov 17, 2018 01:17:09.668558000 +07
  276  27.111549 32:32:32:32:32:32 20dBm Nov 17, 2018 01:17:09.756106000 +07
  277  27.132709 32:32:32:32:32:32 19dBm Nov 17, 2018 01:17:09.777266000 +07
  278  27.134656 32:32:32:32:32:32 19dBm Nov 17, 2018 01:17:09.779213000 +07
  279  27.156648 32:32:32:32:32:32 20dBm Nov 17, 2018 01:17:09.801205000 +07
  280  27.174265 32:32:32:32:32:32 19dBm Nov 17, 2018 01:17:09.818822000 +07
  281  27.255985 32:32:32:32:32:32 17dBm Nov 17, 2018 01:17:09.900542000 +07
  282  27.276836 32:32:32:32:32:32 17dBm Nov 17, 2018 01:17:09.921393000 +07
  283  27.321668 32:32:32:32:32:32 20dBm Nov 17, 2018 01:17:09.966225000 +07
  284  27.376261 32:32:32:32:32:32 17dBm Nov 17, 2018 01:17:10.020818000 +07
  285  27.389503 32:32:32:32:32:32 19dBm Nov 17, 2018 01:17:10.034060000 +07
  286  27.470155 32:32:32:32:32:32 18dBm Nov 17, 2018 01:17:10.114712000 +07
  287  27.485461 32:32:32:32:32:32 20dBm Nov 17, 2018 01:17:10.130018000 +07
  288  27.504620 32:32:32:32:32:32 20dBm Nov 17, 2018 01:17:10.149177000 +07
  289  27.537514 32:32:32:32:32:32 21dBm Nov 17, 2018 01:17:10.182071000 +07
  290  27.579633 32:32:32:32:32:32 19dBm Nov 17, 2018 01:17:10.224190000 +07
  291  27.700623 32:32:32:32:32:32 19dBm Nov 17, 2018 01:17:10.345180000 +07
  292  27.887998 32:32:32:32:32:32 19dBm Nov 17, 2018 01:17:10.532555000 +07
  293  27.995788 32:32:32:32:32:32 19dBm Nov 17, 2018 01:17:10.640345000 +07
  294  28.219854 32:32:32:32:32:32 19dBm Nov 17, 2018 01:17:10.864411000 +07
  295  28.243564 32:32:32:32:32:32 19dBm Nov 17, 2018 01:17:10.888121000 +07
  296  28.321034 32:32:32:32:32:32 19dBm Nov 17, 2018 01:17:10.965591000 +07
  297  28.359390 32:32:32:32:32:32 19dBm Nov 17, 2018 01:17:11.003947000 +07
  298  28.457417 32:32:32:32:32:32 19dBm Nov 17, 2018 01:17:11.101974000 +07
  299  28.505408 32:32:32:32:32:32 15dBm Nov 17, 2018 01:17:11.149965000 +07
  300  28.621420 32:32:32:32:32:32 19dBm Nov 17, 2018 01:17:11.265977000 +07
  301  28.829319 32:32:32:32:32:32 20dBm Nov 17, 2018 01:17:11.473876000 +07
  302  28.906736 32:32:32:32:32:32 18dBm Nov 17, 2018 01:17:11.551293000 +07
  303  28.925954 32:32:32:32:32:32 19dBm Nov 17, 2018 01:17:11.570511000 +07
  304  29.496658 32:32:32:32:32:32 20dBm Nov 17, 2018 01:17:12.141215000 +07
  305  29.543143 32:32:32:32:32:32 16dBm Nov 17, 2018 01:17:12.187700000 +07
  306  29.687730 32:32:32:32:32:32 19dBm Nov 17, 2018 01:17:12.332287000 +07
  307  29.791902 32:32:32:32:32:32 19dBm Nov 17, 2018 01:17:12.436459000 +07
  308  30.090714 32:32:32:32:32:32 20dBm Nov 17, 2018 01:17:12.735271000 +07
  309  30.134703 32:32:32:32:32:32 21dBm Nov 17, 2018 01:17:12.779260000 +07
  310  30.256902 32:32:32:32:32:32 20dBm Nov 17, 2018 01:17:12.901459000 +07
  311  30.304986 32:32:32:32:32:32 20dBm Nov 17, 2018 01:17:12.949543000 +07
  312  30.337838 32:32:32:32:32:32 20dBm Nov 17, 2018 01:17:12.982395000 +07
  313  30.355813 32:32:32:32:32:32 20dBm Nov 17, 2018 01:17:13.000370000 +07
  314  30.527628 32:32:32:32:32:32 19dBm Nov 17, 2018 01:17:13.172185000 +07
  315  30.586982 32:32:32:32:32:32 18dBm Nov 17, 2018 01:17:13.231539000 +07
  316  30.624661 32:32:32:32:32:32 19dBm Nov 17, 2018 01:17:13.269218000 +07
  317  30.650261 32:32:32:32:32:32 20dBm Nov 17, 2018 01:17:13.294818000 +07
  318  30.668657 32:32:32:32:32:32 17dBm Nov 17, 2018 01:17:13.313214000 +07
  319  30.720830 32:32:32:32:32:32 19dBm Nov 17, 2018 01:17:13.365387000 +07
  320  30.755825 32:32:32:32:32:32 18dBm Nov 17, 2018 01:17:13.400382000 +07
  321  30.828746 32:32:32:32:32:32 20dBm Nov 17, 2018 01:17:13.473303000 +07
  322  30.961518 32:32:32:32:32:32 20dBm Nov 17, 2018 01:17:13.606075000 +07
  323  31.028059 32:32:32:32:32:32 18dBm Nov 17, 2018 01:17:13.672616000 +07
  324  31.211489 32:32:32:32:32:32 18dBm Nov 17, 2018 01:17:13.856046000 +07
  325  31.321781 32:32:32:32:32:32 18dBm Nov 17, 2018 01:17:13.966338000 +07
  326  31.345376 32:32:32:32:32:32 20dBm Nov 17, 2018 01:17:13.989933000 +07
  327  31.390964 32:32:32:32:32:32 20dBm Nov 17, 2018 01:17:14.035521000 +07
  328  31.422244 32:32:32:32:32:32 18dBm Nov 17, 2018 01:17:14.066801000 +07
  329  31.427910 32:32:32:32:32:32 21dBm Nov 17, 2018 01:17:14.072467000 +07
  330  31.438966 32:32:32:32:32:32 18dBm Nov 17, 2018 01:17:14.083523000 +07
  331  31.484933 32:32:32:32:32:32 18dBm Nov 17, 2018 01:17:14.129490000 +07
  332  31.750062 32:32:32:32:32:32 19dBm Nov 17, 2018 01:17:14.394619000 +07
  333  31.811431 32:32:32:32:32:32 20dBm Nov 17, 2018 01:17:14.455988000 +07
  334  31.856933 32:32:32:32:32:32 18dBm Nov 17, 2018 01:17:14.501490000 +07
  335  32.076234 32:32:32:32:32:32 19dBm Nov 17, 2018 01:17:14.720791000 +07
  336  32.346759 32:32:32:32:32:32 18dBm Nov 17, 2018 01:17:14.991316000 +07
  337  32.361692 32:32:32:32:32:32 20dBm Nov 17, 2018 01:17:15.006249000 +07
  338  32.372604 32:32:32:32:32:32 19dBm Nov 17, 2018 01:17:15.017161000 +07
  339  32.429047 32:32:32:32:32:32 18dBm Nov 17, 2018 01:17:15.073604000 +07
  340  32.513253 32:32:32:32:32:32 19dBm Nov 17, 2018 01:17:15.157810000 +07
  341  32.558904 32:32:32:32:32:32 19dBm Nov 17, 2018 01:17:15.203461000 +07
  342  32.610190 32:32:32:32:32:32 19dBm Nov 17, 2018 01:17:15.254747000 +07
  343  32.621029 32:32:32:32:32:32 19dBm Nov 17, 2018 01:17:15.265586000 +07
  344  32.667129 32:32:32:32:32:32 19dBm Nov 17, 2018 01:17:15.311686000 +07
  345  32.681877 32:32:32:32:32:32 18dBm Nov 17, 2018 01:17:15.326434000 +07
  346  32.867520 32:32:32:32:32:32 21dBm Nov 17, 2018 01:17:15.512077000 +07
  347  33.058303 32:32:32:32:32:32 20dBm Nov 17, 2018 01:17:15.702860000 +07
  348  33.222886 32:32:32:32:32:32 19dBm Nov 17, 2018 01:17:15.867443000 +07
  349  33.257364 32:32:32:32:32:32 21dBm Nov 17, 2018 01:17:15.901921000 +07
  350  33.280616 32:32:32:32:32:32 19dBm Nov 17, 2018 01:17:15.925173000 +07
  351  33.377140 32:32:32:32:32:32 16dBm Nov 17, 2018 01:17:16.021697000 +07
  352  33.514193 32:32:32:32:32:32 18dBm Nov 17, 2018 01:17:16.158750000 +07
  353  33.529944 32:32:32:32:32:32 19dBm Nov 17, 2018 01:17:16.174501000 +07
  354  33.581463 32:32:32:32:32:32 19dBm Nov 17, 2018 01:17:16.226020000 +07
  355  33.673295 32:32:32:32:32:32 19dBm Nov 17, 2018 01:17:16.317852000 +07
  356  33.785817 32:32:32:32:32:32 21dBm Nov 17, 2018 01:17:16.430374000 +07
  357  33.857098 32:32:32:32:32:32 20dBm Nov 17, 2018 01:17:16.501655000 +07
  358  34.045730 32:32:32:32:32:32 17dBm Nov 17, 2018 01:17:16.690287000 +07
  359  34.134951 32:32:32:32:32:32 19dBm Nov 17, 2018 01:17:16.779508000 +07
  360  34.159858 32:32:32:32:32:32 19dBm Nov 17, 2018 01:17:16.804415000 +07
  361  34.207180 32:32:32:32:32:32 17dBm Nov 17, 2018 01:17:16.851737000 +07
  362  34.504992 32:32:32:32:32:32 17dBm Nov 17, 2018 01:17:17.149549000 +07
  363  34.524120 32:32:32:32:32:32 19dBm Nov 17, 2018 01:17:17.168677000 +07
  364  34.538266 32:32:32:32:32:32 19dBm Nov 17, 2018 01:17:17.182823000 +07
  365  34.586138 32:32:32:32:32:32 19dBm Nov 17, 2018 01:17:17.230695000 +07
  366  34.663387 32:32:32:32:32:32 18dBm Nov 17, 2018 01:17:17.307944000 +07
  367  34.709127 32:32:32:32:32:32 19dBm Nov 17, 2018 01:17:17.353684000 +07
  368  34.743836 32:32:32:32:32:32 19dBm Nov 17, 2018 01:17:17.388393000 +07
  369  34.760409 32:32:32:32:32:32 17dBm Nov 17, 2018 01:17:17.404966000 +07
  370  34.884898 32:32:32:32:32:32 17dBm Nov 17, 2018 01:17:17.529455000 +07
  371  34.929146 32:32:32:32:32:32 18dBm Nov 17, 2018 01:17:17.573703000 +07
  372  35.005767 32:32:32:32:32:32 18dBm Nov 17, 2018 01:17:17.650324000 +07
  373  35.054794 32:32:32:32:32:32 19dBm Nov 17, 2018 01:17:17.699351000 +07
  374  35.093990 32:32:32:32:32:32 15dBm Nov 17, 2018 01:17:17.738547000 +07
  375  35.113662 32:32:32:32:32:32 18dBm Nov 17, 2018 01:17:17.758219000 +07
  376  35.146459 32:32:32:32:32:32 18dBm Nov 17, 2018 01:17:17.791016000 +07
  377  35.262437 32:32:32:32:32:32 20dBm Nov 17, 2018 01:17:17.906994000 +07
  378  35.306418 32:32:32:32:32:32 20dBm Nov 17, 2018 01:17:17.950975000 +07
  379  35.322595 32:32:32:32:32:32 17dBm Nov 17, 2018 01:17:17.967152000 +07
  380  35.356467 32:32:32:32:32:32 18dBm Nov 17, 2018 01:17:18.001024000 +07
  381  35.453263 32:32:32:32:32:32 20dBm Nov 17, 2018 01:17:18.097820000 +07
  382  35.525085 32:32:32:32:32:32 19dBm Nov 17, 2018 01:17:18.169642000 +07
  383  35.656812 32:32:32:32:32:32 20dBm Nov 17, 2018 01:17:18.301369000 +07
  384  35.785744 32:32:32:32:32:32 20dBm Nov 17, 2018 01:17:18.430301000 +07
  385  35.993033 32:32:32:32:32:32 19dBm Nov 17, 2018 01:17:18.637590000 +07
  386  36.040491 32:32:32:32:32:32 20dBm Nov 17, 2018 01:17:18.685048000 +07
  387  36.095764 32:32:32:32:32:32 20dBm Nov 17, 2018 01:17:18.740321000 +07
  388  36.123585 32:32:32:32:32:32 18dBm Nov 17, 2018 01:17:18.768142000 +07
  389  36.192681 32:32:32:32:32:32 19dBm Nov 17, 2018 01:17:18.837238000 +07
  390  36.219374 32:32:32:32:32:32 18dBm Nov 17, 2018 01:17:18.863931000 +07
  391  36.235975 32:32:32:32:32:32 20dBm Nov 17, 2018 01:17:18.880532000 +07
  392  36.324080 32:32:32:32:32:32 20dBm Nov 17, 2018 01:17:18.968637000 +07
  393  36.825290 32:32:32:32:32:32 18dBm Nov 17, 2018 01:17:19.469847000 +07
  394  36.920426 32:32:32:32:32:32 19dBm Nov 17, 2018 01:17:19.564983000 +07
  395  37.087182 32:32:32:32:32:32 20dBm Nov 17, 2018 01:17:19.731739000 +07
  396  37.139973 32:32:32:32:32:32 18dBm Nov 17, 2018 01:17:19.784530000 +07
  397  37.141846 32:32:32:32:32:32 18dBm Nov 17, 2018 01:17:19.786403000 +07
  398  37.156037 32:32:32:32:32:32 18dBm Nov 17, 2018 01:17:19.800594000 +07
  399  37.324733 32:32:32:32:32:32 19dBm Nov 17, 2018 01:17:19.969290000 +07
  400  37.641803 32:32:32:32:32:32 20dBm Nov 17, 2018 01:17:20.286360000 +07
  401  37.718275 32:32:32:32:32:32 18dBm Nov 17, 2018 01:17:20.362832000 +07
  402  37.950809 32:32:32:32:32:32 18dBm Nov 17, 2018 01:17:20.595366000 +07
  403  38.089713 32:32:32:32:32:32 19dBm Nov 17, 2018 01:17:20.734270000 +07
  404  38.301623 32:32:32:32:32:32 19dBm Nov 17, 2018 01:17:20.946180000 +07
  405  38.364459 32:32:32:32:32:32 19dBm Nov 17, 2018 01:17:21.009016000 +07
  406  38.372611 32:32:32:32:32:32 17dBm Nov 17, 2018 01:17:21.017168000 +07
  407  38.459470 32:32:32:32:32:32 20dBm Nov 17, 2018 01:17:21.104027000 +07
  408  38.499940 32:32:32:32:32:32 17dBm Nov 17, 2018 01:17:21.144497000 +07
  409  38.538067 32:32:32:32:32:32 17dBm Nov 17, 2018 01:17:21.182624000 +07
  410  38.566879 32:32:32:32:32:32 19dBm Nov 17, 2018 01:17:21.211436000 +07
  411  38.619913 32:32:32:32:32:32 18dBm Nov 17, 2018 01:17:21.264470000 +07
  412  38.638443 32:32:32:32:32:32 20dBm Nov 17, 2018 01:17:21.283000000 +07
  413  38.659571 32:32:32:32:32:32 18dBm Nov 17, 2018 01:17:21.304128000 +07
  414  38.698305 32:32:32:32:32:32 18dBm Nov 17, 2018 01:17:21.342862000 +07
  415  38.737817 32:32:32:32:32:32 18dBm Nov 17, 2018 01:17:21.382374000 +07
  416  38.955678 32:32:32:32:32:32 20dBm Nov 17, 2018 01:17:21.600235000 +07
  417  39.003140 32:32:32:32:32:32 17dBm Nov 17, 2018 01:17:21.647697000 +07
  418  39.019142 32:32:32:32:32:32 20dBm Nov 17, 2018 01:17:21.663699000 +07
  419  39.098787 32:32:32:32:32:32 19dBm Nov 17, 2018 01:17:21.743344000 +07
  420  39.171354 32:32:32:32:32:32 19dBm Nov 17, 2018 01:17:21.815911000 +07
  421  39.205026 32:32:32:32:32:32 20dBm Nov 17, 2018 01:17:21.849583000 +07
  422  39.330986 32:32:32:32:32:32 20dBm Nov 17, 2018 01:17:21.975543000 +07
  423  39.734037 32:32:32:32:32:32 19dBm Nov 17, 2018 01:17:22.378594000 +07
  424  39.830536 32:32:32:32:32:32 19dBm Nov 17, 2018 01:17:22.475093000 +07
  425  39.856410 32:32:32:32:32:32 20dBm Nov 17, 2018 01:17:22.500967000 +07
  426  39.995547 32:32:32:32:32:32 20dBm Nov 17, 2018 01:17:22.640104000 +07
  427  40.027079 32:32:32:32:32:32 19dBm Nov 17, 2018 01:17:22.671636000 +07
  428  40.060547 32:32:32:32:32:32 18dBm Nov 17, 2018 01:17:22.705104000 +07
  429  40.093961 32:32:32:32:32:32 17dBm Nov 17, 2018 01:17:22.738518000 +07
  430  40.345069 32:32:32:32:32:32 19dBm Nov 17, 2018 01:17:22.989626000 +07
  431  40.359550 32:32:32:32:32:32 20dBm Nov 17, 2018 01:17:23.004107000 +07
  432  40.430704 32:32:32:32:32:32 20dBm Nov 17, 2018 01:17:23.075261000 +07
  433  40.531136 32:32:32:32:32:32 17dBm Nov 17, 2018 01:17:23.175693000 +07
  434  40.578188 32:32:32:32:32:32 20dBm Nov 17, 2018 01:17:23.222745000 +07
  435  40.664060 32:32:32:32:32:32 20dBm Nov 17, 2018 01:17:23.308617000 +07
  436  40.830971 32:32:32:32:32:32 20dBm Nov 17, 2018 01:17:23.475528000 +07
  437  40.865432 32:32:32:32:32:32 19dBm Nov 17, 2018 01:17:23.509989000 +07
  438  40.903487 32:32:32:32:32:32 19dBm Nov 17, 2018 01:17:23.548044000 +07
  439  40.938105 32:32:32:32:32:32 20dBm Nov 17, 2018 01:17:23.582662000 +07
  440  41.003215 32:32:32:32:32:32 19dBm Nov 17, 2018 01:17:23.647772000 +07
  441  41.085035 32:32:32:32:32:32 19dBm Nov 17, 2018 01:17:23.729592000 +07
  442  41.103798 32:32:32:32:32:32 18dBm Nov 17, 2018 01:17:23.748355000 +07
  443  41.213244 32:32:32:32:32:32 20dBm Nov 17, 2018 01:17:23.857801000 +07
  444  41.508631 32:32:32:32:32:32 18dBm Nov 17, 2018 01:17:24.153188000 +07
  445  41.666985 32:32:32:32:32:32 21dBm Nov 17, 2018 01:17:24.311542000 +07
  446  41.679484 32:32:32:32:32:32 20dBm Nov 17, 2018 01:17:24.324041000 +07
  447  41.858533 32:32:32:32:32:32 17dBm Nov 17, 2018 01:17:24.503090000 +07
  448  41.905323 32:32:32:32:32:32 18dBm Nov 17, 2018 01:17:24.549880000 +07
  449  42.001114 32:32:32:32:32:32 19dBm Nov 17, 2018 01:17:24.645671000 +07
  450  42.049284 32:32:32:32:32:32 18dBm Nov 17, 2018 01:17:24.693841000 +07
  451  42.077847 32:32:32:32:32:32 20dBm Nov 17, 2018 01:17:24.722404000 +07
  452  42.093387 32:32:32:32:32:32 19dBm Nov 17, 2018 01:17:24.737944000 +07
  453  42.188592 32:32:32:32:32:32 20dBm Nov 17, 2018 01:17:24.833149000 +07
  454  42.211578 32:32:32:32:32:32 19dBm Nov 17, 2018 01:17:24.856135000 +07
  455  42.387624 32:32:32:32:32:32 18dBm Nov 17, 2018 01:17:25.032181000 +07
  456  42.520558 32:32:32:32:32:32 19dBm Nov 17, 2018 01:17:25.165115000 +07
  457  42.580466 32:32:32:32:32:32 18dBm Nov 17, 2018 01:17:25.225023000 +07
  458  42.622165 32:32:32:32:32:32 18dBm Nov 17, 2018 01:17:25.266722000 +07
  459  42.722997 32:32:32:32:32:32 19dBm Nov 17, 2018 01:17:25.367554000 +07
  460  42.786842 32:32:32:32:32:32 18dBm Nov 17, 2018 01:17:25.431399000 +07
  461  42.806545 32:32:32:32:32:32 19dBm Nov 17, 2018 01:17:25.451102000 +07
  462  42.934393 32:32:32:32:32:32 19dBm Nov 17, 2018 01:17:25.578950000 +07
  463  42.985173 32:32:32:32:32:32 20dBm Nov 17, 2018 01:17:25.629730000 +07
  464  43.234246 32:32:32:32:32:32 18dBm Nov 17, 2018 01:17:25.878803000 +07
  465  43.248576 32:32:32:32:32:32 20dBm Nov 17, 2018 01:17:25.893133000 +07
  466  43.372300 32:32:32:32:32:32 17dBm Nov 17, 2018 01:17:26.016857000 +07
  467  43.403168 32:32:32:32:32:32 19dBm Nov 17, 2018 01:17:26.047725000 +07
  468  43.671902 32:32:32:32:32:32 20dBm Nov 17, 2018 01:17:26.316459000 +07
  469  43.891882 32:32:32:32:32:32 19dBm Nov 17, 2018 01:17:26.536439000 +07
  470  43.997989 32:32:32:32:32:32 19dBm Nov 17, 2018 01:17:26.642546000 +07
  471  44.007182 32:32:32:32:32:32 20dBm Nov 17, 2018 01:17:26.651739000 +07
  472  44.067359 32:32:32:32:32:32 19dBm Nov 17, 2018 01:17:26.711916000 +07
  473  44.374183 32:32:32:32:32:32 19dBm Nov 17, 2018 01:17:27.018740000 +07
  474  44.405148 32:32:32:32:32:32 20dBm Nov 17, 2018 01:17:27.049705000 +07
  475  44.715711 32:32:32:32:32:32 19dBm Nov 17, 2018 01:17:27.360268000 +07
  476  44.731064 32:32:32:32:32:32 20dBm Nov 17, 2018 01:17:27.375621000 +07
  477  44.773575 32:32:32:32:32:32 19dBm Nov 17, 2018 01:17:27.418132000 +07
  478  44.799161 32:32:32:32:32:32 20dBm Nov 17, 2018 01:17:27.443718000 +07
  479  44.810709 32:32:32:32:32:32 19dBm Nov 17, 2018 01:17:27.455266000 +07
  480  44.912456 32:32:32:32:32:32 19dBm Nov 17, 2018 01:17:27.557013000 +07
  481  44.947618 32:32:32:32:32:32 19dBm Nov 17, 2018 01:17:27.592175000 +07
  482  45.130337 32:32:32:32:32:32 20dBm Nov 17, 2018 01:17:27.774894000 +07
  483  45.179255 32:32:32:32:32:32 20dBm Nov 17, 2018 01:17:27.823812000 +07
  484  45.515969 32:32:32:32:32:32 19dBm Nov 17, 2018 01:17:28.160526000 +07
  485  45.549790 32:32:32:32:32:32 19dBm Nov 17, 2018 01:17:28.194347000 +07
  486  45.737379 32:32:32:32:32:32 19dBm Nov 17, 2018 01:17:28.381936000 +07
  487  45.811672 32:32:32:32:32:32 18dBm Nov 17, 2018 01:17:28.456229000 +07
  488  45.851495 32:32:32:32:32:32 20dBm Nov 17, 2018 01:17:28.496052000 +07
  489  45.974324 32:32:32:32:32:32 19dBm Nov 17, 2018 01:17:28.618881000 +07
  490  46.005559 32:32:32:32:32:32 19dBm Nov 17, 2018 01:17:28.650116000 +07
  491  46.178202 32:32:32:32:32:32 18dBm Nov 17, 2018 01:17:28.822759000 +07
  492  46.274328 32:32:32:32:32:32 20dBm Nov 17, 2018 01:17:28.918885000 +07
  493  46.296445 32:32:32:32:32:32 20dBm Nov 17, 2018 01:17:28.941002000 +07
  494  46.344051 32:32:32:32:32:32 19dBm Nov 17, 2018 01:17:28.988608000 +07
  495  46.472070 32:32:32:32:32:32 19dBm Nov 17, 2018 01:17:29.116627000 +07
  496  46.491105 32:32:32:32:32:32 20dBm Nov 17, 2018 01:17:29.135662000 +07
  497  46.568577 32:32:32:32:32:32 18dBm Nov 17, 2018 01:17:29.213134000 +07
  498  46.597236 32:32:32:32:32:32 19dBm Nov 17, 2018 01:17:29.241793000 +07
  499  46.692683 32:32:32:32:32:32 20dBm Nov 17, 2018 01:17:29.337240000 +07
  500  46.786267 32:32:32:32:32:32 18dBm Nov 17, 2018 01:17:29.430824000 +07
  501  46.809271 32:32:32:32:32:32 19dBm Nov 17, 2018 01:17:29.453828000 +07
  502  46.820918 32:32:32:32:32:32 19dBm Nov 17, 2018 01:17:29.465475000 +07
  503  46.838142 32:32:32:32:32:32 19dBm Nov 17, 2018 01:17:29.482699000 +07
  504  46.989060 32:32:32:32:32:32 20dBm Nov 17, 2018 01:17:29.633617000 +07
  505  47.205933 32:32:32:32:32:32 18dBm Nov 17, 2018 01:17:29.850490000 +07
  506  47.432899 32:32:32:32:32:32 18dBm Nov 17, 2018 01:17:30.077456000 +07
  507  47.550494 32:32:32:32:32:32 20dBm Nov 17, 2018 01:17:30.195051000 +07
  508  47.652849 32:32:32:32:32:32 19dBm Nov 17, 2018 01:17:30.297406000 +07
  509  47.788387 32:32:32:32:32:32 20dBm Nov 17, 2018 01:17:30.432944000 +07
  510  48.066842 32:32:32:32:32:32 21dBm Nov 17, 2018 01:17:30.711399000 +07
  511  48.155758 32:32:32:32:32:32 19dBm Nov 17, 2018 01:17:30.800315000 +07
  512  48.221831 32:32:32:32:32:32 19dBm Nov 17, 2018 01:17:30.866388000 +07
  513  48.366905 32:32:32:32:32:32 20dBm Nov 17, 2018 01:17:31.011462000 +07
  514  48.416314 32:32:32:32:32:32 19dBm Nov 17, 2018 01:17:31.060871000 +07
  515  48.556918 32:32:32:32:32:32 20dBm Nov 17, 2018 01:17:31.201475000 +07
  516  48.752090 32:32:32:32:32:32 19dBm Nov 17, 2018 01:17:31.396647000 +07
  517  48.766689 32:32:32:32:32:32 18dBm Nov 17, 2018 01:17:31.411246000 +07
  518  49.037782 32:32:32:32:32:32 20dBm Nov 17, 2018 01:17:31.682339000 +07
  519  49.064895 32:32:32:32:32:32 18dBm Nov 17, 2018 01:17:31.709452000 +07
  520  49.241244 32:32:32:32:32:32 20dBm Nov 17, 2018 01:17:31.885801000 +07
  521  49.397830 32:32:32:32:32:32 16dBm Nov 17, 2018 01:17:32.042387000 +07
  522  49.449179 32:32:32:32:32:32 19dBm Nov 17, 2018 01:17:32.093736000 +07
  523  49.475796 32:32:32:32:32:32 19dBm Nov 17, 2018 01:17:32.120353000 +07
  524  49.536126 32:32:32:32:32:32 17dBm Nov 17, 2018 01:17:32.180683000 +07
  525  49.606708 32:32:32:32:32:32 19dBm Nov 17, 2018 01:17:32.251265000 +07
  526  49.731196 32:32:32:32:32:32 18dBm Nov 17, 2018 01:17:32.375753000 +07
  527  49.956972 32:32:32:32:32:32 19dBm Nov 17, 2018 01:17:32.601529000 +07
  528  50.091602 32:32:32:32:32:32 17dBm Nov 17, 2018 01:17:32.736159000 +07
  529  50.180516 32:32:32:32:32:32 19dBm Nov 17, 2018 01:17:32.825073000 +07
  530  50.306349 32:32:32:32:32:32 20dBm Nov 17, 2018 01:17:32.950906000 +07
  531  50.396088 32:32:32:32:32:32 19dBm Nov 17, 2018 01:17:33.040645000 +07
  532  50.584837 32:32:32:32:32:32 19dBm Nov 17, 2018 01:17:33.229394000 +07
  533  50.748517 32:32:32:32:32:32 18dBm Nov 17, 2018 01:17:33.393074000 +07
  534  50.880632 32:32:32:32:32:32 20dBm Nov 17, 2018 01:17:33.525189000 +07
  535  50.911412 32:32:32:32:32:32 20dBm Nov 17, 2018 01:17:33.555969000 +07
  536  50.926546 32:32:32:32:32:32 18dBm Nov 17, 2018 01:17:33.571103000 +07
  537  50.990225 32:32:32:32:32:32 20dBm Nov 17, 2018 01:17:33.634782000 +07
  538  51.074686 32:32:32:32:32:32 20dBm Nov 17, 2018 01:17:33.719243000 +07
  539  51.289985 32:32:32:32:32:32 18dBm Nov 17, 2018 01:17:33.934542000 +07
  540  51.453382 32:32:32:32:32:32 18dBm Nov 17, 2018 01:17:34.097939000 +07
  541  51.506788 32:32:32:32:32:32 19dBm Nov 17, 2018 01:17:34.151345000 +07
  542  51.534243 32:32:32:32:32:32 19dBm Nov 17, 2018 01:17:34.178800000 +07
  543  51.574300 32:32:32:32:32:32 19dBm Nov 17, 2018 01:17:34.218857000 +07
  544  51.619991 32:32:32:32:32:32 19dBm Nov 17, 2018 01:17:34.264548000 +07
  545  51.750506 32:32:32:32:32:32 20dBm Nov 17, 2018 01:17:34.395063000 +07
  546  51.765274 32:32:32:32:32:32 18dBm Nov 17, 2018 01:17:34.409831000 +07
  547  51.789167 32:32:32:32:32:32 19dBm Nov 17, 2018 01:17:34.433724000 +07
  548  51.892909 32:32:32:32:32:32 18dBm Nov 17, 2018 01:17:34.537466000 +07
  549  51.912039 32:32:32:32:32:32 20dBm Nov 17, 2018 01:17:34.556596000 +07
  550  51.940950 32:32:32:32:32:32 20dBm Nov 17, 2018 01:17:34.585507000 +07
  551  52.079417 32:32:32:32:32:32 19dBm Nov 17, 2018 01:17:34.723974000 +07
  552  52.155144 32:32:32:32:32:32 19dBm Nov 17, 2018 01:17:34.799701000 +07
  553  52.317234 32:32:32:32:32:32 18dBm Nov 17, 2018 01:17:34.961791000 +07
  554  52.442757 32:32:32:32:32:32 18dBm Nov 17, 2018 01:17:35.087314000 +07
  555  52.469938 32:32:32:32:32:32 17dBm Nov 17, 2018 01:17:35.114495000 +07
  556  52.514031 32:32:32:32:32:32 19dBm Nov 17, 2018 01:17:35.158588000 +07
  557  52.651436 32:32:32:32:32:32 19dBm Nov 17, 2018 01:17:35.295993000 +07
  558  52.919391 32:32:32:32:32:32 19dBm Nov 17, 2018 01:17:35.563948000 +07
  559  53.123334 32:32:32:32:32:32 18dBm Nov 17, 2018 01:17:35.767891000 +07
  560  53.207845 32:32:32:32:32:32 18dBm Nov 17, 2018 01:17:35.852402000 +07
  561  53.228078 32:32:32:32:32:32 17dBm Nov 17, 2018 01:17:35.872635000 +07
  562  53.249920 32:32:32:32:32:32 19dBm Nov 17, 2018 01:17:35.894477000 +07
  563  53.483280 32:32:32:32:32:32 19dBm Nov 17, 2018 01:17:36.127837000 +07
  564  53.576656 32:32:32:32:32:32 20dBm Nov 17, 2018 01:17:36.221213000 +07
  565  53.894720 32:32:32:32:32:32 20dBm Nov 17, 2018 01:17:36.539277000 +07
  566  53.946703 32:32:32:32:32:32 20dBm Nov 17, 2018 01:17:36.591260000 +07
  567  54.002431 32:32:32:32:32:32 18dBm Nov 17, 2018 01:17:36.646988000 +07
  568  54.220938 32:32:32:32:32:32 19dBm Nov 17, 2018 01:17:36.865495000 +07
  569  54.297531 32:32:32:32:32:32 19dBm Nov 17, 2018 01:17:36.942088000 +07
  570  54.428169 32:32:32:32:32:32 19dBm Nov 17, 2018 01:17:37.072726000 +07
  571  54.874149 32:32:32:32:32:32 21dBm Nov 17, 2018 01:17:37.518706000 +07
  572  54.910685 32:32:32:32:32:32 19dBm Nov 17, 2018 01:17:37.555242000 +07
  573  54.971447 32:32:32:32:32:32 21dBm Nov 17, 2018 01:17:37.616004000 +07
  574  54.977776 32:32:32:32:32:32 20dBm Nov 17, 2018 01:17:37.622333000 +07
  575  55.138760 32:32:32:32:32:32 16dBm Nov 17, 2018 01:17:37.783317000 +07
  576  55.180181 32:32:32:32:32:32 20dBm Nov 17, 2018 01:17:37.824738000 +07
  577  55.183836 32:32:32:32:32:32 19dBm Nov 17, 2018 01:17:37.828393000 +07
  578  55.487861 32:32:32:32:32:32 20dBm Nov 17, 2018 01:17:38.132418000 +07
  579  55.670303 32:32:32:32:32:32 20dBm Nov 17, 2018 01:17:38.314860000 +07
  580  55.813155 32:32:32:32:32:32 18dBm Nov 17, 2018 01:17:38.457712000 +07
  581  55.836321 32:32:32:32:32:32 19dBm Nov 17, 2018 01:17:38.480878000 +07
  582  55.850320 32:32:32:32:32:32 18dBm Nov 17, 2018 01:17:38.494877000 +07
  583  56.017880 32:32:32:32:32:32 18dBm Nov 17, 2018 01:17:38.662437000 +07
  584  56.313189 32:32:32:32:32:32 18dBm Nov 17, 2018 01:17:38.957746000 +07
  585  56.542840 32:32:32:32:32:32 18dBm Nov 17, 2018 01:17:39.187397000 +07
  586  56.558194 32:32:32:32:32:32 16dBm Nov 17, 2018 01:17:39.202751000 +07
  587  56.841332 32:32:32:32:32:32 18dBm Nov 17, 2018 01:17:39.485889000 +07
  588  56.922422 32:32:32:32:32:32 20dBm Nov 17, 2018 01:17:39.566979000 +07
  589  56.966330 32:32:32:32:32:32 19dBm Nov 17, 2018 01:17:39.610887000 +07
  590  56.996695 32:32:32:32:32:32 19dBm Nov 17, 2018 01:17:39.641252000 +07
  591  57.190544 32:32:32:32:32:32 19dBm Nov 17, 2018 01:17:39.835101000 +07
  592  57.271946 32:32:32:32:32:32 19dBm Nov 17, 2018 01:17:39.916503000 +07
  593  57.469846 32:32:32:32:32:32 19dBm Nov 17, 2018 01:17:40.114403000 +07
  594  57.487050 32:32:32:32:32:32 19dBm Nov 17, 2018 01:17:40.131607000 +07
  595  57.497136 32:32:32:32:32:32 18dBm Nov 17, 2018 01:17:40.141693000 +07
  596  57.617552 32:32:32:32:32:32 17dBm Nov 17, 2018 01:17:40.262109000 +07
  597  57.766757 32:32:32:32:32:32 19dBm Nov 17, 2018 01:17:40.411314000 +07
  598  57.785970 32:32:32:32:32:32 18dBm Nov 17, 2018 01:17:40.430527000 +07
  599  57.803188 32:32:32:32:32:32 19dBm Nov 17, 2018 01:17:40.447745000 +07
  600  58.012181 32:32:32:32:32:32 21dBm Nov 17, 2018 01:17:40.656738000 +07
  601  58.057302 32:32:32:32:32:32 18dBm Nov 17, 2018 01:17:40.701859000 +07
  602  58.072631 32:32:32:32:32:32 19dBm Nov 17, 2018 01:17:40.717188000 +07
  603  58.205938 32:32:32:32:32:32 20dBm Nov 17, 2018 01:17:40.850495000 +07
  604  58.268685 32:32:32:32:32:32 20dBm Nov 17, 2018 01:17:40.913242000 +07
  605  58.407094 32:32:32:32:32:32 19dBm Nov 17, 2018 01:17:41.051651000 +07
  606  58.427490 32:32:32:32:32:32 19dBm Nov 17, 2018 01:17:41.072047000 +07
  607  58.540012 32:32:32:32:32:32 20dBm Nov 17, 2018 01:17:41.184569000 +07
  608  58.565672 32:32:32:32:32:32 17dBm Nov 17, 2018 01:17:41.210229000 +07
  609  58.623609 32:32:32:32:32:32 19dBm Nov 17, 2018 01:17:41.268166000 +07
  610  58.691004 32:32:32:32:32:32 19dBm Nov 17, 2018 01:17:41.335561000 +07
  611  58.833903 32:32:32:32:32:32 18dBm Nov 17, 2018 01:17:41.478460000 +07
  612  58.849309 32:32:32:32:32:32 19dBm Nov 17, 2018 01:17:41.493866000 +07
  613  58.876653 32:32:32:32:32:32 18dBm Nov 17, 2018 01:17:41.521210000 +07
  614  58.993321 32:32:32:32:32:32 19dBm Nov 17, 2018 01:17:41.637878000 +07
  615  59.017998 32:32:32:32:32:32 20dBm Nov 17, 2018 01:17:41.662555000 +07
  616  59.117043 32:32:32:32:32:32 18dBm Nov 17, 2018 01:17:41.761600000 +07
  617  59.170472 32:32:32:32:32:32 20dBm Nov 17, 2018 01:17:41.815029000 +07
  618  59.268467 32:32:32:32:32:32 17dBm Nov 17, 2018 01:17:41.913024000 +07
  619  59.292542 32:32:32:32:32:32 19dBm Nov 17, 2018 01:17:41.937099000 +07
  620  59.325490 32:32:32:32:32:32 20dBm Nov 17, 2018 01:17:41.970047000 +07
  621  59.427793 32:32:32:32:32:32 20dBm Nov 17, 2018 01:17:42.072350000 +07
  622  59.525960 32:32:32:32:32:32 18dBm Nov 17, 2018 01:17:42.170517000 +07
  623  59.544355 32:32:32:32:32:32 17dBm Nov 17, 2018 01:17:42.188912000 +07
  624  59.560077 32:32:32:32:32:32 20dBm Nov 17, 2018 01:17:42.204634000 +07
  625  59.656504 32:32:32:32:32:32 20dBm Nov 17, 2018 01:17:42.301061000 +07
  626  59.699900 32:32:32:32:32:32 19dBm Nov 17, 2018 01:17:42.344457000 +07
  627  59.727449 32:32:32:32:32:32 20dBm Nov 17, 2018 01:17:42.372006000 +07
  628  59.747398 32:32:32:32:32:32 20dBm Nov 17, 2018 01:17:42.391955000 +07
  629  59.749165 32:32:32:32:32:32 18dBm Nov 17, 2018 01:17:42.393722000 +07
  630  59.923392 32:32:32:32:32:32 17dBm Nov 17, 2018 01:17:42.567949000 +07
  631  59.941790 32:32:32:32:32:32 19dBm Nov 17, 2018 01:17:42.586347000 +07
  632  59.969662 32:32:32:32:32:32 18dBm Nov 17, 2018 01:17:42.614219000 +07
  633  59.983134 32:32:32:32:32:32 18dBm Nov 17, 2018 01:17:42.627691000 +07
  634  60.022216 32:32:32:32:32:32 19dBm Nov 17, 2018 01:17:42.666773000 +07
  635  60.079161 32:32:32:32:32:32 21dBm Nov 17, 2018 01:17:42.723718000 +07
  636  60.128575 32:32:32:32:32:32 19dBm Nov 17, 2018 01:17:42.773132000 +07
  637  60.268988 32:32:32:32:32:32 20dBm Nov 17, 2018 01:17:42.913545000 +07
  638  60.359928 32:32:32:32:32:32 18dBm Nov 17, 2018 01:17:43.004485000 +07
  639  60.386099 32:32:32:32:32:32 18dBm Nov 17, 2018 01:17:43.030656000 +07
  640  60.465284 32:32:32:32:32:32 20dBm Nov 17, 2018 01:17:43.109841000 +07
  641  60.657630 32:32:32:32:32:32 19dBm Nov 17, 2018 01:17:43.302187000 +07
  642  60.659636 32:32:32:32:32:32 19dBm Nov 17, 2018 01:17:43.304193000 +07
  643  60.714255 32:32:32:32:32:32 18dBm Nov 17, 2018 01:17:43.358812000 +07
  644  60.845430 32:32:32:32:32:32 19dBm Nov 17, 2018 01:17:43.489987000 +07
  645  61.201580 32:32:32:32:32:32 19dBm Nov 17, 2018 01:17:43.846137000 +07
  646  61.239758 32:32:32:32:32:32 19dBm Nov 17, 2018 01:17:43.884315000 +07
  647  61.295285 32:32:32:32:32:32 18dBm Nov 17, 2018 01:17:43.939842000 +07
  648  61.325852 32:32:32:32:32:32 19dBm Nov 17, 2018 01:17:43.970409000 +07
  649  61.424476 32:32:32:32:32:32 20dBm Nov 17, 2018 01:17:44.069033000 +07
