    1   0.000000 32:32:32:32:32:32 12dBm Nov 17, 2018 02:14:51.146982000 +07
    2   0.034831 32:32:32:32:32:32 9dBm Nov 17, 2018 02:14:51.181813000 +07
    3   0.111447 32:32:32:32:32:32 11dBm Nov 17, 2018 02:14:51.258429000 +07
    4   0.147528 32:32:32:32:32:32 8dBm Nov 17, 2018 02:14:51.294510000 +07
    5   0.242425 32:32:32:32:32:32 9dBm Nov 17, 2018 02:14:51.389407000 +07
    6   0.260461 32:32:32:32:32:32 9dBm Nov 17, 2018 02:14:51.407443000 +07
    7   0.408577 32:32:32:32:32:32 10dBm Nov 17, 2018 02:14:51.555559000 +07
    8   0.539603 32:32:32:32:32:32 8dBm Nov 17, 2018 02:14:51.686585000 +07
    9   0.569074 32:32:32:32:32:32 9dBm Nov 17, 2018 02:14:51.716056000 +07
   10   0.757792 32:32:32:32:32:32 8dBm Nov 17, 2018 02:14:51.904774000 +07
   11   0.820551 32:32:32:32:32:32 8dBm Nov 17, 2018 02:14:51.967533000 +07
   12   0.935211 32:32:32:32:32:32 10dBm Nov 17, 2018 02:14:52.082193000 +07
   13   0.965997 32:32:32:32:32:32 8dBm Nov 17, 2018 02:14:52.112979000 +07
   14   0.993678 32:32:32:32:32:32 11dBm Nov 17, 2018 02:14:52.140660000 +07
   15   1.052713 32:32:32:32:32:32 9dBm Nov 17, 2018 02:14:52.199695000 +07
   16   1.081763 32:32:32:32:32:32 10dBm Nov 17, 2018 02:14:52.228745000 +07
   17   1.157212 32:32:32:32:32:32 9dBm Nov 17, 2018 02:14:52.304194000 +07
   18   1.359429 32:32:32:32:32:32 10dBm Nov 17, 2018 02:14:52.506411000 +07
   19   1.710920 32:32:32:32:32:32 8dBm Nov 17, 2018 02:14:52.857902000 +07
   20   1.809514 32:32:32:32:32:32 9dBm Nov 17, 2018 02:14:52.956496000 +07
   21   2.052177 32:32:32:32:32:32 8dBm Nov 17, 2018 02:14:53.199159000 +07
   22   2.081567 32:32:32:32:32:32 7dBm Nov 17, 2018 02:14:53.228549000 +07
   23   2.113426 32:32:32:32:32:32 11dBm Nov 17, 2018 02:14:53.260408000 +07
   24   2.295913 32:32:32:32:32:32 8dBm Nov 17, 2018 02:14:53.442895000 +07
   25   2.433326 32:32:32:32:32:32 8dBm Nov 17, 2018 02:14:53.580308000 +07
   26   2.468553 32:32:32:32:32:32 10dBm Nov 17, 2018 02:14:53.615535000 +07
   27   2.490773 32:32:32:32:32:32 8dBm Nov 17, 2018 02:14:53.637755000 +07
   28   2.746580 32:32:32:32:32:32 8dBm Nov 17, 2018 02:14:53.893562000 +07
   29   2.897342 32:32:32:32:32:32 8dBm Nov 17, 2018 02:14:54.044324000 +07
   30   2.917607 32:32:32:32:32:32 9dBm Nov 17, 2018 02:14:54.064589000 +07
   31   2.965344 32:32:32:32:32:32 9dBm Nov 17, 2018 02:14:54.112326000 +07
   32   2.994214 32:32:32:32:32:32 10dBm Nov 17, 2018 02:14:54.141196000 +07
   33   3.032363 32:32:32:32:32:32 7dBm Nov 17, 2018 02:14:54.179345000 +07
   34   3.153917 32:32:32:32:32:32 6dBm Nov 17, 2018 02:14:54.300899000 +07
   35   3.177057 32:32:32:32:32:32 10dBm Nov 17, 2018 02:14:54.324039000 +07
   36   3.322561 32:32:32:32:32:32 6dBm Nov 17, 2018 02:14:54.469543000 +07
   37   3.396381 32:32:32:32:32:32 8dBm Nov 17, 2018 02:14:54.543363000 +07
   38   3.418814 32:32:32:32:32:32 7dBm Nov 17, 2018 02:14:54.565796000 +07
   39   3.481614 32:32:32:32:32:32 8dBm Nov 17, 2018 02:14:54.628596000 +07
   40   3.497369 32:32:32:32:32:32 6dBm Nov 17, 2018 02:14:54.644351000 +07
   41   3.711221 32:32:32:32:32:32 8dBm Nov 17, 2018 02:14:54.858203000 +07
   42   3.757119 32:32:32:32:32:32 9dBm Nov 17, 2018 02:14:54.904101000 +07
   43   4.104191 32:32:32:32:32:32 10dBm Nov 17, 2018 02:14:55.251173000 +07
   44   4.179401 32:32:32:32:32:32 10dBm Nov 17, 2018 02:14:55.326383000 +07
   45   4.199471 32:32:32:32:32:32 9dBm Nov 17, 2018 02:14:55.346453000 +07
   46   4.215976 32:32:32:32:32:32 10dBm Nov 17, 2018 02:14:55.362958000 +07
   47   4.235520 32:32:32:32:32:32 10dBm Nov 17, 2018 02:14:55.382502000 +07
   48   4.279203 32:32:32:32:32:32 10dBm Nov 17, 2018 02:14:55.426185000 +07
   49   4.307313 32:32:32:32:32:32 9dBm Nov 17, 2018 02:14:55.454295000 +07
   50   4.324249 32:32:32:32:32:32 9dBm Nov 17, 2018 02:14:55.471231000 +07
   51   4.440233 32:32:32:32:32:32 9dBm Nov 17, 2018 02:14:55.587215000 +07
   52   4.513251 32:32:32:32:32:32 9dBm Nov 17, 2018 02:14:55.660233000 +07
   53   4.781008 32:32:32:32:32:32 7dBm Nov 17, 2018 02:14:55.927990000 +07
   54   4.818002 32:32:32:32:32:32 7dBm Nov 17, 2018 02:14:55.964984000 +07
   55   4.839928 32:32:32:32:32:32 7dBm Nov 17, 2018 02:14:55.986910000 +07
   56   4.963447 32:32:32:32:32:32 6dBm Nov 17, 2018 02:14:56.110429000 +07
   57   5.007943 32:32:32:32:32:32 10dBm Nov 17, 2018 02:14:56.154925000 +07
   58   5.095349 32:32:32:32:32:32 9dBm Nov 17, 2018 02:14:56.242331000 +07
   59   5.230994 32:32:32:32:32:32 10dBm Nov 17, 2018 02:14:56.377976000 +07
   60   5.248836 32:32:32:32:32:32 10dBm Nov 17, 2018 02:14:56.395818000 +07
   61   5.382682 32:32:32:32:32:32 8dBm Nov 17, 2018 02:14:56.529664000 +07
   62   5.539109 32:32:32:32:32:32 9dBm Nov 17, 2018 02:14:56.686091000 +07
   63   5.596535 32:32:32:32:32:32 9dBm Nov 17, 2018 02:14:56.743517000 +07
   64   5.629597 32:32:32:32:32:32 9dBm Nov 17, 2018 02:14:56.776579000 +07
   65   5.743051 32:32:32:32:32:32 11dBm Nov 17, 2018 02:14:56.890033000 +07
   66   5.750971 32:32:32:32:32:32 10dBm Nov 17, 2018 02:14:56.897953000 +07
   67   5.773781 32:32:32:32:32:32 9dBm Nov 17, 2018 02:14:56.920763000 +07
   68   5.840487 32:32:32:32:32:32 11dBm Nov 17, 2018 02:14:56.987469000 +07
   69   5.958822 32:32:32:32:32:32 9dBm Nov 17, 2018 02:14:57.105804000 +07
   70   5.997521 32:32:32:32:32:32 10dBm Nov 17, 2018 02:14:57.144503000 +07
   71   6.054743 32:32:32:32:32:32 11dBm Nov 17, 2018 02:14:57.201725000 +07
   72   6.118256 32:32:32:32:32:32 6dBm Nov 17, 2018 02:14:57.265238000 +07
   73   6.141247 32:32:32:32:32:32 9dBm Nov 17, 2018 02:14:57.288229000 +07
   74   6.363584 32:32:32:32:32:32 7dBm Nov 17, 2018 02:14:57.510566000 +07
   75   6.395303 32:32:32:32:32:32 10dBm Nov 17, 2018 02:14:57.542285000 +07
   76   6.437354 32:32:32:32:32:32 9dBm Nov 17, 2018 02:14:57.584336000 +07
   77   6.761876 32:32:32:32:32:32 9dBm Nov 17, 2018 02:14:57.908858000 +07
   78   6.902871 32:32:32:32:32:32 8dBm Nov 17, 2018 02:14:58.049853000 +07
   79   6.927148 32:32:32:32:32:32 10dBm Nov 17, 2018 02:14:58.074130000 +07
   80   6.967372 32:32:32:32:32:32 10dBm Nov 17, 2018 02:14:58.114354000 +07
   81   6.998135 32:32:32:32:32:32 10dBm Nov 17, 2018 02:14:58.145117000 +07
   82   7.494806 32:32:32:32:32:32 9dBm Nov 17, 2018 02:14:58.641788000 +07
   83   7.641464 32:32:32:32:32:32 11dBm Nov 17, 2018 02:14:58.788446000 +07
   84   7.771230 32:32:32:32:32:32 10dBm Nov 17, 2018 02:14:58.918212000 +07
   85   7.773286 32:32:32:32:32:32 10dBm Nov 17, 2018 02:14:58.920268000 +07
   86   7.943596 32:32:32:32:32:32 10dBm Nov 17, 2018 02:14:59.090578000 +07
   87   8.008755 32:32:32:32:32:32 9dBm Nov 17, 2018 02:14:59.155737000 +07
   88   8.097121 32:32:32:32:32:32 8dBm Nov 17, 2018 02:14:59.244103000 +07
   89   8.146449 32:32:32:32:32:32 9dBm Nov 17, 2018 02:14:59.293431000 +07
   90   8.159987 32:32:32:32:32:32 7dBm Nov 17, 2018 02:14:59.306969000 +07
   91   8.214301 32:32:32:32:32:32 9dBm Nov 17, 2018 02:14:59.361283000 +07
   92   8.305607 32:32:32:32:32:32 10dBm Nov 17, 2018 02:14:59.452589000 +07
   93   8.362415 32:32:32:32:32:32 9dBm Nov 17, 2018 02:14:59.509397000 +07
   94   8.421264 32:32:32:32:32:32 10dBm Nov 17, 2018 02:14:59.568246000 +07
   95   8.477525 32:32:32:32:32:32 10dBm Nov 17, 2018 02:14:59.624507000 +07
   96   8.496918 32:32:32:32:32:32 10dBm Nov 17, 2018 02:14:59.643900000 +07
   97   8.627409 32:32:32:32:32:32 7dBm Nov 17, 2018 02:14:59.774391000 +07
   98   8.692306 32:32:32:32:32:32 9dBm Nov 17, 2018 02:14:59.839288000 +07
   99   8.906411 32:32:32:32:32:32 10dBm Nov 17, 2018 02:15:00.053393000 +07
  100   8.949540 32:32:32:32:32:32 8dBm Nov 17, 2018 02:15:00.096522000 +07
  101   9.061012 32:32:32:32:32:32 10dBm Nov 17, 2018 02:15:00.207994000 +07
  102   9.132996 32:32:32:32:32:32 9dBm Nov 17, 2018 02:15:00.279978000 +07
  103   9.285010 32:32:32:32:32:32 9dBm Nov 17, 2018 02:15:00.431992000 +07
  104   9.477458 32:32:32:32:32:32 8dBm Nov 17, 2018 02:15:00.624440000 +07
  105   9.541160 32:32:32:32:32:32 8dBm Nov 17, 2018 02:15:00.688142000 +07
  106   9.563299 32:32:32:32:32:32 8dBm Nov 17, 2018 02:15:00.710281000 +07
  107  10.019018 32:32:32:32:32:32 10dBm Nov 17, 2018 02:15:01.166000000 +07
  108  10.047347 32:32:32:32:32:32 10dBm Nov 17, 2018 02:15:01.194329000 +07
  109  10.338614 32:32:32:32:32:32 9dBm Nov 17, 2018 02:15:01.485596000 +07
  110  10.558565 32:32:32:32:32:32 10dBm Nov 17, 2018 02:15:01.705547000 +07
  111  10.611159 32:32:32:32:32:32 10dBm Nov 17, 2018 02:15:01.758141000 +07
  112  10.643361 32:32:32:32:32:32 9dBm Nov 17, 2018 02:15:01.790343000 +07
  113  10.684358 32:32:32:32:32:32 9dBm Nov 17, 2018 02:15:01.831340000 +07
  114  10.964317 32:32:32:32:32:32 9dBm Nov 17, 2018 02:15:02.111299000 +07
  115  11.016870 32:32:32:32:32:32 9dBm Nov 17, 2018 02:15:02.163852000 +07
  116  11.052773 32:32:32:32:32:32 8dBm Nov 17, 2018 02:15:02.199755000 +07
  117  11.071468 32:32:32:32:32:32 9dBm Nov 17, 2018 02:15:02.218450000 +07
  118  11.085404 32:32:32:32:32:32 10dBm Nov 17, 2018 02:15:02.232386000 +07
  119  11.103257 32:32:32:32:32:32 10dBm Nov 17, 2018 02:15:02.250239000 +07
  120  11.116122 32:32:32:32:32:32 10dBm Nov 17, 2018 02:15:02.263104000 +07
  121  11.167671 32:32:32:32:32:32 9dBm Nov 17, 2018 02:15:02.314653000 +07
  122  11.203726 32:32:32:32:32:32 9dBm Nov 17, 2018 02:15:02.350708000 +07
  123  11.220983 32:32:32:32:32:32 8dBm Nov 17, 2018 02:15:02.367965000 +07
  124  11.389477 32:32:32:32:32:32 11dBm Nov 17, 2018 02:15:02.536459000 +07
  125  11.440997 32:32:32:32:32:32 11dBm Nov 17, 2018 02:15:02.587979000 +07
  126  11.639321 32:32:32:32:32:32 10dBm Nov 17, 2018 02:15:02.786303000 +07
  127  11.886613 32:32:32:32:32:32 9dBm Nov 17, 2018 02:15:03.033595000 +07
  128  11.902325 32:32:32:32:32:32 10dBm Nov 17, 2018 02:15:03.049307000 +07
  129  11.922288 32:32:32:32:32:32 10dBm Nov 17, 2018 02:15:03.069270000 +07
  130  12.146863 32:32:32:32:32:32 9dBm Nov 17, 2018 02:15:03.293845000 +07
  131  12.263123 32:32:32:32:32:32 10dBm Nov 17, 2018 02:15:03.410105000 +07
  132  12.305042 32:32:32:32:32:32 10dBm Nov 17, 2018 02:15:03.452024000 +07
  133  12.325075 32:32:32:32:32:32 9dBm Nov 17, 2018 02:15:03.472057000 +07
  134  12.426405 32:32:32:32:32:32 11dBm Nov 17, 2018 02:15:03.573387000 +07
  135  12.461765 32:32:32:32:32:32 10dBm Nov 17, 2018 02:15:03.608747000 +07
  136  12.483727 32:32:32:32:32:32 10dBm Nov 17, 2018 02:15:03.630709000 +07
  137  12.577033 32:32:32:32:32:32 9dBm Nov 17, 2018 02:15:03.724015000 +07
  138  12.605080 32:32:32:32:32:32 7dBm Nov 17, 2018 02:15:03.752062000 +07
  139  12.654831 32:32:32:32:32:32 8dBm Nov 17, 2018 02:15:03.801813000 +07
  140  12.678811 32:32:32:32:32:32 8dBm Nov 17, 2018 02:15:03.825793000 +07
  141  12.799157 32:32:32:32:32:32 10dBm Nov 17, 2018 02:15:03.946139000 +07
  142  12.883348 32:32:32:32:32:32 9dBm Nov 17, 2018 02:15:04.030330000 +07
  143  12.964309 32:32:32:32:32:32 7dBm Nov 17, 2018 02:15:04.111291000 +07
  144  13.201770 32:32:32:32:32:32 9dBm Nov 17, 2018 02:15:04.348752000 +07
  145  13.238330 32:32:32:32:32:32 9dBm Nov 17, 2018 02:15:04.385312000 +07
  146  13.286948 32:32:32:32:32:32 8dBm Nov 17, 2018 02:15:04.433930000 +07
  147  13.400083 32:32:32:32:32:32 10dBm Nov 17, 2018 02:15:04.547065000 +07
  148  13.431253 32:32:32:32:32:32 10dBm Nov 17, 2018 02:15:04.578235000 +07
  149  13.442499 32:32:32:32:32:32 10dBm Nov 17, 2018 02:15:04.589481000 +07
  150  13.463809 32:32:32:32:32:32 10dBm Nov 17, 2018 02:15:04.610791000 +07
  151  13.544635 32:32:32:32:32:32 10dBm Nov 17, 2018 02:15:04.691617000 +07
  152  13.605118 32:32:32:32:32:32 11dBm Nov 17, 2018 02:15:04.752100000 +07
  153  13.622279 32:32:32:32:32:32 10dBm Nov 17, 2018 02:15:04.769261000 +07
  154  13.707346 32:32:32:32:32:32 11dBm Nov 17, 2018 02:15:04.854328000 +07
  155  13.787405 32:32:32:32:32:32 8dBm Nov 17, 2018 02:15:04.934387000 +07
  156  13.820211 32:32:32:32:32:32 9dBm Nov 17, 2018 02:15:04.967193000 +07
  157  13.910325 32:32:32:32:32:32 9dBm Nov 17, 2018 02:15:05.057307000 +07
  158  14.056626 32:32:32:32:32:32 11dBm Nov 17, 2018 02:15:05.203608000 +07
  159  14.170126 32:32:32:32:32:32 10dBm Nov 17, 2018 02:15:05.317108000 +07
  160  14.188970 32:32:32:32:32:32 10dBm Nov 17, 2018 02:15:05.335952000 +07
  161  14.214643 32:32:32:32:32:32 11dBm Nov 17, 2018 02:15:05.361625000 +07
  162  14.422202 32:32:32:32:32:32 9dBm Nov 17, 2018 02:15:05.569184000 +07
  163  14.589749 32:32:32:32:32:32 8dBm Nov 17, 2018 02:15:05.736731000 +07
  164  14.608260 32:32:32:32:32:32 10dBm Nov 17, 2018 02:15:05.755242000 +07
  165  14.622421 32:32:32:32:32:32 10dBm Nov 17, 2018 02:15:05.769403000 +07
  166  14.935431 32:32:32:32:32:32 10dBm Nov 17, 2018 02:15:06.082413000 +07
  167  14.961434 32:32:32:32:32:32 9dBm Nov 17, 2018 02:15:06.108416000 +07
  168  14.985732 32:32:32:32:32:32 8dBm Nov 17, 2018 02:15:06.132714000 +07
  169  15.106220 32:32:32:32:32:32 11dBm Nov 17, 2018 02:15:06.253202000 +07
  170  15.168315 32:32:32:32:32:32 9dBm Nov 17, 2018 02:15:06.315297000 +07
  171  15.229427 32:32:32:32:32:32 10dBm Nov 17, 2018 02:15:06.376409000 +07
  172  15.296149 32:32:32:32:32:32 9dBm Nov 17, 2018 02:15:06.443131000 +07
  173  15.342590 32:32:32:32:32:32 11dBm Nov 17, 2018 02:15:06.489572000 +07
  174  15.477370 32:32:32:32:32:32 9dBm Nov 17, 2018 02:15:06.624352000 +07
  175  15.491755 32:32:32:32:32:32 9dBm Nov 17, 2018 02:15:06.638737000 +07
  176  15.509600 32:32:32:32:32:32 11dBm Nov 17, 2018 02:15:06.656582000 +07
  177  15.586046 32:32:32:32:32:32 11dBm Nov 17, 2018 02:15:06.733028000 +07
  178  15.726096 32:32:32:32:32:32 10dBm Nov 17, 2018 02:15:06.873078000 +07
  179  15.767653 32:32:32:32:32:32 8dBm Nov 17, 2018 02:15:06.914635000 +07
  180  15.917942 32:32:32:32:32:32 10dBm Nov 17, 2018 02:15:07.064924000 +07
  181  15.953837 32:32:32:32:32:32 10dBm Nov 17, 2018 02:15:07.100819000 +07
  182  16.003262 32:32:32:32:32:32 7dBm Nov 17, 2018 02:15:07.150244000 +07
  183  16.094189 32:32:32:32:32:32 11dBm Nov 17, 2018 02:15:07.241171000 +07
  184  16.197966 32:32:32:32:32:32 10dBm Nov 17, 2018 02:15:07.344948000 +07
  185  16.224648 32:32:32:32:32:32 9dBm Nov 17, 2018 02:15:07.371630000 +07
  186  16.243370 32:32:32:32:32:32 11dBm Nov 17, 2018 02:15:07.390352000 +07
  187  16.312802 32:32:32:32:32:32 8dBm Nov 17, 2018 02:15:07.459784000 +07
  188  16.338118 32:32:32:32:32:32 9dBm Nov 17, 2018 02:15:07.485100000 +07
  189  16.366504 32:32:32:32:32:32 10dBm Nov 17, 2018 02:15:07.513486000 +07
  190  16.392125 32:32:32:32:32:32 9dBm Nov 17, 2018 02:15:07.539107000 +07
  191  16.572773 32:32:32:32:32:32 9dBm Nov 17, 2018 02:15:07.719755000 +07
  192  16.707765 32:32:32:32:32:32 10dBm Nov 17, 2018 02:15:07.854747000 +07
  193  16.733995 32:32:32:32:32:32 10dBm Nov 17, 2018 02:15:07.880977000 +07
  194  16.877664 32:32:32:32:32:32 9dBm Nov 17, 2018 02:15:08.024646000 +07
  195  16.984739 32:32:32:32:32:32 8dBm Nov 17, 2018 02:15:08.131721000 +07
  196  17.104963 32:32:32:32:32:32 8dBm Nov 17, 2018 02:15:08.251945000 +07
  197  17.193733 32:32:32:32:32:32 6dBm Nov 17, 2018 02:15:08.340715000 +07
  198  17.336334 32:32:32:32:32:32 10dBm Nov 17, 2018 02:15:08.483316000 +07
  199  17.490699 32:32:32:32:32:32 11dBm Nov 17, 2018 02:15:08.637681000 +07
  200  17.666676 32:32:32:32:32:32 10dBm Nov 17, 2018 02:15:08.813658000 +07
  201  17.690529 32:32:32:32:32:32 10dBm Nov 17, 2018 02:15:08.837511000 +07
  202  17.874433 32:32:32:32:32:32 9dBm Nov 17, 2018 02:15:09.021415000 +07
  203  17.947594 32:32:32:32:32:32 10dBm Nov 17, 2018 02:15:09.094576000 +07
  204  18.041805 32:32:32:32:32:32 7dBm Nov 17, 2018 02:15:09.188787000 +07
  205  18.071581 32:32:32:32:32:32 10dBm Nov 17, 2018 02:15:09.218563000 +07
  206  18.185905 32:32:32:32:32:32 9dBm Nov 17, 2018 02:15:09.332887000 +07
  207  18.279189 32:32:32:32:32:32 10dBm Nov 17, 2018 02:15:09.426171000 +07
  208  18.395624 32:32:32:32:32:32 9dBm Nov 17, 2018 02:15:09.542606000 +07
  209  18.507101 32:32:32:32:32:32 9dBm Nov 17, 2018 02:15:09.654083000 +07
  210  18.567771 32:32:32:32:32:32 9dBm Nov 17, 2018 02:15:09.714753000 +07
  211  18.680270 32:32:32:32:32:32 8dBm Nov 17, 2018 02:15:09.827252000 +07
  212  18.832039 32:32:32:32:32:32 9dBm Nov 17, 2018 02:15:09.979021000 +07
  213  18.855318 32:32:32:32:32:32 11dBm Nov 17, 2018 02:15:10.002300000 +07
  214  18.975957 32:32:32:32:32:32 8dBm Nov 17, 2018 02:15:10.122939000 +07
  215  19.024718 32:32:32:32:32:32 10dBm Nov 17, 2018 02:15:10.171700000 +07
  216  19.145282 32:32:32:32:32:32 9dBm Nov 17, 2018 02:15:10.292264000 +07
  217  19.187985 32:32:32:32:32:32 9dBm Nov 17, 2018 02:15:10.334967000 +07
  218  19.333899 32:32:32:32:32:32 10dBm Nov 17, 2018 02:15:10.480881000 +07
  219  19.516714 32:32:32:32:32:32 9dBm Nov 17, 2018 02:15:10.663696000 +07
  220  19.779285 32:32:32:32:32:32 10dBm Nov 17, 2018 02:15:10.926267000 +07
  221  19.850358 32:32:32:32:32:32 9dBm Nov 17, 2018 02:15:10.997340000 +07
  222  19.945322 32:32:32:32:32:32 8dBm Nov 17, 2018 02:15:11.092304000 +07
  223  20.039958 32:32:32:32:32:32 9dBm Nov 17, 2018 02:15:11.186940000 +07
  224  20.065569 32:32:32:32:32:32 9dBm Nov 17, 2018 02:15:11.212551000 +07
  225  20.223894 32:32:32:32:32:32 10dBm Nov 17, 2018 02:15:11.370876000 +07
  226  20.231324 32:32:32:32:32:32 9dBm Nov 17, 2018 02:15:11.378306000 +07
  227  20.276779 32:32:32:32:32:32 9dBm Nov 17, 2018 02:15:11.423761000 +07
  228  20.291175 32:32:32:32:32:32 9dBm Nov 17, 2018 02:15:11.438157000 +07
  229  20.324402 32:32:32:32:32:32 10dBm Nov 17, 2018 02:15:11.471384000 +07
  230  20.573176 32:32:32:32:32:32 10dBm Nov 17, 2018 02:15:11.720158000 +07
  231  20.597817 32:32:32:32:32:32 9dBm Nov 17, 2018 02:15:11.744799000 +07
  232  20.918607 32:32:32:32:32:32 8dBm Nov 17, 2018 02:15:12.065589000 +07
  233  21.022855 32:32:32:32:32:32 8dBm Nov 17, 2018 02:15:12.169837000 +07
  234  21.039381 32:32:32:32:32:32 8dBm Nov 17, 2018 02:15:12.186363000 +07
  235  21.063839 32:32:32:32:32:32 10dBm Nov 17, 2018 02:15:12.210821000 +07
  236  21.112980 32:32:32:32:32:32 10dBm Nov 17, 2018 02:15:12.259962000 +07
  237  21.161207 32:32:32:32:32:32 9dBm Nov 17, 2018 02:15:12.308189000 +07
  238  21.209507 32:32:32:32:32:32 8dBm Nov 17, 2018 02:15:12.356489000 +07
  239  21.249769 32:32:32:32:32:32 10dBm Nov 17, 2018 02:15:12.396751000 +07
  240  21.275818 32:32:32:32:32:32 8dBm Nov 17, 2018 02:15:12.422800000 +07
  241  21.411894 32:32:32:32:32:32 8dBm Nov 17, 2018 02:15:12.558876000 +07
  242  21.482243 32:32:32:32:32:32 10dBm Nov 17, 2018 02:15:12.629225000 +07
  243  21.538122 32:32:32:32:32:32 11dBm Nov 17, 2018 02:15:12.685104000 +07
  244  21.742633 32:32:32:32:32:32 9dBm Nov 17, 2018 02:15:12.889615000 +07
  245  21.763115 32:32:32:32:32:32 8dBm Nov 17, 2018 02:15:12.910097000 +07
  246  21.783977 32:32:32:32:32:32 9dBm Nov 17, 2018 02:15:12.930959000 +07
  247  21.935381 32:32:32:32:32:32 11dBm Nov 17, 2018 02:15:13.082363000 +07
  248  21.980516 32:32:32:32:32:32 6dBm Nov 17, 2018 02:15:13.127498000 +07
  249  22.005552 32:32:32:32:32:32 10dBm Nov 17, 2018 02:15:13.152534000 +07
  250  22.018586 32:32:32:32:32:32 9dBm Nov 17, 2018 02:15:13.165568000 +07
  251  22.097903 32:32:32:32:32:32 10dBm Nov 17, 2018 02:15:13.244885000 +07
  252  22.130875 32:32:32:32:32:32 7dBm Nov 17, 2018 02:15:13.277857000 +07
  253  22.146621 32:32:32:32:32:32 7dBm Nov 17, 2018 02:15:13.293603000 +07
  254  22.162842 32:32:32:32:32:32 9dBm Nov 17, 2018 02:15:13.309824000 +07
  255  22.196001 32:32:32:32:32:32 9dBm Nov 17, 2018 02:15:13.342983000 +07
  256  22.387470 32:32:32:32:32:32 9dBm Nov 17, 2018 02:15:13.534452000 +07
  257  22.606526 32:32:32:32:32:32 10dBm Nov 17, 2018 02:15:13.753508000 +07
  258  22.659472 32:32:32:32:32:32 10dBm Nov 17, 2018 02:15:13.806454000 +07
  259  23.040573 32:32:32:32:32:32 8dBm Nov 17, 2018 02:15:14.187555000 +07
  260  23.089861 32:32:32:32:32:32 8dBm Nov 17, 2018 02:15:14.236843000 +07
  261  23.112712 32:32:32:32:32:32 11dBm Nov 17, 2018 02:15:14.259694000 +07
  262  23.165724 32:32:32:32:32:32 7dBm Nov 17, 2018 02:15:14.312706000 +07
  263  23.184220 32:32:32:32:32:32 10dBm Nov 17, 2018 02:15:14.331202000 +07
  264  23.212059 32:32:32:32:32:32 9dBm Nov 17, 2018 02:15:14.359041000 +07
  265  23.344455 32:32:32:32:32:32 7dBm Nov 17, 2018 02:15:14.491437000 +07
  266  23.617053 32:32:32:32:32:32 9dBm Nov 17, 2018 02:15:14.764035000 +07
  267  23.780925 32:32:32:32:32:32 9dBm Nov 17, 2018 02:15:14.927907000 +07
  268  23.821183 32:32:32:32:32:32 10dBm Nov 17, 2018 02:15:14.968165000 +07
  269  24.023864 32:32:32:32:32:32 8dBm Nov 17, 2018 02:15:15.170846000 +07
  270  24.103111 32:32:32:32:32:32 8dBm Nov 17, 2018 02:15:15.250093000 +07
  271  24.123036 32:32:32:32:32:32 9dBm Nov 17, 2018 02:15:15.270018000 +07
  272  24.190077 32:32:32:32:32:32 10dBm Nov 17, 2018 02:15:15.337059000 +07
  273  24.231101 32:32:32:32:32:32 11dBm Nov 17, 2018 02:15:15.378083000 +07
  274  24.297251 32:32:32:32:32:32 9dBm Nov 17, 2018 02:15:15.444233000 +07
  275  24.373490 32:32:32:32:32:32 9dBm Nov 17, 2018 02:15:15.520472000 +07
  276  24.415290 32:32:32:32:32:32 8dBm Nov 17, 2018 02:15:15.562272000 +07
  277  24.747621 32:32:32:32:32:32 10dBm Nov 17, 2018 02:15:15.894603000 +07
  278  24.962040 32:32:32:32:32:32 9dBm Nov 17, 2018 02:15:16.109022000 +07
  279  25.087888 32:32:32:32:32:32 9dBm Nov 17, 2018 02:15:16.234870000 +07
  280  25.133746 32:32:32:32:32:32 9dBm Nov 17, 2018 02:15:16.280728000 +07
  281  25.141960 32:32:32:32:32:32 7dBm Nov 17, 2018 02:15:16.288942000 +07
  282  25.150514 32:32:32:32:32:32 9dBm Nov 17, 2018 02:15:16.297496000 +07
  283  25.453059 32:32:32:32:32:32 9dBm Nov 17, 2018 02:15:16.600041000 +07
  284  25.519191 32:32:32:32:32:32 10dBm Nov 17, 2018 02:15:16.666173000 +07
  285  25.544105 32:32:32:32:32:32 9dBm Nov 17, 2018 02:15:16.691087000 +07
  286  25.561109 32:32:32:32:32:32 11dBm Nov 17, 2018 02:15:16.708091000 +07
  287  25.581040 32:32:32:32:32:32 11dBm Nov 17, 2018 02:15:16.728022000 +07
  288  25.581050 32:32:32:32:32:32 10dBm Nov 17, 2018 02:15:16.728032000 +07
  289  25.798610 32:32:32:32:32:32 10dBm Nov 17, 2018 02:15:16.945592000 +07
  290  25.884950 32:32:32:32:32:32 9dBm Nov 17, 2018 02:15:17.031932000 +07
  291  26.004827 32:32:32:32:32:32 10dBm Nov 17, 2018 02:15:17.151809000 +07
  292  26.074634 32:32:32:32:32:32 9dBm Nov 17, 2018 02:15:17.221616000 +07
  293  26.086454 32:32:32:32:32:32 9dBm Nov 17, 2018 02:15:17.233436000 +07
  294  26.119666 32:32:32:32:32:32 9dBm Nov 17, 2018 02:15:17.266648000 +07
  295  26.133977 32:32:32:32:32:32 9dBm Nov 17, 2018 02:15:17.280959000 +07
  296  26.149932 32:32:32:32:32:32 9dBm Nov 17, 2018 02:15:17.296914000 +07
  297  26.222396 32:32:32:32:32:32 9dBm Nov 17, 2018 02:15:17.369378000 +07
  298  26.262481 32:32:32:32:32:32 10dBm Nov 17, 2018 02:15:17.409463000 +07
  299  26.435104 32:32:32:32:32:32 7dBm Nov 17, 2018 02:15:17.582086000 +07
  300  26.493529 32:32:32:32:32:32 9dBm Nov 17, 2018 02:15:17.640511000 +07
  301  26.509943 32:32:32:32:32:32 9dBm Nov 17, 2018 02:15:17.656925000 +07
  302  26.687184 32:32:32:32:32:32 10dBm Nov 17, 2018 02:15:17.834166000 +07
  303  26.813165 32:32:32:32:32:32 10dBm Nov 17, 2018 02:15:17.960147000 +07
  304  26.889615 32:32:32:32:32:32 8dBm Nov 17, 2018 02:15:18.036597000 +07
  305  26.906321 32:32:32:32:32:32 7dBm Nov 17, 2018 02:15:18.053303000 +07
  306  26.924725 32:32:32:32:32:32 8dBm Nov 17, 2018 02:15:18.071707000 +07
  307  27.169331 32:32:32:32:32:32 9dBm Nov 17, 2018 02:15:18.316313000 +07
  308  27.208817 32:32:32:32:32:32 9dBm Nov 17, 2018 02:15:18.355799000 +07
  309  27.342636 32:32:32:32:32:32 9dBm Nov 17, 2018 02:15:18.489618000 +07
  310  27.377651 32:32:32:32:32:32 9dBm Nov 17, 2018 02:15:18.524633000 +07
  311  27.397359 32:32:32:32:32:32 9dBm Nov 17, 2018 02:15:18.544341000 +07
  312  27.519893 32:32:32:32:32:32 7dBm Nov 17, 2018 02:15:18.666875000 +07
  313  27.599569 32:32:32:32:32:32 9dBm Nov 17, 2018 02:15:18.746551000 +07
  314  27.816263 32:32:32:32:32:32 7dBm Nov 17, 2018 02:15:18.963245000 +07
  315  27.845234 32:32:32:32:32:32 10dBm Nov 17, 2018 02:15:18.992216000 +07
  316  27.865139 32:32:32:32:32:32 9dBm Nov 17, 2018 02:15:19.012121000 +07
  317  27.894091 32:32:32:32:32:32 9dBm Nov 17, 2018 02:15:19.041073000 +07
  318  27.965709 32:32:32:32:32:32 8dBm Nov 17, 2018 02:15:19.112691000 +07
  319  27.985996 32:32:32:32:32:32 9dBm Nov 17, 2018 02:15:19.132978000 +07
  320  28.096502 32:32:32:32:32:32 10dBm Nov 17, 2018 02:15:19.243484000 +07
  321  28.193751 32:32:32:32:32:32 9dBm Nov 17, 2018 02:15:19.340733000 +07
  322  28.219768 32:32:32:32:32:32 9dBm Nov 17, 2018 02:15:19.366750000 +07
  323  28.295658 32:32:32:32:32:32 9dBm Nov 17, 2018 02:15:19.442640000 +07
  324  28.389241 32:32:32:32:32:32 9dBm Nov 17, 2018 02:15:19.536223000 +07
  325  28.424704 32:32:32:32:32:32 9dBm Nov 17, 2018 02:15:19.571686000 +07
  326  28.447625 32:32:32:32:32:32 8dBm Nov 17, 2018 02:15:19.594607000 +07
  327  28.596304 32:32:32:32:32:32 9dBm Nov 17, 2018 02:15:19.743286000 +07
  328  28.600772 32:32:32:32:32:32 9dBm Nov 17, 2018 02:15:19.747754000 +07
  329  28.619805 32:32:32:32:32:32 8dBm Nov 17, 2018 02:15:19.766787000 +07
  330  28.700054 32:32:32:32:32:32 8dBm Nov 17, 2018 02:15:19.847036000 +07
  331  28.760209 32:32:32:32:32:32 9dBm Nov 17, 2018 02:15:19.907191000 +07
  332  28.798247 32:32:32:32:32:32 10dBm Nov 17, 2018 02:15:19.945229000 +07
  333  28.980611 32:32:32:32:32:32 8dBm Nov 17, 2018 02:15:20.127593000 +07
  334  28.999920 32:32:32:32:32:32 9dBm Nov 17, 2018 02:15:20.146902000 +07
  335  29.239458 32:32:32:32:32:32 9dBm Nov 17, 2018 02:15:20.386440000 +07
  336  29.254657 32:32:32:32:32:32 8dBm Nov 17, 2018 02:15:20.401639000 +07
  337  29.612753 32:32:32:32:32:32 10dBm Nov 17, 2018 02:15:20.759735000 +07
  338  29.640999 32:32:32:32:32:32 10dBm Nov 17, 2018 02:15:20.787981000 +07
  339  29.663280 32:32:32:32:32:32 10dBm Nov 17, 2018 02:15:20.810262000 +07
  340  29.734579 32:32:32:32:32:32 10dBm Nov 17, 2018 02:15:20.881561000 +07
  341  29.889524 32:32:32:32:32:32 8dBm Nov 17, 2018 02:15:21.036506000 +07
  342  29.948428 32:32:32:32:32:32 9dBm Nov 17, 2018 02:15:21.095410000 +07
  343  29.997857 32:32:32:32:32:32 6dBm Nov 17, 2018 02:15:21.144839000 +07
  344  30.046737 32:32:32:32:32:32 8dBm Nov 17, 2018 02:15:21.193719000 +07
  345  30.065705 32:32:32:32:32:32 7dBm Nov 17, 2018 02:15:21.212687000 +07
  346  30.159972 32:32:32:32:32:32 8dBm Nov 17, 2018 02:15:21.306954000 +07
  347  30.259112 32:32:32:32:32:32 9dBm Nov 17, 2018 02:15:21.406094000 +07
  348  30.407951 32:32:32:32:32:32 8dBm Nov 17, 2018 02:15:21.554933000 +07
  349  30.750017 32:32:32:32:32:32 7dBm Nov 17, 2018 02:15:21.896999000 +07
  350  30.778788 32:32:32:32:32:32 8dBm Nov 17, 2018 02:15:21.925770000 +07
  351  30.812566 32:32:32:32:32:32 9dBm Nov 17, 2018 02:15:21.959548000 +07
  352  30.831324 32:32:32:32:32:32 9dBm Nov 17, 2018 02:15:21.978306000 +07
  353  31.042053 32:32:32:32:32:32 8dBm Nov 17, 2018 02:15:22.189035000 +07
  354  31.095192 32:32:32:32:32:32 7dBm Nov 17, 2018 02:15:22.242174000 +07
  355  31.113349 32:32:32:32:32:32 8dBm Nov 17, 2018 02:15:22.260331000 +07
  356  31.267346 32:32:32:32:32:32 7dBm Nov 17, 2018 02:15:22.414328000 +07
  357  31.360274 32:32:32:32:32:32 8dBm Nov 17, 2018 02:15:22.507256000 +07
  358  31.398484 32:32:32:32:32:32 8dBm Nov 17, 2018 02:15:22.545466000 +07
  359  31.492749 32:32:32:32:32:32 10dBm Nov 17, 2018 02:15:22.639731000 +07
  360  31.513125 32:32:32:32:32:32 10dBm Nov 17, 2018 02:15:22.660107000 +07
  361  31.768560 32:32:32:32:32:32 8dBm Nov 17, 2018 02:15:22.915542000 +07
  362  31.780173 32:32:32:32:32:32 10dBm Nov 17, 2018 02:15:22.927155000 +07
  363  31.973576 32:32:32:32:32:32 9dBm Nov 17, 2018 02:15:23.120558000 +07
  364  31.988064 32:32:32:32:32:32 9dBm Nov 17, 2018 02:15:23.135046000 +07
  365  31.993059 32:32:32:32:32:32 9dBm Nov 17, 2018 02:15:23.140041000 +07
  366  32.189817 32:32:32:32:32:32 8dBm Nov 17, 2018 02:15:23.336799000 +07
  367  32.311362 32:32:32:32:32:32 7dBm Nov 17, 2018 02:15:23.458344000 +07
  368  32.766325 32:32:32:32:32:32 9dBm Nov 17, 2018 02:15:23.913307000 +07
  369  33.018878 32:32:32:32:32:32 9dBm Nov 17, 2018 02:15:24.165860000 +07
  370  33.092276 32:32:32:32:32:32 10dBm Nov 17, 2018 02:15:24.239258000 +07
  371  33.407237 32:32:32:32:32:32 10dBm Nov 17, 2018 02:15:24.554219000 +07
  372  33.477025 32:32:32:32:32:32 9dBm Nov 17, 2018 02:15:24.624007000 +07
  373  33.506465 32:32:32:32:32:32 10dBm Nov 17, 2018 02:15:24.653447000 +07
  374  33.572736 32:32:32:32:32:32 9dBm Nov 17, 2018 02:15:24.719718000 +07
  375  33.701254 32:32:32:32:32:32 10dBm Nov 17, 2018 02:15:24.848236000 +07
  376  33.766985 32:32:32:32:32:32 8dBm Nov 17, 2018 02:15:24.913967000 +07
  377  33.786736 32:32:32:32:32:32 9dBm Nov 17, 2018 02:15:24.933718000 +07
  378  33.815577 32:32:32:32:32:32 10dBm Nov 17, 2018 02:15:24.962559000 +07
  379  33.823996 32:32:32:32:32:32 9dBm Nov 17, 2018 02:15:24.970978000 +07
  380  33.851320 32:32:32:32:32:32 9dBm Nov 17, 2018 02:15:24.998302000 +07
  381  33.914072 32:32:32:32:32:32 9dBm Nov 17, 2018 02:15:25.061054000 +07
  382  33.961752 32:32:32:32:32:32 10dBm Nov 17, 2018 02:15:25.108734000 +07
  383  34.016936 32:32:32:32:32:32 9dBm Nov 17, 2018 02:15:25.163918000 +07
  384  34.045974 32:32:32:32:32:32 9dBm Nov 17, 2018 02:15:25.192956000 +07
  385  34.232387 32:32:32:32:32:32 9dBm Nov 17, 2018 02:15:25.379369000 +07
  386  34.400543 32:32:32:32:32:32 6dBm Nov 17, 2018 02:15:25.547525000 +07
  387  34.451918 32:32:32:32:32:32 8dBm Nov 17, 2018 02:15:25.598900000 +07
  388  34.532854 32:32:32:32:32:32 8dBm Nov 17, 2018 02:15:25.679836000 +07
  389  34.570824 32:32:32:32:32:32 9dBm Nov 17, 2018 02:15:25.717806000 +07
  390  34.607560 32:32:32:32:32:32 7dBm Nov 17, 2018 02:15:25.754542000 +07
  391  34.658036 32:32:32:32:32:32 8dBm Nov 17, 2018 02:15:25.805018000 +07
  392  34.735682 32:32:32:32:32:32 7dBm Nov 17, 2018 02:15:25.882664000 +07
  393  34.830539 32:32:32:32:32:32 8dBm Nov 17, 2018 02:15:25.977521000 +07
  394  35.099536 32:32:32:32:32:32 10dBm Nov 17, 2018 02:15:26.246518000 +07
  395  35.163093 32:32:32:32:32:32 7dBm Nov 17, 2018 02:15:26.310075000 +07
  396  35.283188 32:32:32:32:32:32 9dBm Nov 17, 2018 02:15:26.430170000 +07
  397  35.303158 32:32:32:32:32:32 8dBm Nov 17, 2018 02:15:26.450140000 +07
  398  35.466911 32:32:32:32:32:32 9dBm Nov 17, 2018 02:15:26.613893000 +07
  399  35.575785 32:32:32:32:32:32 6dBm Nov 17, 2018 02:15:26.722767000 +07
  400  35.767008 32:32:32:32:32:32 9dBm Nov 17, 2018 02:15:26.913990000 +07
  401  35.840154 32:32:32:32:32:32 9dBm Nov 17, 2018 02:15:26.987136000 +07
  402  35.900082 32:32:32:32:32:32 10dBm Nov 17, 2018 02:15:27.047064000 +07
  403  35.919091 32:32:32:32:32:32 10dBm Nov 17, 2018 02:15:27.066073000 +07
  404  35.933532 32:32:32:32:32:32 10dBm Nov 17, 2018 02:15:27.080514000 +07
  405  35.964988 32:32:32:32:32:32 8dBm Nov 17, 2018 02:15:27.111970000 +07
  406  35.995442 32:32:32:32:32:32 9dBm Nov 17, 2018 02:15:27.142424000 +07
  407  36.213183 32:32:32:32:32:32 10dBm Nov 17, 2018 02:15:27.360165000 +07
  408  36.238225 32:32:32:32:32:32 9dBm Nov 17, 2018 02:15:27.385207000 +07
  409  36.501185 32:32:32:32:32:32 8dBm Nov 17, 2018 02:15:27.648167000 +07
  410  36.573479 32:32:32:32:32:32 11dBm Nov 17, 2018 02:15:27.720461000 +07
  411  36.712781 32:32:32:32:32:32 10dBm Nov 17, 2018 02:15:27.859763000 +07
  412  36.824799 32:32:32:32:32:32 7dBm Nov 17, 2018 02:15:27.971781000 +07
  413  36.992430 32:32:32:32:32:32 10dBm Nov 17, 2018 02:15:28.139412000 +07
  414  37.041080 32:32:32:32:32:32 10dBm Nov 17, 2018 02:15:28.188062000 +07
  415  37.314197 32:32:32:32:32:32 9dBm Nov 17, 2018 02:15:28.461179000 +07
  416  37.387435 32:32:32:32:32:32 8dBm Nov 17, 2018 02:15:28.534417000 +07
  417  37.490427 32:32:32:32:32:32 8dBm Nov 17, 2018 02:15:28.637409000 +07
  418  37.649556 32:32:32:32:32:32 8dBm Nov 17, 2018 02:15:28.796538000 +07
  419  37.816949 32:32:32:32:32:32 8dBm Nov 17, 2018 02:15:28.963931000 +07
  420  37.962559 32:32:32:32:32:32 10dBm Nov 17, 2018 02:15:29.109541000 +07
  421  38.110712 32:32:32:32:32:32 8dBm Nov 17, 2018 02:15:29.257694000 +07
  422  38.158242 32:32:32:32:32:32 9dBm Nov 17, 2018 02:15:29.305224000 +07
  423  38.228441 32:32:32:32:32:32 9dBm Nov 17, 2018 02:15:29.375423000 +07
  424  38.262211 32:32:32:32:32:32 9dBm Nov 17, 2018 02:15:29.409193000 +07
  425  38.308224 32:32:32:32:32:32 8dBm Nov 17, 2018 02:15:29.455206000 +07
  426  38.370843 32:32:32:32:32:32 8dBm Nov 17, 2018 02:15:29.517825000 +07
  427  38.384333 32:32:32:32:32:32 9dBm Nov 17, 2018 02:15:29.531315000 +07
  428  38.514308 32:32:32:32:32:32 9dBm Nov 17, 2018 02:15:29.661290000 +07
  429  38.648973 32:32:32:32:32:32 7dBm Nov 17, 2018 02:15:29.795955000 +07
  430  38.687085 32:32:32:32:32:32 10dBm Nov 17, 2018 02:15:29.834067000 +07
  431  38.701427 32:32:32:32:32:32 10dBm Nov 17, 2018 02:15:29.848409000 +07
  432  38.785347 32:32:32:32:32:32 8dBm Nov 17, 2018 02:15:29.932329000 +07
  433  39.056003 32:32:32:32:32:32 9dBm Nov 17, 2018 02:15:30.202985000 +07
  434  39.144697 32:32:32:32:32:32 8dBm Nov 17, 2018 02:15:30.291679000 +07
  435  39.284954 32:32:32:32:32:32 10dBm Nov 17, 2018 02:15:30.431936000 +07
  436  39.304660 32:32:32:32:32:32 10dBm Nov 17, 2018 02:15:30.451642000 +07
  437  39.330373 32:32:32:32:32:32 10dBm Nov 17, 2018 02:15:30.477355000 +07
  438  39.451409 32:32:32:32:32:32 9dBm Nov 17, 2018 02:15:30.598391000 +07
  439  39.475268 32:32:32:32:32:32 7dBm Nov 17, 2018 02:15:30.622250000 +07
  440  39.503170 32:32:32:32:32:32 9dBm Nov 17, 2018 02:15:30.650152000 +07
  441  39.560081 32:32:32:32:32:32 9dBm Nov 17, 2018 02:15:30.707063000 +07
  442  39.788679 32:32:32:32:32:32 9dBm Nov 17, 2018 02:15:30.935661000 +07
  443  39.980896 32:32:32:32:32:32 9dBm Nov 17, 2018 02:15:31.127878000 +07
  444  40.080257 32:32:32:32:32:32 9dBm Nov 17, 2018 02:15:31.227239000 +07
  445  40.364613 32:32:32:32:32:32 10dBm Nov 17, 2018 02:15:31.511595000 +07
  446  40.385897 32:32:32:32:32:32 9dBm Nov 17, 2018 02:15:31.532879000 +07
  447  40.401307 32:32:32:32:32:32 10dBm Nov 17, 2018 02:15:31.548289000 +07
  448  40.555210 32:32:32:32:32:32 8dBm Nov 17, 2018 02:15:31.702192000 +07
  449  40.643321 32:32:32:32:32:32 9dBm Nov 17, 2018 02:15:31.790303000 +07
  450  40.685269 32:32:32:32:32:32 11dBm Nov 17, 2018 02:15:31.832251000 +07
  451  40.701854 32:32:32:32:32:32 8dBm Nov 17, 2018 02:15:31.848836000 +07
  452  41.014841 32:32:32:32:32:32 6dBm Nov 17, 2018 02:15:32.161823000 +07
  453  41.161462 32:32:32:32:32:32 10dBm Nov 17, 2018 02:15:32.308444000 +07
  454  41.231361 32:32:32:32:32:32 7dBm Nov 17, 2018 02:15:32.378343000 +07
  455  41.243077 32:32:32:32:32:32 9dBm Nov 17, 2018 02:15:32.390059000 +07
  456  41.304161 32:32:32:32:32:32 10dBm Nov 17, 2018 02:15:32.451143000 +07
  457  41.570854 32:32:32:32:32:32 10dBm Nov 17, 2018 02:15:32.717836000 +07
  458  41.770955 32:32:32:32:32:32 9dBm Nov 17, 2018 02:15:32.917937000 +07
  459  41.877021 32:32:32:32:32:32 10dBm Nov 17, 2018 02:15:33.024003000 +07
  460  41.886127 32:32:32:32:32:32 10dBm Nov 17, 2018 02:15:33.033109000 +07
  461  41.964821 32:32:32:32:32:32 10dBm Nov 17, 2018 02:15:33.111803000 +07
  462  42.048713 32:32:32:32:32:32 11dBm Nov 17, 2018 02:15:33.195695000 +07
  463  42.114655 32:32:32:32:32:32 10dBm Nov 17, 2018 02:15:33.261637000 +07
  464  42.153448 32:32:32:32:32:32 9dBm Nov 17, 2018 02:15:33.300430000 +07
  465  42.202521 32:32:32:32:32:32 9dBm Nov 17, 2018 02:15:33.349503000 +07
  466  42.217646 32:32:32:32:32:32 10dBm Nov 17, 2018 02:15:33.364628000 +07
  467  42.306645 32:32:32:32:32:32 8dBm Nov 17, 2018 02:15:33.453627000 +07
  468  42.375579 32:32:32:32:32:32 9dBm Nov 17, 2018 02:15:33.522561000 +07
  469  42.516398 32:32:32:32:32:32 9dBm Nov 17, 2018 02:15:33.663380000 +07
  470  42.695876 32:32:32:32:32:32 9dBm Nov 17, 2018 02:15:33.842858000 +07
  471  42.825685 32:32:32:32:32:32 6dBm Nov 17, 2018 02:15:33.972667000 +07
  472  42.893586 32:32:32:32:32:32 10dBm Nov 17, 2018 02:15:34.040568000 +07
  473  42.928625 32:32:32:32:32:32 9dBm Nov 17, 2018 02:15:34.075607000 +07
  474  42.947551 32:32:32:32:32:32 10dBm Nov 17, 2018 02:15:34.094533000 +07
  475  43.164751 32:32:32:32:32:32 9dBm Nov 17, 2018 02:15:34.311733000 +07
  476  43.273665 32:32:32:32:32:32 9dBm Nov 17, 2018 02:15:34.420647000 +07
  477  43.311601 32:32:32:32:32:32 9dBm Nov 17, 2018 02:15:34.458583000 +07
  478  43.428984 32:32:32:32:32:32 8dBm Nov 17, 2018 02:15:34.575966000 +07
  479  43.517492 32:32:32:32:32:32 10dBm Nov 17, 2018 02:15:34.664474000 +07
  480  43.899609 32:32:32:32:32:32 9dBm Nov 17, 2018 02:15:35.046591000 +07
  481  44.120256 32:32:32:32:32:32 9dBm Nov 17, 2018 02:15:35.267238000 +07
  482  44.186643 32:32:32:32:32:32 9dBm Nov 17, 2018 02:15:35.333625000 +07
  483  44.304474 32:32:32:32:32:32 10dBm Nov 17, 2018 02:15:35.451456000 +07
  484  44.393825 32:32:32:32:32:32 9dBm Nov 17, 2018 02:15:35.540807000 +07
  485  44.494204 32:32:32:32:32:32 7dBm Nov 17, 2018 02:15:35.641186000 +07
  486  44.552282 32:32:32:32:32:32 8dBm Nov 17, 2018 02:15:35.699264000 +07
  487  44.569133 32:32:32:32:32:32 7dBm Nov 17, 2018 02:15:35.716115000 +07
  488  44.584388 32:32:32:32:32:32 9dBm Nov 17, 2018 02:15:35.731370000 +07
  489  44.678319 32:32:32:32:32:32 11dBm Nov 17, 2018 02:15:35.825301000 +07
  490  45.239366 32:32:32:32:32:32 10dBm Nov 17, 2018 02:15:36.386348000 +07
  491  45.265585 32:32:32:32:32:32 11dBm Nov 17, 2018 02:15:36.412567000 +07
  492  45.316344 32:32:32:32:32:32 9dBm Nov 17, 2018 02:15:36.463326000 +07
  493  45.353636 32:32:32:32:32:32 10dBm Nov 17, 2018 02:15:36.500618000 +07
  494  45.637989 32:32:32:32:32:32 10dBm Nov 17, 2018 02:15:36.784971000 +07
  495  45.931624 32:32:32:32:32:32 9dBm Nov 17, 2018 02:15:37.078606000 +07
  496  45.949046 32:32:32:32:32:32 11dBm Nov 17, 2018 02:15:37.096028000 +07
  497  45.952071 32:32:32:32:32:32 10dBm Nov 17, 2018 02:15:37.099053000 +07
  498  46.033017 32:32:32:32:32:32 8dBm Nov 17, 2018 02:15:37.179999000 +07
  499  46.159367 32:32:32:32:32:32 9dBm Nov 17, 2018 02:15:37.306349000 +07
  500  46.185075 32:32:32:32:32:32 10dBm Nov 17, 2018 02:15:37.332057000 +07
  501  46.258586 32:32:32:32:32:32 10dBm Nov 17, 2018 02:15:37.405568000 +07
  502  46.439642 32:32:32:32:32:32 11dBm Nov 17, 2018 02:15:37.586624000 +07
  503  46.490180 32:32:32:32:32:32 10dBm Nov 17, 2018 02:15:37.637162000 +07
  504  46.547451 32:32:32:32:32:32 9dBm Nov 17, 2018 02:15:37.694433000 +07
  505  46.572638 32:32:32:32:32:32 10dBm Nov 17, 2018 02:15:37.719620000 +07
  506  46.602260 32:32:32:32:32:32 8dBm Nov 17, 2018 02:15:37.749242000 +07
  507  46.648717 32:32:32:32:32:32 7dBm Nov 17, 2018 02:15:37.795699000 +07
  508  46.723519 32:32:32:32:32:32 11dBm Nov 17, 2018 02:15:37.870501000 +07
  509  46.799494 32:32:32:32:32:32 8dBm Nov 17, 2018 02:15:37.946476000 +07
  510  46.824156 32:32:32:32:32:32 9dBm Nov 17, 2018 02:15:37.971138000 +07
  511  46.850644 32:32:32:32:32:32 6dBm Nov 17, 2018 02:15:37.997626000 +07
  512  46.981539 32:32:32:32:32:32 10dBm Nov 17, 2018 02:15:38.128521000 +07
  513  47.035779 32:32:32:32:32:32 8dBm Nov 17, 2018 02:15:38.182761000 +07
  514  47.048652 32:32:32:32:32:32 10dBm Nov 17, 2018 02:15:38.195634000 +07
  515  47.104970 32:32:32:32:32:32 9dBm Nov 17, 2018 02:15:38.251952000 +07
  516  47.462277 32:32:32:32:32:32 8dBm Nov 17, 2018 02:15:38.609259000 +07
  517  47.529201 32:32:32:32:32:32 9dBm Nov 17, 2018 02:15:38.676183000 +07
  518  47.562572 32:32:32:32:32:32 10dBm Nov 17, 2018 02:15:38.709554000 +07
  519  47.598988 32:32:32:32:32:32 11dBm Nov 17, 2018 02:15:38.745970000 +07
  520  47.822707 32:32:32:32:32:32 11dBm Nov 17, 2018 02:15:38.969689000 +07
  521  48.154207 32:32:32:32:32:32 8dBm Nov 17, 2018 02:15:39.301189000 +07
  522  48.206113 32:32:32:32:32:32 10dBm Nov 17, 2018 02:15:39.353095000 +07
  523  48.215027 32:32:32:32:32:32 10dBm Nov 17, 2018 02:15:39.362009000 +07
  524  48.219761 32:32:32:32:32:32 9dBm Nov 17, 2018 02:15:39.366743000 +07
  525  48.254213 32:32:32:32:32:32 10dBm Nov 17, 2018 02:15:39.401195000 +07
  526  48.274455 32:32:32:32:32:32 9dBm Nov 17, 2018 02:15:39.421437000 +07
  527  48.444446 32:32:32:32:32:32 10dBm Nov 17, 2018 02:15:39.591428000 +07
  528  48.586610 32:32:32:32:32:32 11dBm Nov 17, 2018 02:15:39.733592000 +07
  529  48.652180 32:32:32:32:32:32 10dBm Nov 17, 2018 02:15:39.799162000 +07
  530  48.744988 32:32:32:32:32:32 9dBm Nov 17, 2018 02:15:39.891970000 +07
  531  48.812208 32:32:32:32:32:32 10dBm Nov 17, 2018 02:15:39.959190000 +07
  532  48.883609 32:32:32:32:32:32 11dBm Nov 17, 2018 02:15:40.030591000 +07
  533  48.900044 32:32:32:32:32:32 11dBm Nov 17, 2018 02:15:40.047026000 +07
  534  48.971507 32:32:32:32:32:32 10dBm Nov 17, 2018 02:15:40.118489000 +07
  535  49.041207 32:32:32:32:32:32 10dBm Nov 17, 2018 02:15:40.188189000 +07
  536  49.107463 32:32:32:32:32:32 10dBm Nov 17, 2018 02:15:40.254445000 +07
  537  49.161589 32:32:32:32:32:32 11dBm Nov 17, 2018 02:15:40.308571000 +07
  538  49.306077 32:32:32:32:32:32 10dBm Nov 17, 2018 02:15:40.453059000 +07
  539  49.361096 32:32:32:32:32:32 7dBm Nov 17, 2018 02:15:40.508078000 +07
  540  49.406454 32:32:32:32:32:32 10dBm Nov 17, 2018 02:15:40.553436000 +07
  541  49.471162 32:32:32:32:32:32 9dBm Nov 17, 2018 02:15:40.618144000 +07
  542  49.490222 32:32:32:32:32:32 10dBm Nov 17, 2018 02:15:40.637204000 +07
  543  49.616133 32:32:32:32:32:32 10dBm Nov 17, 2018 02:15:40.763115000 +07
  544  49.689671 32:32:32:32:32:32 9dBm Nov 17, 2018 02:15:40.836653000 +07
  545  49.725816 32:32:32:32:32:32 8dBm Nov 17, 2018 02:15:40.872798000 +07
  546  49.835773 32:32:32:32:32:32 10dBm Nov 17, 2018 02:15:40.982755000 +07
  547  49.864703 32:32:32:32:32:32 8dBm Nov 17, 2018 02:15:41.011685000 +07
  548  49.893545 32:32:32:32:32:32 10dBm Nov 17, 2018 02:15:41.040527000 +07
  549  50.239356 32:32:32:32:32:32 10dBm Nov 17, 2018 02:15:41.386338000 +07
  550  50.293863 32:32:32:32:32:32 9dBm Nov 17, 2018 02:15:41.440845000 +07
  551  50.531366 32:32:32:32:32:32 10dBm Nov 17, 2018 02:15:41.678348000 +07
  552  50.571844 32:32:32:32:32:32 10dBm Nov 17, 2018 02:15:41.718826000 +07
  553  50.719178 32:32:32:32:32:32 10dBm Nov 17, 2018 02:15:41.866160000 +07
  554  50.744981 32:32:32:32:32:32 11dBm Nov 17, 2018 02:15:41.891963000 +07
  555  50.901725 32:32:32:32:32:32 10dBm Nov 17, 2018 02:15:42.048707000 +07
  556  50.948207 32:32:32:32:32:32 8dBm Nov 17, 2018 02:15:42.095189000 +07
  557  51.113662 32:32:32:32:32:32 9dBm Nov 17, 2018 02:15:42.260644000 +07
  558  51.147901 32:32:32:32:32:32 9dBm Nov 17, 2018 02:15:42.294883000 +07
  559  51.183027 32:32:32:32:32:32 9dBm Nov 17, 2018 02:15:42.330009000 +07
  560  51.223165 32:32:32:32:32:32 7dBm Nov 17, 2018 02:15:42.370147000 +07
  561  51.279271 32:32:32:32:32:32 10dBm Nov 17, 2018 02:15:42.426253000 +07
  562  51.426718 32:32:32:32:32:32 10dBm Nov 17, 2018 02:15:42.573700000 +07
  563  51.462150 32:32:32:32:32:32 10dBm Nov 17, 2018 02:15:42.609132000 +07
  564  51.679571 32:32:32:32:32:32 10dBm Nov 17, 2018 02:15:42.826553000 +07
  565  51.802431 32:32:32:32:32:32 8dBm Nov 17, 2018 02:15:42.949413000 +07
  566  51.839657 32:32:32:32:32:32 10dBm Nov 17, 2018 02:15:42.986639000 +07
  567  52.010024 32:32:32:32:32:32 10dBm Nov 17, 2018 02:15:43.157006000 +07
  568  52.043650 32:32:32:32:32:32 9dBm Nov 17, 2018 02:15:43.190632000 +07
  569  52.253239 32:32:32:32:32:32 8dBm Nov 17, 2018 02:15:43.400221000 +07
  570  52.264152 32:32:32:32:32:32 9dBm Nov 17, 2018 02:15:43.411134000 +07
  571  52.275531 32:32:32:32:32:32 7dBm Nov 17, 2018 02:15:43.422513000 +07
  572  52.363261 32:32:32:32:32:32 6dBm Nov 17, 2018 02:15:43.510243000 +07
  573  52.549122 32:32:32:32:32:32 10dBm Nov 17, 2018 02:15:43.696104000 +07
  574  52.602836 32:32:32:32:32:32 10dBm Nov 17, 2018 02:15:43.749818000 +07
  575  52.637369 32:32:32:32:32:32 8dBm Nov 17, 2018 02:15:43.784351000 +07
  576  52.668308 32:32:32:32:32:32 10dBm Nov 17, 2018 02:15:43.815290000 +07
  577  52.858700 32:32:32:32:32:32 9dBm Nov 17, 2018 02:15:44.005682000 +07
  578  52.888527 32:32:32:32:32:32 9dBm Nov 17, 2018 02:15:44.035509000 +07
  579  52.922773 32:32:32:32:32:32 8dBm Nov 17, 2018 02:15:44.069755000 +07
  580  53.122976 32:32:32:32:32:32 11dBm Nov 17, 2018 02:15:44.269958000 +07
  581  53.206371 32:32:32:32:32:32 10dBm Nov 17, 2018 02:15:44.353353000 +07
  582  53.259157 32:32:32:32:32:32 9dBm Nov 17, 2018 02:15:44.406139000 +07
  583  53.298434 32:32:32:32:32:32 9dBm Nov 17, 2018 02:15:44.445416000 +07
  584  53.314542 32:32:32:32:32:32 9dBm Nov 17, 2018 02:15:44.461524000 +07
  585  53.424871 32:32:32:32:32:32 9dBm Nov 17, 2018 02:15:44.571853000 +07
  586  53.665840 32:32:32:32:32:32 9dBm Nov 17, 2018 02:15:44.812822000 +07
  587  53.886879 32:32:32:32:32:32 9dBm Nov 17, 2018 02:15:45.033861000 +07
  588  53.900187 32:32:32:32:32:32 7dBm Nov 17, 2018 02:15:45.047169000 +07
  589  53.961803 32:32:32:32:32:32 10dBm Nov 17, 2018 02:15:45.108785000 +07
  590  53.979714 32:32:32:32:32:32 9dBm Nov 17, 2018 02:15:45.126696000 +07
  591  54.023028 32:32:32:32:32:32 9dBm Nov 17, 2018 02:15:45.170010000 +07
  592  54.184418 32:32:32:32:32:32 9dBm Nov 17, 2018 02:15:45.331400000 +07
  593  54.651914 32:32:32:32:32:32 9dBm Nov 17, 2018 02:15:45.798896000 +07
  594  54.810777 32:32:32:32:32:32 10dBm Nov 17, 2018 02:15:45.957759000 +07
  595  54.897893 32:32:32:32:32:32 10dBm Nov 17, 2018 02:15:46.044875000 +07
  596  55.143669 32:32:32:32:32:32 10dBm Nov 17, 2018 02:15:46.290651000 +07
  597  55.182629 32:32:32:32:32:32 10dBm Nov 17, 2018 02:15:46.329611000 +07
  598  55.204052 32:32:32:32:32:32 9dBm Nov 17, 2018 02:15:46.351034000 +07
  599  55.288048 32:32:32:32:32:32 9dBm Nov 17, 2018 02:15:46.435030000 +07
  600  55.611393 32:32:32:32:32:32 9dBm Nov 17, 2018 02:15:46.758375000 +07
  601  55.772959 32:32:32:32:32:32 10dBm Nov 17, 2018 02:15:46.919941000 +07
  602  55.812038 32:32:32:32:32:32 8dBm Nov 17, 2018 02:15:46.959020000 +07
  603  55.853560 32:32:32:32:32:32 8dBm Nov 17, 2018 02:15:47.000542000 +07
  604  55.964890 32:32:32:32:32:32 6dBm Nov 17, 2018 02:15:47.111872000 +07
  605  55.986895 32:32:32:32:32:32 9dBm Nov 17, 2018 02:15:47.133877000 +07
  606  56.009315 32:32:32:32:32:32 8dBm Nov 17, 2018 02:15:47.156297000 +07
  607  56.045942 32:32:32:32:32:32 8dBm Nov 17, 2018 02:15:47.192924000 +07
  608  56.256208 32:32:32:32:32:32 9dBm Nov 17, 2018 02:15:47.403190000 +07
  609  56.621467 32:32:32:32:32:32 11dBm Nov 17, 2018 02:15:47.768449000 +07
  610  56.643335 32:32:32:32:32:32 8dBm Nov 17, 2018 02:15:47.790317000 +07
  611  56.664444 32:32:32:32:32:32 7dBm Nov 17, 2018 02:15:47.811426000 +07
  612  56.920735 32:32:32:32:32:32 10dBm Nov 17, 2018 02:15:48.067717000 +07
  613  57.035501 32:32:32:32:32:32 10dBm Nov 17, 2018 02:15:48.182483000 +07
  614  57.472830 32:32:32:32:32:32 10dBm Nov 17, 2018 02:15:48.619812000 +07
  615  57.501623 32:32:32:32:32:32 8dBm Nov 17, 2018 02:15:48.648605000 +07
  616  57.712396 32:32:32:32:32:32 10dBm Nov 17, 2018 02:15:48.859378000 +07
  617  57.834317 32:32:32:32:32:32 11dBm Nov 17, 2018 02:15:48.981299000 +07
  618  57.874251 32:32:32:32:32:32 9dBm Nov 17, 2018 02:15:49.021233000 +07
  619  57.945275 32:32:32:32:32:32 10dBm Nov 17, 2018 02:15:49.092257000 +07
  620  57.978905 32:32:32:32:32:32 7dBm Nov 17, 2018 02:15:49.125887000 +07
  621  58.003537 32:32:32:32:32:32 10dBm Nov 17, 2018 02:15:49.150519000 +07
  622  58.072435 32:32:32:32:32:32 9dBm Nov 17, 2018 02:15:49.219417000 +07
  623  58.165062 32:32:32:32:32:32 10dBm Nov 17, 2018 02:15:49.312044000 +07
  624  58.405327 32:32:32:32:32:32 9dBm Nov 17, 2018 02:15:49.552309000 +07
  625  58.568379 32:32:32:32:32:32 9dBm Nov 17, 2018 02:15:49.715361000 +07
  626  58.659373 32:32:32:32:32:32 9dBm Nov 17, 2018 02:15:49.806355000 +07
  627  58.741824 32:32:32:32:32:32 10dBm Nov 17, 2018 02:15:49.888806000 +07
  628  58.904537 32:32:32:32:32:32 7dBm Nov 17, 2018 02:15:50.051519000 +07
  629  58.932887 32:32:32:32:32:32 8dBm Nov 17, 2018 02:15:50.079869000 +07
  630  58.946324 32:32:32:32:32:32 7dBm Nov 17, 2018 02:15:50.093306000 +07
  631  59.085609 32:32:32:32:32:32 8dBm Nov 17, 2018 02:15:50.232591000 +07
  632  59.208429 32:32:32:32:32:32 9dBm Nov 17, 2018 02:15:50.355411000 +07
  633  59.686003 32:32:32:32:32:32 10dBm Nov 17, 2018 02:15:50.832985000 +07
  634  59.734545 32:32:32:32:32:32 8dBm Nov 17, 2018 02:15:50.881527000 +07
  635  59.863285 32:32:32:32:32:32 10dBm Nov 17, 2018 02:15:51.010267000 +07
  636  59.881695 32:32:32:32:32:32 9dBm Nov 17, 2018 02:15:51.028677000 +07
  637  59.972774 32:32:32:32:32:32 9dBm Nov 17, 2018 02:15:51.119756000 +07
  638  60.090615 32:32:32:32:32:32 7dBm Nov 17, 2018 02:15:51.237597000 +07
  639  60.124627 32:32:32:32:32:32 9dBm Nov 17, 2018 02:15:51.271609000 +07
  640  60.138233 32:32:32:32:32:32 7dBm Nov 17, 2018 02:15:51.285215000 +07
  641  60.150678 32:32:32:32:32:32 8dBm Nov 17, 2018 02:15:51.297660000 +07
  642  60.167315 32:32:32:32:32:32 9dBm Nov 17, 2018 02:15:51.314297000 +07
  643  60.184840 32:32:32:32:32:32 10dBm Nov 17, 2018 02:15:51.331822000 +07
  644  60.290087 32:32:32:32:32:32 7dBm Nov 17, 2018 02:15:51.437069000 +07
  645  60.386354 32:32:32:32:32:32 9dBm Nov 17, 2018 02:15:51.533336000 +07
  646  60.403197 32:32:32:32:32:32 11dBm Nov 17, 2018 02:15:51.550179000 +07
  647  60.503050 32:32:32:32:32:32 8dBm Nov 17, 2018 02:15:51.650032000 +07
  648  60.545890 32:32:32:32:32:32 9dBm Nov 17, 2018 02:15:51.692872000 +07
  649  60.621173 32:32:32:32:32:32 8dBm Nov 17, 2018 02:15:51.768155000 +07
  650  60.658930 32:32:32:32:32:32 10dBm Nov 17, 2018 02:15:51.805912000 +07
  651  60.699962 32:32:32:32:32:32 6dBm Nov 17, 2018 02:15:51.846944000 +07
  652  60.765889 32:32:32:32:32:32 8dBm Nov 17, 2018 02:15:51.912871000 +07
  653  60.957283 32:32:32:32:32:32 10dBm Nov 17, 2018 02:15:52.104265000 +07
  654  61.192482 32:32:32:32:32:32 10dBm Nov 17, 2018 02:15:52.339464000 +07
  655  61.347686 32:32:32:32:32:32 8dBm Nov 17, 2018 02:15:52.494668000 +07
  656  61.436493 32:32:32:32:32:32 10dBm Nov 17, 2018 02:15:52.583475000 +07
  657  61.457010 32:32:32:32:32:32 9dBm Nov 17, 2018 02:15:52.603992000 +07
  658  61.478883 32:32:32:32:32:32 9dBm Nov 17, 2018 02:15:52.625865000 +07
  659  61.568658 32:32:32:32:32:32 10dBm Nov 17, 2018 02:15:52.715640000 +07
  660  61.583080 32:32:32:32:32:32 8dBm Nov 17, 2018 02:15:52.730062000 +07
  661  61.595404 32:32:32:32:32:32 8dBm Nov 17, 2018 02:15:52.742386000 +07
  662  61.709754 32:32:32:32:32:32 8dBm Nov 17, 2018 02:15:52.856736000 +07
  663  61.760881 32:32:32:32:32:32 8dBm Nov 17, 2018 02:15:52.907863000 +07
  664  61.811451 32:32:32:32:32:32 9dBm Nov 17, 2018 02:15:52.958433000 +07
  665  61.871395 32:32:32:32:32:32 9dBm Nov 17, 2018 02:15:53.018377000 +07
  666  61.916908 32:32:32:32:32:32 8dBm Nov 17, 2018 02:15:53.063890000 +07
  667  61.937780 32:32:32:32:32:32 10dBm Nov 17, 2018 02:15:53.084762000 +07
  668  61.952001 32:32:32:32:32:32 8dBm Nov 17, 2018 02:15:53.098983000 +07
  669  62.007278 32:32:32:32:32:32 7dBm Nov 17, 2018 02:15:53.154260000 +07
  670  62.152073 32:32:32:32:32:32 9dBm Nov 17, 2018 02:15:53.299055000 +07
  671  62.208782 32:32:32:32:32:32 9dBm Nov 17, 2018 02:15:53.355764000 +07
  672  62.225363 32:32:32:32:32:32 7dBm Nov 17, 2018 02:15:53.372345000 +07
  673  62.272582 32:32:32:32:32:32 9dBm Nov 17, 2018 02:15:53.419564000 +07
  674  62.289286 32:32:32:32:32:32 8dBm Nov 17, 2018 02:15:53.436268000 +07
  675  62.312354 32:32:32:32:32:32 8dBm Nov 17, 2018 02:15:53.459336000 +07
  676  62.387006 32:32:32:32:32:32 10dBm Nov 17, 2018 02:15:53.533988000 +07
  677  62.438327 32:32:32:32:32:32 10dBm Nov 17, 2018 02:15:53.585309000 +07
  678  62.473223 32:32:32:32:32:32 9dBm Nov 17, 2018 02:15:53.620205000 +07
  679  62.495281 32:32:32:32:32:32 9dBm Nov 17, 2018 02:15:53.642263000 +07
  680  62.511672 32:32:32:32:32:32 9dBm Nov 17, 2018 02:15:53.658654000 +07
  681  62.524057 32:32:32:32:32:32 10dBm Nov 17, 2018 02:15:53.671039000 +07
  682  62.800362 32:32:32:32:32:32 11dBm Nov 17, 2018 02:15:53.947344000 +07
  683  62.818193 32:32:32:32:32:32 9dBm Nov 17, 2018 02:15:53.965175000 +07
  684  62.834331 32:32:32:32:32:32 10dBm Nov 17, 2018 02:15:53.981313000 +07
  685  62.859325 32:32:32:32:32:32 9dBm Nov 17, 2018 02:15:54.006307000 +07
  686  63.009040 32:32:32:32:32:32 8dBm Nov 17, 2018 02:15:54.156022000 +07
  687  63.044172 32:32:32:32:32:32 9dBm Nov 17, 2018 02:15:54.191154000 +07
  688  63.086226 32:32:32:32:32:32 9dBm Nov 17, 2018 02:15:54.233208000 +07
  689  63.271723 32:32:32:32:32:32 9dBm Nov 17, 2018 02:15:54.418705000 +07
  690  63.309464 32:32:32:32:32:32 10dBm Nov 17, 2018 02:15:54.456446000 +07
  691  63.327053 32:32:32:32:32:32 8dBm Nov 17, 2018 02:15:54.474035000 +07
  692  63.469701 32:32:32:32:32:32 9dBm Nov 17, 2018 02:15:54.616683000 +07
  693  63.518716 32:32:32:32:32:32 7dBm Nov 17, 2018 02:15:54.665698000 +07
  694  63.681322 32:32:32:32:32:32 8dBm Nov 17, 2018 02:15:54.828304000 +07
  695  63.769390 32:32:32:32:32:32 9dBm Nov 17, 2018 02:15:54.916372000 +07
  696  63.785685 32:32:32:32:32:32 7dBm Nov 17, 2018 02:15:54.932667000 +07
  697  63.989819 32:32:32:32:32:32 4dBm Nov 17, 2018 02:15:55.136801000 +07
  698  64.165321 32:32:32:32:32:32 10dBm Nov 17, 2018 02:15:55.312303000 +07
  699  64.194852 32:32:32:32:32:32 10dBm Nov 17, 2018 02:15:55.341834000 +07
  700  64.213495 32:32:32:32:32:32 10dBm Nov 17, 2018 02:15:55.360477000 +07
  701  64.236782 32:32:32:32:32:32 9dBm Nov 17, 2018 02:15:55.383764000 +07
  702  64.264517 32:32:32:32:32:32 10dBm Nov 17, 2018 02:15:55.411499000 +07
  703  64.301849 32:32:32:32:32:32 10dBm Nov 17, 2018 02:15:55.448831000 +07
  704  64.399098 32:32:32:32:32:32 7dBm Nov 17, 2018 02:15:55.546080000 +07
  705  64.465731 32:32:32:32:32:32 10dBm Nov 17, 2018 02:15:55.612713000 +07
  706  64.557800 32:32:32:32:32:32 9dBm Nov 17, 2018 02:15:55.704782000 +07
  707  64.638843 32:32:32:32:32:32 9dBm Nov 17, 2018 02:15:55.785825000 +07
  708  64.670170 32:32:32:32:32:32 9dBm Nov 17, 2018 02:15:55.817152000 +07
  709  64.724250 32:32:32:32:32:32 9dBm Nov 17, 2018 02:15:55.871232000 +07
  710  64.939326 32:32:32:32:32:32 10dBm Nov 17, 2018 02:15:56.086308000 +07
  711  64.985173 32:32:32:32:32:32 9dBm Nov 17, 2018 02:15:56.132155000 +07
  712  65.015703 32:32:32:32:32:32 10dBm Nov 17, 2018 02:15:56.162685000 +07
  713  65.054756 32:32:32:32:32:32 9dBm Nov 17, 2018 02:15:56.201738000 +07
  714  65.244028 32:32:32:32:32:32 8dBm Nov 17, 2018 02:15:56.391010000 +07
  715  65.426254 32:32:32:32:32:32 9dBm Nov 17, 2018 02:15:56.573236000 +07
  716  65.501598 32:32:32:32:32:32 10dBm Nov 17, 2018 02:15:56.648580000 +07
  717  65.595543 32:32:32:32:32:32 8dBm Nov 17, 2018 02:15:56.742525000 +07
  718  65.664270 32:32:32:32:32:32 6dBm Nov 17, 2018 02:15:56.811252000 +07
  719  65.720908 32:32:32:32:32:32 10dBm Nov 17, 2018 02:15:56.867890000 +07
  720  65.765872 32:32:32:32:32:32 10dBm Nov 17, 2018 02:15:56.912854000 +07
  721  65.804720 32:32:32:32:32:32 9dBm Nov 17, 2018 02:15:56.951702000 +07
  722  66.020481 32:32:32:32:32:32 8dBm Nov 17, 2018 02:15:57.167463000 +07
  723  66.097688 32:32:32:32:32:32 8dBm Nov 17, 2018 02:15:57.244670000 +07
  724  66.194905 32:32:32:32:32:32 10dBm Nov 17, 2018 02:15:57.341887000 +07
  725  66.298981 32:32:32:32:32:32 8dBm Nov 17, 2018 02:15:57.445963000 +07
  726  66.326536 32:32:32:32:32:32 10dBm Nov 17, 2018 02:15:57.473518000 +07
  727  66.379117 32:32:32:32:32:32 8dBm Nov 17, 2018 02:15:57.526099000 +07
  728  66.441482 32:32:32:32:32:32 10dBm Nov 17, 2018 02:15:57.588464000 +07
  729  66.572335 32:32:32:32:32:32 9dBm Nov 17, 2018 02:15:57.719317000 +07
  730  66.626776 32:32:32:32:32:32 10dBm Nov 17, 2018 02:15:57.773758000 +07
  731  66.645114 32:32:32:32:32:32 10dBm Nov 17, 2018 02:15:57.792096000 +07
  732  66.680692 32:32:32:32:32:32 10dBm Nov 17, 2018 02:15:57.827674000 +07
  733  66.706399 32:32:32:32:32:32 10dBm Nov 17, 2018 02:15:57.853381000 +07
  734  66.787540 32:32:32:32:32:32 9dBm Nov 17, 2018 02:15:57.934522000 +07
  735  66.848890 32:32:32:32:32:32 9dBm Nov 17, 2018 02:15:57.995872000 +07
  736  66.911233 32:32:32:32:32:32 10dBm Nov 17, 2018 02:15:58.058215000 +07
  737  67.029694 32:32:32:32:32:32 10dBm Nov 17, 2018 02:15:58.176676000 +07
  738  67.056315 32:32:32:32:32:32 9dBm Nov 17, 2018 02:15:58.203297000 +07
  739  67.235130 32:32:32:32:32:32 9dBm Nov 17, 2018 02:15:58.382112000 +07
  740  67.393531 32:32:32:32:32:32 7dBm Nov 17, 2018 02:15:58.540513000 +07
  741  67.449308 32:32:32:32:32:32 9dBm Nov 17, 2018 02:15:58.596290000 +07
  742  67.465809 32:32:32:32:32:32 10dBm Nov 17, 2018 02:15:58.612791000 +07
  743  67.668504 32:32:32:32:32:32 11dBm Nov 17, 2018 02:15:58.815486000 +07
  744  67.732116 32:32:32:32:32:32 10dBm Nov 17, 2018 02:15:58.879098000 +07
  745  67.739467 32:32:32:32:32:32 7dBm Nov 17, 2018 02:15:58.886449000 +07
  746  67.818839 32:32:32:32:32:32 9dBm Nov 17, 2018 02:15:58.965821000 +07
  747  67.919055 32:32:32:32:32:32 10dBm Nov 17, 2018 02:15:59.066037000 +07
  748  67.978576 32:32:32:32:32:32 9dBm Nov 17, 2018 02:15:59.125558000 +07
  749  67.991533 32:32:32:32:32:32 9dBm Nov 17, 2018 02:15:59.138515000 +07
  750  68.046592 32:32:32:32:32:32 9dBm Nov 17, 2018 02:15:59.193574000 +07
  751  68.051066 32:32:32:32:32:32 11dBm Nov 17, 2018 02:15:59.198048000 +07
  752  68.100127 32:32:32:32:32:32 9dBm Nov 17, 2018 02:15:59.247109000 +07
  753  68.145240 32:32:32:32:32:32 9dBm Nov 17, 2018 02:15:59.292222000 +07
  754  68.178738 32:32:32:32:32:32 8dBm Nov 17, 2018 02:15:59.325720000 +07
  755  68.229350 32:32:32:32:32:32 10dBm Nov 17, 2018 02:15:59.376332000 +07
  756  68.256253 32:32:32:32:32:32 11dBm Nov 17, 2018 02:15:59.403235000 +07
  757  68.280875 32:32:32:32:32:32 10dBm Nov 17, 2018 02:15:59.427857000 +07
  758  68.335577 32:32:32:32:32:32 9dBm Nov 17, 2018 02:15:59.482559000 +07
  759  68.417705 32:32:32:32:32:32 10dBm Nov 17, 2018 02:15:59.564687000 +07
  760  68.469896 32:32:32:32:32:32 10dBm Nov 17, 2018 02:15:59.616878000 +07
  761  68.493733 32:32:32:32:32:32 8dBm Nov 17, 2018 02:15:59.640715000 +07
  762  68.506319 32:32:32:32:32:32 9dBm Nov 17, 2018 02:15:59.653301000 +07
  763  69.072927 32:32:32:32:32:32 7dBm Nov 17, 2018 02:16:00.219909000 +07
  764  69.123303 32:32:32:32:32:32 9dBm Nov 17, 2018 02:16:00.270285000 +07
  765  69.152151 32:32:32:32:32:32 8dBm Nov 17, 2018 02:16:00.299133000 +07
  766  69.171285 32:32:32:32:32:32 9dBm Nov 17, 2018 02:16:00.318267000 +07
  767  69.290469 32:32:32:32:32:32 2dBm Nov 17, 2018 02:16:00.437451000 +07
  768  69.324178 32:32:32:32:32:32 7dBm Nov 17, 2018 02:16:00.471160000 +07
  769  69.404204 32:32:32:32:32:32 8dBm Nov 17, 2018 02:16:00.551186000 +07
  770  69.480468 32:32:32:32:32:32 9dBm Nov 17, 2018 02:16:00.627450000 +07
  771  69.548518 32:32:32:32:32:32 7dBm Nov 17, 2018 02:16:00.695500000 +07
  772  69.573338 32:32:32:32:32:32 9dBm Nov 17, 2018 02:16:00.720320000 +07
  773  69.682094 32:32:32:32:32:32 10dBm Nov 17, 2018 02:16:00.829076000 +07
  774  69.802974 32:32:32:32:32:32 8dBm Nov 17, 2018 02:16:00.949956000 +07
  775  69.828755 32:32:32:32:32:32 9dBm Nov 17, 2018 02:16:00.975737000 +07
  776  69.863984 32:32:32:32:32:32 9dBm Nov 17, 2018 02:16:01.010966000 +07
  777  69.896393 32:32:32:32:32:32 10dBm Nov 17, 2018 02:16:01.043375000 +07
  778  69.919061 32:32:32:32:32:32 4dBm Nov 17, 2018 02:16:01.066043000 +07
  779  69.933527 32:32:32:32:32:32 9dBm Nov 17, 2018 02:16:01.080509000 +07
  780  70.084297 32:32:32:32:32:32 8dBm Nov 17, 2018 02:16:01.231279000 +07
  781  70.167422 32:32:32:32:32:32 8dBm Nov 17, 2018 02:16:01.314404000 +07
  782  70.445228 32:32:32:32:32:32 9dBm Nov 17, 2018 02:16:01.592210000 +07
  783  70.800133 32:32:32:32:32:32 8dBm Nov 17, 2018 02:16:01.947115000 +07
  784  70.841430 32:32:32:32:32:32 8dBm Nov 17, 2018 02:16:01.988412000 +07
  785  70.920335 32:32:32:32:32:32 8dBm Nov 17, 2018 02:16:02.067317000 +07
  786  70.964847 32:32:32:32:32:32 9dBm Nov 17, 2018 02:16:02.111829000 +07
  787  71.037933 32:32:32:32:32:32 9dBm Nov 17, 2018 02:16:02.184915000 +07
  788  71.080197 32:32:32:32:32:32 9dBm Nov 17, 2018 02:16:02.227179000 +07
  789  71.107166 32:32:32:32:32:32 10dBm Nov 17, 2018 02:16:02.254148000 +07
  790  71.248144 32:32:32:32:32:32 9dBm Nov 17, 2018 02:16:02.395126000 +07
  791  71.307666 32:32:32:32:32:32 8dBm Nov 17, 2018 02:16:02.454648000 +07
  792  71.374355 32:32:32:32:32:32 9dBm Nov 17, 2018 02:16:02.521337000 +07
  793  71.440396 32:32:32:32:32:32 9dBm Nov 17, 2018 02:16:02.587378000 +07
  794  71.477758 32:32:32:32:32:32 10dBm Nov 17, 2018 02:16:02.624740000 +07
  795  71.505982 32:32:32:32:32:32 9dBm Nov 17, 2018 02:16:02.652964000 +07
  796  71.678063 32:32:32:32:32:32 7dBm Nov 17, 2018 02:16:02.825045000 +07
  797  71.765026 32:32:32:32:32:32 10dBm Nov 17, 2018 02:16:02.912008000 +07
  798  71.817849 32:32:32:32:32:32 11dBm Nov 17, 2018 02:16:02.964831000 +07
  799  71.916898 32:32:32:32:32:32 8dBm Nov 17, 2018 02:16:03.063880000 +07
  800  71.943599 32:32:32:32:32:32 9dBm Nov 17, 2018 02:16:03.090581000 +07
  801  71.961941 32:32:32:32:32:32 8dBm Nov 17, 2018 02:16:03.108923000 +07
  802  72.010203 32:32:32:32:32:32 9dBm Nov 17, 2018 02:16:03.157185000 +07
  803  72.108396 32:32:32:32:32:32 8dBm Nov 17, 2018 02:16:03.255378000 +07
  804  72.149355 32:32:32:32:32:32 10dBm Nov 17, 2018 02:16:03.296337000 +07
  805  72.226420 32:32:32:32:32:32 9dBm Nov 17, 2018 02:16:03.373402000 +07
  806  72.379926 32:32:32:32:32:32 11dBm Nov 17, 2018 02:16:03.526908000 +07
  807  72.537795 32:32:32:32:32:32 9dBm Nov 17, 2018 02:16:03.684777000 +07
  808  72.624537 32:32:32:32:32:32 10dBm Nov 17, 2018 02:16:03.771519000 +07
  809  72.676901 32:32:32:32:32:32 10dBm Nov 17, 2018 02:16:03.823883000 +07
  810  72.827235 32:32:32:32:32:32 8dBm Nov 17, 2018 02:16:03.974217000 +07
  811  72.899420 32:32:32:32:32:32 9dBm Nov 17, 2018 02:16:04.046402000 +07
  812  72.938649 32:32:32:32:32:32 7dBm Nov 17, 2018 02:16:04.085631000 +07
  813  72.958775 32:32:32:32:32:32 8dBm Nov 17, 2018 02:16:04.105757000 +07
  814  73.311169 32:32:32:32:32:32 9dBm Nov 17, 2018 02:16:04.458151000 +07
  815  73.343841 32:32:32:32:32:32 9dBm Nov 17, 2018 02:16:04.490823000 +07
  816  73.366938 32:32:32:32:32:32 10dBm Nov 17, 2018 02:16:04.513920000 +07
  817  73.409471 32:32:32:32:32:32 8dBm Nov 17, 2018 02:16:04.556453000 +07
  818  73.439167 32:32:32:32:32:32 8dBm Nov 17, 2018 02:16:04.586149000 +07
  819  73.462675 32:32:32:32:32:32 11dBm Nov 17, 2018 02:16:04.609657000 +07
  820  74.056911 32:32:32:32:32:32 10dBm Nov 17, 2018 02:16:05.203893000 +07
  821  74.110352 32:32:32:32:32:32 8dBm Nov 17, 2018 02:16:05.257334000 +07
  822  74.151115 32:32:32:32:32:32 9dBm Nov 17, 2018 02:16:05.298097000 +07
  823  74.301350 32:32:32:32:32:32 9dBm Nov 17, 2018 02:16:05.448332000 +07
  824  74.434977 32:32:32:32:32:32 8dBm Nov 17, 2018 02:16:05.581959000 +07
  825  74.473527 32:32:32:32:32:32 10dBm Nov 17, 2018 02:16:05.620509000 +07
  826  74.494806 32:32:32:32:32:32 10dBm Nov 17, 2018 02:16:05.641788000 +07
  827  74.525353 32:32:32:32:32:32 8dBm Nov 17, 2018 02:16:05.672335000 +07
  828  74.798723 32:32:32:32:32:32 9dBm Nov 17, 2018 02:16:05.945705000 +07
  829  74.906946 32:32:32:32:32:32 7dBm Nov 17, 2018 02:16:06.053928000 +07
  830  74.959877 32:32:32:32:32:32 9dBm Nov 17, 2018 02:16:06.106859000 +07
  831  75.012683 32:32:32:32:32:32 9dBm Nov 17, 2018 02:16:06.159665000 +07
  832  75.179432 32:32:32:32:32:32 8dBm Nov 17, 2018 02:16:06.326414000 +07
  833  75.234639 32:32:32:32:32:32 9dBm Nov 17, 2018 02:16:06.381621000 +07
  834  75.265292 32:32:32:32:32:32 10dBm Nov 17, 2018 02:16:06.412274000 +07
  835  75.320908 32:32:32:32:32:32 11dBm Nov 17, 2018 02:16:06.467890000 +07
  836  75.373630 32:32:32:32:32:32 10dBm Nov 17, 2018 02:16:06.520612000 +07
  837  75.385357 32:32:32:32:32:32 9dBm Nov 17, 2018 02:16:06.532339000 +07
  838  75.516255 32:32:32:32:32:32 9dBm Nov 17, 2018 02:16:06.663237000 +07
  839  75.636537 32:32:32:32:32:32 10dBm Nov 17, 2018 02:16:06.783519000 +07
  840  75.842898 32:32:32:32:32:32 9dBm Nov 17, 2018 02:16:06.989880000 +07
  841  76.051691 32:32:32:32:32:32 9dBm Nov 17, 2018 02:16:07.198673000 +07
  842  76.082773 32:32:32:32:32:32 8dBm Nov 17, 2018 02:16:07.229755000 +07
  843  76.315907 32:32:32:32:32:32 10dBm Nov 17, 2018 02:16:07.462889000 +07
  844  76.344707 32:32:32:32:32:32 10dBm Nov 17, 2018 02:16:07.491689000 +07
  845  76.363484 32:32:32:32:32:32 9dBm Nov 17, 2018 02:16:07.510466000 +07
  846  77.070884 32:32:32:32:32:32 9dBm Nov 17, 2018 02:16:08.217866000 +07
  847  77.129901 32:32:32:32:32:32 10dBm Nov 17, 2018 02:16:08.276883000 +07
  848  77.187675 32:32:32:32:32:32 8dBm Nov 17, 2018 02:16:08.334657000 +07
  849  77.222151 32:32:32:32:32:32 7dBm Nov 17, 2018 02:16:08.369133000 +07
  850  77.466278 32:32:32:32:32:32 10dBm Nov 17, 2018 02:16:08.613260000 +07
  851  77.527003 32:32:32:32:32:32 10dBm Nov 17, 2018 02:16:08.673985000 +07
  852  77.703286 32:32:32:32:32:32 8dBm Nov 17, 2018 02:16:08.850268000 +07
  853  77.865114 32:32:32:32:32:32 10dBm Nov 17, 2018 02:16:09.012096000 +07
  854  77.920526 32:32:32:32:32:32 11dBm Nov 17, 2018 02:16:09.067508000 +07
  855  77.938526 32:32:32:32:32:32 10dBm Nov 17, 2018 02:16:09.085508000 +07
  856  78.136197 32:32:32:32:32:32 10dBm Nov 17, 2018 02:16:09.283179000 +07
  857  78.166811 32:32:32:32:32:32 11dBm Nov 17, 2018 02:16:09.313793000 +07
  858  78.192407 32:32:32:32:32:32 10dBm Nov 17, 2018 02:16:09.339389000 +07
  859  78.207659 32:32:32:32:32:32 10dBm Nov 17, 2018 02:16:09.354641000 +07
  860  78.590068 32:32:32:32:32:32 11dBm Nov 17, 2018 02:16:09.737050000 +07
  861  78.599964 32:32:32:32:32:32 11dBm Nov 17, 2018 02:16:09.746946000 +07
  862  78.762430 32:32:32:32:32:32 9dBm Nov 17, 2018 02:16:09.909412000 +07
  863  78.837847 32:32:32:32:32:32 10dBm Nov 17, 2018 02:16:09.984829000 +07
  864  78.948161 32:32:32:32:32:32 10dBm Nov 17, 2018 02:16:10.095143000 +07
  865  79.028893 32:32:32:32:32:32 7dBm Nov 17, 2018 02:16:10.175875000 +07
  866  79.045985 32:32:32:32:32:32 8dBm Nov 17, 2018 02:16:10.192967000 +07
  867  79.101312 32:32:32:32:32:32 10dBm Nov 17, 2018 02:16:10.248294000 +07
  868  79.243221 32:32:32:32:32:32 9dBm Nov 17, 2018 02:16:10.390203000 +07
  869  79.306158 32:32:32:32:32:32 8dBm Nov 17, 2018 02:16:10.453140000 +07
  870  79.479717 32:32:32:32:32:32 8dBm Nov 17, 2018 02:16:10.626699000 +07
  871  79.524665 32:32:32:32:32:32 9dBm Nov 17, 2018 02:16:10.671647000 +07
  872  79.545911 32:32:32:32:32:32 6dBm Nov 17, 2018 02:16:10.692893000 +07
  873  79.755756 32:32:32:32:32:32 10dBm Nov 17, 2018 02:16:10.902738000 +07
  874  79.795822 32:32:32:32:32:32 8dBm Nov 17, 2018 02:16:10.942804000 +07
  875  79.824530 32:32:32:32:32:32 8dBm Nov 17, 2018 02:16:10.971512000 +07
  876  80.041429 32:32:32:32:32:32 8dBm Nov 17, 2018 02:16:11.188411000 +07
  877  80.078655 32:32:32:32:32:32 8dBm Nov 17, 2018 02:16:11.225637000 +07
  878  80.147954 32:32:32:32:32:32 8dBm Nov 17, 2018 02:16:11.294936000 +07
  879  80.186429 32:32:32:32:32:32 9dBm Nov 17, 2018 02:16:11.333411000 +07
  880  80.264686 32:32:32:32:32:32 8dBm Nov 17, 2018 02:16:11.411668000 +07
  881  80.340178 32:32:32:32:32:32 8dBm Nov 17, 2018 02:16:11.487160000 +07
  882  80.440720 32:32:32:32:32:32 8dBm Nov 17, 2018 02:16:11.587702000 +07
  883  80.514604 32:32:32:32:32:32 9dBm Nov 17, 2018 02:16:11.661586000 +07
  884  80.823588 32:32:32:32:32:32 11dBm Nov 17, 2018 02:16:11.970570000 +07
  885  80.837673 32:32:32:32:32:32 9dBm Nov 17, 2018 02:16:11.984655000 +07
  886  80.853240 32:32:32:32:32:32 9dBm Nov 17, 2018 02:16:12.000222000 +07
  887  80.900101 32:32:32:32:32:32 9dBm Nov 17, 2018 02:16:12.047083000 +07
  888  81.118225 32:32:32:32:32:32 9dBm Nov 17, 2018 02:16:12.265207000 +07
  889  81.274517 32:32:32:32:32:32 8dBm Nov 17, 2018 02:16:12.421499000 +07
  890  81.323122 32:32:32:32:32:32 7dBm Nov 17, 2018 02:16:12.470104000 +07
  891  81.339185 32:32:32:32:32:32 9dBm Nov 17, 2018 02:16:12.486167000 +07
  892  81.364391 32:32:32:32:32:32 9dBm Nov 17, 2018 02:16:12.511373000 +07
  893  81.538895 32:32:32:32:32:32 7dBm Nov 17, 2018 02:16:12.685877000 +07
  894  81.611562 32:32:32:32:32:32 8dBm Nov 17, 2018 02:16:12.758544000 +07
  895  81.695328 32:32:32:32:32:32 9dBm Nov 17, 2018 02:16:12.842310000 +07
  896  81.815286 32:32:32:32:32:32 8dBm Nov 17, 2018 02:16:12.962268000 +07
  897  81.900526 32:32:32:32:32:32 8dBm Nov 17, 2018 02:16:13.047508000 +07
  898  82.000898 32:32:32:32:32:32 9dBm Nov 17, 2018 02:16:13.147880000 +07
  899  82.245771 32:32:32:32:32:32 6dBm Nov 17, 2018 02:16:13.392753000 +07
  900  82.291539 32:32:32:32:32:32 8dBm Nov 17, 2018 02:16:13.438521000 +07
  901  82.385085 32:32:32:32:32:32 7dBm Nov 17, 2018 02:16:13.532067000 +07
  902  82.475801 32:32:32:32:32:32 7dBm Nov 17, 2018 02:16:13.622783000 +07
  903  82.525347 32:32:32:32:32:32 7dBm Nov 17, 2018 02:16:13.672329000 +07
  904  82.665454 32:32:32:32:32:32 7dBm Nov 17, 2018 02:16:13.812436000 +07
  905  82.941510 32:32:32:32:32:32 10dBm Nov 17, 2018 02:16:14.088492000 +07
  906  83.014284 32:32:32:32:32:32 9dBm Nov 17, 2018 02:16:14.161266000 +07
  907  83.077439 32:32:32:32:32:32 9dBm Nov 17, 2018 02:16:14.224421000 +07
  908  83.089309 32:32:32:32:32:32 8dBm Nov 17, 2018 02:16:14.236291000 +07
  909  83.106800 32:32:32:32:32:32 8dBm Nov 17, 2018 02:16:14.253782000 +07
  910  83.130116 32:32:32:32:32:32 7dBm Nov 17, 2018 02:16:14.277098000 +07
  911  83.158983 32:32:32:32:32:32 9dBm Nov 17, 2018 02:16:14.305965000 +07
  912  83.178929 32:32:32:32:32:32 8dBm Nov 17, 2018 02:16:14.325911000 +07
  913  83.197406 32:32:32:32:32:32 9dBm Nov 17, 2018 02:16:14.344388000 +07
  914  83.224062 32:32:32:32:32:32 9dBm Nov 17, 2018 02:16:14.371044000 +07
  915  83.279215 32:32:32:32:32:32 10dBm Nov 17, 2018 02:16:14.426197000 +07
  916  83.361002 32:32:32:32:32:32 9dBm Nov 17, 2018 02:16:14.507984000 +07
  917  83.430059 32:32:32:32:32:32 6dBm Nov 17, 2018 02:16:14.577041000 +07
  918  83.562367 32:32:32:32:32:32 8dBm Nov 17, 2018 02:16:14.709349000 +07
  919  83.643068 32:32:32:32:32:32 7dBm Nov 17, 2018 02:16:14.790050000 +07
  920  83.807416 32:32:32:32:32:32 8dBm Nov 17, 2018 02:16:14.954398000 +07
  921  83.869033 32:32:32:32:32:32 9dBm Nov 17, 2018 02:16:15.016015000 +07
  922  83.902702 32:32:32:32:32:32 9dBm Nov 17, 2018 02:16:15.049684000 +07
  923  83.915760 32:32:32:32:32:32 8dBm Nov 17, 2018 02:16:15.062742000 +07
  924  83.979226 32:32:32:32:32:32 10dBm Nov 17, 2018 02:16:15.126208000 +07
  925  84.211993 32:32:32:32:32:32 8dBm Nov 17, 2018 02:16:15.358975000 +07
  926  84.467178 32:32:32:32:32:32 8dBm Nov 17, 2018 02:16:15.614160000 +07
  927  84.488092 32:32:32:32:32:32 8dBm Nov 17, 2018 02:16:15.635074000 +07
  928  84.502631 32:32:32:32:32:32 7dBm Nov 17, 2018 02:16:15.649613000 +07
  929  84.547878 32:32:32:32:32:32 7dBm Nov 17, 2018 02:16:15.694860000 +07
  930  84.744816 32:32:32:32:32:32 8dBm Nov 17, 2018 02:16:15.891798000 +07
  931  84.887510 32:32:32:32:32:32 7dBm Nov 17, 2018 02:16:16.034492000 +07
  932  84.940793 32:32:32:32:32:32 8dBm Nov 17, 2018 02:16:16.087775000 +07
  933  84.964330 32:32:32:32:32:32 10dBm Nov 17, 2018 02:16:16.111312000 +07
  934  85.182202 32:32:32:32:32:32 9dBm Nov 17, 2018 02:16:16.329184000 +07
  935  85.614231 32:32:32:32:32:32 6dBm Nov 17, 2018 02:16:16.761213000 +07
  936  85.779045 32:32:32:32:32:32 8dBm Nov 17, 2018 02:16:16.926027000 +07
  937  85.921185 32:32:32:32:32:32 8dBm Nov 17, 2018 02:16:17.068167000 +07
  938  85.937301 32:32:32:32:32:32 8dBm Nov 17, 2018 02:16:17.084283000 +07
  939  85.968059 32:32:32:32:32:32 6dBm Nov 17, 2018 02:16:17.115041000 +07
  940  85.989913 32:32:32:32:32:32 8dBm Nov 17, 2018 02:16:17.136895000 +07
  941  86.116739 32:32:32:32:32:32 9dBm Nov 17, 2018 02:16:17.263721000 +07
  942  86.175675 32:32:32:32:32:32 8dBm Nov 17, 2018 02:16:17.322657000 +07
  943  86.201991 32:32:32:32:32:32 9dBm Nov 17, 2018 02:16:17.348973000 +07
  944  86.371438 32:32:32:32:32:32 8dBm Nov 17, 2018 02:16:17.518420000 +07
  945  86.406157 32:32:32:32:32:32 9dBm Nov 17, 2018 02:16:17.553139000 +07
  946  86.619428 32:32:32:32:32:32 9dBm Nov 17, 2018 02:16:17.766410000 +07
  947  86.640492 32:32:32:32:32:32 9dBm Nov 17, 2018 02:16:17.787474000 +07
  948  86.657161 32:32:32:32:32:32 10dBm Nov 17, 2018 02:16:17.804143000 +07
  949  86.675081 32:32:32:32:32:32 8dBm Nov 17, 2018 02:16:17.822063000 +07
  950  86.702807 32:32:32:32:32:32 7dBm Nov 17, 2018 02:16:17.849789000 +07
  951  87.056228 32:32:32:32:32:32 10dBm Nov 17, 2018 02:16:18.203210000 +07
  952  87.181619 32:32:32:32:32:32 9dBm Nov 17, 2018 02:16:18.328601000 +07
  953  87.303684 32:32:32:32:32:32 7dBm Nov 17, 2018 02:16:18.450666000 +07
  954  87.327127 32:32:32:32:32:32 7dBm Nov 17, 2018 02:16:18.474109000 +07
  955  87.346947 32:32:32:32:32:32 8dBm Nov 17, 2018 02:16:18.493929000 +07
  956  87.387921 32:32:32:32:32:32 9dBm Nov 17, 2018 02:16:18.534903000 +07
  957  87.602882 32:32:32:32:32:32 8dBm Nov 17, 2018 02:16:18.749864000 +07
  958  87.790109 32:32:32:32:32:32 10dBm Nov 17, 2018 02:16:18.937091000 +07
  959  87.836356 32:32:32:32:32:32 10dBm Nov 17, 2018 02:16:18.983338000 +07
  960  87.965657 32:32:32:32:32:32 8dBm Nov 17, 2018 02:16:19.112639000 +07
  961  88.121669 32:32:32:32:32:32 10dBm Nov 17, 2018 02:16:19.268651000 +07
  962  88.147675 32:32:32:32:32:32 8dBm Nov 17, 2018 02:16:19.294657000 +07
  963  88.178448 32:32:32:32:32:32 9dBm Nov 17, 2018 02:16:19.325430000 +07
  964  88.242476 32:32:32:32:32:32 9dBm Nov 17, 2018 02:16:19.389458000 +07
  965  88.306385 32:32:32:32:32:32 9dBm Nov 17, 2018 02:16:19.453367000 +07
  966  88.364446 32:32:32:32:32:32 10dBm Nov 17, 2018 02:16:19.511428000 +07
  967  88.614042 32:32:32:32:32:32 10dBm Nov 17, 2018 02:16:19.761024000 +07
  968  89.108911 32:32:32:32:32:32 9dBm Nov 17, 2018 02:16:20.255893000 +07
  969  89.285222 32:32:32:32:32:32 10dBm Nov 17, 2018 02:16:20.432204000 +07
  970  89.316027 32:32:32:32:32:32 9dBm Nov 17, 2018 02:16:20.463009000 +07
  971  89.414897 32:32:32:32:32:32 9dBm Nov 17, 2018 02:16:20.561879000 +07
  972  89.454870 32:32:32:32:32:32 8dBm Nov 17, 2018 02:16:20.601852000 +07
  973  89.540315 32:32:32:32:32:32 8dBm Nov 17, 2018 02:16:20.687297000 +07
  974  89.647736 32:32:32:32:32:32 9dBm Nov 17, 2018 02:16:20.794718000 +07
  975  89.674904 32:32:32:32:32:32 9dBm Nov 17, 2018 02:16:20.821886000 +07
  976  89.745316 32:32:32:32:32:32 9dBm Nov 17, 2018 02:16:20.892298000 +07
  977  89.805982 32:32:32:32:32:32 10dBm Nov 17, 2018 02:16:20.952964000 +07
  978  89.881218 32:32:32:32:32:32 10dBm Nov 17, 2018 02:16:21.028200000 +07
  979  89.952572 32:32:32:32:32:32 8dBm Nov 17, 2018 02:16:21.099554000 +07
  980  90.156369 32:32:32:32:32:32 11dBm Nov 17, 2018 02:16:21.303351000 +07
  981  90.202664 32:32:32:32:32:32 5dBm Nov 17, 2018 02:16:21.349646000 +07
  982  90.319726 32:32:32:32:32:32 9dBm Nov 17, 2018 02:16:21.466708000 +07
  983  90.341708 32:32:32:32:32:32 9dBm Nov 17, 2018 02:16:21.488690000 +07
  984  90.351291 32:32:32:32:32:32 9dBm Nov 17, 2018 02:16:21.498273000 +07
  985  90.411341 32:32:32:32:32:32 9dBm Nov 17, 2018 02:16:21.558323000 +07
  986  90.711701 32:32:32:32:32:32 8dBm Nov 17, 2018 02:16:21.858683000 +07
  987  90.764628 32:32:32:32:32:32 10dBm Nov 17, 2018 02:16:21.911610000 +07
  988  90.787867 32:32:32:32:32:32 9dBm Nov 17, 2018 02:16:21.934849000 +07
  989  90.876705 32:32:32:32:32:32 9dBm Nov 17, 2018 02:16:22.023687000 +07
  990  91.032064 32:32:32:32:32:32 8dBm Nov 17, 2018 02:16:22.179046000 +07
  991  91.103335 32:32:32:32:32:32 7dBm Nov 17, 2018 02:16:22.250317000 +07
  992  91.131051 32:32:32:32:32:32 10dBm Nov 17, 2018 02:16:22.278033000 +07
  993  91.159351 32:32:32:32:32:32 9dBm Nov 17, 2018 02:16:22.306333000 +07
  994  91.176991 32:32:32:32:32:32 9dBm Nov 17, 2018 02:16:22.323973000 +07
  995  91.308196 32:32:32:32:32:32 9dBm Nov 17, 2018 02:16:22.455178000 +07
  996  91.428280 32:32:32:32:32:32 10dBm Nov 17, 2018 02:16:22.575262000 +07
  997  91.501323 32:32:32:32:32:32 8dBm Nov 17, 2018 02:16:22.648305000 +07
  998  91.630209 32:32:32:32:32:32 9dBm Nov 17, 2018 02:16:22.777191000 +07
  999  91.659077 32:32:32:32:32:32 10dBm Nov 17, 2018 02:16:22.806059000 +07
 1000  91.672076 32:32:32:32:32:32 10dBm Nov 17, 2018 02:16:22.819058000 +07
 1001  91.713080 32:32:32:32:32:32 10dBm Nov 17, 2018 02:16:22.860062000 +07
 1002  91.743007 32:32:32:32:32:32 6dBm Nov 17, 2018 02:16:22.889989000 +07
 1003  91.840259 32:32:32:32:32:32 10dBm Nov 17, 2018 02:16:22.987241000 +07
 1004  91.849321 32:32:32:32:32:32 10dBm Nov 17, 2018 02:16:22.996303000 +07
 1005  92.053127 32:32:32:32:32:32 11dBm Nov 17, 2018 02:16:23.200109000 +07
 1006  92.168289 32:32:32:32:32:32 9dBm Nov 17, 2018 02:16:23.315271000 +07
 1007  92.239423 32:32:32:32:32:32 10dBm Nov 17, 2018 02:16:23.386405000 +07
 1008  92.290616 32:32:32:32:32:32 9dBm Nov 17, 2018 02:16:23.437598000 +07
 1009  92.315592 32:32:32:32:32:32 9dBm Nov 17, 2018 02:16:23.462574000 +07
 1010  92.366157 32:32:32:32:32:32 9dBm Nov 17, 2018 02:16:23.513139000 +07
 1011  92.384682 32:32:32:32:32:32 10dBm Nov 17, 2018 02:16:23.531664000 +07
 1012  92.591226 32:32:32:32:32:32 10dBm Nov 17, 2018 02:16:23.738208000 +07
 1013  92.610582 32:32:32:32:32:32 10dBm Nov 17, 2018 02:16:23.757564000 +07
 1014  92.631292 32:32:32:32:32:32 8dBm Nov 17, 2018 02:16:23.778274000 +07
 1015  92.703895 32:32:32:32:32:32 9dBm Nov 17, 2018 02:16:23.850877000 +07
 1016  92.720242 32:32:32:32:32:32 9dBm Nov 17, 2018 02:16:23.867224000 +07
 1017  92.921444 32:32:32:32:32:32 9dBm Nov 17, 2018 02:16:24.068426000 +07
 1018  93.245828 32:32:32:32:32:32 9dBm Nov 17, 2018 02:16:24.392810000 +07
 1019  93.560786 32:32:32:32:32:32 10dBm Nov 17, 2018 02:16:24.707768000 +07
 1020  93.644324 32:32:32:32:32:32 10dBm Nov 17, 2018 02:16:24.791306000 +07
 1021  93.926864 32:32:32:32:32:32 9dBm Nov 17, 2018 02:16:25.073846000 +07
 1022  93.949800 32:32:32:32:32:32 10dBm Nov 17, 2018 02:16:25.096782000 +07
 1023  93.987979 32:32:32:32:32:32 8dBm Nov 17, 2018 02:16:25.134961000 +07
 1024  94.004217 32:32:32:32:32:32 9dBm Nov 17, 2018 02:16:25.151199000 +07
 1025  94.068276 32:32:32:32:32:32 9dBm Nov 17, 2018 02:16:25.215258000 +07
 1026  94.162092 32:32:32:32:32:32 6dBm Nov 17, 2018 02:16:25.309074000 +07
 1027  94.331670 32:32:32:32:32:32 9dBm Nov 17, 2018 02:16:25.478652000 +07
 1028  94.407910 32:32:32:32:32:32 8dBm Nov 17, 2018 02:16:25.554892000 +07
 1029  94.451808 32:32:32:32:32:32 8dBm Nov 17, 2018 02:16:25.598790000 +07
 1030  94.500165 32:32:32:32:32:32 8dBm Nov 17, 2018 02:16:25.647147000 +07
 1031  94.517787 32:32:32:32:32:32 7dBm Nov 17, 2018 02:16:25.664769000 +07
 1032  94.628451 32:32:32:32:32:32 9dBm Nov 17, 2018 02:16:25.775433000 +07
 1033  94.756570 32:32:32:32:32:32 9dBm Nov 17, 2018 02:16:25.903552000 +07
 1034  94.840928 32:32:32:32:32:32 9dBm Nov 17, 2018 02:16:25.987910000 +07
 1035  94.950255 32:32:32:32:32:32 8dBm Nov 17, 2018 02:16:26.097237000 +07
 1036  95.112277 32:32:32:32:32:32 8dBm Nov 17, 2018 02:16:26.259259000 +07
 1037  95.137021 32:32:32:32:32:32 7dBm Nov 17, 2018 02:16:26.284003000 +07
 1038  95.273096 32:32:32:32:32:32 10dBm Nov 17, 2018 02:16:26.420078000 +07
 1039  95.392975 32:32:32:32:32:32 9dBm Nov 17, 2018 02:16:26.539957000 +07
 1040  95.463466 32:32:32:32:32:32 9dBm Nov 17, 2018 02:16:26.610448000 +07
 1041  95.512488 32:32:32:32:32:32 9dBm Nov 17, 2018 02:16:26.659470000 +07
 1042  95.607159 32:32:32:32:32:32 8dBm Nov 17, 2018 02:16:26.754141000 +07
 1043  95.636051 32:32:32:32:32:32 9dBm Nov 17, 2018 02:16:26.783033000 +07
 1044  95.647601 32:32:32:32:32:32 10dBm Nov 17, 2018 02:16:26.794583000 +07
 1045  95.685466 32:32:32:32:32:32 7dBm Nov 17, 2018 02:16:26.832448000 +07
 1046  95.750729 32:32:32:32:32:32 7dBm Nov 17, 2018 02:16:26.897711000 +07
 1047  95.871682 32:32:32:32:32:32 8dBm Nov 17, 2018 02:16:27.018664000 +07
 1048  95.885886 32:32:32:32:32:32 8dBm Nov 17, 2018 02:16:27.032868000 +07
 1049  96.044902 32:32:32:32:32:32 9dBm Nov 17, 2018 02:16:27.191884000 +07
 1050  96.410987 32:32:32:32:32:32 9dBm Nov 17, 2018 02:16:27.557969000 +07
 1051  96.439808 32:32:32:32:32:32 8dBm Nov 17, 2018 02:16:27.586790000 +07
 1052  96.922472 32:32:32:32:32:32 11dBm Nov 17, 2018 02:16:28.069454000 +07
 1053  96.955770 32:32:32:32:32:32 12dBm Nov 17, 2018 02:16:28.102752000 +07
 1054  96.967998 32:32:32:32:32:32 10dBm Nov 17, 2018 02:16:28.114980000 +07
 1055  96.981561 32:32:32:32:32:32 10dBm Nov 17, 2018 02:16:28.128543000 +07
 1056  96.993165 32:32:32:32:32:32 10dBm Nov 17, 2018 02:16:28.140147000 +07
 1057  97.232747 32:32:32:32:32:32 9dBm Nov 17, 2018 02:16:28.379729000 +07
 1058  97.297325 32:32:32:32:32:32 8dBm Nov 17, 2018 02:16:28.444307000 +07
 1059  97.321619 32:32:32:32:32:32 9dBm Nov 17, 2018 02:16:28.468601000 +07
 1060  97.492708 32:32:32:32:32:32 10dBm Nov 17, 2018 02:16:28.639690000 +07
 1061  97.534878 32:32:32:32:32:32 8dBm Nov 17, 2018 02:16:28.681860000 +07
 1062  97.602174 32:32:32:32:32:32 8dBm Nov 17, 2018 02:16:28.749156000 +07
 1063  97.742039 32:32:32:32:32:32 9dBm Nov 17, 2018 02:16:28.889021000 +07
 1064  98.074586 32:32:32:32:32:32 10dBm Nov 17, 2018 02:16:29.221568000 +07
 1065  98.202401 32:32:32:32:32:32 10dBm Nov 17, 2018 02:16:29.349383000 +07
 1066  98.252074 32:32:32:32:32:32 8dBm Nov 17, 2018 02:16:29.399056000 +07
 1067  98.342230 32:32:32:32:32:32 10dBm Nov 17, 2018 02:16:29.489212000 +07
 1068  98.504715 32:32:32:32:32:32 11dBm Nov 17, 2018 02:16:29.651697000 +07
 1069  98.645508 32:32:32:32:32:32 9dBm Nov 17, 2018 02:16:29.792490000 +07
 1070  98.751989 32:32:32:32:32:32 9dBm Nov 17, 2018 02:16:29.898971000 +07
 1071  98.854091 32:32:32:32:32:32 9dBm Nov 17, 2018 02:16:30.001073000 +07
 1072  98.914539 32:32:32:32:32:32 7dBm Nov 17, 2018 02:16:30.061521000 +07
 1073  98.931277 32:32:32:32:32:32 8dBm Nov 17, 2018 02:16:30.078259000 +07
 1074  99.355225 32:32:32:32:32:32 9dBm Nov 17, 2018 02:16:30.502207000 +07
 1075  99.372037 32:32:32:32:32:32 7dBm Nov 17, 2018 02:16:30.519019000 +07
 1076  99.913171 32:32:32:32:32:32 12dBm Nov 17, 2018 02:16:31.060153000 +07
 1077  99.935523 32:32:32:32:32:32 11dBm Nov 17, 2018 02:16:31.082505000 +07
 1078  99.976942 32:32:32:32:32:32 10dBm Nov 17, 2018 02:16:31.123924000 +07
 1079 100.006944 32:32:32:32:32:32 11dBm Nov 17, 2018 02:16:31.153926000 +07
 1080 100.194631 32:32:32:32:32:32 8dBm Nov 17, 2018 02:16:31.341613000 +07
 1081 100.250661 32:32:32:32:32:32 9dBm Nov 17, 2018 02:16:31.397643000 +07
 1082 100.297489 32:32:32:32:32:32 10dBm Nov 17, 2018 02:16:31.444471000 +07
 1083 100.538054 32:32:32:32:32:32 7dBm Nov 17, 2018 02:16:31.685036000 +07
 1084 100.703208 32:32:32:32:32:32 9dBm Nov 17, 2018 02:16:31.850190000 +07
 1085 100.828927 32:32:32:32:32:32 10dBm Nov 17, 2018 02:16:31.975909000 +07
 1086 100.984833 32:32:32:32:32:32 9dBm Nov 17, 2018 02:16:32.131815000 +07
 1087 101.035184 32:32:32:32:32:32 11dBm Nov 17, 2018 02:16:32.182166000 +07
 1088 101.160019 32:32:32:32:32:32 12dBm Nov 17, 2018 02:16:32.307001000 +07
 1089 101.201337 32:32:32:32:32:32 12dBm Nov 17, 2018 02:16:32.348319000 +07
 1090 101.241371 32:32:32:32:32:32 11dBm Nov 17, 2018 02:16:32.388353000 +07
 1091 101.412418 32:32:32:32:32:32 12dBm Nov 17, 2018 02:16:32.559400000 +07
 1092 101.469521 32:32:32:32:32:32 11dBm Nov 17, 2018 02:16:32.616503000 +07
 1093 101.519935 32:32:32:32:32:32 10dBm Nov 17, 2018 02:16:32.666917000 +07
 1094 101.563402 32:32:32:32:32:32 10dBm Nov 17, 2018 02:16:32.710384000 +07
 1095 101.813364 32:32:32:32:32:32 11dBm Nov 17, 2018 02:16:32.960346000 +07
 1096 102.060839 32:32:32:32:32:32 10dBm Nov 17, 2018 02:16:33.207821000 +07
 1097 102.133658 32:32:32:32:32:32 10dBm Nov 17, 2018 02:16:33.280640000 +07
 1098 102.245037 32:32:32:32:32:32 9dBm Nov 17, 2018 02:16:33.392019000 +07
 1099 102.338895 32:32:32:32:32:32 10dBm Nov 17, 2018 02:16:33.485877000 +07
 1100 102.384952 32:32:32:32:32:32 11dBm Nov 17, 2018 02:16:33.531934000 +07
 1101 102.621722 32:32:32:32:32:32 10dBm Nov 17, 2018 02:16:33.768704000 +07
 1102 102.777588 32:32:32:32:32:32 10dBm Nov 17, 2018 02:16:33.924570000 +07
 1103 102.841907 32:32:32:32:32:32 11dBm Nov 17, 2018 02:16:33.988889000 +07
 1104 102.852006 32:32:32:32:32:32 9dBm Nov 17, 2018 02:16:33.998988000 +07
 1105 103.025368 32:32:32:32:32:32 9dBm Nov 17, 2018 02:16:34.172350000 +07
 1106 103.028980 32:32:32:32:32:32 9dBm Nov 17, 2018 02:16:34.175962000 +07
 1107 1170451625.115164               Dec 19, 2055 23:41:56.262146000 +07
