                1       032:32:32:32:32:3 12dBm   Nov 17,   201801:29:08.863097000 7          7
                20.02227132:32:32:32:32:3 14dBm   Nov 17,   201801:29:08.885368000 7         16
                3 0.0293532:32:32:32:32:3 13dBm   Nov 17,   201801:29:08.892447000 7        ###
                40.08962832:32:32:32:32:3 14dBm   Nov 17,   201801:29:08.952725000 7        ###
                5 0.1436932:32:32:32:32:3 12dBm   Nov 17,   201801:29:09.006787000 7        ###
                60.22864732:32:32:32:32:3 12dBm   Nov 17,   201801:29:09.091744000 7
                70.34512832:32:32:32:32:3 11dBm   Nov 17,   201801:29:09.208225000 7
                80.61946932:32:32:32:32:3  9Bm N  ov 17, 2018 0 1:29:09.482566000  7
                90.65346532:32:32:32:32:3 12dBm   Nov 17,   201801:29:09.516562000 7
               100.67009732:32:32:32:32:3 10dBm   Nov 17,   201801:29:09.533194000 7
               110.69067432:32:32:32:32:3  9Bm N  ov 17, 2018 0 1:29:09.553771000  7
               120.73549532:32:32:32:32:3 12dBm   Nov 17,   201801:29:09.598592000 7
               13 0.8324832:32:32:32:32:3 13dBm   Nov 17,   201801:29:09.695577000 7
               140.85163532:32:32:32:32:3 12dBm   Nov 17,   201801:29:09.714732000 7
               151.21960932:32:32:32:32:3 11dBm   Nov 17,   201801:29:10.082706000 7
               161.38188932:32:32:32:32:3 10dBm   Nov 17,   201801:29:10.244986000 7
               171.41964632:32:32:32:32:3 10dBm   Nov 17,   201801:29:10.282743000 7
               181.43048132:32:32:32:32:3 12dBm   Nov 17,   201801:29:10.293578000 7
               19  1.441732:32:32:32:32:3 12dBm   Nov 17,   201801:29:10.304797000 7
               201.49736932:32:32:32:32:3 13dBm   Nov 17,   201801:29:10.360466000 7
               211.66705832:32:32:32:32:3 12dBm   Nov 17,   201801:29:10.530155000 7
               221.70136232:32:32:32:32:3 11dBm   Nov 17,   201801:29:10.564459000 7
               231.87296932:32:32:32:32:3 12dBm   Nov 17,   201801:29:10.736066000 7
               241.90939432:32:32:32:32:3 13dBm   Nov 17,   201801:29:10.772491000 7
               25 1.9159732:32:32:32:32:3 13dBm   Nov 17,   201801:29:10.779067000 7
               261.94200332:32:32:32:32:3 13dBm   Nov 17,   201801:29:10.805100000 7
               271.98141432:32:32:32:32:3 14dBm   Nov 17,   201801:29:10.844511000 7
               282.01718232:32:32:32:32:3 13dBm   Nov 17,   201801:29:10.880279000 7
               292.17609332:32:32:32:32:3 13dBm   Nov 17,   201801:29:11.039190000 7
               302.22625532:32:32:32:32:3 14dBm   Nov 17,   201801:29:11.089352000 7
               312.24525432:32:32:32:32:3 13dBm   Nov 17,   201801:29:11.108351000 7
               322.28842932:32:32:32:32:3 13dBm   Nov 17,   201801:29:11.151526000 7
               332.30502432:32:32:32:32:3 15dBm   Nov 17,   201801:29:11.168121000 7
               342.33863732:32:32:32:32:3 13dBm   Nov 17,   201801:29:11.201734000 7
               352.39591932:32:32:32:32:3 12dBm   Nov 17,   201801:29:11.259016000 7
               362.70715232:32:32:32:32:3 13dBm   Nov 17,   201801:29:11.570249000 7
               37 2.7560232:32:32:32:32:3 11dBm   Nov 17,   201801:29:11.619117000 7
               382.79170432:32:32:32:32:3 13dBm   Nov 17,   201801:29:11.654801000 7
               392.79556432:32:32:32:32:3 12dBm   Nov 17,   201801:29:11.658661000 7
               40 3.0609232:32:32:32:32:3 14dBm   Nov 17,   201801:29:11.924017000 7
               41 3.1017532:32:32:32:32:3 13dBm   Nov 17,   201801:29:11.964847000 7
               423.10614932:32:32:32:32:3 13dBm   Nov 17,   201801:29:11.969246000 7
               433.11389532:32:32:32:32:3 13dBm   Nov 17,   201801:29:11.976992000 7
               443.12035532:32:32:32:32:3 14dBm   Nov 17,   201801:29:11.983452000 7
               453.19910632:32:32:32:32:3 13dBm   Nov 17,   201801:29:12.062203000 7
               463.21975732:32:32:32:32:3 13dBm   Nov 17,   201801:29:12.082854000 7
               473.25884932:32:32:32:32:3 15dBm   Nov 17,   201801:29:12.121946000 7
               483.50878932:32:32:32:32:3 14dBm   Nov 17,   201801:29:12.371886000 7
               493.94351432:32:32:32:32:3 12dBm   Nov 17,   201801:29:12.806611000 7
               503.95692432:32:32:32:32:3 14dBm   Nov 17,   201801:29:12.820021000 7
               513.96657932:32:32:32:32:3 12dBm   Nov 17,   201801:29:12.829676000 7
               524.02924832:32:32:32:32:3 11dBm   Nov 17,   201801:29:12.892345000 7
               534.04348732:32:32:32:32:3 11dBm   Nov 17,   201801:29:12.906584000 7
               544.07603132:32:32:32:32:3 14dBm   Nov 17,   201801:29:12.939128000 7
               554.20983432:32:32:32:32:3 12dBm   Nov 17,   201801:29:13.072931000 7
               564.24970232:32:32:32:32:3 13dBm   Nov 17,   201801:29:13.112799000 7
               574.29120132:32:32:32:32:3 13dBm   Nov 17,   201801:29:13.154298000 7
               584.34398432:32:32:32:32:3 13dBm   Nov 17,   201801:29:13.207081000 7
               594.36140932:32:32:32:32:3 14dBm   Nov 17,   201801:29:13.224506000 7
               604.38194932:32:32:32:32:3 13dBm   Nov 17,   201801:29:13.245046000 7
               614.47682132:32:32:32:32:3 14dBm   Nov 17,   201801:29:13.339918000 7
               62 4.5106932:32:32:32:32:3 14dBm   Nov 17,   201801:29:13.373787000 7
               634.81099932:32:32:32:32:3 15dBm   Nov 17,   201801:29:13.674096000 7
               644.89938132:32:32:32:32:3 14dBm   Nov 17,   201801:29:13.762478000 7
               65 4.9701232:32:32:32:32:3 14dBm   Nov 17,   201801:29:13.833217000 7
               665.01160632:32:32:32:32:3 12dBm   Nov 17,   201801:29:13.874703000 7
               675.04721432:32:32:32:32:3 12dBm   Nov 17,   201801:29:13.910311000 7
               685.06335932:32:32:32:32:3 12dBm   Nov 17,   201801:29:13.926456000 7
               695.08792732:32:32:32:32:3 13dBm   Nov 17,   201801:29:13.951024000 7
               705.45320232:32:32:32:32:3 13dBm   Nov 17,   201801:29:14.316299000 7
               715.54521132:32:32:32:32:3 13dBm   Nov 17,   201801:29:14.408308000 7
               725.55949832:32:32:32:32:3 14dBm   Nov 17,   201801:29:14.422595000 7
               735.58340332:32:32:32:32:3 13dBm   Nov 17,   201801:29:14.446500000 7
               745.78941732:32:32:32:32:3 14dBm   Nov 17,   201801:29:14.652514000 7
               755.87557432:32:32:32:32:3 14dBm   Nov 17,   201801:29:14.738671000 7
               765.96159432:32:32:32:32:3 14dBm   Nov 17,   201801:29:14.824691000 7
               77 6.0958632:32:32:32:32:3 13dBm   Nov 17,   201801:29:14.958957000 7
               786.14485532:32:32:32:32:3 10dBm   Nov 17,   201801:29:15.007952000 7
               796.30796932:32:32:32:32:3 14dBm   Nov 17,   201801:29:15.171066000 7
               806.38022232:32:32:32:32:3 14dBm   Nov 17,   201801:29:15.243319000 7
               816.44142332:32:32:32:32:3 13dBm   Nov 17,   201801:29:15.304520000 7
               826.46103832:32:32:32:32:3 14dBm   Nov 17,   201801:29:15.324135000 7
               836.46961232:32:32:32:32:3 14dBm   Nov 17,   201801:29:15.332709000 7
               846.50548832:32:32:32:32:3 13dBm   Nov 17,   201801:29:15.368585000 7
               856.55198332:32:32:32:32:3 14dBm   Nov 17,   201801:29:15.415080000 7
               866.68048632:32:32:32:32:3 13dBm   Nov 17,   201801:29:15.543583000 7
               876.71478232:32:32:32:32:3 13dBm   Nov 17,   201801:29:15.577879000 7
               886.71988632:32:32:32:32:3 13dBm   Nov 17,   201801:29:15.582983000 7
               896.89097132:32:32:32:32:3 13dBm   Nov 17,   201801:29:15.754068000 7
               906.94732432:32:32:32:32:3 13dBm   Nov 17,   201801:29:15.810421000 7
               916.97861132:32:32:32:32:3 10dBm   Nov 17,   201801:29:15.841708000 7
               926.99757332:32:32:32:32:3 13dBm   Nov 17,   201801:29:15.860670000 7
               937.09279432:32:32:32:32:3 12dBm   Nov 17,   201801:29:15.955891000 7
               947.13269232:32:32:32:32:3 15dBm   Nov 17,   201801:29:15.995789000 7
               957.38724632:32:32:32:32:3 12dBm   Nov 17,   201801:29:16.250343000 7
               967.40579232:32:32:32:32:3 13dBm   Nov 17,   201801:29:16.268889000 7
               977.62357432:32:32:32:32:3 13dBm   Nov 17,   201801:29:16.486671000 7
               987.67766632:32:32:32:32:3 13dBm   Nov 17,   201801:29:16.540763000 7
               997.73032732:32:32:32:32:3 13dBm   Nov 17,   201801:29:16.593424000 7
              1007.78182332:32:32:32:32:3 12dBm   Nov 17,   201801:29:16.644920000 7
              1017.81456732:32:32:32:32:3 14dBm   Nov 17,   201801:29:16.677664000 7
              1027.87910532:32:32:32:32:3 13dBm   Nov 17,   201801:29:16.742202000 7
              1037.97683132:32:32:32:32:3 14dBm   Nov 17,   201801:29:16.839928000 7
              1048.09291532:32:32:32:32:3 13dBm   Nov 17,   201801:29:16.956012000 7
              1058.57505832:32:32:32:32:3 11dBm   Nov 17,   201801:29:17.438155000 7
              1068.60781932:32:32:32:32:3 13dBm   Nov 17,   201801:29:17.470916000 7
              1078.62077132:32:32:32:32:3 11dBm   Nov 17,   201801:29:17.483868000 7
              1088.63411132:32:32:32:32:3 14dBm   Nov 17,   201801:29:17.497208000 7
              1098.65283832:32:32:32:32:3 11dBm   Nov 17,   201801:29:17.515935000 7
              1108.67512532:32:32:32:32:3 14dBm   Nov 17,   201801:29:17.538222000 7
              1118.72759832:32:32:32:32:3 12dBm   Nov 17,   201801:29:17.590695000 7
              1128.78256232:32:32:32:32:3 14dBm   Nov 17,   201801:29:17.645659000 7
              1138.85199132:32:32:32:32:3 13dBm   Nov 17,   201801:29:17.715088000 7
              1149.03561932:32:32:32:32:3 13dBm   Nov 17,   201801:29:17.898716000 7
              1159.13651432:32:32:32:32:3 13dBm   Nov 17,   201801:29:17.999611000 7
              1169.20911232:32:32:32:32:3 13dBm   Nov 17,   201801:29:18.072209000 7
              1179.25142232:32:32:32:32:3 13dBm   Nov 17,   201801:29:18.114519000 7
              1189.42708132:32:32:32:32:3 12dBm   Nov 17,   201801:29:18.290178000 7
              1199.47404232:32:32:32:32:3 13dBm   Nov 17,   201801:29:18.337139000 7
              1209.63554132:32:32:32:32:3 13dBm   Nov 17,   201801:29:18.498638000 7
              1219.67012132:32:32:32:32:3 13dBm   Nov 17,   201801:29:18.533218000 7
              1229.75052332:32:32:32:32:3 12dBm   Nov 17,   201801:29:18.613620000 7
              1239.93234632:32:32:32:32:3 13dBm   Nov 17,   201801:29:18.795443000 7
           124  10.12586732:32:32:32:32:3 12dBm   Nov 17,   201801:29:18.988964000 7
           125  10.17786532:32:32:32:32:3 13dBm   Nov 17,   201801:29:19.040962000 7
           126  10.41449632:32:32:32:32:3 14dBm   Nov 17,   201801:29:19.277593000 7
           127  10.55062232:32:32:32:32:3 12dBm   Nov 17,   201801:29:19.413719000 7
           128  10.56764632:32:32:32:32:3 13dBm   Nov 17,   201801:29:19.430743000 7
           129  10.72480332:32:32:32:32:3 12dBm   Nov 17,   201801:29:19.587900000 7
           130  10.82335532:32:32:32:32:3 11dBm   Nov 17,   201801:29:19.686452000 7
           131  10.86020532:32:32:32:32:3 13dBm   Nov 17,   201801:29:19.723302000 7
           132  10.98140432:32:32:32:32:3 12dBm   Nov 17,   201801:29:19.844501000 7
           133  11.01274232:32:32:32:32:3 13dBm   Nov 17,   201801:29:19.875839000 7
           134  11.25835132:32:32:32:32:3 13dBm   Nov 17,   201801:29:20.121448000 7
           135  11.29148432:32:32:32:32:3 13dBm   Nov 17,   201801:29:20.154581000 7
           136  11.42042732:32:32:32:32:3 13dBm   Nov 17,   201801:29:20.283524000 7
           137  1 1.4569332:32:32:32:32:3 13dBm   Nov 17,   201801:29:20.320027000 7
           138  11.47388532:32:32:32:32:3 13dBm   Nov 17,   201801:29:20.336982000 7
           139  11.66663232:32:32:32:32:3 14dBm   Nov 17,   201801:29:20.529729000 7
           140  11.92630132:32:32:32:32:3 13dBm   Nov 17,   201801:29:20.789398000 7
           141  11.94926532:32:32:32:32:3 12dBm   Nov 17,   201801:29:20.812362000 7
           142  11.95686632:32:32:32:32:3 12dBm   Nov 17,   201801:29:20.819963000 7
           143  12.00718632:32:32:32:32:3 13dBm   Nov 17,   201801:29:20.870283000 7
           144  12.06004532:32:32:32:32:3 14dBm   Nov 17,   201801:29:20.923142000 7
           145  12.09176332:32:32:32:32:3 11dBm   Nov 17,   201801:29:20.954860000 7
           146  1 2.1879832:32:32:32:32:3 13dBm   Nov 17,   201801:29:21.051077000 7
           147  12.23773532:32:32:32:32:3 14dBm   Nov 17,   201801:29:21.100832000 7
           148  12.27446432:32:32:32:32:3 12dBm   Nov 17,   201801:29:21.137561000 7
           149  12.36805432:32:32:32:32:3 14dBm   Nov 17,   201801:29:21.231151000 7
           150  12.39159732:32:32:32:32:3 13dBm   Nov 17,   201801:29:21.254694000 7
           151  12.62213432:32:32:32:32:3 13dBm   Nov 17,   201801:29:21.485231000 7
           152  12.65384232:32:32:32:32:3 12dBm   Nov 17,   201801:29:21.516939000 7
           153  12.78712432:32:32:32:32:3 15dBm   Nov 17,   201801:29:21.650221000 7
           154  12.94567632:32:32:32:32:3 11dBm   Nov 17,   201801:29:21.808773000 7
           155  1 2.9597132:32:32:32:32:3 14dBm   Nov 17,   201801:29:21.822807000 7
           156  12.97478632:32:32:32:32:3 12dBm   Nov 17,   201801:29:21.837883000 7
           157  13.03673932:32:32:32:32:3 12dBm   Nov 17,   201801:29:21.899836000 7
           158  13.17033832:32:32:32:32:3 12dBm   Nov 17,   201801:29:22.033435000 7
           159  13.22134132:32:32:32:32:3 14dBm   Nov 17,   201801:29:22.084438000 7
           160  13.34007332:32:32:32:32:3 16dBm   Nov 17,   201801:29:22.203170000 7
           161  13.43944332:32:32:32:32:3 11dBm   Nov 17,   201801:29:22.302540000 7
           162  13.48865932:32:32:32:32:3 15dBm   Nov 17,   201801:29:22.351756000 7
           163  1 3.5606832:32:32:32:32:3 14dBm   Nov 17,   201801:29:22.423777000 7
           164  13.58343132:32:32:32:32:3 12dBm   Nov 17,   201801:29:22.446528000 7
           165  13.72086832:32:32:32:32:3 10dBm   Nov 17,   201801:29:22.583965000 7
           166  13.92663932:32:32:32:32:3 13dBm   Nov 17,   201801:29:22.789736000 7
           167  13.98609232:32:32:32:32:3 12dBm   Nov 17,   201801:29:22.849189000 7
           168  14.09437432:32:32:32:32:3 12dBm   Nov 17,   201801:29:22.957471000 7
           169  14.12365832:32:32:32:32:3 12dBm   Nov 17,   201801:29:22.986755000 7
           170  14.17113332:32:32:32:32:3 13dBm   Nov 17,   201801:29:23.034230000 7
           171  1 4.2215732:32:32:32:32:3 12dBm   Nov 17,   201801:29:23.084667000 7
           172  14.26843132:32:32:32:32:3 11dBm   Nov 17,   201801:29:23.131528000 7
           173  14.35854532:32:32:32:32:3 13dBm   Nov 17,   201801:29:23.221642000 7
           174  14.39094732:32:32:32:32:3 13dBm   Nov 17,   201801:29:23.254044000 7
           175  1 4.4244632:32:32:32:32:3 12dBm   Nov 17,   201801:29:23.287557000 7
           176  14.44035632:32:32:32:32:3 12dBm   Nov 17,   201801:29:23.303453000 7
           177  14.54126632:32:32:32:32:3 13dBm   Nov 17,   201801:29:23.404363000 7
           178  14.65280532:32:32:32:32:3 13dBm   Nov 17,   201801:29:23.515902000 7
           179  14.80974132:32:32:32:32:3 12dBm   Nov 17,   201801:29:23.672838000 7
           180  14.85013532:32:32:32:32:3 13dBm   Nov 17,   201801:29:23.713232000 7
           181  1 4.9844632:32:32:32:32:3 14dBm   Nov 17,   201801:29:23.847557000 7
           182  15.33754632:32:32:32:32:3 13dBm   Nov 17,   201801:29:24.200643000 7
           183  15.49275632:32:32:32:32:3 14dBm   Nov 17,   201801:29:24.355853000 7
           184  15.64996732:32:32:32:32:3 14dBm   Nov 17,   201801:29:24.513064000 7
           185  15.77675132:32:32:32:32:3 14dBm   Nov 17,   201801:29:24.639848000 7
           186  15.87349832:32:32:32:32:3 10dBm   Nov 17,   201801:29:24.736595000 7
           187  15.95182632:32:32:32:32:3 12dBm   Nov 17,   201801:29:24.814923000 7
           188  15.98209232:32:32:32:32:3 13dBm   Nov 17,   201801:29:24.845189000 7
           189  16.05483332:32:32:32:32:3 13dBm   Nov 17,   201801:29:24.917930000 7
           190  16.08494832:32:32:32:32:3 12dBm   Nov 17,   201801:29:24.948045000 7
           191  16.13517132:32:32:32:32:3 12dBm   Nov 17,   201801:29:24.998268000 7
           192  1  6.298132:32:32:32:32:3 14dBm   Nov 17,   201801:29:25.161197000 7
           193  16.32233632:32:32:32:32:3 14dBm   Nov 17,   201801:29:25.185433000 7
           194  16.45277532:32:32:32:32:3 12dBm   Nov 17,   201801:29:25.315872000 7
           195  16.47976932:32:32:32:32:3 13dBm   Nov 17,   201801:29:25.342866000 7
           196  16.64774832:32:32:32:32:3 13dBm   Nov 17,   201801:29:25.510845000 7
           197  16.70332432:32:32:32:32:3 12dBm   Nov 17,   201801:29:25.566421000 7
           198  16.73341832:32:32:32:32:3 14dBm   Nov 17,   201801:29:25.596515000 7
           199  16.75272732:32:32:32:32:3 12dBm   Nov 17,   201801:29:25.615824000 7
           200  16.99197832:32:32:32:32:3 12dBm   Nov 17,   201801:29:25.855075000 7
           201  17.01500532:32:32:32:32:3 13dBm   Nov 17,   201801:29:25.878102000 7
           202  17.12492432:32:32:32:32:3 13dBm   Nov 17,   201801:29:25.988021000 7
           203  17.40380832:32:32:32:32:3 12dBm   Nov 17,   201801:29:26.266905000 7
           204  17.42206832:32:32:32:32:3 12dBm   Nov 17,   201801:29:26.285165000 7
           205  1 7.9251732:32:32:32:32:3 10dBm   Nov 17,   201801:29:26.788267000 7
           206  17.95164232:32:32:32:32:3 13dBm   Nov 17,   201801:29:26.814739000 7
           207  18.04030832:32:32:32:32:3 12dBm   Nov 17,   201801:29:26.903405000 7
           208  18.10285532:32:32:32:32:3 13dBm   Nov 17,   201801:29:26.965952000 7
           209  18.12576632:32:32:32:32:3 13dBm   Nov 17,   201801:29:26.988863000 7
           210  18.46634332:32:32:32:32:3 12dBm   Nov 17,   201801:29:27.329440000 7
           211  18.67324932:32:32:32:32:3 14dBm   Nov 17,   201801:29:27.536346000 7
           212  18.67589232:32:32:32:32:3 14dBm   Nov 17,   201801:29:27.538989000 7
           213  18.71851632:32:32:32:32:3 12dBm   Nov 17,   201801:29:27.581613000 7
           214  18.74255132:32:32:32:32:3 15dBm   Nov 17,   201801:29:27.605648000 7
           215  18.77197632:32:32:32:32:3 13dBm   Nov 17,   201801:29:27.635073000 7
           216  18.77412332:32:32:32:32:3 12dBm   Nov 17,   201801:29:27.637220000 7
           217  18.87265132:32:32:32:32:3 13dBm   Nov 17,   201801:29:27.735748000 7
           218  1 8.9083832:32:32:32:32:3 12dBm   Nov 17,   201801:29:27.771477000 7
           219  18.94911932:32:32:32:32:3 13dBm   Nov 17,   201801:29:27.812216000 7
           220  19.00485832:32:32:32:32:3 12dBm   Nov 17,   201801:29:27.867955000 7
           221  19.16152532:32:32:32:32:3 12dBm   Nov 17,   201801:29:28.024622000 7
           222  1 9.1749332:32:32:32:32:3 13dBm   Nov 17,   201801:29:28.038027000 7
           223  19.21543132:32:32:32:32:3 12dBm   Nov 17,   201801:29:28.078528000 7
           224  19.38971732:32:32:32:32:3 13dBm   Nov 17,   201801:29:28.252814000 7
           225  19.47158232:32:32:32:32:3 12dBm   Nov 17,   201801:29:28.334679000 7
           226  19.71200332:32:32:32:32:3 12dBm   Nov 17,   201801:29:28.575100000 7
           227  19.74889332:32:32:32:32:3  9Bm N  ov 17, 2018 0 1:29:28.611990000  7
           228  1 9.7661232:32:32:32:32:3 12dBm   Nov 17,   201801:29:28.629217000 7
           229  19.78454232:32:32:32:32:3 13dBm   Nov 17,   201801:29:28.647639000 7
           230  19.93574632:32:32:32:32:3 13dBm   Nov 17,   201801:29:28.798843000 7
           231  19.96287232:32:32:32:32:3 12dBm   Nov 17,   201801:29:28.825969000 7
           232  20.04967232:32:32:32:32:3 14dBm   Nov 17,   201801:29:28.912769000 7
           233  20.06881632:32:32:32:32:3 14dBm   Nov 17,   201801:29:28.931913000 7
           234  20.14599432:32:32:32:32:3 13dBm   Nov 17,   201801:29:29.009091000 7
           235  20.27075832:32:32:32:32:3 13dBm   Nov 17,   201801:29:29.133855000 7
           236  20.28498432:32:32:32:32:3 12dBm   Nov 17,   201801:29:29.148081000 7
           237  2  0.464532:32:32:32:32:3 13dBm   Nov 17,   201801:29:29.327597000 7
           238  20.54326832:32:32:32:32:3 14dBm   Nov 17,   201801:29:29.406365000 7
           239  2 0.6037232:32:32:32:32:3 14dBm   Nov 17,   201801:29:29.466817000 7
           240  20.95058732:32:32:32:32:3 13dBm   Nov 17,   201801:29:29.813684000 7
           241  20.99852832:32:32:32:32:3 13dBm   Nov 17,   201801:29:29.861625000 7
           242  21.10400632:32:32:32:32:3 14dBm   Nov 17,   201801:29:29.967103000 7
           243  21.10720832:32:32:32:32:3 14dBm   Nov 17,   201801:29:29.970305000 7
           244  21.13404732:32:32:32:32:3 13dBm   Nov 17,   201801:29:29.997144000 7
           245  21.14356332:32:32:32:32:3 13dBm   Nov 17,   201801:29:30.006660000 7
           246  21.22845732:32:32:32:32:3 13dBm   Nov 17,   201801:29:30.091554000 7
           247  21.35687932:32:32:32:32:3 14dBm   Nov 17,   201801:29:30.219976000 7
           248  2 1.3742532:32:32:32:32:3 13dBm   Nov 17,   201801:29:30.237347000 7
           249  21.53533232:32:32:32:32:3 13dBm   Nov 17,   201801:29:30.398429000 7
           250  21.61716532:32:32:32:32:3 14dBm   Nov 17,   201801:29:30.480262000 7
           251  21.64522732:32:32:32:32:3 14dBm   Nov 17,   201801:29:30.508324000 7
           252  21.76092332:32:32:32:32:3 14dBm   Nov 17,   201801:29:30.624020000 7
           253  21.92953632:32:32:32:32:3 13dBm   Nov 17,   201801:29:30.792633000 7
           254  22.13974532:32:32:32:32:3 13dBm   Nov 17,   201801:29:31.002842000 7
           255  22.43614332:32:32:32:32:3 10dBm   Nov 17,   201801:29:31.299240000 7
           256  22.48510332:32:32:32:32:3 12dBm   Nov 17,   201801:29:31.348200000 7
           257  22.59316732:32:32:32:32:3 12dBm   Nov 17,   201801:29:31.456264000 7
           258  22.71718232:32:32:32:32:3 13dBm   Nov 17,   201801:29:31.580279000 7
           259  22.85703432:32:32:32:32:3 12dBm   Nov 17,   201801:29:31.720131000 7
           260  22.90044232:32:32:32:32:3 12dBm   Nov 17,   201801:29:31.763539000 7
           261  2 2.9231132:32:32:32:32:3 12dBm   Nov 17,   201801:29:31.786207000 7
           262  22.95682932:32:32:32:32:3 12dBm   Nov 17,   201801:29:31.819926000 7
           263  22.97735932:32:32:32:32:3 13dBm   Nov 17,   201801:29:31.840456000 7
           264  23.21027932:32:32:32:32:3 12dBm   Nov 17,   201801:29:32.073376000 7
           265  23.22250632:32:32:32:32:3 12dBm   Nov 17,   201801:29:32.085603000 7
           266  23.24781432:32:32:32:32:3 13dBm   Nov 17,   201801:29:32.110911000 7
           267  23.29115932:32:32:32:32:3 12dBm   Nov 17,   201801:29:32.154256000 7
           268  2  3.352532:32:32:32:32:3 13dBm   Nov 17,   201801:29:32.215597000 7
           269  23.69573832:32:32:32:32:3 11dBm   Nov 17,   201801:29:32.558835000 7
           270  2 3.7191632:32:32:32:32:3 13dBm   Nov 17,   201801:29:32.582257000 7
           271  23.95104332:32:32:32:32:3 12dBm   Nov 17,   201801:29:32.814140000 7
           272  2 4.0479132:32:32:32:32:3 13dBm   Nov 17,   201801:29:32.911007000 7
           273  24.20673432:32:32:32:32:3 12dBm   Nov 17,   201801:29:33.069831000 7
           274  2  4.262732:32:32:32:32:3 12dBm   Nov 17,   201801:29:33.125797000 7
           275  24.33178932:32:32:32:32:3 12dBm   Nov 17,   201801:29:33.194886000 7
           276  24.37161232:32:32:32:32:3 12dBm   Nov 17,   201801:29:33.234709000 7
           277  24.49743232:32:32:32:32:3 13dBm   Nov 17,   201801:29:33.360529000 7
           278  24.66022232:32:32:32:32:3 13dBm   Nov 17,   201801:29:33.523319000 7
           279  2 4.6772432:32:32:32:32:3 13dBm   Nov 17,   201801:29:33.540337000 7
           280  24.71536132:32:32:32:32:3 14dBm   Nov 17,   201801:29:33.578458000 7
           281  24.85950932:32:32:32:32:3 14dBm   Nov 17,   201801:29:33.722606000 7
           282  2 4.9338532:32:32:32:32:3 14dBm   Nov 17,   201801:29:33.796947000 7
           283  2 4.9727332:32:32:32:32:3 13dBm   Nov 17,   201801:29:33.835827000 7
           284  2 5.1072732:32:32:32:32:3 13dBm   Nov 17,   201801:29:33.970367000 7
           285  25.29001132:32:32:32:32:3 14dBm   Nov 17,   201801:29:34.153108000 7
           286  25.47197632:32:32:32:32:3 11dBm   Nov 17,   201801:29:34.335073000 7
           287  25.61356432:32:32:32:32:3 12dBm   Nov 17,   201801:29:34.476661000 7
           288  25.67266432:32:32:32:32:3 13dBm   Nov 17,   201801:29:34.535761000 7
           289  25.72567832:32:32:32:32:3 13dBm   Nov 17,   201801:29:34.588775000 7
           290  25.81027132:32:32:32:32:3 14dBm   Nov 17,   201801:29:34.673368000 7
           291  25.82077532:32:32:32:32:3 13dBm   Nov 17,   201801:29:34.683872000 7
           292  26.01598632:32:32:32:32:3 10dBm   Nov 17,   201801:29:34.879083000 7
           293  26.08284132:32:32:32:32:3 13dBm   Nov 17,   201801:29:34.945938000 7
           294  2 6.0932332:32:32:32:32:3 13dBm   Nov 17,   201801:29:34.956327000 7
           295  26.11125632:32:32:32:32:3 13dBm   Nov 17,   201801:29:34.974353000 7
           296  26.12608832:32:32:32:32:3 13dBm   Nov 17,   201801:29:34.989185000 7
           297  26.25440532:32:32:32:32:3 12dBm   Nov 17,   201801:29:35.117502000 7
           298  26.28171732:32:32:32:32:3 12dBm   Nov 17,   201801:29:35.144814000 7
           299  26.31835732:32:32:32:32:3 12dBm   Nov 17,   201801:29:35.181454000 7
           300  26.57591232:32:32:32:32:3 12dBm   Nov 17,   201801:29:35.439009000 7
           301  26.61419632:32:32:32:32:3 12dBm   Nov 17,   201801:29:35.477293000 7
           302  26.71943932:32:32:32:32:3 11dBm   Nov 17,   201801:29:35.582536000 7
           303  26.75671432:32:32:32:32:3 13dBm   Nov 17,   201801:29:35.619811000 7
           304  26.75966332:32:32:32:32:3 13dBm   Nov 17,   201801:29:35.622760000 7
           305  26.77913132:32:32:32:32:3 11dBm   Nov 17,   201801:29:35.642228000 7
           306  26.79119332:32:32:32:32:3 10dBm   Nov 17,   201801:29:35.654290000 7
           307  27.00023432:32:32:32:32:3 14dBm   Nov 17,   201801:29:35.863331000 7
           308  27.01145632:32:32:32:32:3 13dBm   Nov 17,   201801:29:35.874553000 7
           309  27.02385932:32:32:32:32:3 11dBm   Nov 17,   201801:29:35.886956000 7
           310  27.04279832:32:32:32:32:3 12dBm   Nov 17,   201801:29:35.905895000 7
           311  27.14906232:32:32:32:32:3 12dBm   Nov 17,   201801:29:36.012159000 7
           312  27.18600632:32:32:32:32:3 12dBm   Nov 17,   201801:29:36.049103000 7
           313  27.26712932:32:32:32:32:3 12dBm   Nov 17,   201801:29:36.130226000 7
           314  27.33872932:32:32:32:32:3  9Bm N  ov 17, 2018 0 1:29:36.201826000  7
           315  27.42142332:32:32:32:32:3 12dBm   Nov 17,   201801:29:36.284520000 7
           316  27.47626632:32:32:32:32:3 13dBm   Nov 17,   201801:29:36.339363000 7
           317  27.52615232:32:32:32:32:3 13dBm   Nov 17,   201801:29:36.389249000 7
           318  27.67565732:32:32:32:32:3 12dBm   Nov 17,   201801:29:36.538754000 7
           319  27.78679632:32:32:32:32:3 13dBm   Nov 17,   201801:29:36.649893000 7
           320  2 7.9349932:32:32:32:32:3 14dBm   Nov 17,   201801:29:36.798087000 7
           321  28.17474332:32:32:32:32:3 13dBm   Nov 17,   201801:29:37.037840000 7
           322  28.32473732:32:32:32:32:3 13dBm   Nov 17,   201801:29:37.187834000 7
           323  28.53670732:32:32:32:32:3 12dBm   Nov 17,   201801:29:37.399804000 7
           324  28.57387132:32:32:32:32:3 14dBm   Nov 17,   201801:29:37.436968000 7
           325  28.57677732:32:32:32:32:3 13dBm   Nov 17,   201801:29:37.439874000 7
           326  28.76274632:32:32:32:32:3 14dBm   Nov 17,   201801:29:37.625843000 7
           327  28.78937732:32:32:32:32:3 15dBm   Nov 17,   201801:29:37.652474000 7
           328  28.80477532:32:32:32:32:3 14dBm   Nov 17,   201801:29:37.667872000 7
           329  28.83440432:32:32:32:32:3 14dBm   Nov 17,   201801:29:37.697501000 7
           330  28.91088832:32:32:32:32:3 14dBm   Nov 17,   201801:29:37.773985000 7
           331  29.10174632:32:32:32:32:3 13dBm   Nov 17,   201801:29:37.964843000 7
           332  29.14142532:32:32:32:32:3 13dBm   Nov 17,   201801:29:38.004522000 7
           333  29.18842832:32:32:32:32:3 13dBm   Nov 17,   201801:29:38.051525000 7
           334  2 9.3265932:32:32:32:32:3 14dBm   Nov 17,   201801:29:38.189687000 7
           335  29.35277132:32:32:32:32:3 13dBm   Nov 17,   201801:29:38.215868000 7
           336  29.44701932:32:32:32:32:3 14dBm   Nov 17,   201801:29:38.310116000 7
           337  29.51468932:32:32:32:32:3 13dBm   Nov 17,   201801:29:38.377786000 7
           338  29.51831232:32:32:32:32:3 12dBm   Nov 17,   201801:29:38.381409000 7
           339  29.52798632:32:32:32:32:3 13dBm   Nov 17,   201801:29:38.391083000 7
           340  29.55882332:32:32:32:32:3 14dBm   Nov 17,   201801:29:38.421920000 7
           341  29.61784832:32:32:32:32:3 14dBm   Nov 17,   201801:29:38.480945000 7
           342  29.64902732:32:32:32:32:3 14dBm   Nov 17,   201801:29:38.512124000 7
           343  29.67458732:32:32:32:32:3 12dBm   Nov 17,   201801:29:38.537684000 7
           344  29.70528932:32:32:32:32:3 11dBm   Nov 17,   201801:29:38.568386000 7
           345  29.77225932:32:32:32:32:3 12dBm   Nov 17,   201801:29:38.635356000 7
           346  29.78789932:32:32:32:32:3 12dBm   Nov 17,   201801:29:38.650996000 7
           347  29.80016232:32:32:32:32:3 12dBm   Nov 17,   201801:29:38.663259000 7
           348  29.82027332:32:32:32:32:3 14dBm   Nov 17,   201801:29:38.683370000 7
           349  29.87767532:32:32:32:32:3 13dBm   Nov 17,   201801:29:38.740772000 7
           350  29.93487932:32:32:32:32:3 11dBm   Nov 17,   201801:29:38.797976000 7
           351  3 0.0165932:32:32:32:32:3 13dBm   Nov 17,   201801:29:38.879687000 7
           352  30.19041532:32:32:32:32:3 11dBm   Nov 17,   201801:29:39.053512000 7
           353  30.64197832:32:32:32:32:3 14dBm   Nov 17,   201801:29:39.505075000 7
           354  30.74845232:32:32:32:32:3 15dBm   Nov 17,   201801:29:39.611549000 7
           355  30.76332632:32:32:32:32:3 13dBm   Nov 17,   201801:29:39.626423000 7
           356  30.89221232:32:32:32:32:3 12dBm   Nov 17,   201801:29:39.755309000 7
           357  30.90658432:32:32:32:32:3 14dBm   Nov 17,   201801:29:39.769681000 7
           358  3 1.1835632:32:32:32:32:3 14dBm   Nov 17,   201801:29:40.046657000 7
           359  31.33112432:32:32:32:32:3 13dBm   Nov 17,   201801:29:40.194221000 7
           360  31.34986832:32:32:32:32:3 14dBm   Nov 17,   201801:29:40.212965000 7
           361  31.55011932:32:32:32:32:3 12dBm   Nov 17,   201801:29:40.413216000 7
           362  31.73460432:32:32:32:32:3 12dBm   Nov 17,   201801:29:40.597701000 7
           363  31.78609932:32:32:32:32:3 13dBm   Nov 17,   201801:29:40.649196000 7
           364  31.84127732:32:32:32:32:3 13dBm   Nov 17,   201801:29:40.704374000 7
           365  32.19070332:32:32:32:32:3 11dBm   Nov 17,   201801:29:41.053800000 7
           366  3 2.2138732:32:32:32:32:3 12dBm   Nov 17,   201801:29:41.076967000 7
           367  32.47286932:32:32:32:32:3 13dBm   Nov 17,   201801:29:41.335966000 7
           368  3 2.5136132:32:32:32:32:3 14dBm   Nov 17,   201801:29:41.376707000 7
           369  32.57596132:32:32:32:32:3 14dBm   Nov 17,   201801:29:41.439058000 7
           370  32.61834732:32:32:32:32:3 13dBm   Nov 17,   201801:29:41.481444000 7
           371  32.62975232:32:32:32:32:3 13dBm   Nov 17,   201801:29:41.492849000 7
           372  32.72646632:32:32:32:32:3 10dBm   Nov 17,   201801:29:41.589563000 7
           373  32.84671932:32:32:32:32:3 14dBm   Nov 17,   201801:29:41.709816000 7
           374  32.93236432:32:32:32:32:3 13dBm   Nov 17,   201801:29:41.795461000 7
           375  3 2.9797632:32:32:32:32:3 13dBm   Nov 17,   201801:29:41.842857000 7
           376  32.99284232:32:32:32:32:3 13dBm   Nov 17,   201801:29:41.855939000 7
           377  3 3.1017432:32:32:32:32:3 13dBm   Nov 17,   201801:29:41.964837000 7
           378  33.32596332:32:32:32:32:3 13dBm   Nov 17,   201801:29:42.189060000 7
           379  33.35684732:32:32:32:32:3 14dBm   Nov 17,   201801:29:42.219944000 7
           380  33.42498632:32:32:32:32:3 13dBm   Nov 17,   201801:29:42.288083000 7
           381  33.50213332:32:32:32:32:3 12dBm   Nov 17,   201801:29:42.365230000 7
           382  33.80823632:32:32:32:32:3 12dBm   Nov 17,   201801:29:42.671333000 7
           383  33.88378332:32:32:32:32:3 13dBm   Nov 17,   201801:29:42.746880000 7
           384  33.89529232:32:32:32:32:3 12dBm   Nov 17,   201801:29:42.758389000 7
           385  33.92591232:32:32:32:32:3 14dBm   Nov 17,   201801:29:42.789009000 7
           386  34.12058632:32:32:32:32:3 13dBm   Nov 17,   201801:29:42.983683000 7
           387  34.43013432:32:32:32:32:3 13dBm   Nov 17,   201801:29:43.293231000 7
           388  34.47427132:32:32:32:32:3 14dBm   Nov 17,   201801:29:43.337368000 7
           389  34.54488432:32:32:32:32:3 12dBm   Nov 17,   201801:29:43.407981000 7
           390  34.62419732:32:32:32:32:3 13dBm   Nov 17,   201801:29:43.487294000 7
           391  34.77890632:32:32:32:32:3 14dBm   Nov 17,   201801:29:43.642003000 7
           392  35.04711532:32:32:32:32:3 13dBm   Nov 17,   201801:29:43.910212000 7
           393  35.08014632:32:32:32:32:3 11dBm   Nov 17,   201801:29:43.943243000 7
           394  35.18147932:32:32:32:32:3 12dBm   Nov 17,   201801:29:44.044576000 7
           395  35.21394932:32:32:32:32:3 13dBm   Nov 17,   201801:29:44.077046000 7
           396  35.41875932:32:32:32:32:3 11dBm   Nov 17,   201801:29:44.281856000 7
           397  35.45078532:32:32:32:32:3 10dBm   Nov 17,   201801:29:44.313882000 7
           398  35.51460632:32:32:32:32:3 13dBm   Nov 17,   201801:29:44.377703000 7
           399  35.60046432:32:32:32:32:3 13dBm   Nov 17,   201801:29:44.463561000 7
           400  35.84484932:32:32:32:32:3 13dBm   Nov 17,   201801:29:44.707946000 7
           401  35.91748932:32:32:32:32:3 13dBm   Nov 17,   201801:29:44.780586000 7
           402  36.04302932:32:32:32:32:3 15dBm   Nov 17,   201801:29:44.906126000 7
           403  36.07708932:32:32:32:32:3 12dBm   Nov 17,   201801:29:44.940186000 7
           404  36.10395532:32:32:32:32:3 11dBm   Nov 17,   201801:29:44.967052000 7
           405  36.18267832:32:32:32:32:3 14dBm   Nov 17,   201801:29:45.045775000 7
           406  36.24203232:32:32:32:32:3 14dBm   Nov 17,   201801:29:45.105129000 7
           407  36.28672532:32:32:32:32:3 11dBm   Nov 17,   201801:29:45.149822000 7
           408  36.46091832:32:32:32:32:3 13dBm   Nov 17,   201801:29:45.324015000 7
           409  36.52664732:32:32:32:32:3 11dBm   Nov 17,   201801:29:45.389744000 7
           410  36.63722432:32:32:32:32:3 14dBm   Nov 17,   201801:29:45.500321000 7
           411  36.65632332:32:32:32:32:3 14dBm   Nov 17,   201801:29:45.519420000 7
           412  36.84877932:32:32:32:32:3 14dBm   Nov 17,   201801:29:45.711876000 7
           413  36.85867432:32:32:32:32:3 13dBm   Nov 17,   201801:29:45.721771000 7
           414  36.91714932:32:32:32:32:3 12dBm   Nov 17,   201801:29:45.780246000 7
           415  37.20820332:32:32:32:32:3 13dBm   Nov 17,   201801:29:46.071300000 7
           416  37.26953232:32:32:32:32:3 14dBm   Nov 17,   201801:29:46.132629000 7
           417  3 7.2923832:32:32:32:32:3 12dBm   Nov 17,   201801:29:46.155477000 7
           418  37.32070332:32:32:32:32:3 13dBm   Nov 17,   201801:29:46.183800000 7
           419  37.51077432:32:32:32:32:3 13dBm   Nov 17,   201801:29:46.373871000 7
           420  37.53141732:32:32:32:32:3 13dBm   Nov 17,   201801:29:46.394514000 7
           421  37.54760432:32:32:32:32:3 14dBm   Nov 17,   201801:29:46.410701000 7
           422  37.63857932:32:32:32:32:3 12dBm   Nov 17,   201801:29:46.501676000 7
           423  37.68784332:32:32:32:32:3 13dBm   Nov 17,   201801:29:46.550940000 7
           424  37.74665932:32:32:32:32:3 14dBm   Nov 17,   201801:29:46.609756000 7
           425  37.76086932:32:32:32:32:3 12dBm   Nov 17,   201801:29:46.623966000 7
           426  38.18033232:32:32:32:32:3 13dBm   Nov 17,   201801:29:47.043429000 7
           427  38.22761632:32:32:32:32:3 14dBm   Nov 17,   201801:29:47.090713000 7
           428  38.23582532:32:32:32:32:3 11dBm   Nov 17,   201801:29:47.098922000 7
           429  38.26238632:32:32:32:32:3 13dBm   Nov 17,   201801:29:47.125483000 7
           430  38.35109632:32:32:32:32:3 13dBm   Nov 17,   201801:29:47.214193000 7
           431  38.38174632:32:32:32:32:3 14dBm   Nov 17,   201801:29:47.244843000 7
           432  38.39852532:32:32:32:32:3 13dBm   Nov 17,   201801:29:47.261622000 7
           433  38.41522932:32:32:32:32:3 12dBm   Nov 17,   201801:29:47.278326000 7
           434  38.44125632:32:32:32:32:3 13dBm   Nov 17,   201801:29:47.304353000 7
           435  38.63062632:32:32:32:32:3 13dBm   Nov 17,   201801:29:47.493723000 7
           436  38.68853132:32:32:32:32:3 12dBm   Nov 17,   201801:29:47.551628000 7
           437  38.79322532:32:32:32:32:3 13dBm   Nov 17,   201801:29:47.656322000 7
           438  3 9.0425132:32:32:32:32:3 13dBm   Nov 17,   201801:29:47.905607000 7
           439  3 9.0782732:32:32:32:32:3 12dBm   Nov 17,   201801:29:47.941367000 7
           440  39.11535132:32:32:32:32:3 13dBm   Nov 17,   201801:29:47.978448000 7
           441  39.18874432:32:32:32:32:3 14dBm   Nov 17,   201801:29:48.051841000 7
           442  3 9.2348832:32:32:32:32:3 13dBm   Nov 17,   201801:29:48.097977000 7
           443  39.25341832:32:32:32:32:3 14dBm   Nov 17,   201801:29:48.116515000 7
           444  39.31702132:32:32:32:32:3 14dBm   Nov 17,   201801:29:48.180118000 7
           445  39.51844332:32:32:32:32:3 13dBm   Nov 17,   201801:29:48.381540000 7
           446  3 9.5441632:32:32:32:32:3 13dBm   Nov 17,   201801:29:48.407257000 7
           447  39.57021432:32:32:32:32:3 13dBm   Nov 17,   201801:29:48.433311000 7
           448  39.67299632:32:32:32:32:3 13dBm   Nov 17,   201801:29:48.536093000 7
           449  39.70473232:32:32:32:32:3 13dBm   Nov 17,   201801:29:48.567829000 7
           450  39.82227132:32:32:32:32:3 13dBm   Nov 17,   201801:29:48.685368000 7
           451  39.94159932:32:32:32:32:3 11dBm   Nov 17,   201801:29:48.804696000 7
           452  40.03967432:32:32:32:32:3 12dBm   Nov 17,   201801:29:48.902771000 7
           453  40.21253732:32:32:32:32:3 12dBm   Nov 17,   201801:29:49.075634000 7
           454  40.29035632:32:32:32:32:3 13dBm   Nov 17,   201801:29:49.153453000 7
           455  40.41706232:32:32:32:32:3 11dBm   Nov 17,   201801:29:49.280159000 7
           456  4  0.435932:32:32:32:32:3 13dBm   Nov 17,   201801:29:49.298997000 7
           457  40.48647732:32:32:32:32:3 12dBm   Nov 17,   201801:29:49.349574000 7
           458  40.50686432:32:32:32:32:3 14dBm   Nov 17,   201801:29:49.369961000 7
           459  40.55821132:32:32:32:32:3 14dBm   Nov 17,   201801:29:49.421308000 7
           460  40.72392232:32:32:32:32:3 12dBm   Nov 17,   201801:29:49.587019000 7
           461  40.74181432:32:32:32:32:3 12dBm   Nov 17,   201801:29:49.604911000 7
           462  40.76877232:32:32:32:32:3 13dBm   Nov 17,   201801:29:49.631869000 7
           463  40.79798332:32:32:32:32:3 10dBm   Nov 17,   201801:29:49.661080000 7
           464  40.88502332:32:32:32:32:3 13dBm   Nov 17,   201801:29:49.748120000 7
           465  40.91229132:32:32:32:32:3 12dBm   Nov 17,   201801:29:49.775388000 7
           466  41.20755932:32:32:32:32:3 15dBm   Nov 17,   201801:29:50.070656000 7
           467  41.27805632:32:32:32:32:3 15dBm   Nov 17,   201801:29:50.141153000 7
           468  4 1.3130132:32:32:32:32:3 13dBm   Nov 17,   201801:29:50.176107000 7
           469  41.33727332:32:32:32:32:3 13dBm   Nov 17,   201801:29:50.200370000 7
           470  41.37606432:32:32:32:32:3 14dBm   Nov 17,   201801:29:50.239161000 7
           471  41.55674932:32:32:32:32:3 13dBm   Nov 17,   201801:29:50.419846000 7
           472  41.60271932:32:32:32:32:3 12dBm   Nov 17,   201801:29:50.465816000 7
           473  41.65642432:32:32:32:32:3 12dBm   Nov 17,   201801:29:50.519521000 7
           474  41.70534332:32:32:32:32:3 10dBm   Nov 17,   201801:29:50.568440000 7
           475  41.87934132:32:32:32:32:3 13dBm   Nov 17,   201801:29:50.742438000 7
           476  41.92463232:32:32:32:32:3 13dBm   Nov 17,   201801:29:50.787729000 7
           477  41.98074232:32:32:32:32:3 14dBm   Nov 17,   201801:29:50.843839000 7
           478  42.02534732:32:32:32:32:3 14dBm   Nov 17,   201801:29:50.888444000 7
           479  42.13470232:32:32:32:32:3 13dBm   Nov 17,   201801:29:50.997799000 7
           480  42.15286632:32:32:32:32:3 14dBm   Nov 17,   201801:29:51.015963000 7
           481  42.16892832:32:32:32:32:3 14dBm   Nov 17,   201801:29:51.032025000 7
           482  42.29695832:32:32:32:32:3 14dBm   Nov 17,   201801:29:51.160055000 7
           483  42.33780932:32:32:32:32:3 14dBm   Nov 17,   201801:29:51.200906000 7
           484  42.45675532:32:32:32:32:3 14dBm   Nov 17,   201801:29:51.319852000 7
           485  42.55236732:32:32:32:32:3 13dBm   Nov 17,   201801:29:51.415464000 7
           486  43.00941832:32:32:32:32:3 14dBm   Nov 17,   201801:29:51.872515000 7
           487  43.01887932:32:32:32:32:3 13dBm   Nov 17,   201801:29:51.881976000 7
           488  4  3.171132:32:32:32:32:3 13dBm   Nov 17,   201801:29:52.034197000 7
           489  43.26533132:32:32:32:32:3 14dBm   Nov 17,   201801:29:52.128428000 7
           490  43.30284532:32:32:32:32:3 12dBm   Nov 17,   201801:29:52.165942000 7
           491  43.42520132:32:32:32:32:3 14dBm   Nov 17,   201801:29:52.288298000 7
           492  43.46732132:32:32:32:32:3 14dBm   Nov 17,   201801:29:52.330418000 7
           493  43.49142532:32:32:32:32:3 13dBm   Nov 17,   201801:29:52.354522000 7
           494  43.55834832:32:32:32:32:3 11dBm   Nov 17,   201801:29:52.421445000 7
           495  43.67496932:32:32:32:32:3 12dBm   Nov 17,   201801:29:52.538066000 7
           496  43.77236432:32:32:32:32:3 13dBm   Nov 17,   201801:29:52.635461000 7
           497  4 3.9759232:32:32:32:32:3 12dBm   Nov 17,   201801:29:52.839017000 7
           498  44.08509632:32:32:32:32:3 14dBm   Nov 17,   201801:29:52.948193000 7
           499  44.29757632:32:32:32:32:3 13dBm   Nov 17,   201801:29:53.160673000 7
           500  44.41302932:32:32:32:32:3 11dBm   Nov 17,   201801:29:53.276126000 7
           501  44.56330832:32:32:32:32:3 12dBm   Nov 17,   201801:29:53.426405000 7
           502  44.73609232:32:32:32:32:3 13dBm   Nov 17,   201801:29:53.599189000 7
           503  44.80159232:32:32:32:32:3 12dBm   Nov 17,   201801:29:53.664689000 7
           504  4 4.8318832:32:32:32:32:3 11dBm   Nov 17,   201801:29:53.694977000 7
           505  44.84850732:32:32:32:32:3 13dBm   Nov 17,   201801:29:53.711604000 7
           506  44.90249332:32:32:32:32:3 11dBm   Nov 17,   201801:29:53.765590000 7
           507  44.93976232:32:32:32:32:3 12dBm   Nov 17,   201801:29:53.802859000 7
           508  44.95360932:32:32:32:32:3 13dBm   Nov 17,   201801:29:53.816706000 7
           509  44.97158632:32:32:32:32:3 12dBm   Nov 17,   201801:29:53.834683000 7
           510  44.98625232:32:32:32:32:3 11dBm   Nov 17,   201801:29:53.849349000 7
           511  4 5.1389332:32:32:32:32:3 12dBm   Nov 17,   201801:29:54.002027000 7
           512  45.17502232:32:32:32:32:3 11dBm   Nov 17,   201801:29:54.038119000 7
           513  45.29593832:32:32:32:32:3  7Bm N  ov 17, 2018 0 1:29:54.159035000  7
           514  4 5.5700332:32:32:32:32:3 12dBm   Nov 17,   201801:29:54.433127000 7
           515  45.59924432:32:32:32:32:3 12dBm   Nov 17,   201801:29:54.462341000 7
           516  45.62589132:32:32:32:32:3  9Bm N  ov 17, 2018 0 1:29:54.488988000  7
           517  45.71401932:32:32:32:32:3 11dBm   Nov 17,   201801:29:54.577116000 7
           518  45.93265432:32:32:32:32:3 12dBm   Nov 17,   201801:29:54.795751000 7
           519  45.96071232:32:32:32:32:3 11dBm   Nov 17,   201801:29:54.823809000 7
           520  45.98363132:32:32:32:32:3  8Bm N  ov 17, 2018 0 1:29:54.846728000  7
           521  46.13001232:32:32:32:32:3 11dBm   Nov 17,   201801:29:54.993109000 7
           522  46.20590732:32:32:32:32:3 11dBm   Nov 17,   201801:29:55.069004000 7
           523  46.37510632:32:32:32:32:3 12dBm   Nov 17,   201801:29:55.238203000 7
           524  46.44078332:32:32:32:32:3 11dBm   Nov 17,   201801:29:55.303880000 7
           525  4 6.4893332:32:32:32:32:3 10dBm   Nov 17,   201801:29:55.352427000 7
           526  46.50324332:32:32:32:32:3 12dBm   Nov 17,   201801:29:55.366340000 7
           527  46.57723532:32:32:32:32:3 12dBm   Nov 17,   201801:29:55.440332000 7
           528  46.69745832:32:32:32:32:3 12dBm   Nov 17,   201801:29:55.560555000 7
           529  46.74366332:32:32:32:32:3 11dBm   Nov 17,   201801:29:55.606760000 7
           530  46.93267932:32:32:32:32:3 12dBm   Nov 17,   201801:29:55.795776000 7
           531  46.97476832:32:32:32:32:3 13dBm   Nov 17,   201801:29:55.837865000 7
           532  4 7.0131632:32:32:32:32:3 13dBm   Nov 17,   201801:29:55.876257000 7
           533  47.03046532:32:32:32:32:3 14dBm   Nov 17,   201801:29:55.893562000 7
           534  47.05463932:32:32:32:32:3 12dBm   Nov 17,   201801:29:55.917736000 7
           535  4 7.1663932:32:32:32:32:3 11dBm   Nov 17,   201801:29:56.029487000 7
           536  4 7.3217532:32:32:32:32:3 11dBm   Nov 17,   201801:29:56.184847000 7
           537  47.33582732:32:32:32:32:3 11dBm   Nov 17,   201801:29:56.198924000 7
           538  47.35848832:32:32:32:32:3  9Bm N  ov 17, 2018 0 1:29:56.221585000  7
           539  47.43376832:32:32:32:32:3 11dBm   Nov 17,   201801:29:56.296865000 7
           540  47.62469332:32:32:32:32:3 13dBm   Nov 17,   201801:29:56.487790000 7
           541  4 7.8394432:32:32:32:32:3 11dBm   Nov 17,   201801:29:56.702537000 7
           542  47.86007332:32:32:32:32:3 11dBm   Nov 17,   201801:29:56.723170000 7
           543  47.87153532:32:32:32:32:3 13dBm   Nov 17,   201801:29:56.734632000 7
           544  47.94472532:32:32:32:32:3 12dBm   Nov 17,   201801:29:56.807822000 7
           545  48.12191332:32:32:32:32:3 13dBm   Nov 17,   201801:29:56.985010000 7
           546  48.18167532:32:32:32:32:3 11dBm   Nov 17,   201801:29:57.044772000 7
           547  48.27236132:32:32:32:32:3 11dBm   Nov 17,   201801:29:57.135458000 7
           548  4 8.3139732:32:32:32:32:3 12dBm   Nov 17,   201801:29:57.177067000 7
           549  48.34941232:32:32:32:32:3 12dBm   Nov 17,   201801:29:57.212509000 7
           550  48.39886932:32:32:32:32:3 12dBm   Nov 17,   201801:29:57.261966000 7
           551  48.41055632:32:32:32:32:3 11dBm   Nov 17,   201801:29:57.273653000 7
           552  48.45352632:32:32:32:32:3 13dBm   Nov 17,   201801:29:57.316623000 7
           553  48.74001732:32:32:32:32:3 13dBm   Nov 17,   201801:29:57.603114000 7
           554  48.87577432:32:32:32:32:3 12dBm   Nov 17,   201801:29:57.738871000 7
           555  48.90788932:32:32:32:32:3 11dBm   Nov 17,   201801:29:57.770986000 7
           556  48.96508132:32:32:32:32:3 11dBm   Nov 17,   201801:29:57.828178000 7
           557  48.98979132:32:32:32:32:3 12dBm   Nov 17,   201801:29:57.852888000 7
           558  49.12205832:32:32:32:32:3 12dBm   Nov 17,   201801:29:57.985155000 7
           559  49.13280232:32:32:32:32:3 11dBm   Nov 17,   201801:29:57.995899000 7
           560  49.13927332:32:32:32:32:3 13dBm   Nov 17,   201801:29:58.002370000 7
           561  49.14605532:32:32:32:32:3 12dBm   Nov 17,   201801:29:58.009152000 7
           562  49.16350132:32:32:32:32:3 11dBm   Nov 17,   201801:29:58.026598000 7
           563  4 9.2087332:32:32:32:32:3 11dBm   Nov 17,   201801:29:58.071827000 7
           564  49.24395732:32:32:32:32:3 11dBm   Nov 17,   201801:29:58.107054000 7
           565  49.39508932:32:32:32:32:3 13dBm   Nov 17,   201801:29:58.258186000 7
           566  49.42744432:32:32:32:32:3 13dBm   Nov 17,   201801:29:58.290541000 7
           567  49.49991532:32:32:32:32:3 10dBm   Nov 17,   201801:29:58.363012000 7
           568  49.62092832:32:32:32:32:3 11dBm   Nov 17,   201801:29:58.484025000 7
           569  49.70537832:32:32:32:32:3 12dBm   Nov 17,   201801:29:58.568475000 7
           570  49.83606932:32:32:32:32:3 11dBm   Nov 17,   201801:29:58.699166000 7
           571  49.92731232:32:32:32:32:3 13dBm   Nov 17,   201801:29:58.790409000 7
           572  50.08419832:32:32:32:32:3 12dBm   Nov 17,   201801:29:58.947295000 7
           573  50.17585532:32:32:32:32:3 12dBm   Nov 17,   201801:29:59.038952000 7
           574  50.21525632:32:32:32:32:3 13dBm   Nov 17,   201801:29:59.078353000 7
           575  50.24957132:32:32:32:32:3 13dBm   Nov 17,   201801:29:59.112668000 7
           576  50.28305732:32:32:32:32:3 12dBm   Nov 17,   201801:29:59.146154000 7
           577  50.31095532:32:32:32:32:3 11dBm   Nov 17,   201801:29:59.174052000 7
           578  50.33539232:32:32:32:32:3 14dBm   Nov 17,   201801:29:59.198489000 7
           579  50.71074732:32:32:32:32:3 12dBm   Nov 17,   201801:29:59.573844000 7
           580  50.81142732:32:32:32:32:3 11dBm   Nov 17,   201801:29:59.674524000 7
           581  50.93108232:32:32:32:32:3 11dBm   Nov 17,   201801:29:59.794179000 7
           582  51.10540932:32:32:32:32:3 11dBm   Nov 17,   201801:29:59.968506000 7
           583  51.21136732:32:32:32:32:3 10dBm   Nov 17,   201801:30:00.074464000 7
           584  51.23097432:32:32:32:32:3 11dBm   Nov 17,   201801:30:00.094071000 7
           585  51.46457332:32:32:32:32:3  9Bm N  ov 17, 2018 0 1:30:00.327670000  7
           586  51.64458432:32:32:32:32:3 11dBm   Nov 17,   201801:30:00.507681000 7
           587  5 1.6921132:32:32:32:32:3 11dBm   Nov 17,   201801:30:00.555207000 7
           588  51.77138732:32:32:32:32:3 11dBm   Nov 17,   201801:30:00.634484000 7
           589  51.84240532:32:32:32:32:3 11dBm   Nov 17,   201801:30:00.705502000 7
           590  51.86673632:32:32:32:32:3 13dBm   Nov 17,   201801:30:00.729833000 7
           591  51.95855632:32:32:32:32:3 10dBm   Nov 17,   201801:30:00.821653000 7
           592  52.07092632:32:32:32:32:3 13dBm   Nov 17,   201801:30:00.934023000 7
           593  52.26467232:32:32:32:32:3 11dBm   Nov 17,   201801:30:01.127769000 7
           594  52.27718232:32:32:32:32:3 13dBm   Nov 17,   201801:30:01.140279000 7
           595  52.29646732:32:32:32:32:3 13dBm   Nov 17,   201801:30:01.159564000 7
           596  5 2.4019332:32:32:32:32:3 12dBm   Nov 17,   201801:30:01.265027000 7
           597  52.42041732:32:32:32:32:3 11dBm   Nov 17,   201801:30:01.283514000 7
           598  52.48935932:32:32:32:32:3 13dBm   Nov 17,   201801:30:01.352456000 7
           599  52.51836232:32:32:32:32:3 12dBm   Nov 17,   201801:30:01.381459000 7
           600  52.53218732:32:32:32:32:3 12dBm   Nov 17,   201801:30:01.395284000 7
           601  52.62132532:32:32:32:32:3 13dBm   Nov 17,   201801:30:01.484422000 7
           602  52.68508232:32:32:32:32:3 13dBm   Nov 17,   201801:30:01.548179000 7
           603  52.72599532:32:32:32:32:3 14dBm   Nov 17,   201801:30:01.589092000 7
           604  52.83013232:32:32:32:32:3 11dBm   Nov 17,   201801:30:01.693229000 7
           605  52.93513832:32:32:32:32:3 14dBm   Nov 17,   201801:30:01.798235000 7
           606  5 2.9565132:32:32:32:32:3 12dBm   Nov 17,   201801:30:01.819607000 7
           607  53.27293632:32:32:32:32:3 12dBm   Nov 17,   201801:30:02.136033000 7
           608  53.29649932:32:32:32:32:3 14dBm   Nov 17,   201801:30:02.159596000 7
           609  53.33492832:32:32:32:32:3 11dBm   Nov 17,   201801:30:02.198025000 7
           610  53.49546832:32:32:32:32:3 13dBm   Nov 17,   201801:30:02.358565000 7
           611  53.75344932:32:32:32:32:3 14dBm   Nov 17,   201801:30:02.616546000 7
           612  53.82706232:32:32:32:32:3 13dBm   Nov 17,   201801:30:02.690159000 7
           613  53.92860232:32:32:32:32:3 14dBm   Nov 17,   201801:30:02.791699000 7
           614  54.20118232:32:32:32:32:3 13dBm   Nov 17,   201801:30:03.064279000 7
           615  54.32109832:32:32:32:32:3 14dBm   Nov 17,   201801:30:03.184195000 7
           616  54.43529432:32:32:32:32:3 14dBm   Nov 17,   201801:30:03.298391000 7
           617  54.51561332:32:32:32:32:3 12dBm   Nov 17,   201801:30:03.378710000 7
           618  54.61194932:32:32:32:32:3 12dBm   Nov 17,   201801:30:03.475046000 7
           619  54.63502132:32:32:32:32:3 13dBm   Nov 17,   201801:30:03.498118000 7
           620  54.75844532:32:32:32:32:3 13dBm   Nov 17,   201801:30:03.621542000 7
           621  54.91153432:32:32:32:32:3 14dBm   Nov 17,   201801:30:03.774631000 7
           622  55.01889132:32:32:32:32:3 13dBm   Nov 17,   201801:30:03.881988000 7
           623  55.03791932:32:32:32:32:3 13dBm   Nov 17,   201801:30:03.901016000 7
           624  55.09776632:32:32:32:32:3 10dBm   Nov 17,   201801:30:03.960863000 7
           625  55.14910832:32:32:32:32:3 12dBm   Nov 17,   201801:30:04.012205000 7
           626  55.17107332:32:32:32:32:3 13dBm   Nov 17,   201801:30:04.034170000 7
           627  55.39693632:32:32:32:32:3 14dBm   Nov 17,   201801:30:04.260033000 7
           628  55.42863832:32:32:32:32:3 14dBm   Nov 17,   201801:30:04.291735000 7
           629  55.48048832:32:32:32:32:3 13dBm   Nov 17,   201801:30:04.343585000 7
           630  55.67828232:32:32:32:32:3 14dBm   Nov 17,   201801:30:04.541379000 7
           631  55.70874732:32:32:32:32:3 12dBm   Nov 17,   201801:30:04.571844000 7
           632  5 5.7434332:32:32:32:32:3 12dBm   Nov 17,   201801:30:04.606527000 7
           633  55.75701332:32:32:32:32:3 12dBm   Nov 17,   201801:30:04.620110000 7
           634  56.07376532:32:32:32:32:3 13dBm   Nov 17,   201801:30:04.936862000 7
           635  56.09037532:32:32:32:32:3 14dBm   Nov 17,   201801:30:04.953472000 7
           636  5 6.1871132:32:32:32:32:3 13dBm   Nov 17,   201801:30:05.050207000 7
           637  56.26057332:32:32:32:32:3 15dBm   Nov 17,   201801:30:05.123670000 7
           638  56.29085732:32:32:32:32:3 14dBm   Nov 17,   201801:30:05.153954000 7
           639  56.31961632:32:32:32:32:3 13dBm   Nov 17,   201801:30:05.182713000 7
           640  56.34201732:32:32:32:32:3 15dBm   Nov 17,   201801:30:05.205114000 7
           641  56.43826732:32:32:32:32:3 13dBm   Nov 17,   201801:30:05.301364000 7
           642  56.53117132:32:32:32:32:3 14dBm   Nov 17,   201801:30:05.394268000 7
           643  56.58902332:32:32:32:32:3 13dBm   Nov 17,   201801:30:05.452120000 7
           644  56.64317932:32:32:32:32:3 15dBm   Nov 17,   201801:30:05.506276000 7
           645  56.64859232:32:32:32:32:3 13dBm   Nov 17,   201801:30:05.511689000 7
           646  56.70696332:32:32:32:32:3 13dBm   Nov 17,   201801:30:05.570060000 7
           647  56.85728332:32:32:32:32:3 12dBm   Nov 17,   201801:30:05.720380000 7
           648  56.90913932:32:32:32:32:3 13dBm   Nov 17,   201801:30:05.772236000 7
           649  56.92605732:32:32:32:32:3 12dBm   Nov 17,   201801:30:05.789154000 7
           650  57.10934632:32:32:32:32:3 13dBm   Nov 17,   201801:30:05.972443000 7
           651  57.18824532:32:32:32:32:3 13dBm   Nov 17,   201801:30:06.051342000 7
           652  57.20845832:32:32:32:32:3 13dBm   Nov 17,   201801:30:06.071555000 7
           653  57.23658432:32:32:32:32:3 13dBm   Nov 17,   201801:30:06.099681000 7
           654  57.39420832:32:32:32:32:3 11dBm   Nov 17,   201801:30:06.257305000 7
           655  57.52343432:32:32:32:32:3 13dBm   Nov 17,   201801:30:06.386531000 7
           656  57.54438432:32:32:32:32:3 13dBm   Nov 17,   201801:30:06.407481000 7
           657  57.63320832:32:32:32:32:3 14dBm   Nov 17,   201801:30:06.496305000 7
           658  57.70171632:32:32:32:32:3 13dBm   Nov 17,   201801:30:06.564813000 7
           659  57.74474332:32:32:32:32:3 12dBm   Nov 17,   201801:30:06.607840000 7
           660  57.78776432:32:32:32:32:3 14dBm   Nov 17,   201801:30:06.650861000 7
           661  57.87364832:32:32:32:32:3 13dBm   Nov 17,   201801:30:06.736745000 7
           662  57.92372332:32:32:32:32:3 13dBm   Nov 17,   201801:30:06.786820000 7
           663  58.04647732:32:32:32:32:3 12dBm   Nov 17,   201801:30:06.909574000 7
           664  58.07327632:32:32:32:32:3 13dBm   Nov 17,   201801:30:06.936373000 7
           665  58.14614732:32:32:32:32:3 13dBm   Nov 17,   201801:30:07.009244000 7
           666  58.17662832:32:32:32:32:3 13dBm   Nov 17,   201801:30:07.039725000 7
           667  58.27526832:32:32:32:32:3 12dBm   Nov 17,   201801:30:07.138365000 7
           668  5 8.3288932:32:32:32:32:3 11dBm   Nov 17,   201801:30:07.191987000 7
           669  58.34520532:32:32:32:32:3 13dBm   Nov 17,   201801:30:07.208302000 7
           670  58.59705732:32:32:32:32:3 12dBm   Nov 17,   201801:30:07.460154000 7
           671  59.12185332:32:32:32:32:3 12dBm   Nov 17,   201801:30:07.984950000 7
           672  59.26832332:32:32:32:32:3 12dBm   Nov 17,   201801:30:08.131420000 7
           673  59.29143832:32:32:32:32:3 13dBm   Nov 17,   201801:30:08.154535000 7
           674  59.64666632:32:32:32:32:3 13dBm   Nov 17,   201801:30:08.509763000 7
           675  59.72112632:32:32:32:32:3 12dBm   Nov 17,   201801:30:08.584223000 7
           676  59.91592732:32:32:32:32:3 14dBm   Nov 17,   201801:30:08.779024000 7
           677  60.02542432:32:32:32:32:3 11dBm   Nov 17,   201801:30:08.888521000 7
           678  60.05198932:32:32:32:32:3 13dBm   Nov 17,   201801:30:08.915086000 7
           679  60.17264232:32:32:32:32:3 14dBm   Nov 17,   201801:30:09.035739000 7
           680  60.31424932:32:32:32:32:3 10dBm   Nov 17,   201801:30:09.177346000 7
           681  60.38091432:32:32:32:32:3 13dBm   Nov 17,   201801:30:09.244011000 7
           682  60.44066632:32:32:32:32:3 13dBm   Nov 17,   201801:30:09.303763000 7
           683  60.47830432:32:32:32:32:3 12dBm   Nov 17,   201801:30:09.341401000 7
           684  6 0.5134232:32:32:32:32:3 12dBm   Nov 17,   201801:30:09.376517000 7
           685  60.55819432:32:32:32:32:3 11dBm   Nov 17,   201801:30:09.421291000 7
