    1   0.000000 32:32:32:32:32:32 11dBm Nov 17, 2018 01:32:10.780481000 +07
    2   0.006424 32:32:32:32:32:32 9dBm Nov 17, 2018 01:32:10.786905000 +07
    3   0.082170 32:32:32:32:32:32 11dBm Nov 17, 2018 01:32:10.862651000 +07
    4   0.163098 32:32:32:32:32:32 9dBm Nov 17, 2018 01:32:10.943579000 +07
    5   0.554674 32:32:32:32:32:32 11dBm Nov 17, 2018 01:32:11.335155000 +07
    6   1.006632 32:32:32:32:32:32 8dBm Nov 17, 2018 01:32:11.787113000 +07
    7   1.145274 32:32:32:32:32:32 10dBm Nov 17, 2018 01:32:11.925755000 +07
    8   1.186493 32:32:32:32:32:32 10dBm Nov 17, 2018 01:32:11.966974000 +07
    9   1.817134 32:32:32:32:32:32 11dBm Nov 17, 2018 01:32:12.597615000 +07
   10   2.012718 32:32:32:32:32:32 8dBm Nov 17, 2018 01:32:12.793199000 +07
   11   2.155383 32:32:32:32:32:32 10dBm Nov 17, 2018 01:32:12.935864000 +07
   12   2.296714 32:32:32:32:32:32 9dBm Nov 17, 2018 01:32:13.077195000 +07
   13   2.424581 32:32:32:32:32:32 9dBm Nov 17, 2018 01:32:13.205062000 +07
   14   3.598771 32:32:32:32:32:32 8dBm Nov 17, 2018 01:32:14.379252000 +07
   15   3.961409 32:32:32:32:32:32 10dBm Nov 17, 2018 01:32:14.741890000 +07
   16   4.027859 32:32:32:32:32:32 11dBm Nov 17, 2018 01:32:14.808340000 +07
   17   4.118780 32:32:32:32:32:32 9dBm Nov 17, 2018 01:32:14.899261000 +07
   18   4.912450 32:32:32:32:32:32 9dBm Nov 17, 2018 01:32:15.692931000 +07
   19   5.356872 32:32:32:32:32:32 9dBm Nov 17, 2018 01:32:16.137353000 +07
   20   5.968778 32:32:32:32:32:32 11dBm Nov 17, 2018 01:32:16.749259000 +07
   21   6.684331 32:32:32:32:32:32 9dBm Nov 17, 2018 01:32:17.464812000 +07
   22   7.106318 32:32:32:32:32:32 10dBm Nov 17, 2018 01:32:17.886799000 +07
   23   7.662045 32:32:32:32:32:32 10dBm Nov 17, 2018 01:32:18.442526000 +07
   24   8.136830 32:32:32:32:32:32 11dBm Nov 17, 2018 01:32:18.917311000 +07
   25   8.262322 32:32:32:32:32:32 10dBm Nov 17, 2018 01:32:19.042803000 +07
   26   8.737901 32:32:32:32:32:32 10dBm Nov 17, 2018 01:32:19.518382000 +07
   27   9.324746 32:32:32:32:32:32 10dBm Nov 17, 2018 01:32:20.105227000 +07
   28   9.442149 32:32:32:32:32:32 10dBm Nov 17, 2018 01:32:20.222630000 +07
   29   9.669485 32:32:32:32:32:32 11dBm Nov 17, 2018 01:32:20.449966000 +07
   30   9.911456 32:32:32:32:32:32 11dBm Nov 17, 2018 01:32:20.691937000 +07
   31  10.071740 32:32:32:32:32:32 10dBm Nov 17, 2018 01:32:20.852221000 +07
   32  11.398715 32:32:32:32:32:32 10dBm Nov 17, 2018 01:32:22.179196000 +07
   33  13.084046 32:32:32:32:32:32 10dBm Nov 17, 2018 01:32:23.864527000 +07
   34  13.621221 32:32:32:32:32:32 10dBm Nov 17, 2018 01:32:24.401702000 +07
   35  13.740136 32:32:32:32:32:32 11dBm Nov 17, 2018 01:32:24.520617000 +07
   36  13.860404 32:32:32:32:32:32 11dBm Nov 17, 2018 01:32:24.640885000 +07
   37  14.870146 32:32:32:32:32:32 11dBm Nov 17, 2018 01:32:25.650627000 +07
   38  15.034816 32:32:32:32:32:32 10dBm Nov 17, 2018 01:32:25.815297000 +07
   39  15.603798 32:32:32:32:32:32 10dBm Nov 17, 2018 01:32:26.384279000 +07
   40  15.791396 32:32:32:32:32:32 11dBm Nov 17, 2018 01:32:26.571877000 +07
   41  17.316922 32:32:32:32:32:32 10dBm Nov 17, 2018 01:32:28.097403000 +07
   42  17.477201 32:32:32:32:32:32 10dBm Nov 17, 2018 01:32:28.257682000 +07
   43  17.661022 32:32:32:32:32:32 8dBm Nov 17, 2018 01:32:28.441503000 +07
   44  17.699241 32:32:32:32:32:32 8dBm Nov 17, 2018 01:32:28.479722000 +07
   45  17.949424 32:32:32:32:32:32 7dBm Nov 17, 2018 01:32:28.729905000 +07
   46  18.409514 32:32:32:32:32:32 11dBm Nov 17, 2018 01:32:29.189995000 +07
   47  19.130578 32:32:32:32:32:32 10dBm Nov 17, 2018 01:32:29.911059000 +07
   48  19.963999 32:32:32:32:32:32 8dBm Nov 17, 2018 01:32:30.744480000 +07
   49  20.100924 32:32:32:32:32:32 11dBm Nov 17, 2018 01:32:30.881405000 +07
   50  20.781609 32:32:32:32:32:32 11dBm Nov 17, 2018 01:32:31.562090000 +07
   51  20.920149 32:32:32:32:32:32 9dBm Nov 17, 2018 01:32:31.700630000 +07
   52  21.522130 32:32:32:32:32:32 11dBm Nov 17, 2018 01:32:32.302611000 +07
   53  22.261585 32:32:32:32:32:32 10dBm Nov 17, 2018 01:32:33.042066000 +07
   54  23.742440 32:32:32:32:32:32 11dBm Nov 17, 2018 01:32:34.522921000 +07
   55  23.818903 32:32:32:32:32:32 10dBm Nov 17, 2018 01:32:34.599384000 +07
   56  23.855656 32:32:32:32:32:32 11dBm Nov 17, 2018 01:32:34.636137000 +07
   57  24.779610 32:32:32:32:32:32 8dBm Nov 17, 2018 01:32:35.560091000 +07
   58  24.878503 32:32:32:32:32:32 11dBm Nov 17, 2018 01:32:35.658984000 +07
   59  25.352474 32:32:32:32:32:32 11dBm Nov 17, 2018 01:32:36.132955000 +07
   60  25.783726 32:32:32:32:32:32 11dBm Nov 17, 2018 01:32:36.564207000 +07
   61  26.458862 32:32:32:32:32:32 9dBm Nov 17, 2018 01:32:37.239343000 +07
   62  27.294235 32:32:32:32:32:32 11dBm Nov 17, 2018 01:32:38.074716000 +07
   63  27.754294 32:32:32:32:32:32 9dBm Nov 17, 2018 01:32:38.534775000 +07
   64  28.192811 32:32:32:32:32:32 12dBm Nov 17, 2018 01:32:38.973292000 +07
   65  28.826878 32:32:32:32:32:32 9dBm Nov 17, 2018 01:32:39.607359000 +07
   66  28.979067 32:32:32:32:32:32 10dBm Nov 17, 2018 01:32:39.759548000 +07
   67  29.805609 32:32:32:32:32:32 10dBm Nov 17, 2018 01:32:40.586090000 +07
   68  29.978373 32:32:32:32:32:32 11dBm Nov 17, 2018 01:32:40.758854000 +07
   69  30.210686 32:32:32:32:32:32 11dBm Nov 17, 2018 01:32:40.991167000 +07
   70  30.378430 32:32:32:32:32:32 10dBm Nov 17, 2018 01:32:41.158911000 +07
   71  30.502354 32:32:32:32:32:32 8dBm Nov 17, 2018 01:32:41.282835000 +07
   72  30.554653 32:32:32:32:32:32 9dBm Nov 17, 2018 01:32:41.335134000 +07
   73  31.536911 32:32:32:32:32:32 8dBm Nov 17, 2018 01:32:42.317392000 +07
   74  31.760458 32:32:32:32:32:32 11dBm Nov 17, 2018 01:32:42.540939000 +07
   75  32.311054 32:32:32:32:32:32 8dBm Nov 17, 2018 01:32:43.091535000 +07
   76  32.452858 32:32:32:32:32:32 11dBm Nov 17, 2018 01:32:43.233339000 +07
   77  32.575187 32:32:32:32:32:32 10dBm Nov 17, 2018 01:32:43.355668000 +07
   78  32.753392 32:32:32:32:32:32 11dBm Nov 17, 2018 01:32:43.533873000 +07
   79  32.974119 32:32:32:32:32:32 9dBm Nov 17, 2018 01:32:43.754600000 +07
   80  33.138946 32:32:32:32:32:32 8dBm Nov 17, 2018 01:32:43.919427000 +07
   81  34.271600 32:32:32:32:32:32 11dBm Nov 17, 2018 01:32:45.052081000 +07
   82  34.408624 32:32:32:32:32:32 12dBm Nov 17, 2018 01:32:45.189105000 +07
   83  34.438106 32:32:32:32:32:32 8dBm Nov 17, 2018 01:32:45.218587000 +07
   84  34.557942 32:32:32:32:32:32 11dBm Nov 17, 2018 01:32:45.338423000 +07
   85  34.991477 32:32:32:32:32:32 11dBm Nov 17, 2018 01:32:45.771958000 +07
   86  36.122484 32:32:32:32:32:32 11dBm Nov 17, 2018 01:32:46.902965000 +07
   87  37.443559 32:32:32:32:32:32 10dBm Nov 17, 2018 01:32:48.224040000 +07
   88  37.647253 32:32:32:32:32:32 11dBm Nov 17, 2018 01:32:48.427734000 +07
   89  37.809306 32:32:32:32:32:32 10dBm Nov 17, 2018 01:32:48.589787000 +07
   90  37.936028 32:32:32:32:32:32 11dBm Nov 17, 2018 01:32:48.716509000 +07
   91  38.182124 32:32:32:32:32:32 10dBm Nov 17, 2018 01:32:48.962605000 +07
   92  38.389277 32:32:32:32:32:32 8dBm Nov 17, 2018 01:32:49.169758000 +07
   93  38.616488 32:32:32:32:32:32 11dBm Nov 17, 2018 01:32:49.396969000 +07
   94  38.854481 32:32:32:32:32:32 10dBm Nov 17, 2018 01:32:49.634962000 +07
   95  39.151835 32:32:32:32:32:32 11dBm Nov 17, 2018 01:32:49.932316000 +07
   96  39.309555 32:32:32:32:32:32 11dBm Nov 17, 2018 01:32:50.090036000 +07
   97  40.063638 32:32:32:32:32:32 10dBm Nov 17, 2018 01:32:50.844119000 +07
   98  40.525612 32:32:32:32:32:32 11dBm Nov 17, 2018 01:32:51.306093000 +07
   99  40.687188 32:32:32:32:32:32 11dBm Nov 17, 2018 01:32:51.467669000 +07
  100  41.129028 32:32:32:32:32:32 9dBm Nov 17, 2018 01:32:51.909509000 +07
  101  41.470985 32:32:32:32:32:32 11dBm Nov 17, 2018 01:32:52.251466000 +07
  102  42.146242 32:32:32:32:32:32 11dBm Nov 17, 2018 01:32:52.926723000 +07
  103  42.662289 32:32:32:32:32:32 11dBm Nov 17, 2018 01:32:53.442770000 +07
  104  42.804737 32:32:32:32:32:32 10dBm Nov 17, 2018 01:32:53.585218000 +07
  105  43.127811 32:32:32:32:32:32 9dBm Nov 17, 2018 01:32:53.908292000 +07
  106  43.439532 32:32:32:32:32:32 11dBm Nov 17, 2018 01:32:54.220013000 +07
  107  43.701900 32:32:32:32:32:32 11dBm Nov 17, 2018 01:32:54.482381000 +07
  108  43.952892 32:32:32:32:32:32 11dBm Nov 17, 2018 01:32:54.733373000 +07
  109  45.093179 32:32:32:32:32:32 9dBm Nov 17, 2018 01:32:55.873660000 +07
  110  45.477588 32:32:32:32:32:32 9dBm Nov 17, 2018 01:32:56.258069000 +07
  111  46.078445 32:32:32:32:32:32 10dBm Nov 17, 2018 01:32:56.858926000 +07
  112  46.613686 32:32:32:32:32:32 11dBm Nov 17, 2018 01:32:57.394167000 +07
  113  46.825825 32:32:32:32:32:32 9dBm Nov 17, 2018 01:32:57.606306000 +07
  114  47.093667 32:32:32:32:32:32 10dBm Nov 17, 2018 01:32:57.874148000 +07
  115  47.101888 32:32:32:32:32:32 8dBm Nov 17, 2018 01:32:57.882369000 +07
  116  47.463175 32:32:32:32:32:32 10dBm Nov 17, 2018 01:32:58.243656000 +07
  117  48.194303 32:32:32:32:32:32 10dBm Nov 17, 2018 01:32:58.974784000 +07
  118  48.252807 32:32:32:32:32:32 11dBm Nov 17, 2018 01:32:59.033288000 +07
  119  48.323354 32:32:32:32:32:32 10dBm Nov 17, 2018 01:32:59.103835000 +07
  120  48.446512 32:32:32:32:32:32 12dBm Nov 17, 2018 01:32:59.226993000 +07
  121  49.410190 32:32:32:32:32:32 10dBm Nov 17, 2018 01:33:00.190671000 +07
  122  49.789498 32:32:32:32:32:32 10dBm Nov 17, 2018 01:33:00.569979000 +07
  123  50.104835 32:32:32:32:32:32 8dBm Nov 17, 2018 01:33:00.885316000 +07
  124  50.255115 32:32:32:32:32:32 9dBm Nov 17, 2018 01:33:01.035596000 +07
  125  50.383060 32:32:32:32:32:32 9dBm Nov 17, 2018 01:33:01.163541000 +07
  126  51.198301 32:32:32:32:32:32 10dBm Nov 17, 2018 01:33:01.978782000 +07
  127  51.413876 32:32:32:32:32:32 10dBm Nov 17, 2018 01:33:02.194357000 +07
  128  51.925294 32:32:32:32:32:32 10dBm Nov 17, 2018 01:33:02.705775000 +07
  129  52.043810 32:32:32:32:32:32 10dBm Nov 17, 2018 01:33:02.824291000 +07
  130  52.186765 32:32:32:32:32:32 12dBm Nov 17, 2018 01:33:02.967246000 +07
  131  52.312428 32:32:32:32:32:32 11dBm Nov 17, 2018 01:33:03.092909000 +07
  132  52.920221 32:32:32:32:32:32 10dBm Nov 17, 2018 01:33:03.700702000 +07
  133  54.384476 32:32:32:32:32:32 11dBm Nov 17, 2018 01:33:05.164957000 +07
  134  55.039620 32:32:32:32:32:32 11dBm Nov 17, 2018 01:33:05.820101000 +07
  135  55.475918 32:32:32:32:32:32 12dBm Nov 17, 2018 01:33:06.256399000 +07
  136  55.847467 32:32:32:32:32:32 11dBm Nov 17, 2018 01:33:06.627948000 +07
  137  56.346291 32:32:32:32:32:32 10dBm Nov 17, 2018 01:33:07.126772000 +07
  138  56.821113 32:32:32:32:32:32 9dBm Nov 17, 2018 01:33:07.601594000 +07
  139  57.051985 32:32:32:32:32:32 8dBm Nov 17, 2018 01:33:07.832466000 +07
  140  57.642369 32:32:32:32:32:32 9dBm Nov 17, 2018 01:33:08.422850000 +07
  141  57.968451 32:32:32:32:32:32 11dBm Nov 17, 2018 01:33:08.748932000 +07
  142  58.242524 32:32:32:32:32:32 9dBm Nov 17, 2018 01:33:09.023005000 +07
  143  58.787619 32:32:32:32:32:32 10dBm Nov 17, 2018 01:33:09.568100000 +07
  144  59.202350 32:32:32:32:32:32 6dBm Nov 17, 2018 01:33:09.982831000 +07
  145  59.362216 32:32:32:32:32:32 10dBm Nov 17, 2018 01:33:10.142697000 +07
  146  60.096647 32:32:32:32:32:32 11dBm Nov 17, 2018 01:33:10.877128000 +07
  147  60.496598 32:32:32:32:32:32 7dBm Nov 17, 2018 01:33:11.277079000 +07
  148  60.504336 32:32:32:32:32:32 9dBm Nov 17, 2018 01:33:11.284817000 +07
  149  61.447199 32:32:32:32:32:32 10dBm Nov 17, 2018 01:33:12.227680000 +07
  150  61.575791 32:32:32:32:32:32 10dBm Nov 17, 2018 01:33:12.356272000 +07
  151  61.951383 32:32:32:32:32:32 10dBm Nov 17, 2018 01:33:12.731864000 +07
  152  62.074098 32:32:32:32:32:32 9dBm Nov 17, 2018 01:33:12.854579000 +07
  153  63.029836 32:32:32:32:32:32 10dBm Nov 17, 2018 01:33:13.810317000 +07
  154  63.131975 32:32:32:32:32:32 10dBm Nov 17, 2018 01:33:13.912456000 +07
  155  63.305584 32:32:32:32:32:32 10dBm Nov 17, 2018 01:33:14.086065000 +07
  156  63.529144 32:32:32:32:32:32 10dBm Nov 17, 2018 01:33:14.309625000 +07
  157  63.808603 32:32:32:32:32:32 11dBm Nov 17, 2018 01:33:14.589084000 +07
  158  64.033295 32:32:32:32:32:32 7dBm Nov 17, 2018 01:33:14.813776000 +07
  159  64.283057 32:32:32:32:32:32 10dBm Nov 17, 2018 01:33:15.063538000 +07
  160  64.540181 32:32:32:32:32:32 9dBm Nov 17, 2018 01:33:15.320662000 +07
  161  65.066788 32:32:32:32:32:32 11dBm Nov 17, 2018 01:33:15.847269000 +07
  162  65.303561 32:32:32:32:32:32 12dBm Nov 17, 2018 01:33:16.084042000 +07
  163  65.884468 32:32:32:32:32:32 10dBm Nov 17, 2018 01:33:16.664949000 +07
  164  66.018381 32:32:32:32:32:32 10dBm Nov 17, 2018 01:33:16.798862000 +07
  165  66.625192 32:32:32:32:32:32 11dBm Nov 17, 2018 01:33:17.405673000 +07
  166  66.768796 32:32:32:32:32:32 11dBm Nov 17, 2018 01:33:17.549277000 +07
  167  67.417083 32:32:32:32:32:32 10dBm Nov 17, 2018 01:33:18.197564000 +07
  168  67.764879 32:32:32:32:32:32 9dBm Nov 17, 2018 01:33:18.545360000 +07
  169  68.211954 32:32:32:32:32:32 11dBm Nov 17, 2018 01:33:18.992435000 +07
  170  68.242402 32:32:32:32:32:32 10dBm Nov 17, 2018 01:33:19.022883000 +07
  171  68.665002 32:32:32:32:32:32 12dBm Nov 17, 2018 01:33:19.445483000 +07
  172  68.706963 32:32:32:32:32:32 13dBm Nov 17, 2018 01:33:19.487444000 +07
  173  69.436488 32:32:32:32:32:32 10dBm Nov 17, 2018 01:33:20.216969000 +07
  174  69.523376 32:32:32:32:32:32 11dBm Nov 17, 2018 01:33:20.303857000 +07
  175  69.645708 32:32:32:32:32:32 11dBm Nov 17, 2018 01:33:20.426189000 +07
  176  69.902818 32:32:32:32:32:32 11dBm Nov 17, 2018 01:33:20.683299000 +07
  177  70.067538 32:32:32:32:32:32 10dBm Nov 17, 2018 01:33:20.848019000 +07
  178  72.405357 32:32:32:32:32:32 7dBm Nov 17, 2018 01:33:23.185838000 +07
  179  72.453457 32:32:32:32:32:32 10dBm Nov 17, 2018 01:33:23.233938000 +07
  180  72.820905 32:32:32:32:32:32 11dBm Nov 17, 2018 01:33:23.601386000 +07
  181  75.086140 32:32:32:32:32:32 11dBm Nov 17, 2018 01:33:25.866621000 +07
  182  75.141689 32:32:32:32:32:32 11dBm Nov 17, 2018 01:33:25.922170000 +07
  183  76.050365 32:32:32:32:32:32 9dBm Nov 17, 2018 01:33:26.830846000 +07
  184  76.995006 32:32:32:32:32:32 10dBm Nov 17, 2018 01:33:27.775487000 +07
  185  77.105639 32:32:32:32:32:32 10dBm Nov 17, 2018 01:33:27.886120000 +07
  186  77.351471 32:32:32:32:32:32 9dBm Nov 17, 2018 01:33:28.131952000 +07
  187  77.528034 32:32:32:32:32:32 10dBm Nov 17, 2018 01:33:28.308515000 +07
  188  78.064725 32:32:32:32:32:32 11dBm Nov 17, 2018 01:33:28.845206000 +07
  189  78.232691 32:32:32:32:32:32 10dBm Nov 17, 2018 01:33:29.013172000 +07
  190  78.737559 32:32:32:32:32:32 10dBm Nov 17, 2018 01:33:29.518040000 +07
  191  78.851288 32:32:32:32:32:32 9dBm Nov 17, 2018 01:33:29.631769000 +07
  192  79.023639 32:32:32:32:32:32 10dBm Nov 17, 2018 01:33:29.804120000 +07
  193  80.031032 32:32:32:32:32:32 10dBm Nov 17, 2018 01:33:30.811513000 +07
