                1       032:32:32:32:32:3 5dBm N  ov 17, 2018 0 1:30:49.007403000  7          2
                20.87439632:32:32:32:32:3 7dBm N  ov 17, 2018 0 1:30:49.881799000  7          9
                3 1.0038232:32:32:32:32:3 6dBm N  ov 17, 2018 0 1:30:50.011223000  7      5.624
                41.06499932:32:32:32:32:3 8dBm N  ov 17, 2018 0 1:30:50.072402000  7        ###
                51.18021532:32:32:32:32:3 6dBm N  ov 17, 2018 0 1:30:50.187618000  7        ###
                61.21503632:32:32:32:32:3 6dBm N  ov 17, 2018 0 1:30:50.222439000  7
                71.42465932:32:32:32:32:3 7dBm N  ov 17, 2018 0 1:30:50.432062000  7
                81.51695232:32:32:32:32:3 6dBm N  ov 17, 2018 0 1:30:50.524355000  7
                91.64966732:32:32:32:32:3 7dBm N  ov 17, 2018 0 1:30:50.657070000  7
               101.70935632:32:32:32:32:3 5dBm N  ov 17, 2018 0 1:30:50.716759000  7
               112.03002832:32:32:32:32:3 6dBm N  ov 17, 2018 0 1:30:51.037431000  7
               122.24080332:32:32:32:32:3 5dBm N  ov 17, 2018 0 1:30:51.248206000  7
               132.49000832:32:32:32:32:3 6dBm N  ov 17, 2018 0 1:30:51.497411000  7
               142.65954532:32:32:32:32:3 6dBm N  ov 17, 2018 0 1:30:51.666948000  7
               152.71522532:32:32:32:32:3 4dBm N  ov 17, 2018 0 1:30:51.722628000  7
               164.33619532:32:32:32:32:3 6dBm N  ov 17, 2018 0 1:30:53.343598000  7
               175.15912932:32:32:32:32:3 4dBm N  ov 17, 2018 0 1:30:54.166532000  7
               185.46367832:32:32:32:32:3 4dBm N  ov 17, 2018 0 1:30:54.471081000  7
               195.57023632:32:32:32:32:3 5dBm N  ov 17, 2018 0 1:30:54.577639000  7
               205.84610332:32:32:32:32:3 7dBm N  ov 17, 2018 0 1:30:54.853506000  7
               216.09303632:32:32:32:32:3 6dBm N  ov 17, 2018 0 1:30:55.100439000  7
               226.54380232:32:32:32:32:3 7dBm N  ov 17, 2018 0 1:30:55.551205000  7
               236.61135232:32:32:32:32:3 5dBm N  ov 17, 2018 0 1:30:55.618755000  7
               246.96822132:32:32:32:32:3 3dBm N  ov 17, 2018 0 1:30:55.975624000  7
               256.99235132:32:32:32:32:3 5dBm N  ov 17, 2018 0 1:30:55.999754000  7
               267.06786832:32:32:32:32:3 5dBm N  ov 17, 2018 0 1:30:56.075271000  7
               27 7.0840132:32:32:32:32:3 6dBm N  ov 17, 2018 0 1:30:56.091413000  7
               287.09884232:32:32:32:32:3 6dBm N  ov 17, 2018 0 1:30:56.106245000  7
               297.16614632:32:32:32:32:3 6dBm N  ov 17, 2018 0 1:30:56.173549000  7
               30 7.1953232:32:32:32:32:3 7dBm N  ov 17, 2018 0 1:30:56.202723000  7
               317.46437332:32:32:32:32:3 8dBm N  ov 17, 2018 0 1:30:56.471776000  7
               327.50183832:32:32:32:32:3 6dBm N  ov 17, 2018 0 1:30:56.509241000  7
               337.55089932:32:32:32:32:3 7dBm N  ov 17, 2018 0 1:30:56.558302000  7
               347.64950732:32:32:32:32:3 9dBm N  ov 17, 2018 0 1:30:56.656910000  7
               357.68388532:32:32:32:32:3 9dBm N  ov 17, 2018 0 1:30:56.691288000  7
               367.71188532:32:32:32:32:3 5dBm N  ov 17, 2018 0 1:30:56.719288000  7
               37 8.7530732:32:32:32:32:3 4dBm N  ov 17, 2018 0 1:30:57.760473000  7
               388.96253632:32:32:32:32:3 5dBm N  ov 17, 2018 0 1:30:57.969939000  7
               399.00483532:32:32:32:32:3 5dBm N  ov 17, 2018 0 1:30:58.012238000  7
               409.07943232:32:32:32:32:3 6dBm N  ov 17, 2018 0 1:30:58.086835000  7
               419.23934932:32:32:32:32:3 5dBm N  ov 17, 2018 0 1:30:58.246752000  7
               42 9.7335332:32:32:32:32:3 7dBm N  ov 17, 2018 0 1:30:58.740933000  7
               439.77823132:32:32:32:32:3 6dBm N  ov 17, 2018 0 1:30:58.785634000  7
               449.85046632:32:32:32:32:3 4dBm N  ov 17, 2018 0 1:30:58.857869000  7
            45  10.17188832:32:32:32:32:3 6dBm N  ov 17, 2018 0 1:30:59.179291000  7
            46  10.27798632:32:32:32:32:3 6dBm N  ov 17, 2018 0 1:30:59.285389000  7
            47  10.46985432:32:32:32:32:3 4dBm N  ov 17, 2018 0 1:30:59.477257000  7
            48  10.48852932:32:32:32:32:3 5dBm N  ov 17, 2018 0 1:30:59.495932000  7
            49  10.50785432:32:32:32:32:3 5dBm N  ov 17, 2018 0 1:30:59.515257000  7
            50  10.55017832:32:32:32:32:3 7dBm N  ov 17, 2018 0 1:30:59.557581000  7
            51  1 0.6163332:32:32:32:32:3 6dBm N  ov 17, 2018 0 1:30:59.623733000  7
            52  1 0.7263132:32:32:32:32:3 4dBm N  ov 17, 2018 0 1:30:59.733713000  7
            53  10.91969332:32:32:32:32:3 4dBm N  ov 17, 2018 0 1:30:59.927096000  7
            54  11.31439332:32:32:32:32:3 4dBm N  ov 17, 2018 0 1:31:00.321796000  7
            55  11.68948832:32:32:32:32:3 4dBm N  ov 17, 2018 0 1:31:00.696891000  7
            56  12.71076132:32:32:32:32:3 6dBm N  ov 17, 2018 0 1:31:01.718164000  7
            57  12.73060632:32:32:32:32:3 5dBm N  ov 17, 2018 0 1:31:01.738009000  7
            58  12.75595932:32:32:32:32:3 6dBm N  ov 17, 2018 0 1:31:01.763362000  7
            59  12.77029932:32:32:32:32:3 5dBm N  ov 17, 2018 0 1:31:01.777702000  7
            60  12.79863732:32:32:32:32:3 5dBm N  ov 17, 2018 0 1:31:01.806040000  7
            61  13.17679232:32:32:32:32:3 5dBm N  ov 17, 2018 0 1:31:02.184195000  7
            62  13.28613732:32:32:32:32:3 6dBm N  ov 17, 2018 0 1:31:02.293540000  7
            63  13.45830332:32:32:32:32:3 6dBm N  ov 17, 2018 0 1:31:02.465706000  7
            64  13.62165832:32:32:32:32:3 5dBm N  ov 17, 2018 0 1:31:02.629061000  7
            65  13.83282632:32:32:32:32:3 5dBm N  ov 17, 2018 0 1:31:02.840229000  7
            66  14.27044932:32:32:32:32:3 5dBm N  ov 17, 2018 0 1:31:03.277852000  7
            67  14.29723632:32:32:32:32:3 7dBm N  ov 17, 2018 0 1:31:03.304639000  7
            68  14.32286332:32:32:32:32:3 4dBm N  ov 17, 2018 0 1:31:03.330266000  7
            69  14.59363632:32:32:32:32:3 6dBm N  ov 17, 2018 0 1:31:03.601039000  7
            70  14.64890632:32:32:32:32:3 5dBm N  ov 17, 2018 0 1:31:03.656309000  7
            71  14.73548632:32:32:32:32:3 6dBm N  ov 17, 2018 0 1:31:03.742889000  7
            72  15.01024632:32:32:32:32:3 6dBm N  ov 17, 2018 0 1:31:04.017649000  7
            73  15.67615832:32:32:32:32:3 8dBm N  ov 17, 2018 0 1:31:04.683561000  7
            74  16.35926432:32:32:32:32:3 7dBm N  ov 17, 2018 0 1:31:05.366667000  7
            75  17.56268832:32:32:32:32:3 6dBm N  ov 17, 2018 0 1:31:06.570091000  7
            76  17.90518732:32:32:32:32:3 7dBm N  ov 17, 2018 0 1:31:06.912590000  7
            77  18.50098732:32:32:32:32:3 6dBm N  ov 17, 2018 0 1:31:07.508390000  7
            78  18.61511732:32:32:32:32:3 5dBm N  ov 17, 2018 0 1:31:07.622520000  7
            79  19.11415532:32:32:32:32:3 6dBm N  ov 17, 2018 0 1:31:08.121558000  7
            80  19.62546332:32:32:32:32:3 8dBm N  ov 17, 2018 0 1:31:08.632866000  7
            81  19.98738432:32:32:32:32:3 5dBm N  ov 17, 2018 0 1:31:08.994787000  7
            82  20.07486932:32:32:32:32:3 4dBm N  ov 17, 2018 0 1:31:09.082272000  7
            83  20.22748132:32:32:32:32:3 6dBm N  ov 17, 2018 0 1:31:09.234884000  7
            84  20.91668932:32:32:32:32:3 5dBm N  ov 17, 2018 0 1:31:09.924092000  7
            85  21.12742532:32:32:32:32:3 4dBm N  ov 17, 2018 0 1:31:10.134828000  7
            86  21.17428232:32:32:32:32:3 5dBm N  ov 17, 2018 0 1:31:10.181685000  7
            87  21.40783432:32:32:32:32:3 6dBm N  ov 17, 2018 0 1:31:10.415237000  7
            88  21.62395932:32:32:32:32:3 6dBm N  ov 17, 2018 0 1:31:10.631362000  7
            89  21.70692432:32:32:32:32:3 5dBm N  ov 17, 2018 0 1:31:10.714327000  7
            90  22.66024532:32:32:32:32:3 7dBm N  ov 17, 2018 0 1:31:11.667648000  7
            91  22.79053932:32:32:32:32:3 5dBm N  ov 17, 2018 0 1:31:11.797942000  7
            92  22.91561532:32:32:32:32:3 5dBm N  ov 17, 2018 0 1:31:11.923018000  7
            93  23.36971232:32:32:32:32:3 5dBm N  ov 17, 2018 0 1:31:12.377115000  7
            94  23.86786932:32:32:32:32:3 7dBm N  ov 17, 2018 0 1:31:12.875272000  7
            95  23.98091232:32:32:32:32:3 5dBm N  ov 17, 2018 0 1:31:12.988315000  7
            96  24.00574732:32:32:32:32:3 5dBm N  ov 17, 2018 0 1:31:13.013150000  7
            97  24.81141232:32:32:32:32:3 4dBm N  ov 17, 2018 0 1:31:13.818815000  7
            99  24.99855732:32:32:32:32:3 5dBm N  ov 17, 2018 0 1:31:14.005960000  7
           100  25.39723832:32:32:32:32:3 4dBm N  ov 17, 2018 0 1:31:14.404641000  7
           101  25.49670632:32:32:32:32:3 5dBm N  ov 17, 2018 0 1:31:14.504109000  7
           102  25.70016532:32:32:32:32:3 2dBm N  ov 17, 2018 0 1:31:14.707568000  7
           103  25.90411132:32:32:32:32:3 5dBm N  ov 17, 2018 0 1:31:14.911514000  7
           104  26.25425632:32:32:32:32:3 4dBm N  ov 17, 2018 0 1:31:15.261659000  7
           105  26.37821732:32:32:32:32:3 5dBm N  ov 17, 2018 0 1:31:15.385620000  7
           106  26.39492232:32:32:32:32:3 5dBm N  ov 17, 2018 0 1:31:15.402325000  7
           107  2 7.9786232:32:32:32:32:3 6dBm N  ov 17, 2018 0 1:31:16.986023000  7
           108  2 8.7758332:32:32:32:32:3 7dBm N  ov 17, 2018 0 1:31:17.783233000  7
           109  32.03297532:32:32:32:32:3 5dBm N  ov 17, 2018 0 1:31:21.040378000  7
           110  32.26663932:32:32:32:32:3 5dBm N  ov 17, 2018 0 1:31:21.274042000  7
           111  34.57926632:32:32:32:32:3 6dBm N  ov 17, 2018 0 1:31:23.586669000  7
           112  37.73359332:32:32:32:32:3 6dBm N  ov 17, 2018 0 1:31:26.740996000  7
           113  38.49863432:32:32:32:32:3 5dBm N  ov 17, 2018 0 1:31:27.506037000  7
           114  42.73751232:32:32:32:32:3 6dBm N  ov 17, 2018 0 1:31:31.744915000  7
           115  44.28529632:32:32:32:32:3 6dBm N  ov 17, 2018 0 1:31:33.292699000  7
           116  44.59047432:32:32:32:32:3 7dBm N  ov 17, 2018 0 1:31:33.597877000  7
           117  44.64177632:32:32:32:32:3 5dBm N  ov 17, 2018 0 1:31:33.649179000  7
           118  4  4.776632:32:32:32:32:3 6dBm N  ov 17, 2018 0 1:31:33.784003000  7
           119  44.91492732:32:32:32:32:3 7dBm N  ov 17, 2018 0 1:31:33.922330000  7
           120  45.24304232:32:32:32:32:3 8dBm N  ov 17, 2018 0 1:31:34.250445000  7
           121  45.60190132:32:32:32:32:3 6dBm N  ov 17, 2018 0 1:31:34.609304000  7
           122  4 5.7306132:32:32:32:32:3 4dBm N  ov 17, 2018 0 1:31:34.738013000  7
           123  46.15366232:32:32:32:32:3 6dBm N  ov 17, 2018 0 1:31:35.161065000  7
           124  46.31904532:32:32:32:32:3 6dBm N  ov 17, 2018 0 1:31:35.326448000  7
           125  46.38044132:32:32:32:32:3 7dBm N  ov 17, 2018 0 1:31:35.387844000  7
           126  4  6.731632:32:32:32:32:3 6dBm N  ov 17, 2018 0 1:31:35.739003000  7
