                1       032:32:32:32:32:3 5dBm N  ov 17, 2018 0 1:46:06.317552000  7          1
                20.01928532:32:32:32:32:3 6dBm N  ov 17, 2018 0 1:46:06.336837000  7          8
                30.34606232:32:32:32:32:3 6dBm N  ov 17, 2018 0 1:46:06.663614000  7        ###
                4 0.4229832:32:32:32:32:3 5dBm N  ov 17, 2018 0 1:46:06.740532000  7        ###
                50.57914832:32:32:32:32:3 6dBm N  ov 17, 2018 0 1:46:06.896700000  7        ###
                60.66536332:32:32:32:32:3 5dBm N  ov 17, 2018 0 1:46:06.982915000  7
                70.68081832:32:32:32:32:3 1dBm N  ov 17, 2018 0 1:46:06.998370000  7
                80.69945932:32:32:32:32:3 6dBm N  ov 17, 2018 0 1:46:07.017011000  7
                90.97579832:32:32:32:32:3 4dBm N  ov 17, 2018 0 1:46:07.293350000  7
               100.99956832:32:32:32:32:3 4dBm N  ov 17, 2018 0 1:46:07.317120000  7
               111.01543632:32:32:32:32:3 4dBm N  ov 17, 2018 0 1:46:07.332988000  7
               121.37174832:32:32:32:32:3 4dBm N  ov 17, 2018 0 1:46:07.689300000  7
               132.11072232:32:32:32:32:3 5dBm N  ov 17, 2018 0 1:46:08.428274000  7
               142.29736932:32:32:32:32:3 3dBm N  ov 17, 2018 0 1:46:08.614921000  7
               152.36593932:32:32:32:32:3 7dBm N  ov 17, 2018 0 1:46:08.683491000  7
               162.38068532:32:32:32:32:3 7dBm N  ov 17, 2018 0 1:46:08.698237000  7
               172.41654832:32:32:32:32:3 6dBm N  ov 17, 2018 0 1:46:08.734100000  7
               182.58601332:32:32:32:32:3 4dBm N  ov 17, 2018 0 1:46:08.903565000  7
               192.77808232:32:32:32:32:3 3dBm N  ov 17, 2018 0 1:46:09.095634000  7
               203.89602432:32:32:32:32:3 5dBm N  ov 17, 2018 0 1:46:10.213576000  7
               214.69284132:32:32:32:32:3 6dBm N  ov 17, 2018 0 1:46:11.010393000  7
               224.78759332:32:32:32:32:3 4dBm N  ov 17, 2018 0 1:46:11.105145000  7
               235.05973132:32:32:32:32:3 6dBm N  ov 17, 2018 0 1:46:11.377283000  7
               245.83536732:32:32:32:32:3 5dBm N  ov 17, 2018 0 1:46:12.152919000  7
               256.33045232:32:32:32:32:3 3dBm N  ov 17, 2018 0 1:46:12.648004000  7
               266.35528432:32:32:32:32:3 3dBm N  ov 17, 2018 0 1:46:12.672836000  7
               276.51974732:32:32:32:32:3 4dBm N  ov 17, 2018 0 1:46:12.837299000  7
               286.95665432:32:32:32:32:3 5dBm N  ov 17, 2018 0 1:46:13.274206000  7
               297.22567732:32:32:32:32:3 4dBm N  ov 17, 2018 0 1:46:13.543229000  7
               307.24999732:32:32:32:32:3 6dBm N  ov 17, 2018 0 1:46:13.567549000  7
               317.34035832:32:32:32:32:3 5dBm N  ov 17, 2018 0 1:46:13.657910000  7
               32 7.3906232:32:32:32:32:3 5dBm N  ov 17, 2018 0 1:46:13.708172000  7
               339.21161232:32:32:32:32:3 7dBm N  ov 17, 2018 0 1:46:15.529164000  7
               349.39430332:32:32:32:32:3 5dBm N  ov 17, 2018 0 1:46:15.711855000  7
               359.41995132:32:32:32:32:3 6dBm N  ov 17, 2018 0 1:46:15.737503000  7
            36  10.26560532:32:32:32:32:3 6dBm N  ov 17, 2018 0 1:46:16.583157000  7
            37  10.66789532:32:32:32:32:3 6dBm N  ov 17, 2018 0 1:46:16.985447000  7
            38  10.87376232:32:32:32:32:3 7dBm N  ov 17, 2018 0 1:46:17.191314000  7
            39  10.96386332:32:32:32:32:3 4dBm N  ov 17, 2018 0 1:46:17.281415000  7
            40  11.35183532:32:32:32:32:3 6dBm N  ov 17, 2018 0 1:46:17.669387000  7
            41  11.44824232:32:32:32:32:3 8dBm N  ov 17, 2018 0 1:46:17.765794000  7
            42  11.63527732:32:32:32:32:3 5dBm N  ov 17, 2018 0 1:46:17.952829000  7
            43  12.00517732:32:32:32:32:3 6dBm N  ov 17, 2018 0 1:46:18.322729000  7
            44  12.03462232:32:32:32:32:3 6dBm N  ov 17, 2018 0 1:46:18.352174000  7
            45  13.04702332:32:32:32:32:3 5dBm N  ov 17, 2018 0 1:46:19.364575000  7
            46  13.06588432:32:32:32:32:3 5dBm N  ov 17, 2018 0 1:46:19.383436000  7
            47  13.67487732:32:32:32:32:3 5dBm N  ov 17, 2018 0 1:46:19.992429000  7
            48  13.92082132:32:32:32:32:3 6dBm N  ov 17, 2018 0 1:46:20.238373000  7
            49  14.50112932:32:32:32:32:3 5dBm N  ov 17, 2018 0 1:46:20.818681000  7
            50  14.72290732:32:32:32:32:3 5dBm N  ov 17, 2018 0 1:46:21.040459000  7
            51  1 5.0712632:32:32:32:32:3 2dBm N  ov 17, 2018 0 1:46:21.388812000  7
            52  15.20917732:32:32:32:32:3 6dBm N  ov 17, 2018 0 1:46:21.526729000  7
            53  15.26940132:32:32:32:32:3 4dBm N  ov 17, 2018 0 1:46:21.586953000  7
            54  15.33378232:32:32:32:32:3 5dBm N  ov 17, 2018 0 1:46:21.651334000  7
            55  1 5.5560532:32:32:32:32:3 5dBm N  ov 17, 2018 0 1:46:21.873602000  7
            56  15.77624332:32:32:32:32:3 6dBm N  ov 17, 2018 0 1:46:22.093795000  7
            57  1 5.9766832:32:32:32:32:3 5dBm N  ov 17, 2018 0 1:46:22.294232000  7
            58  1 6.0604632:32:32:32:32:3 5dBm N  ov 17, 2018 0 1:46:22.378012000  7
            59  16.45767532:32:32:32:32:3 5dBm N  ov 17, 2018 0 1:46:22.775227000  7
            60  1 6.9064332:32:32:32:32:3 6dBm N  ov 17, 2018 0 1:46:23.223982000  7
            61  17.06162932:32:32:32:32:3 4dBm N  ov 17, 2018 0 1:46:23.379181000  7
            62  17.10326332:32:32:32:32:3 5dBm N  ov 17, 2018 0 1:46:23.420815000  7
            63  1 7.1221132:32:32:32:32:3 7dBm N  ov 17, 2018 0 1:46:23.439662000  7
            64  17.24842232:32:32:32:32:3 6dBm N  ov 17, 2018 0 1:46:23.565974000  7
            65  17.39721432:32:32:32:32:3 4dBm N  ov 17, 2018 0 1:46:23.714766000  7
            66  17.50149232:32:32:32:32:3 6dBm N  ov 17, 2018 0 1:46:23.819044000  7
            67  18.32672532:32:32:32:32:3 5dBm N  ov 17, 2018 0 1:46:24.644277000  7
            68  18.47397532:32:32:32:32:3 4dBm N  ov 17, 2018 0 1:46:24.791527000  7
            69  18.64163132:32:32:32:32:3 6dBm N  ov 17, 2018 0 1:46:24.959183000  7
            70  19.04111132:32:32:32:32:3 5dBm N  ov 17, 2018 0 1:46:25.358663000  7
            71  19.73984832:32:32:32:32:3 5dBm N  ov 17, 2018 0 1:46:26.057400000  7
            72  20.31727532:32:32:32:32:3 6dBm N  ov 17, 2018 0 1:46:26.634827000  7
            73  2 0.5205832:32:32:32:32:3 5dBm N  ov 17, 2018 0 1:46:26.838132000  7
            74  20.55597532:32:32:32:32:3 6dBm N  ov 17, 2018 0 1:46:26.873527000  7
            75  20.63942332:32:32:32:32:3 5dBm N  ov 17, 2018 0 1:46:26.956975000  7
            76  20.91524932:32:32:32:32:3 4dBm N  ov 17, 2018 0 1:46:27.232801000  7
            77  21.31726432:32:32:32:32:3 4dBm N  ov 17, 2018 0 1:46:27.634816000  7
            78  2 1.7000832:32:32:32:32:3 5dBm N  ov 17, 2018 0 1:46:28.017632000  7
            79  22.09380332:32:32:32:32:3 5dBm N  ov 17, 2018 0 1:46:28.411355000  7
            80  22.23108232:32:32:32:32:3 5dBm N  ov 17, 2018 0 1:46:28.548634000  7
            81  22.25227332:32:32:32:32:3 5dBm N  ov 17, 2018 0 1:46:28.569825000  7
            82  22.83156232:32:32:32:32:3 5dBm N  ov 17, 2018 0 1:46:29.149114000  7
            83  23.71920332:32:32:32:32:3 4dBm N  ov 17, 2018 0 1:46:30.036755000  7
            84  23.74864432:32:32:32:32:3 5dBm N  ov 17, 2018 0 1:46:30.066196000  7
            85  24.41057832:32:32:32:32:3 5dBm N  ov 17, 2018 0 1:46:30.728130000  7
            86  24.91321432:32:32:32:32:3 6dBm N  ov 17, 2018 0 1:46:31.230766000  7
            87  25.66114732:32:32:32:32:3 4dBm N  ov 17, 2018 0 1:46:31.978699000  7
            88  25.85230132:32:32:32:32:3 3dBm N  ov 17, 2018 0 1:46:32.169853000  7
            89  27.32044432:32:32:32:32:3 5dBm N  ov 17, 2018 0 1:46:33.637996000  7
            90  27.34274732:32:32:32:32:3 4dBm N  ov 17, 2018 0 1:46:33.660299000  7
            91  27.38014832:32:32:32:32:3 4dBm N  ov 17, 2018 0 1:46:33.697700000  7
            92  28.65738732:32:32:32:32:3 5dBm N  ov 17, 2018 0 1:46:34.974939000  7
            93  28.89615432:32:32:32:32:3 6dBm N  ov 17, 2018 0 1:46:35.213706000  7
            94  29.42268132:32:32:32:32:3 6dBm N  ov 17, 2018 0 1:46:35.740233000  7
            95  29.71880932:32:32:32:32:3 7dBm N  ov 17, 2018 0 1:46:36.036361000  7
            96  30.01503832:32:32:32:32:3 4dBm N  ov 17, 2018 0 1:46:36.332590000  7
            97  30.08283532:32:32:32:32:3 4dBm N  ov 17, 2018 0 1:46:36.400387000  7
            98  30.15205632:32:32:32:32:3 5dBm N  ov 17, 2018 0 1:46:36.469608000  7
            99  30.34342932:32:32:32:32:3 4dBm N  ov 17, 2018 0 1:46:36.660981000  7
           100  30.36124432:32:32:32:32:3 3dBm N  ov 17, 2018 0 1:46:36.678796000  7
           101  30.43774532:32:32:32:32:3 5dBm N  ov 17, 2018 0 1:46:36.755297000  7
           102  3 1.1603732:32:32:32:32:3 5dBm N  ov 17, 2018 0 1:46:37.477922000  7
           103  31.28555532:32:32:32:32:3 5dBm N  ov 17, 2018 0 1:46:37.603107000  7
           104  3 1.7839732:32:32:32:32:3 4dBm N  ov 17, 2018 0 1:46:38.101522000  7
           105  31.87405132:32:32:32:32:3 3dBm N  ov 17, 2018 0 1:46:38.191603000  7
           106  32.07725532:32:32:32:32:3 6dBm N  ov 17, 2018 0 1:46:38.394807000  7
           107  32.63299732:32:32:32:32:3 6dBm N  ov 17, 2018 0 1:46:38.950549000  7
           108  3 2.6837132:32:32:32:32:3 4dBm N  ov 17, 2018 0 1:46:39.001262000  7
           109  32.86961532:32:32:32:32:3 6dBm N  ov 17, 2018 0 1:46:39.187167000  7
           110  33.07297232:32:32:32:32:3 4dBm N  ov 17, 2018 0 1:46:39.390524000  7
           111  33.16088132:32:32:32:32:3 6dBm N  ov 17, 2018 0 1:46:39.478433000  7
           112  33.36105232:32:32:32:32:3 3dBm N  ov 17, 2018 0 1:46:39.678604000  7
           113  33.76644132:32:32:32:32:3 5dBm N  ov 17, 2018 0 1:46:40.083993000  7
           114  34.05920432:32:32:32:32:3 5dBm N  ov 17, 2018 0 1:46:40.376756000  7
           115  34.09937832:32:32:32:32:3 5dBm N  ov 17, 2018 0 1:46:40.416930000  7
           116  34.59351532:32:32:32:32:3 6dBm N  ov 17, 2018 0 1:46:40.911067000  7
           117  35.00385332:32:32:32:32:3 4dBm N  ov 17, 2018 0 1:46:41.321405000  7
           118  3 5.0555932:32:32:32:32:3 6dBm N  ov 17, 2018 0 1:46:41.373142000  7
           119  35.69860732:32:32:32:32:3 3dBm N  ov 17, 2018 0 1:46:42.016159000  7
           120  35.75261332:32:32:32:32:3 3dBm N  ov 17, 2018 0 1:46:42.070165000  7
           121  3 6.0460432:32:32:32:32:3 4dBm N  ov 17, 2018 0 1:46:42.363592000  7
           122  3 6.2917532:32:32:32:32:3 4dBm N  ov 17, 2018 0 1:46:42.609302000  7
           123  36.64564432:32:32:32:32:3 5dBm N  ov 17, 2018 0 1:46:42.963196000  7
           124  36.77454632:32:32:32:32:3 5dBm N  ov 17, 2018 0 1:46:43.092098000  7
           125  3 7.3964132:32:32:32:32:3 5dBm N  ov 17, 2018 0 1:46:43.713962000  7
           126  37.49830332:32:32:32:32:3 4dBm N  ov 17, 2018 0 1:46:43.815855000  7
           127  3  7.622232:32:32:32:32:3 5dBm N  ov 17, 2018 0 1:46:43.939752000  7
           128  37.76430732:32:32:32:32:3 4dBm N  ov 17, 2018 0 1:46:44.081859000  7
           129  3 7.8069932:32:32:32:32:3 5dBm N  ov 17, 2018 0 1:46:44.124542000  7
           130  37.92794732:32:32:32:32:3 6dBm N  ov 17, 2018 0 1:46:44.245499000  7
           131  38.09781232:32:32:32:32:3 5dBm N  ov 17, 2018 0 1:46:44.415364000  7
           132  38.18872632:32:32:32:32:3 5dBm N  ov 17, 2018 0 1:46:44.506278000  7
           133  38.35065332:32:32:32:32:3 5dBm N  ov 17, 2018 0 1:46:44.668205000  7
           134  38.59878132:32:32:32:32:3 5dBm N  ov 17, 2018 0 1:46:44.916333000  7
           135  3 8.6567532:32:32:32:32:3 4dBm N  ov 17, 2018 0 1:46:44.974302000  7
           136  38.70598532:32:32:32:32:3 5dBm N  ov 17, 2018 0 1:46:45.023537000  7
           137  3 8.7489832:32:32:32:32:3 5dBm N  ov 17, 2018 0 1:46:45.066532000  7
           138  38.83141632:32:32:32:32:3 5dBm N  ov 17, 2018 0 1:46:45.148968000  7
           139  38.91911232:32:32:32:32:3 5dBm N  ov 17, 2018 0 1:46:45.236664000  7
           140  3 9.1758932:32:32:32:32:3 6dBm N  ov 17, 2018 0 1:46:45.493442000  7
           141  39.69841332:32:32:32:32:3 5dBm N  ov 17, 2018 0 1:46:46.015965000  7
           142  40.62611832:32:32:32:32:3 4dBm N  ov 17, 2018 0 1:46:46.943670000  7
           143  40.64615532:32:32:32:32:3 5dBm N  ov 17, 2018 0 1:46:46.963707000  7
           144  41.07056532:32:32:32:32:3 5dBm N  ov 17, 2018 0 1:46:47.388117000  7
           145  41.35039332:32:32:32:32:3 5dBm N  ov 17, 2018 0 1:46:47.667945000  7
           146  41.38590232:32:32:32:32:3 5dBm N  ov 17, 2018 0 1:46:47.703454000  7
           147  41.65522932:32:32:32:32:3 5dBm N  ov 17, 2018 0 1:46:47.972781000  7
           148  42.71542432:32:32:32:32:3 5dBm N  ov 17, 2018 0 1:46:49.032976000  7
           149  42.99427532:32:32:32:32:3 4dBm N  ov 17, 2018 0 1:46:49.311827000  7
           150  43.29102232:32:32:32:32:3 5dBm N  ov 17, 2018 0 1:46:49.608574000  7
           151  43.36858832:32:32:32:32:3 3dBm N  ov 17, 2018 0 1:46:49.686140000  7
           152  43.84509432:32:32:32:32:3 4dBm N  ov 17, 2018 0 1:46:50.162646000  7
           153  43.93282232:32:32:32:32:3 5dBm N  ov 17, 2018 0 1:46:50.250374000  7
           154  43.95288332:32:32:32:32:3 4dBm N  ov 17, 2018 0 1:46:50.270435000  7
           155  43.98495932:32:32:32:32:3 5dBm N  ov 17, 2018 0 1:46:50.302511000  7
           156  4 4.5993932:32:32:32:32:3 5dBm N  ov 17, 2018 0 1:46:50.916942000  7
           157  44.71839332:32:32:32:32:3 4dBm N  ov 17, 2018 0 1:46:51.035945000  7
           158  45.11569232:32:32:32:32:3 6dBm N  ov 17, 2018 0 1:46:51.433244000  7
           159  45.14293932:32:32:32:32:3 4dBm N  ov 17, 2018 0 1:46:51.460491000  7
           160  45.29564832:32:32:32:32:3 3dBm N  ov 17, 2018 0 1:46:51.613200000  7
           161  45.38735532:32:32:32:32:3 5dBm N  ov 17, 2018 0 1:46:51.704907000  7
           162  4 5.4612632:32:32:32:32:3 5dBm N  ov 17, 2018 0 1:46:51.778812000  7
           163  45.51447432:32:32:32:32:3 4dBm N  ov 17, 2018 0 1:46:51.832026000  7
           164  46.11940232:32:32:32:32:3 5dBm N  ov 17, 2018 0 1:46:52.436954000  7
           165  46.13455932:32:32:32:32:3 4dBm N  ov 17, 2018 0 1:46:52.452111000  7
           166  46.56564132:32:32:32:32:3 5dBm N  ov 17, 2018 0 1:46:52.883193000  7
           167  46.60228332:32:32:32:32:3 6dBm N  ov 17, 2018 0 1:46:52.919835000  7
           168  46.88273432:32:32:32:32:3 4dBm N  ov 17, 2018 0 1:46:53.200286000  7
           169  47.34950932:32:32:32:32:3 3dBm N  ov 17, 2018 0 1:46:53.667061000  7
           170  47.36846932:32:32:32:32:3 3dBm N  ov 17, 2018 0 1:46:53.686021000  7
           171  48.69101332:32:32:32:32:3 2dBm N  ov 17, 2018 0 1:46:55.008565000  7
           172  48.72550132:32:32:32:32:3 3dBm N  ov 17, 2018 0 1:46:55.043053000  7
           173  48.96470932:32:32:32:32:3 6dBm N  ov 17, 2018 0 1:46:55.282261000  7
           174  49.04672732:32:32:32:32:3 5dBm N  ov 17, 2018 0 1:46:55.364279000  7
           175  4  9.275632:32:32:32:32:3 5dBm N  ov 17, 2018 0 1:46:55.593152000  7
           176  49.42850232:32:32:32:32:3 4dBm N  ov 17, 2018 0 1:46:55.746054000  7
           177  5 0.2887332:32:32:32:32:3 6dBm N  ov 17, 2018 0 1:46:56.606282000  7
           178  5 0.2980832:32:32:32:32:3 6dBm N  ov 17, 2018 0 1:46:56.615632000  7
           179  50.52840432:32:32:32:32:3 5dBm N  ov 17, 2018 0 1:46:56.845956000  7
           180  50.61651232:32:32:32:32:3 4dBm N  ov 17, 2018 0 1:46:56.934064000  7
           181  50.73045832:32:32:32:32:3 5dBm N  ov 17, 2018 0 1:46:57.048010000  7
           182  51.72725532:32:32:32:32:3 6dBm N  ov 17, 2018 0 1:46:58.044807000  7
           183  51.79240632:32:32:32:32:3 6dBm N  ov 17, 2018 0 1:46:58.109958000  7
           184  5 2.3623332:32:32:32:32:3 4dBm N  ov 17, 2018 0 1:46:58.679882000  7
           185  52.97282332:32:32:32:32:3 5dBm N  ov 17, 2018 0 1:46:59.290375000  7
           186  53.06989132:32:32:32:32:3 2dBm N  ov 17, 2018 0 1:46:59.387443000  7
           187  53.46675632:32:32:32:32:3 3dBm N  ov 17, 2018 0 1:46:59.784308000  7
           188  53.79314232:32:32:32:32:3 5dBm N  ov 17, 2018 0 1:47:00.110694000  7
           189  53.82709332:32:32:32:32:3 5dBm N  ov 17, 2018 0 1:47:00.144645000  7
           190  53.97115232:32:32:32:32:3 6dBm N  ov 17, 2018 0 1:47:00.288704000  7
           191  54.00621232:32:32:32:32:3 5dBm N  ov 17, 2018 0 1:47:00.323764000  7
           192  54.67370532:32:32:32:32:3 3dBm N  ov 17, 2018 0 1:47:00.991257000  7
           193  5 5.3519732:32:32:32:32:3 5dBm N  ov 17, 2018 0 1:47:01.669522000  7
           194  55.39347732:32:32:32:32:3 6dBm N  ov 17, 2018 0 1:47:01.711029000  7
           195  55.54193732:32:32:32:32:3 5dBm N  ov 17, 2018 0 1:47:01.859489000  7
           196  55.90488232:32:32:32:32:3 6dBm N  ov 17, 2018 0 1:47:02.222434000  7
           197  55.98914532:32:32:32:32:3 6dBm N  ov 17, 2018 0 1:47:02.306697000  7
           198  56.16506732:32:32:32:32:3 5dBm N  ov 17, 2018 0 1:47:02.482619000  7
           199  56.21799532:32:32:32:32:3 6dBm N  ov 17, 2018 0 1:47:02.535547000  7
           200  56.25489532:32:32:32:32:3 5dBm N  ov 17, 2018 0 1:47:02.572447000  7
           201  56.58095332:32:32:32:32:3 5dBm N  ov 17, 2018 0 1:47:02.898505000  7
           202  56.60236232:32:32:32:32:3 5dBm N  ov 17, 2018 0 1:47:02.919914000  7
           203  56.87180832:32:32:32:32:3 5dBm N  ov 17, 2018 0 1:47:03.189360000  7
           204  57.36288932:32:32:32:32:3 6dBm N  ov 17, 2018 0 1:47:03.680441000  7
           205  58.74138832:32:32:32:32:3 3dBm N  ov 17, 2018 0 1:47:05.058940000  7
           206  59.00323632:32:32:32:32:3 5dBm N  ov 17, 2018 0 1:47:05.320788000  7
           207  59.49267932:32:32:32:32:3 4dBm N  ov 17, 2018 0 1:47:05.810231000  7
           208  59.89272832:32:32:32:32:3 5dBm N  ov 17, 2018 0 1:47:06.210280000  7
           209  60.26306232:32:32:32:32:3 6dBm N  ov 17, 2018 0 1:47:06.580614000  7
           210  60.56652232:32:32:32:32:3 4dBm N  ov 17, 2018 0 1:47:06.884074000  7
           211  61.17317132:32:32:32:32:3 4dBm N  ov 17, 2018 0 1:47:07.490723000  7
           212  61.80158232:32:32:32:32:3 4dBm N  ov 17, 2018 0 1:47:08.119134000  7
           213  62.29246232:32:32:32:32:3 5dBm N  ov 17, 2018 0 1:47:08.610014000  7
           214  62.36881732:32:32:32:32:3 6dBm N  ov 17, 2018 0 1:47:08.686369000  7
           215  62.47362732:32:32:32:32:3 5dBm N  ov 17, 2018 0 1:47:08.791179000  7
           216  62.76442532:32:32:32:32:3 5dBm N  ov 17, 2018 0 1:47:09.081977000  7
           217  62.92447432:32:32:32:32:3 5dBm N  ov 17, 2018 0 1:47:09.242026000  7
           218  63.08717832:32:32:32:32:3 6dBm N  ov 17, 2018 0 1:47:09.404730000  7
           219  63.53408332:32:32:32:32:3 2dBm N  ov 17, 2018 0 1:47:09.851635000  7
           220  63.55728632:32:32:32:32:3 6dBm N  ov 17, 2018 0 1:47:09.874838000  7
           221  63.64200532:32:32:32:32:3 5dBm N  ov 17, 2018 0 1:47:09.959557000  7
           222  64.06605732:32:32:32:32:3 5dBm N  ov 17, 2018 0 1:47:10.383609000  7
           223  64.37699632:32:32:32:32:3 4dBm N  ov 17, 2018 0 1:47:10.694548000  7
           224  64.44442232:32:32:32:32:3 6dBm N  ov 17, 2018 0 1:47:10.761974000  7
           225  64.65512932:32:32:32:32:3 4dBm N  ov 17, 2018 0 1:47:10.972681000  7
           226  64.77199832:32:32:32:32:3 3dBm N  ov 17, 2018 0 1:47:11.089550000  7
           227  65.67009132:32:32:32:32:3 6dBm N  ov 17, 2018 0 1:47:11.987643000  7
           228  65.88210132:32:32:32:32:3 5dBm N  ov 17, 2018 0 1:47:12.199653000  7
           229  66.01698132:32:32:32:32:3 4dBm N  ov 17, 2018 0 1:47:12.334533000  7
           230  66.18353732:32:32:32:32:3 6dBm N  ov 17, 2018 0 1:47:12.501089000  7
           231  66.60008532:32:32:32:32:3 4dBm N  ov 17, 2018 0 1:47:12.917637000  7
           232  66.72675832:32:32:32:32:3 4dBm N  ov 17, 2018 0 1:47:13.044310000  7
           233  67.07047432:32:32:32:32:3 5dBm N  ov 17, 2018 0 1:47:13.388026000  7
           234  67.11558332:32:32:32:32:3 7dBm N  ov 17, 2018 0 1:47:13.433135000  7
           235  67.36854632:32:32:32:32:3 4dBm N  ov 17, 2018 0 1:47:13.686098000  7
           236  67.48477232:32:32:32:32:3 5dBm N  ov 17, 2018 0 1:47:13.802324000  7
           237  67.51895132:32:32:32:32:3 7dBm N  ov 17, 2018 0 1:47:13.836503000  7
           238  67.60796632:32:32:32:32:3 5dBm N  ov 17, 2018 0 1:47:13.925518000  7
           239  68.01964532:32:32:32:32:3 4dBm N  ov 17, 2018 0 1:47:14.337197000  7
           240  6 8.3971132:32:32:32:32:3 5dBm N  ov 17, 2018 0 1:47:14.714662000  7
           241  68.51218432:32:32:32:32:3 6dBm N  ov 17, 2018 0 1:47:14.829736000  7
           242  68.53498432:32:32:32:32:3 6dBm N  ov 17, 2018 0 1:47:14.852536000  7
           243  68.91008532:32:32:32:32:3 5dBm N  ov 17, 2018 0 1:47:15.227637000  7
           244  68.94302332:32:32:32:32:3 5dBm N  ov 17, 2018 0 1:47:15.260575000  7
           245  69.61002632:32:32:32:32:3 4dBm N  ov 17, 2018 0 1:47:15.927578000  7
           246  6 9.7506532:32:32:32:32:3 6dBm N  ov 17, 2018 0 1:47:16.068202000  7
           247  69.97618332:32:32:32:32:3 5dBm N  ov 17, 2018 0 1:47:16.293735000  7
           248  70.65778432:32:32:32:32:3 4dBm N  ov 17, 2018 0 1:47:16.975336000  7
           249  70.79585232:32:32:32:32:3 5dBm N  ov 17, 2018 0 1:47:17.113404000  7
           250  70.97186332:32:32:32:32:3 4dBm N  ov 17, 2018 0 1:47:17.289415000  7
           251  71.01516532:32:32:32:32:3 5dBm N  ov 17, 2018 0 1:47:17.332717000  7
           252  71.19439532:32:32:32:32:3 4dBm N  ov 17, 2018 0 1:47:17.511947000  7
           253  71.55720532:32:32:32:32:3 5dBm N  ov 17, 2018 0 1:47:17.874757000  7
           254  71.57549832:32:32:32:32:3 4dBm N  ov 17, 2018 0 1:47:17.893050000  7
           255  71.59173532:32:32:32:32:3 5dBm N  ov 17, 2018 0 1:47:17.909287000  7
           256  71.78327732:32:32:32:32:3 5dBm N  ov 17, 2018 0 1:47:18.100829000  7
           257  71.79274532:32:32:32:32:3 4dBm N  ov 17, 2018 0 1:47:18.110297000  7
           258  71.83674432:32:32:32:32:3 4dBm N  ov 17, 2018 0 1:47:18.154296000  7
           259  73.20690132:32:32:32:32:3 7dBm N  ov 17, 2018 0 1:47:19.524453000  7
           260  73.33513132:32:32:32:32:3 4dBm N  ov 17, 2018 0 1:47:19.652683000  7
           261  73.39292232:32:32:32:32:3 4dBm N  ov 17, 2018 0 1:47:19.710474000  7
           262  73.82520632:32:32:32:32:3 4dBm N  ov 17, 2018 0 1:47:20.142758000  7
           263  73.93754132:32:32:32:32:3 6dBm N  ov 17, 2018 0 1:47:20.255093000  7
           264  73.98928432:32:32:32:32:3 3dBm N  ov 17, 2018 0 1:47:20.306836000  7
           265  74.26402332:32:32:32:32:3 5dBm N  ov 17, 2018 0 1:47:20.581575000  7
