    1   0.000000 32:32:32:32:32:32 25dBm Nov 17, 2018 01:05:13.446352000 +07
    2   0.118000 32:32:32:32:32:32 25dBm Nov 17, 2018 01:05:13.564352000 +07
    3   0.224516 32:32:32:32:32:32 25dBm Nov 17, 2018 01:05:13.670868000 +07
    4   0.728489 32:32:32:32:32:32 25dBm Nov 17, 2018 01:05:14.174841000 +07
    5   0.816282 32:32:32:32:32:32 23dBm Nov 17, 2018 01:05:14.262634000 +07
    6   1.594488 32:32:32:32:32:32 25dBm Nov 17, 2018 01:05:15.040840000 +07
    7   1.813979 32:32:32:32:32:32 25dBm Nov 17, 2018 01:05:15.260331000 +07
    8   1.895086 32:32:32:32:32:32 24dBm Nov 17, 2018 01:05:15.341438000 +07
    9   2.287730 32:32:32:32:32:32 22dBm Nov 17, 2018 01:05:15.734082000 +07
   10   2.344445 32:32:32:32:32:32 23dBm Nov 17, 2018 01:05:15.790797000 +07
   11   2.557811 32:32:32:32:32:32 25dBm Nov 17, 2018 01:05:16.004163000 +07
   12   3.610497 32:32:32:32:32:32 23dBm Nov 17, 2018 01:05:17.056849000 +07
   13   3.741270 32:32:32:32:32:32 24dBm Nov 17, 2018 01:05:17.187622000 +07
   14   3.837449 32:32:32:32:32:32 24dBm Nov 17, 2018 01:05:17.283801000 +07
   15   4.061629 32:32:32:32:32:32 24dBm Nov 17, 2018 01:05:17.507981000 +07
   16   4.379092 32:32:32:32:32:32 24dBm Nov 17, 2018 01:05:17.825444000 +07
   17   4.691978 32:32:32:32:32:32 23dBm Nov 17, 2018 01:05:18.138330000 +07
   18   4.918985 32:32:32:32:32:32 23dBm Nov 17, 2018 01:05:18.365337000 +07
   19   5.460596 32:32:32:32:32:32 22dBm Nov 17, 2018 01:05:18.906948000 +07
   20   5.565265 32:32:32:32:32:32 24dBm Nov 17, 2018 01:05:19.011617000 +07
   21   6.385033 32:32:32:32:32:32 23dBm Nov 17, 2018 01:05:19.831385000 +07
   22   6.710006 32:32:32:32:32:32 24dBm Nov 17, 2018 01:05:20.156358000 +07
   23   6.839039 32:32:32:32:32:32 21dBm Nov 17, 2018 01:05:20.285391000 +07
   24   7.028316 32:32:32:32:32:32 23dBm Nov 17, 2018 01:05:20.474668000 +07
   25   7.128481 32:32:32:32:32:32 25dBm Nov 17, 2018 01:05:20.574833000 +07
   26   7.224568 32:32:32:32:32:32 21dBm Nov 17, 2018 01:05:20.670920000 +07
   27   8.096418 32:32:32:32:32:32 25dBm Nov 17, 2018 01:05:21.542770000 +07
   28   8.213221 32:32:32:32:32:32 23dBm Nov 17, 2018 01:05:21.659573000 +07
   29   8.512367 32:32:32:32:32:32 24dBm Nov 17, 2018 01:05:21.958719000 +07
   30   8.577916 32:32:32:32:32:32 25dBm Nov 17, 2018 01:05:22.024268000 +07
   31   8.905766 32:32:32:32:32:32 24dBm Nov 17, 2018 01:05:22.352118000 +07
   32   9.540981 32:32:32:32:32:32 25dBm Nov 17, 2018 01:05:22.987333000 +07
   33  10.011277 32:32:32:32:32:32 21dBm Nov 17, 2018 01:05:23.457629000 +07
   34  10.023605 32:32:32:32:32:32 23dBm Nov 17, 2018 01:05:23.469957000 +07
   35  10.245476 32:32:32:32:32:32 23dBm Nov 17, 2018 01:05:23.691828000 +07
   36  10.746072 32:32:32:32:32:32 24dBm Nov 17, 2018 01:05:24.192424000 +07
   37  11.442947 32:32:32:32:32:32 24dBm Nov 17, 2018 01:05:24.889299000 +07
   38  11.561510 32:32:32:32:32:32 25dBm Nov 17, 2018 01:05:25.007862000 +07
   39  11.873015 32:32:32:32:32:32 24dBm Nov 17, 2018 01:05:25.319367000 +07
   40  12.386162 32:32:32:32:32:32 22dBm Nov 17, 2018 01:05:25.832514000 +07
   41  13.303587 32:32:32:32:32:32 23dBm Nov 17, 2018 01:05:26.749939000 +07
   42  14.729505 32:32:32:32:32:32 23dBm Nov 17, 2018 01:05:28.175857000 +07
   43  15.115099 32:32:32:32:32:32 24dBm Nov 17, 2018 01:05:28.561451000 +07
   44  15.553838 32:32:32:32:32:32 23dBm Nov 17, 2018 01:05:29.000190000 +07
   45  16.123785 32:32:32:32:32:32 24dBm Nov 17, 2018 01:05:29.570137000 +07
   46  16.158135 32:32:32:32:32:32 25dBm Nov 17, 2018 01:05:29.604487000 +07
   47  16.545217 32:32:32:32:32:32 24dBm Nov 17, 2018 01:05:29.991569000 +07
   48  16.649402 32:32:32:32:32:32 22dBm Nov 17, 2018 01:05:30.095754000 +07
   49  16.805865 32:32:32:32:32:32 24dBm Nov 17, 2018 01:05:30.252217000 +07
   50  16.905749 32:32:32:32:32:32 25dBm Nov 17, 2018 01:05:30.352101000 +07
   51  17.274520 32:32:32:32:32:32 23dBm Nov 17, 2018 01:05:30.720872000 +07
   52  17.392813 32:32:32:32:32:32 24dBm Nov 17, 2018 01:05:30.839165000 +07
   53  17.542886 32:32:32:32:32:32 23dBm Nov 17, 2018 01:05:30.989238000 +07
   54  17.792284 32:32:32:32:32:32 23dBm Nov 17, 2018 01:05:31.238636000 +07
   55  18.087723 32:32:32:32:32:32 24dBm Nov 17, 2018 01:05:31.534075000 +07
   56  18.886483 32:32:32:32:32:32 23dBm Nov 17, 2018 01:05:32.332835000 +07
   57  19.135644 32:32:32:32:32:32 23dBm Nov 17, 2018 01:05:32.581996000 +07
   58  19.238629 32:32:32:32:32:32 25dBm Nov 17, 2018 01:05:32.684981000 +07
   59  19.512057 32:32:32:32:32:32 24dBm Nov 17, 2018 01:05:32.958409000 +07
   60  19.620115 32:32:32:32:32:32 23dBm Nov 17, 2018 01:05:33.066467000 +07
   61  21.147856 32:32:32:32:32:32 24dBm Nov 17, 2018 01:05:34.594208000 +07
   62  21.497761 32:32:32:32:32:32 24dBm Nov 17, 2018 01:05:34.944113000 +07
   63  21.711819 32:32:32:32:32:32 24dBm Nov 17, 2018 01:05:35.158171000 +07
   64  21.884752 32:32:32:32:32:32 22dBm Nov 17, 2018 01:05:35.331104000 +07
   65  22.165799 32:32:32:32:32:32 24dBm Nov 17, 2018 01:05:35.612151000 +07
   66  22.602573 32:32:32:32:32:32 23dBm Nov 17, 2018 01:05:36.048925000 +07
   67  22.933468 32:32:32:32:32:32 24dBm Nov 17, 2018 01:05:36.379820000 +07
   68  23.507015 32:32:32:32:32:32 23dBm Nov 17, 2018 01:05:36.953367000 +07
   69  23.584326 32:32:32:32:32:32 25dBm Nov 17, 2018 01:05:37.030678000 +07
   70  24.311572 32:32:32:32:32:32 23dBm Nov 17, 2018 01:05:37.757924000 +07
   71  24.777498 32:32:32:32:32:32 22dBm Nov 17, 2018 01:05:38.223850000 +07
   72  24.841322 32:32:32:32:32:32 24dBm Nov 17, 2018 01:05:38.287674000 +07
   73  24.879412 32:32:32:32:32:32 25dBm Nov 17, 2018 01:05:38.325764000 +07
   74  25.048990 32:32:32:32:32:32 23dBm Nov 17, 2018 01:05:38.495342000 +07
   75  25.329255 32:32:32:32:32:32 25dBm Nov 17, 2018 01:05:38.775607000 +07
   76  25.523369 32:32:32:32:32:32 24dBm Nov 17, 2018 01:05:38.969721000 +07
   77  25.577478 32:32:32:32:32:32 24dBm Nov 17, 2018 01:05:39.023830000 +07
   78  25.684887 32:32:32:32:32:32 23dBm Nov 17, 2018 01:05:39.131239000 +07
   79  26.364809 32:32:32:32:32:32 23dBm Nov 17, 2018 01:05:39.811161000 +07
   80  26.455835 32:32:32:32:32:32 23dBm Nov 17, 2018 01:05:39.902187000 +07
   81  27.067568 32:32:32:32:32:32 22dBm Nov 17, 2018 01:05:40.513920000 +07
   82  27.072208 32:32:32:32:32:32 22dBm Nov 17, 2018 01:05:40.518560000 +07
   83  27.241546 32:32:32:32:32:32 24dBm Nov 17, 2018 01:05:40.687898000 +07
   84  27.424990 32:32:32:32:32:32 22dBm Nov 17, 2018 01:05:40.871342000 +07
   85  27.927793 32:32:32:32:32:32 25dBm Nov 17, 2018 01:05:41.374145000 +07
   86  27.975463 32:32:32:32:32:32 23dBm Nov 17, 2018 01:05:41.421815000 +07
   87  28.040024 32:32:32:32:32:32 25dBm Nov 17, 2018 01:05:41.486376000 +07
   88  28.390873 32:32:32:32:32:32 22dBm Nov 17, 2018 01:05:41.837225000 +07
   89  28.687795 32:32:32:32:32:32 24dBm Nov 17, 2018 01:05:42.134147000 +07
   90  28.984900 32:32:32:32:32:32 22dBm Nov 17, 2018 01:05:42.431252000 +07
   91  29.145487 32:32:32:32:32:32 23dBm Nov 17, 2018 01:05:42.591839000 +07
   92  29.818547 32:32:32:32:32:32 24dBm Nov 17, 2018 01:05:43.264899000 +07
   93  30.124885 32:32:32:32:32:32 22dBm Nov 17, 2018 01:05:43.571237000 +07
   94  30.214613 32:32:32:32:32:32 24dBm Nov 17, 2018 01:05:43.660965000 +07
   95  30.357668 32:32:32:32:32:32 24dBm Nov 17, 2018 01:05:43.804020000 +07
   96  30.524997 32:32:32:32:32:32 25dBm Nov 17, 2018 01:05:43.971349000 +07
   97  30.648177 32:32:32:32:32:32 23dBm Nov 17, 2018 01:05:44.094529000 +07
   98  30.769412 32:32:32:32:32:32 22dBm Nov 17, 2018 01:05:44.215764000 +07
   99  30.965558 32:32:32:32:32:32 23dBm Nov 17, 2018 01:05:44.411910000 +07
  100  31.277524 32:32:32:32:32:32 24dBm Nov 17, 2018 01:05:44.723876000 +07
  101  31.535751 32:32:32:32:32:32 21dBm Nov 17, 2018 01:05:44.982103000 +07
  102  31.559911 32:32:32:32:32:32 23dBm Nov 17, 2018 01:05:45.006263000 +07
  103  32.474677 32:32:32:32:32:32 22dBm Nov 17, 2018 01:05:45.921029000 +07
  104  32.997997 32:32:32:32:32:32 22dBm Nov 17, 2018 01:05:46.444349000 +07
  105  33.042273 32:32:32:32:32:32 24dBm Nov 17, 2018 01:05:46.488625000 +07
  106  33.279179 32:32:32:32:32:32 24dBm Nov 17, 2018 01:05:46.725531000 +07
  107  33.864430 32:32:32:32:32:32 24dBm Nov 17, 2018 01:05:47.310782000 +07
  108  34.029002 32:32:32:32:32:32 24dBm Nov 17, 2018 01:05:47.475354000 +07
  109  35.559406 32:32:32:32:32:32 23dBm Nov 17, 2018 01:05:49.005758000 +07
  110  35.793646 32:32:32:32:32:32 22dBm Nov 17, 2018 01:05:49.239998000 +07
  111  35.857314 32:32:32:32:32:32 23dBm Nov 17, 2018 01:05:49.303666000 +07
  112  36.107488 32:32:32:32:32:32 25dBm Nov 17, 2018 01:05:49.553840000 +07
  113  36.200846 32:32:32:32:32:32 23dBm Nov 17, 2018 01:05:49.647198000 +07
  114  36.299292 32:32:32:32:32:32 24dBm Nov 17, 2018 01:05:49.745644000 +07
  115  36.404900 32:32:32:32:32:32 21dBm Nov 17, 2018 01:05:49.851252000 +07
  116  36.565707 32:32:32:32:32:32 24dBm Nov 17, 2018 01:05:50.012059000 +07
  117  36.807313 32:32:32:32:32:32 25dBm Nov 17, 2018 01:05:50.253665000 +07
  118  37.170842 32:32:32:32:32:32 24dBm Nov 17, 2018 01:05:50.617194000 +07
  119  37.743305 32:32:32:32:32:32 22dBm Nov 17, 2018 01:05:51.189657000 +07
  120  37.953074 32:32:32:32:32:32 24dBm Nov 17, 2018 01:05:51.399426000 +07
  121  38.239795 32:32:32:32:32:32 23dBm Nov 17, 2018 01:05:51.686147000 +07
  122  38.628953 32:32:32:32:32:32 22dBm Nov 17, 2018 01:05:52.075305000 +07
  123  39.064332 32:32:32:32:32:32 25dBm Nov 17, 2018 01:05:52.510684000 +07
  124  39.503754 32:32:32:32:32:32 24dBm Nov 17, 2018 01:05:52.950106000 +07
  125  39.630182 32:32:32:32:32:32 23dBm Nov 17, 2018 01:05:53.076534000 +07
  126  39.702480 32:32:32:32:32:32 24dBm Nov 17, 2018 01:05:53.148832000 +07
  127  39.805939 32:32:32:32:32:32 23dBm Nov 17, 2018 01:05:53.252291000 +07
  128  39.968145 32:32:32:32:32:32 23dBm Nov 17, 2018 01:05:53.414497000 +07
  129  40.273249 32:32:32:32:32:32 24dBm Nov 17, 2018 01:05:53.719601000 +07
  130  40.763809 32:32:32:32:32:32 22dBm Nov 17, 2018 01:05:54.210161000 +07
  131  40.817592 32:32:32:32:32:32 22dBm Nov 17, 2018 01:05:54.263944000 +07
  132  40.861249 32:32:32:32:32:32 22dBm Nov 17, 2018 01:05:54.307601000 +07
  133  41.205958 32:32:32:32:32:32 22dBm Nov 17, 2018 01:05:54.652310000 +07
  134  42.663955 32:32:32:32:32:32 24dBm Nov 17, 2018 01:05:56.110307000 +07
  135  42.793687 32:32:32:32:32:32 23dBm Nov 17, 2018 01:05:56.240039000 +07
  136  43.484838 32:32:32:32:32:32 24dBm Nov 17, 2018 01:05:56.931190000 +07
  137  43.966086 32:32:32:32:32:32 24dBm Nov 17, 2018 01:05:57.412438000 +07
  138  44.933124 32:32:32:32:32:32 23dBm Nov 17, 2018 01:05:58.379476000 +07
  139  44.973891 32:32:32:32:32:32 24dBm Nov 17, 2018 01:05:58.420243000 +07
  140  45.045743 32:32:32:32:32:32 24dBm Nov 17, 2018 01:05:58.492095000 +07
  141  45.288793 32:32:32:32:32:32 23dBm Nov 17, 2018 01:05:58.735145000 +07
  142  45.353745 32:32:32:32:32:32 24dBm Nov 17, 2018 01:05:58.800097000 +07
  143  45.461610 32:32:32:32:32:32 24dBm Nov 17, 2018 01:05:58.907962000 +07
  144  45.744758 32:32:32:32:32:32 24dBm Nov 17, 2018 01:05:59.191110000 +07
  145  46.249700 32:32:32:32:32:32 23dBm Nov 17, 2018 01:05:59.696052000 +07
  146  46.491224 32:32:32:32:32:32 24dBm Nov 17, 2018 01:05:59.937576000 +07
  147  46.609133 32:32:32:32:32:32 24dBm Nov 17, 2018 01:06:00.055485000 +07
  148  46.827265 32:32:32:32:32:32 24dBm Nov 17, 2018 01:06:00.273617000 +07
  149  47.061726 32:32:32:32:32:32 24dBm Nov 17, 2018 01:06:00.508078000 +07
  150  47.456613 32:32:32:32:32:32 24dBm Nov 17, 2018 01:06:00.902965000 +07
  151  48.059777 32:32:32:32:32:32 24dBm Nov 17, 2018 01:06:01.506129000 +07
  152  48.116972 32:32:32:32:32:32 23dBm Nov 17, 2018 01:06:01.563324000 +07
  153  48.565381 32:32:32:32:32:32 23dBm Nov 17, 2018 01:06:02.011733000 +07
  154  49.082144 32:32:32:32:32:32 24dBm Nov 17, 2018 01:06:02.528496000 +07
  155  49.128216 32:32:32:32:32:32 23dBm Nov 17, 2018 01:06:02.574568000 +07
  156  50.188170 32:32:32:32:32:32 22dBm Nov 17, 2018 01:06:03.634522000 +07
  157  50.664969 32:32:32:32:32:32 24dBm Nov 17, 2018 01:06:04.111321000 +07
  158  50.758522 32:32:32:32:32:32 23dBm Nov 17, 2018 01:06:04.204874000 +07
  159  50.819978 32:32:32:32:32:32 22dBm Nov 17, 2018 01:06:04.266330000 +07
  160  50.825668 32:32:32:32:32:32 22dBm Nov 17, 2018 01:06:04.272020000 +07
  161  50.919394 32:32:32:32:32:32 24dBm Nov 17, 2018 01:06:04.365746000 +07
  162  51.029057 32:32:32:32:32:32 24dBm Nov 17, 2018 01:06:04.475409000 +07
  163  51.521095 32:32:32:32:32:32 24dBm Nov 17, 2018 01:06:04.967447000 +07
  164  51.605130 32:32:32:32:32:32 23dBm Nov 17, 2018 01:06:05.051482000 +07
  165  52.500574 32:32:32:32:32:32 23dBm Nov 17, 2018 01:06:05.946926000 +07
  166  52.562957 32:32:32:32:32:32 22dBm Nov 17, 2018 01:06:06.009309000 +07
  167  52.854077 32:32:32:32:32:32 22dBm Nov 17, 2018 01:06:06.300429000 +07
  168  52.863761 32:32:32:32:32:32 23dBm Nov 17, 2018 01:06:06.310113000 +07
  169  52.899273 32:32:32:32:32:32 22dBm Nov 17, 2018 01:06:06.345625000 +07
  170  53.283215 32:32:32:32:32:32 24dBm Nov 17, 2018 01:06:06.729567000 +07
  171  53.326415 32:32:32:32:32:32 23dBm Nov 17, 2018 01:06:06.772767000 +07
  172  53.383281 32:32:32:32:32:32 24dBm Nov 17, 2018 01:06:06.829633000 +07
  173  53.641863 32:32:32:32:32:32 23dBm Nov 17, 2018 01:06:07.088215000 +07
  174  54.211235 32:32:32:32:32:32 25dBm Nov 17, 2018 01:06:07.657587000 +07
  175  54.283610 32:32:32:32:32:32 24dBm Nov 17, 2018 01:06:07.729962000 +07
  176  54.946196 32:32:32:32:32:32 23dBm Nov 17, 2018 01:06:08.392548000 +07
  177  55.525777 32:32:32:32:32:32 24dBm Nov 17, 2018 01:06:08.972129000 +07
  178  56.760330 32:32:32:32:32:32 23dBm Nov 17, 2018 01:06:10.206682000 +07
  179  57.232944 32:32:32:32:32:32 22dBm Nov 17, 2018 01:06:10.679296000 +07
  180  57.355017 32:32:32:32:32:32 25dBm Nov 17, 2018 01:06:10.801369000 +07
  181  57.470293 32:32:32:32:32:32 23dBm Nov 17, 2018 01:06:10.916645000 +07
  182  57.622229 32:32:32:32:32:32 21dBm Nov 17, 2018 01:06:11.068581000 +07
  183  57.678809 32:32:32:32:32:32 25dBm Nov 17, 2018 01:06:11.125161000 +07
  184  58.470840 32:32:32:32:32:32 23dBm Nov 17, 2018 01:06:11.917192000 +07
  185  58.852757 32:32:32:32:32:32 23dBm Nov 17, 2018 01:06:12.299109000 +07
  186  59.010840 32:32:32:32:32:32 23dBm Nov 17, 2018 01:06:12.457192000 +07
  187  59.334405 32:32:32:32:32:32 22dBm Nov 17, 2018 01:06:12.780757000 +07
  188  59.578835 32:32:32:32:32:32 24dBm Nov 17, 2018 01:06:13.025187000 +07
  189  59.789451 32:32:32:32:32:32 22dBm Nov 17, 2018 01:06:13.235803000 +07
  190  60.156375 32:32:32:32:32:32 22dBm Nov 17, 2018 01:06:13.602727000 +07
  191  60.238826 32:32:32:32:32:32 24dBm Nov 17, 2018 01:06:13.685178000 +07
  192  61.120718 32:32:32:32:32:32 25dBm Nov 17, 2018 01:06:14.567070000 +07
  193  61.356564 32:32:32:32:32:32 22dBm Nov 17, 2018 01:06:14.802916000 +07
  194  61.438435 32:32:32:32:32:32 23dBm Nov 17, 2018 01:06:14.884787000 +07
  195  61.505037 32:32:32:32:32:32 24dBm Nov 17, 2018 01:06:14.951389000 +07
  196  61.719539 32:32:32:32:32:32 24dBm Nov 17, 2018 01:06:15.165891000 +07
  197  61.815557 32:32:32:32:32:32 24dBm Nov 17, 2018 01:06:15.261909000 +07
  198  61.982664 32:32:32:32:32:32 24dBm Nov 17, 2018 01:06:15.429016000 +07
  199  62.120690 32:32:32:32:32:32 25dBm Nov 17, 2018 01:06:15.567042000 +07
  200  62.336043 32:32:32:32:32:32 24dBm Nov 17, 2018 01:06:15.782395000 +07
  201  62.687669 32:32:32:32:32:32 24dBm Nov 17, 2018 01:06:16.134021000 +07
  202  62.854149 32:32:32:32:32:32 24dBm Nov 17, 2018 01:06:16.300501000 +07
  203  63.315014 32:32:32:32:32:32 25dBm Nov 17, 2018 01:06:16.761366000 +07
  204  63.393794 32:32:32:32:32:32 21dBm Nov 17, 2018 01:06:16.840146000 +07
  205  63.618849 32:32:32:32:32:32 22dBm Nov 17, 2018 01:06:17.065201000 +07
  206  64.550806 32:32:32:32:32:32 24dBm Nov 17, 2018 01:06:17.997158000 +07
  207  64.929402 32:32:32:32:32:32 23dBm Nov 17, 2018 01:06:18.375754000 +07
  208  65.216899 32:32:32:32:32:32 24dBm Nov 17, 2018 01:06:18.663251000 +07
  209  65.440673 32:32:32:32:32:32 23dBm Nov 17, 2018 01:06:18.887025000 +07
  210  65.903036 32:32:32:32:32:32 24dBm Nov 17, 2018 01:06:19.349388000 +07
  211  66.564638 32:32:32:32:32:32 24dBm Nov 17, 2018 01:06:20.010990000 +07
  212  66.737826 32:32:32:32:32:32 24dBm Nov 17, 2018 01:06:20.184178000 +07
  213  67.412741 32:32:32:32:32:32 25dBm Nov 17, 2018 01:06:20.859093000 +07
  214  67.517809 32:32:32:32:32:32 25dBm Nov 17, 2018 01:06:20.964161000 +07
  215  67.923049 32:32:32:32:32:32 22dBm Nov 17, 2018 01:06:21.369401000 +07
  216  68.346733 32:32:32:32:32:32 24dBm Nov 17, 2018 01:06:21.793085000 +07
  217  68.782623 32:32:32:32:32:32 24dBm Nov 17, 2018 01:06:22.228975000 +07
  218  68.958551 32:32:32:32:32:32 24dBm Nov 17, 2018 01:06:22.404903000 +07
  219  69.106357 32:32:32:32:32:32 24dBm Nov 17, 2018 01:06:22.552709000 +07
  220  69.482675 32:32:32:32:32:32 22dBm Nov 17, 2018 01:06:22.929027000 +07
  221  70.122803 32:32:32:32:32:32 23dBm Nov 17, 2018 01:06:23.569155000 +07
  222  70.278836 32:32:32:32:32:32 23dBm Nov 17, 2018 01:06:23.725188000 +07
  223  70.350556 32:32:32:32:32:32 24dBm Nov 17, 2018 01:06:23.796908000 +07
  224  70.674581 32:32:32:32:32:32 23dBm Nov 17, 2018 01:06:24.120933000 +07
  225  71.905486 32:32:32:32:32:32 24dBm Nov 17, 2018 01:06:25.351838000 +07
  226  72.238514 32:32:32:32:32:32 23dBm Nov 17, 2018 01:06:25.684866000 +07
  227  72.709318 32:32:32:32:32:32 22dBm Nov 17, 2018 01:06:26.155670000 +07
  228  72.761975 32:32:32:32:32:32 25dBm Nov 17, 2018 01:06:26.208327000 +07
  229  72.782282 32:32:32:32:32:32 23dBm Nov 17, 2018 01:06:26.228634000 +07
  230  73.059425 32:32:32:32:32:32 22dBm Nov 17, 2018 01:06:26.505777000 +07
  231  73.751836 32:32:32:32:32:32 23dBm Nov 17, 2018 01:06:27.198188000 +07
  232  74.125048 32:32:32:32:32:32 24dBm Nov 17, 2018 01:06:27.571400000 +07
  233  74.292679 32:32:32:32:32:32 22dBm Nov 17, 2018 01:06:27.739031000 +07
  234  74.338437 32:32:32:32:32:32 23dBm Nov 17, 2018 01:06:27.784789000 +07
  235  74.577797 32:32:32:32:32:32 25dBm Nov 17, 2018 01:06:28.024149000 +07
  236  74.740727 32:32:32:32:32:32 23dBm Nov 17, 2018 01:06:28.187079000 +07
  237  74.888801 32:32:32:32:32:32 25dBm Nov 17, 2018 01:06:28.335153000 +07
  238  74.988173 32:32:32:32:32:32 22dBm Nov 17, 2018 01:06:28.434525000 +07
  239  75.040390 32:32:32:32:32:32 23dBm Nov 17, 2018 01:06:28.486742000 +07
  240  75.325978 32:32:32:32:32:32 22dBm Nov 17, 2018 01:06:28.772330000 +07
  241  75.366912 32:32:32:32:32:32 22dBm Nov 17, 2018 01:06:28.813264000 +07
  242  75.701907 32:32:32:32:32:32 23dBm Nov 17, 2018 01:06:29.148259000 +07
  243  75.902028 32:32:32:32:32:32 23dBm Nov 17, 2018 01:06:29.348380000 +07
  244  75.976931 32:32:32:32:32:32 24dBm Nov 17, 2018 01:06:29.423283000 +07
  245  76.140472 32:32:32:32:32:32 23dBm Nov 17, 2018 01:06:29.586824000 +07
  246  76.191976 32:32:32:32:32:32 23dBm Nov 17, 2018 01:06:29.638328000 +07
  247  76.629747 32:32:32:32:32:32 23dBm Nov 17, 2018 01:06:30.076099000 +07
  248  76.661980 32:32:32:32:32:32 23dBm Nov 17, 2018 01:06:30.108332000 +07
  249  76.837287 32:32:32:32:32:32 22dBm Nov 17, 2018 01:06:30.283639000 +07
  250  77.892622 32:32:32:32:32:32 24dBm Nov 17, 2018 01:06:31.338974000 +07
