    1   0.000000 32:32:32:32:32:32 5dBm Nov 19, 2018 22:43:00.124662000 +07
    2   0.071682 32:32:32:32:32:32 5dBm Nov 19, 2018 22:43:00.196344000 +07
    3   0.099552 32:32:32:32:32:32 5dBm Nov 19, 2018 22:43:00.224214000 +07
    4   0.984645 32:32:32:32:32:32 4dBm Nov 19, 2018 22:43:01.109307000 +07
    5   1.342816 32:32:32:32:32:32 4dBm Nov 19, 2018 22:43:01.467478000 +07
    6   1.349779 32:32:32:32:32:32 5dBm Nov 19, 2018 22:43:01.474441000 +07
    7   1.398474 32:32:32:32:32:32 4dBm Nov 19, 2018 22:43:01.523136000 +07
    8   1.536701 32:32:32:32:32:32 4dBm Nov 19, 2018 22:43:01.661363000 +07
    9   2.033531 32:32:32:32:32:32 3dBm Nov 19, 2018 22:43:02.158193000 +07
   10   2.311585 32:32:32:32:32:32 6dBm Nov 19, 2018 22:43:02.436247000 +07
   11   2.600300 32:32:32:32:32:32 6dBm Nov 19, 2018 22:43:02.724962000 +07
   12   2.686661 32:32:32:32:32:32 7dBm Nov 19, 2018 22:43:02.811323000 +07
   13   2.730989 32:32:32:32:32:32 8dBm Nov 19, 2018 22:43:02.855651000 +07
   14   2.754160 32:32:32:32:32:32 6dBm Nov 19, 2018 22:43:02.878822000 +07
   15   2.946613 32:32:32:32:32:32 5dBm Nov 19, 2018 22:43:03.071275000 +07
   16   3.209119 32:32:32:32:32:32 5dBm Nov 19, 2018 22:43:03.333781000 +07
   17   4.271371 32:32:32:32:32:32 5dBm Nov 19, 2018 22:43:04.396033000 +07
   18   4.305804 32:32:32:32:32:32 5dBm Nov 19, 2018 22:43:04.430466000 +07
   19   4.595181 32:32:32:32:32:32 3dBm Nov 19, 2018 22:43:04.719843000 +07
   20   4.641912 32:32:32:32:32:32 4dBm Nov 19, 2018 22:43:04.766574000 +07
   21   4.725327 32:32:32:32:32:32 4dBm Nov 19, 2018 22:43:04.849989000 +07
   22   4.753419 32:32:32:32:32:32 8dBm Nov 19, 2018 22:43:04.878081000 +07
   23   4.755610 32:32:32:32:32:32 5dBm Nov 19, 2018 22:43:04.880272000 +07
   24   4.842140 32:32:32:32:32:32 5dBm Nov 19, 2018 22:43:04.966802000 +07
   25   4.927325 32:32:32:32:32:32 3dBm Nov 19, 2018 22:43:05.051987000 +07
   26   5.014207 32:32:32:32:32:32 4dBm Nov 19, 2018 22:43:05.138869000 +07
   27   5.107920 32:32:32:32:32:32 4dBm Nov 19, 2018 22:43:05.232582000 +07
   28   5.424716 32:32:32:32:32:32 5dBm Nov 19, 2018 22:43:05.549378000 +07
   29   5.566226 32:32:32:32:32:32 5dBm Nov 19, 2018 22:43:05.690888000 +07
   30   6.997528 32:32:32:32:32:32 5dBm Nov 19, 2018 22:43:07.122190000 +07
   31   7.398284 32:32:32:32:32:32 6dBm Nov 19, 2018 22:43:07.522946000 +07
   32   7.469206 32:32:32:32:32:32 5dBm Nov 19, 2018 22:43:07.593868000 +07
   33   7.567390 32:32:32:32:32:32 5dBm Nov 19, 2018 22:43:07.692052000 +07
   34   7.659717 32:32:32:32:32:32 5dBm Nov 19, 2018 22:43:07.784379000 +07
   35   8.152991 32:32:32:32:32:32 4dBm Nov 19, 2018 22:43:08.277653000 +07
   36   8.381587 32:32:32:32:32:32 5dBm Nov 19, 2018 22:43:08.506249000 +07
   37   8.669825 32:32:32:32:32:32 3dBm Nov 19, 2018 22:43:08.794487000 +07
   38   8.688049 32:32:32:32:32:32 5dBm Nov 19, 2018 22:43:08.812711000 +07
   39   9.172046 32:32:32:32:32:32 5dBm Nov 19, 2018 22:43:09.296708000 +07
   40   9.206664 32:32:32:32:32:32 6dBm Nov 19, 2018 22:43:09.331326000 +07
   41   9.474292 32:32:32:32:32:32 7dBm Nov 19, 2018 22:43:09.598954000 +07
   42   9.493787 32:32:32:32:32:32 4dBm Nov 19, 2018 22:43:09.618449000 +07
   43   9.563342 32:32:32:32:32:32 5dBm Nov 19, 2018 22:43:09.688004000 +07
   44   9.606920 32:32:32:32:32:32 5dBm Nov 19, 2018 22:43:09.731582000 +07
   45   9.972398 32:32:32:32:32:32 5dBm Nov 19, 2018 22:43:10.097060000 +07
   46  10.451086 32:32:32:32:32:32 4dBm Nov 19, 2018 22:43:10.575748000 +07
   47  10.508280 32:32:32:32:32:32 4dBm Nov 19, 2018 22:43:10.632942000 +07
   48  10.583920 32:32:32:32:32:32 4dBm Nov 19, 2018 22:43:10.708582000 +07
   49  10.699768 32:32:32:32:32:32 5dBm Nov 19, 2018 22:43:10.824430000 +07
   50  10.719718 32:32:32:32:32:32 6dBm Nov 19, 2018 22:43:10.844380000 +07
   51  11.001464 32:32:32:32:32:32 4dBm Nov 19, 2018 22:43:11.126126000 +07
   52  11.311811 32:32:32:32:32:32 5dBm Nov 19, 2018 22:43:11.436473000 +07
   53  11.352867 32:32:32:32:32:32 5dBm Nov 19, 2018 22:43:11.477529000 +07
   54  12.090391 32:32:32:32:32:32 3dBm Nov 19, 2018 22:43:12.215053000 +07
   55  12.309456 32:32:32:32:32:32 5dBm Nov 19, 2018 22:43:12.434118000 +07
   56  12.447531 32:32:32:32:32:32 6dBm Nov 19, 2018 22:43:12.572193000 +07
   57  12.659111 32:32:32:32:32:32 6dBm Nov 19, 2018 22:43:12.783773000 +07
   58  12.677038 32:32:32:32:32:32 6dBm Nov 19, 2018 22:43:12.801700000 +07
   59  13.227245 32:32:32:32:32:32 7dBm Nov 19, 2018 22:43:13.351907000 +07
   60  13.326624 32:32:32:32:32:32 6dBm Nov 19, 2018 22:43:13.451286000 +07
   61  13.675841 32:32:32:32:32:32 5dBm Nov 19, 2018 22:43:13.800503000 +07
   62  14.087479 32:32:32:32:32:32 7dBm Nov 19, 2018 22:43:14.212141000 +07
   63  14.389695 32:32:32:32:32:32 5dBm Nov 19, 2018 22:43:14.514357000 +07
   64  14.848598 32:32:32:32:32:32 5dBm Nov 19, 2018 22:43:14.973260000 +07
   65  14.905388 32:32:32:32:32:32 6dBm Nov 19, 2018 22:43:15.030050000 +07
   66  14.932860 32:32:32:32:32:32 5dBm Nov 19, 2018 22:43:15.057522000 +07
   67  14.948888 32:32:32:32:32:32 3dBm Nov 19, 2018 22:43:15.073550000 +07
   68  15.039359 32:32:32:32:32:32 6dBm Nov 19, 2018 22:43:15.164021000 +07
   69  15.058902 32:32:32:32:32:32 6dBm Nov 19, 2018 22:43:15.183564000 +07
   70  15.146736 32:32:32:32:32:32 4dBm Nov 19, 2018 22:43:15.271398000 +07
   71  15.166725 32:32:32:32:32:32 4dBm Nov 19, 2018 22:43:15.291387000 +07
   72  15.216462 32:32:32:32:32:32 4dBm Nov 19, 2018 22:43:15.341124000 +07
   73  15.333144 32:32:32:32:32:32 4dBm Nov 19, 2018 22:43:15.457806000 +07
   74  15.636386 32:32:32:32:32:32 5dBm Nov 19, 2018 22:43:15.761048000 +07
   75  15.762536 32:32:32:32:32:32 6dBm Nov 19, 2018 22:43:15.887198000 +07
   76  15.790012 32:32:32:32:32:32 3dBm Nov 19, 2018 22:43:15.914674000 +07
   77  16.065784 32:32:32:32:32:32 6dBm Nov 19, 2018 22:43:16.190446000 +07
   78  16.121391 32:32:32:32:32:32 6dBm Nov 19, 2018 22:43:16.246053000 +07
   79  16.213199 32:32:32:32:32:32 7dBm Nov 19, 2018 22:43:16.337861000 +07
   80  16.513650 32:32:32:32:32:32 3dBm Nov 19, 2018 22:43:16.638312000 +07
   81  16.590668 32:32:32:32:32:32 4dBm Nov 19, 2018 22:43:16.715330000 +07
   82  16.611241 32:32:32:32:32:32 7dBm Nov 19, 2018 22:43:16.735903000 +07
   83  16.790439 32:32:32:32:32:32 5dBm Nov 19, 2018 22:43:16.915101000 +07
   84  16.965010 32:32:32:32:32:32 5dBm Nov 19, 2018 22:43:17.089672000 +07
   85  17.230024 32:32:32:32:32:32 5dBm Nov 19, 2018 22:43:17.354686000 +07
   86  17.569709 32:32:32:32:32:32 5dBm Nov 19, 2018 22:43:17.694371000 +07
   87  17.599829 32:32:32:32:32:32 6dBm Nov 19, 2018 22:43:17.724491000 +07
   88  17.787490 32:32:32:32:32:32 6dBm Nov 19, 2018 22:43:17.912152000 +07
   89  18.314502 32:32:32:32:32:32 4dBm Nov 19, 2018 22:43:18.439164000 +07
   90  18.334329 32:32:32:32:32:32 6dBm Nov 19, 2018 22:43:18.458991000 +07
   91  18.336565 32:32:32:32:32:32 4dBm Nov 19, 2018 22:43:18.461227000 +07
   92  18.348853 32:32:32:32:32:32 6dBm Nov 19, 2018 22:43:18.473515000 +07
   93  18.363496 32:32:32:32:32:32 6dBm Nov 19, 2018 22:43:18.488158000 +07
   94  18.629316 32:32:32:32:32:32 6dBm Nov 19, 2018 22:43:18.753978000 +07
   95  18.667086 32:32:32:32:32:32 4dBm Nov 19, 2018 22:43:18.791748000 +07
   96  18.837512 32:32:32:32:32:32 5dBm Nov 19, 2018 22:43:18.962174000 +07
   97  19.220214 32:32:32:32:32:32 5dBm Nov 19, 2018 22:43:19.344876000 +07
   98  19.278561 32:32:32:32:32:32 6dBm Nov 19, 2018 22:43:19.403223000 +07
   99  19.297589 32:32:32:32:32:32 4dBm Nov 19, 2018 22:43:19.422251000 +07
  100  19.452021 32:32:32:32:32:32 7dBm Nov 19, 2018 22:43:19.576683000 +07
  101  19.764809 32:32:32:32:32:32 5dBm Nov 19, 2018 22:43:19.889471000 +07
  102  19.892046 32:32:32:32:32:32 5dBm Nov 19, 2018 22:43:20.016708000 +07
  103  20.025898 32:32:32:32:32:32 5dBm Nov 19, 2018 22:43:20.150560000 +07
  104  20.122802 32:32:32:32:32:32 5dBm Nov 19, 2018 22:43:20.247464000 +07
  105  20.217418 32:32:32:32:32:32 5dBm Nov 19, 2018 22:43:20.342080000 +07
  106  20.445349 32:32:32:32:32:32 5dBm Nov 19, 2018 22:43:20.570011000 +07
  107  20.669893 32:32:32:32:32:32 6dBm Nov 19, 2018 22:43:20.794555000 +07
  108  20.715344 32:32:32:32:32:32 6dBm Nov 19, 2018 22:43:20.840006000 +07
  109  21.005429 32:32:32:32:32:32 5dBm Nov 19, 2018 22:43:21.130091000 +07
  110  21.033271 32:32:32:32:32:32 5dBm Nov 19, 2018 22:43:21.157933000 +07
  111  21.082242 32:32:32:32:32:32 6dBm Nov 19, 2018 22:43:21.206904000 +07
  112  21.301410 32:32:32:32:32:32 4dBm Nov 19, 2018 22:43:21.426072000 +07
  113  21.324214 32:32:32:32:32:32 6dBm Nov 19, 2018 22:43:21.448876000 +07
  114  21.378941 32:32:32:32:32:32 4dBm Nov 19, 2018 22:43:21.503603000 +07
  115  21.425935 32:32:32:32:32:32 5dBm Nov 19, 2018 22:43:21.550597000 +07
  116  21.447361 32:32:32:32:32:32 5dBm Nov 19, 2018 22:43:21.572023000 +07
  117  21.594662 32:32:32:32:32:32 5dBm Nov 19, 2018 22:43:21.719324000 +07
  118  21.796715 32:32:32:32:32:32 6dBm Nov 19, 2018 22:43:21.921377000 +07
  119  22.037927 32:32:32:32:32:32 4dBm Nov 19, 2018 22:43:22.162589000 +07
  120  22.096047 32:32:32:32:32:32 5dBm Nov 19, 2018 22:43:22.220709000 +07
  121  22.628314 32:32:32:32:32:32 5dBm Nov 19, 2018 22:43:22.752976000 +07
  122  22.646623 32:32:32:32:32:32 4dBm Nov 19, 2018 22:43:22.771285000 +07
  123  22.943336 32:32:32:32:32:32 7dBm Nov 19, 2018 22:43:23.067998000 +07
  124  23.257492 32:32:32:32:32:32 6dBm Nov 19, 2018 22:43:23.382154000 +07
  125  23.442011 32:32:32:32:32:32 5dBm Nov 19, 2018 22:43:23.566673000 +07
  126  23.592736 32:32:32:32:32:32 6dBm Nov 19, 2018 22:43:23.717398000 +07
  127  23.752242 32:32:32:32:32:32 5dBm Nov 19, 2018 22:43:23.876904000 +07
  128  23.817644 32:32:32:32:32:32 4dBm Nov 19, 2018 22:43:23.942306000 +07
  129  23.845432 32:32:32:32:32:32 3dBm Nov 19, 2018 22:43:23.970094000 +07
  130  24.469623 32:32:32:32:32:32 5dBm Nov 19, 2018 22:43:24.594285000 +07
  131  24.789632 32:32:32:32:32:32 5dBm Nov 19, 2018 22:43:24.914294000 +07
  132  25.284874 32:32:32:32:32:32 6dBm Nov 19, 2018 22:43:25.409536000 +07
  133  25.943901 32:32:32:32:32:32 4dBm Nov 19, 2018 22:43:26.068563000 +07
  134  25.965604 32:32:32:32:32:32 5dBm Nov 19, 2018 22:43:26.090266000 +07
  135  26.086803 32:32:32:32:32:32 5dBm Nov 19, 2018 22:43:26.211465000 +07
  136  26.127653 32:32:32:32:32:32 5dBm Nov 19, 2018 22:43:26.252315000 +07
  137  26.241511 32:32:32:32:32:32 3dBm Nov 19, 2018 22:43:26.366173000 +07
  138  26.310522 32:32:32:32:32:32 5dBm Nov 19, 2018 22:43:26.435184000 +07
  139  26.710050 32:32:32:32:32:32 6dBm Nov 19, 2018 22:43:26.834712000 +07
  140  26.951111 32:32:32:32:32:32 4dBm Nov 19, 2018 22:43:27.075773000 +07
  141  27.115687 32:32:32:32:32:32 5dBm Nov 19, 2018 22:43:27.240349000 +07
  142  27.188661 32:32:32:32:32:32 5dBm Nov 19, 2018 22:43:27.313323000 +07
  143  27.268795 32:32:32:32:32:32 5dBm Nov 19, 2018 22:43:27.393457000 +07
  144  27.363040 32:32:32:32:32:32 6dBm Nov 19, 2018 22:43:27.487702000 +07
  145  27.364532 32:32:32:32:32:32 7dBm Nov 19, 2018 22:43:27.489194000 +07
  146  27.412044 32:32:32:32:32:32 7dBm Nov 19, 2018 22:43:27.536706000 +07
  147  27.884279 32:32:32:32:32:32 5dBm Nov 19, 2018 22:43:28.008941000 +07
  148  28.044502 32:32:32:32:32:32 6dBm Nov 19, 2018 22:43:28.169164000 +07
  149  28.138152 32:32:32:32:32:32 5dBm Nov 19, 2018 22:43:28.262814000 +07
  150  28.228196 32:32:32:32:32:32 6dBm Nov 19, 2018 22:43:28.352858000 +07
  151  28.289165 32:32:32:32:32:32 4dBm Nov 19, 2018 22:43:28.413827000 +07
  152  28.318503 32:32:32:32:32:32 5dBm Nov 19, 2018 22:43:28.443165000 +07
  153  28.349185 32:32:32:32:32:32 6dBm Nov 19, 2018 22:43:28.473847000 +07
  154  28.478890 32:32:32:32:32:32 6dBm Nov 19, 2018 22:43:28.603552000 +07
  155  28.625613 32:32:32:32:32:32 5dBm Nov 19, 2018 22:43:28.750275000 +07
  156  28.670631 32:32:32:32:32:32 6dBm Nov 19, 2018 22:43:28.795293000 +07
  157  28.845605 32:32:32:32:32:32 6dBm Nov 19, 2018 22:43:28.970267000 +07
  158  28.947694 32:32:32:32:32:32 5dBm Nov 19, 2018 22:43:29.072356000 +07
  159  29.112268 32:32:32:32:32:32 7dBm Nov 19, 2018 22:43:29.236930000 +07
  160  29.791643 32:32:32:32:32:32 6dBm Nov 19, 2018 22:43:29.916305000 +07
  161  29.845640 32:32:32:32:32:32 6dBm Nov 19, 2018 22:43:29.970302000 +07
  162  29.908619 32:32:32:32:32:32 3dBm Nov 19, 2018 22:43:30.033281000 +07
  163  30.160123 32:32:32:32:32:32 5dBm Nov 19, 2018 22:43:30.284785000 +07
  164  30.291264 32:32:32:32:32:32 5dBm Nov 19, 2018 22:43:30.415926000 +07
  165  30.410866 32:32:32:32:32:32 5dBm Nov 19, 2018 22:43:30.535528000 +07
  166  30.681508 32:32:32:32:32:32 6dBm Nov 19, 2018 22:43:30.806170000 +07
  167  30.909075 32:32:32:32:32:32 6dBm Nov 19, 2018 22:43:31.033737000 +07
  168  30.991294 32:32:32:32:32:32 5dBm Nov 19, 2018 22:43:31.115956000 +07
  169  31.578107 32:32:32:32:32:32 6dBm Nov 19, 2018 22:43:31.702769000 +07
  170  31.609630 32:32:32:32:32:32 2dBm Nov 19, 2018 22:43:31.734292000 +07
  171  31.929663 32:32:32:32:32:32 4dBm Nov 19, 2018 22:43:32.054325000 +07
  172  32.245817 32:32:32:32:32:32 6dBm Nov 19, 2018 22:43:32.370479000 +07
  173  32.368085 32:32:32:32:32:32 5dBm Nov 19, 2018 22:43:32.492747000 +07
  174  33.238623 32:32:32:32:32:32 6dBm Nov 19, 2018 22:43:33.363285000 +07
  175  33.418452 32:32:32:32:32:32 6dBm Nov 19, 2018 22:43:33.543114000 +07
  176  33.516093 32:32:32:32:32:32 6dBm Nov 19, 2018 22:43:33.640755000 +07
  177  33.783245 32:32:32:32:32:32 6dBm Nov 19, 2018 22:43:33.907907000 +07
  178  33.830781 32:32:32:32:32:32 4dBm Nov 19, 2018 22:43:33.955443000 +07
  179  33.847132 32:32:32:32:32:32 5dBm Nov 19, 2018 22:43:33.971794000 +07
  180  33.854732 32:32:32:32:32:32 4dBm Nov 19, 2018 22:43:33.979394000 +07
  181  34.416435 32:32:32:32:32:32 5dBm Nov 19, 2018 22:43:34.541097000 +07
  182  34.919219 32:32:32:32:32:32 6dBm Nov 19, 2018 22:43:35.043881000 +07
  183  35.117973 32:32:32:32:32:32 6dBm Nov 19, 2018 22:43:35.242635000 +07
  184  35.149866 32:32:32:32:32:32 5dBm Nov 19, 2018 22:43:35.274528000 +07
  185  35.259042 32:32:32:32:32:32 1dBm Nov 19, 2018 22:43:35.383704000 +07
  186  35.546766 32:32:32:32:32:32 7dBm Nov 19, 2018 22:43:35.671428000 +07
  187  35.957494 32:32:32:32:32:32 5dBm Nov 19, 2018 22:43:36.082156000 +07
  188  36.019898 32:32:32:32:32:32 8dBm Nov 19, 2018 22:43:36.144560000 +07
  189  36.084642 32:32:32:32:32:32 5dBm Nov 19, 2018 22:43:36.209304000 +07
  190  36.236536 32:32:32:32:32:32 6dBm Nov 19, 2018 22:43:36.361198000 +07
  191  36.392735 32:32:32:32:32:32 7dBm Nov 19, 2018 22:43:36.517397000 +07
  192  36.562996 32:32:32:32:32:32 7dBm Nov 19, 2018 22:43:36.687658000 +07
  193  36.635231 32:32:32:32:32:32 6dBm Nov 19, 2018 22:43:36.759893000 +07
  194  36.748005 32:32:32:32:32:32 8dBm Nov 19, 2018 22:43:36.872667000 +07
  195  36.778656 32:32:32:32:32:32 7dBm Nov 19, 2018 22:43:36.903318000 +07
  196  36.973156 32:32:32:32:32:32 5dBm Nov 19, 2018 22:43:37.097818000 +07
  197  37.408594 32:32:32:32:32:32 3dBm Nov 19, 2018 22:43:37.533256000 +07
  198  37.442134 32:32:32:32:32:32 5dBm Nov 19, 2018 22:43:37.566796000 +07
  199  37.741365 32:32:32:32:32:32 5dBm Nov 19, 2018 22:43:37.866027000 +07
  200  39.569332 32:32:32:32:32:32 6dBm Nov 19, 2018 22:43:39.693994000 +07
  201  39.602579 32:32:32:32:32:32 5dBm Nov 19, 2018 22:43:39.727241000 +07
  202  40.397207 32:32:32:32:32:32 6dBm Nov 19, 2018 22:43:40.521869000 +07
  203  40.455495 32:32:32:32:32:32 8dBm Nov 19, 2018 22:43:40.580157000 +07
  204  40.555896 32:32:32:32:32:32 6dBm Nov 19, 2018 22:43:40.680558000 +07
  205  40.658854 32:32:32:32:32:32 8dBm Nov 19, 2018 22:43:40.783516000 +07
  206  40.673566 32:32:32:32:32:32 6dBm Nov 19, 2018 22:43:40.798228000 +07
  207  40.757108 32:32:32:32:32:32 4dBm Nov 19, 2018 22:43:40.881770000 +07
  208  40.817803 32:32:32:32:32:32 6dBm Nov 19, 2018 22:43:40.942465000 +07
  209  40.940656 32:32:32:32:32:32 8dBm Nov 19, 2018 22:43:41.065318000 +07
  210  40.963064 32:32:32:32:32:32 7dBm Nov 19, 2018 22:43:41.087726000 +07
  211  40.981418 32:32:32:32:32:32 6dBm Nov 19, 2018 22:43:41.106080000 +07
  212  41.063660 32:32:32:32:32:32 6dBm Nov 19, 2018 22:43:41.188322000 +07
  213  41.077749 32:32:32:32:32:32 6dBm Nov 19, 2018 22:43:41.202411000 +07
  214  41.093484 32:32:32:32:32:32 5dBm Nov 19, 2018 22:43:41.218146000 +07
  215  41.132209 32:32:32:32:32:32 6dBm Nov 19, 2018 22:43:41.256871000 +07
  216  41.301135 32:32:32:32:32:32 6dBm Nov 19, 2018 22:43:41.425797000 +07
  217  41.594007 32:32:32:32:32:32 7dBm Nov 19, 2018 22:43:41.718669000 +07
  218  41.616665 32:32:32:32:32:32 4dBm Nov 19, 2018 22:43:41.741327000 +07
  219  41.770821 32:32:32:32:32:32 6dBm Nov 19, 2018 22:43:41.895483000 +07
  220  41.946090 32:32:32:32:32:32 6dBm Nov 19, 2018 22:43:42.070752000 +07
  221  42.267172 32:32:32:32:32:32 6dBm Nov 19, 2018 22:43:42.391834000 +07
  222  42.273255 32:32:32:32:32:32 6dBm Nov 19, 2018 22:43:42.397917000 +07
  223  42.389457 32:32:32:32:32:32 6dBm Nov 19, 2018 22:43:42.514119000 +07
  224  42.438234 32:32:32:32:32:32 4dBm Nov 19, 2018 22:43:42.562896000 +07
  225  42.485861 32:32:32:32:32:32 7dBm Nov 19, 2018 22:43:42.610523000 +07
  226  42.544942 32:32:32:32:32:32 6dBm Nov 19, 2018 22:43:42.669604000 +07
  227  42.652189 32:32:32:32:32:32 6dBm Nov 19, 2018 22:43:42.776851000 +07
  228  42.913037 32:32:32:32:32:32 6dBm Nov 19, 2018 22:43:43.037699000 +07
  229  42.987747 32:32:32:32:32:32 6dBm Nov 19, 2018 22:43:43.112409000 +07
  230  42.996707 32:32:32:32:32:32 6dBm Nov 19, 2018 22:43:43.121369000 +07
  231  43.197777 32:32:32:32:32:32 5dBm Nov 19, 2018 22:43:43.322439000 +07
  232  43.223146 32:32:32:32:32:32 4dBm Nov 19, 2018 22:43:43.347808000 +07
  233  43.600945 32:32:32:32:32:32 6dBm Nov 19, 2018 22:43:43.725607000 +07
  234  43.689966 32:32:32:32:32:32 5dBm Nov 19, 2018 22:43:43.814628000 +07
  235  43.795380 32:32:32:32:32:32 5dBm Nov 19, 2018 22:43:43.920042000 +07
  236  43.855753 32:32:32:32:32:32 6dBm Nov 19, 2018 22:43:43.980415000 +07
  237  44.000398 32:32:32:32:32:32 6dBm Nov 19, 2018 22:43:44.125060000 +07
  238  44.106001 32:32:32:32:32:32 7dBm Nov 19, 2018 22:43:44.230663000 +07
  239  44.128473 32:32:32:32:32:32 4dBm Nov 19, 2018 22:43:44.253135000 +07
  240  44.222212 32:32:32:32:32:32 6dBm Nov 19, 2018 22:43:44.346874000 +07
  241  44.417556 32:32:32:32:32:32 4dBm Nov 19, 2018 22:43:44.542218000 +07
  242  44.518934 32:32:32:32:32:32 6dBm Nov 19, 2018 22:43:44.643596000 +07
  243  44.579693 32:32:32:32:32:32 5dBm Nov 19, 2018 22:43:44.704355000 +07
  244  44.613558 32:32:32:32:32:32 7dBm Nov 19, 2018 22:43:44.738220000 +07
  245  44.645341 32:32:32:32:32:32 4dBm Nov 19, 2018 22:43:44.770003000 +07
  246  44.670347 32:32:32:32:32:32 5dBm Nov 19, 2018 22:43:44.795009000 +07
  247  44.677204 32:32:32:32:32:32 5dBm Nov 19, 2018 22:43:44.801866000 +07
  248  44.696646 32:32:32:32:32:32 4dBm Nov 19, 2018 22:43:44.821308000 +07
  249  44.991275 32:32:32:32:32:32 5dBm Nov 19, 2018 22:43:45.115937000 +07
  250  45.043265 32:32:32:32:32:32 6dBm Nov 19, 2018 22:43:45.167927000 +07
  251  45.122133 32:32:32:32:32:32 6dBm Nov 19, 2018 22:43:45.246795000 +07
  252  45.197125 32:32:32:32:32:32 6dBm Nov 19, 2018 22:43:45.321787000 +07
  253  45.217299 32:32:32:32:32:32 5dBm Nov 19, 2018 22:43:45.341961000 +07
  254  45.287942 32:32:32:32:32:32 4dBm Nov 19, 2018 22:43:45.412604000 +07
  255  45.415463 32:32:32:32:32:32 6dBm Nov 19, 2018 22:43:45.540125000 +07
  256  45.533164 32:32:32:32:32:32 6dBm Nov 19, 2018 22:43:45.657826000 +07
  257  45.737554 32:32:32:32:32:32 7dBm Nov 19, 2018 22:43:45.862216000 +07
  258  45.745816 32:32:32:32:32:32 4dBm Nov 19, 2018 22:43:45.870478000 +07
  259  45.788660 32:32:32:32:32:32 6dBm Nov 19, 2018 22:43:45.913322000 +07
  260  45.863986 32:32:32:32:32:32 5dBm Nov 19, 2018 22:43:45.988648000 +07
  261  45.886638 32:32:32:32:32:32 5dBm Nov 19, 2018 22:43:46.011300000 +07
  262  45.972553 32:32:32:32:32:32 6dBm Nov 19, 2018 22:43:46.097215000 +07
  263  46.221987 32:32:32:32:32:32 5dBm Nov 19, 2018 22:43:46.346649000 +07
  264  46.452071 32:32:32:32:32:32 8dBm Nov 19, 2018 22:43:46.576733000 +07
  265  46.510103 32:32:32:32:32:32 5dBm Nov 19, 2018 22:43:46.634765000 +07
  266  46.532396 32:32:32:32:32:32 3dBm Nov 19, 2018 22:43:46.657058000 +07
  267  46.639189 32:32:32:32:32:32 6dBm Nov 19, 2018 22:43:46.763851000 +07
  268  46.683021 32:32:32:32:32:32 6dBm Nov 19, 2018 22:43:46.807683000 +07
  269  46.697409 32:32:32:32:32:32 7dBm Nov 19, 2018 22:43:46.822071000 +07
  270  46.828794 32:32:32:32:32:32 5dBm Nov 19, 2018 22:43:46.953456000 +07
  271  47.028732 32:32:32:32:32:32 6dBm Nov 19, 2018 22:43:47.153394000 +07
  272  47.339771 32:32:32:32:32:32 6dBm Nov 19, 2018 22:43:47.464433000 +07
  273  47.384218 32:32:32:32:32:32 6dBm Nov 19, 2018 22:43:47.508880000 +07
  274  47.455415 32:32:32:32:32:32 5dBm Nov 19, 2018 22:43:47.580077000 +07
  275  47.580877 32:32:32:32:32:32 6dBm Nov 19, 2018 22:43:47.705539000 +07
  276  47.686034 32:32:32:32:32:32 3dBm Nov 19, 2018 22:43:47.810696000 +07
  277  47.809532 32:32:32:32:32:32 4dBm Nov 19, 2018 22:43:47.934194000 +07
  278  47.939162 32:32:32:32:32:32 5dBm Nov 19, 2018 22:43:48.063824000 +07
  279  48.085356 32:32:32:32:32:32 7dBm Nov 19, 2018 22:43:48.210018000 +07
  280  48.110074 32:32:32:32:32:32 6dBm Nov 19, 2018 22:43:48.234736000 +07
  281  48.139331 32:32:32:32:32:32 6dBm Nov 19, 2018 22:43:48.263993000 +07
  282  48.322511 32:32:32:32:32:32 6dBm Nov 19, 2018 22:43:48.447173000 +07
  283  48.428907 32:32:32:32:32:32 6dBm Nov 19, 2018 22:43:48.553569000 +07
  284  48.454793 32:32:32:32:32:32 7dBm Nov 19, 2018 22:43:48.579455000 +07
  285  48.478286 32:32:32:32:32:32 6dBm Nov 19, 2018 22:43:48.602948000 +07
  286  48.596847 32:32:32:32:32:32 6dBm Nov 19, 2018 22:43:48.721509000 +07
  287  48.676120 32:32:32:32:32:32 6dBm Nov 19, 2018 22:43:48.800782000 +07
  288  48.788100 32:32:32:32:32:32 6dBm Nov 19, 2018 22:43:48.912762000 +07
  289  48.844865 32:32:32:32:32:32 7dBm Nov 19, 2018 22:43:48.969527000 +07
  290  48.889759 32:32:32:32:32:32 4dBm Nov 19, 2018 22:43:49.014421000 +07
  291  48.907302 32:32:32:32:32:32 4dBm Nov 19, 2018 22:43:49.031964000 +07
  292  49.067833 32:32:32:32:32:32 8dBm Nov 19, 2018 22:43:49.192495000 +07
  293  49.160893 32:32:32:32:32:32 6dBm Nov 19, 2018 22:43:49.285555000 +07
  294  49.246833 32:32:32:32:32:32 4dBm Nov 19, 2018 22:43:49.371495000 +07
  295  49.270520 32:32:32:32:32:32 6dBm Nov 19, 2018 22:43:49.395182000 +07
  296  49.288063 32:32:32:32:32:32 7dBm Nov 19, 2018 22:43:49.412725000 +07
  297  49.329709 32:32:32:32:32:32 5dBm Nov 19, 2018 22:43:49.454371000 +07
  298  49.413272 32:32:32:32:32:32 7dBm Nov 19, 2018 22:43:49.537934000 +07
  299  49.455555 32:32:32:32:32:32 7dBm Nov 19, 2018 22:43:49.580217000 +07
  300  49.474187 32:32:32:32:32:32 4dBm Nov 19, 2018 22:43:49.598849000 +07
  301  49.713048 32:32:32:32:32:32 7dBm Nov 19, 2018 22:43:49.837710000 +07
  302  49.790819 32:32:32:32:32:32 4dBm Nov 19, 2018 22:43:49.915481000 +07
  303  49.864849 32:32:32:32:32:32 7dBm Nov 19, 2018 22:43:49.989511000 +07
  304  49.904071 32:32:32:32:32:32 5dBm Nov 19, 2018 22:43:50.028733000 +07
  305  50.157560 32:32:32:32:32:32 6dBm Nov 19, 2018 22:43:50.282222000 +07
  306  50.381820 32:32:32:32:32:32 4dBm Nov 19, 2018 22:43:50.506482000 +07
  307  50.395816 32:32:32:32:32:32 5dBm Nov 19, 2018 22:43:50.520478000 +07
  308  50.572826 32:32:32:32:32:32 6dBm Nov 19, 2018 22:43:50.697488000 +07
  309  50.627005 32:32:32:32:32:32 5dBm Nov 19, 2018 22:43:50.751667000 +07
  310  50.728131 32:32:32:32:32:32 7dBm Nov 19, 2018 22:43:50.852793000 +07
  311  50.894016 32:32:32:32:32:32 7dBm Nov 19, 2018 22:43:51.018678000 +07
  312  51.075106 32:32:32:32:32:32 6dBm Nov 19, 2018 22:43:51.199768000 +07
  313  51.216971 32:32:32:32:32:32 4dBm Nov 19, 2018 22:43:51.341633000 +07
  314  51.249514 32:32:32:32:32:32 6dBm Nov 19, 2018 22:43:51.374176000 +07
  315  51.358736 32:32:32:32:32:32 5dBm Nov 19, 2018 22:43:51.483398000 +07
  316  51.457945 32:32:32:32:32:32 6dBm Nov 19, 2018 22:43:51.582607000 +07
  317  51.535429 32:32:32:32:32:32 7dBm Nov 19, 2018 22:43:51.660091000 +07
  318  51.588211 32:32:32:32:32:32 5dBm Nov 19, 2018 22:43:51.712873000 +07
  319  51.839237 32:32:32:32:32:32 6dBm Nov 19, 2018 22:43:51.963899000 +07
  320  51.899217 32:32:32:32:32:32 7dBm Nov 19, 2018 22:43:52.023879000 +07
  321  52.119459 32:32:32:32:32:32 3dBm Nov 19, 2018 22:43:52.244121000 +07
  322  52.188581 32:32:32:32:32:32 5dBm Nov 19, 2018 22:43:52.313243000 +07
  323  52.561938 32:32:32:32:32:32 6dBm Nov 19, 2018 22:43:52.686600000 +07
  324  52.705921 32:32:32:32:32:32 7dBm Nov 19, 2018 22:43:52.830583000 +07
  325  52.768517 32:32:32:32:32:32 6dBm Nov 19, 2018 22:43:52.893179000 +07
  326  52.925573 32:32:32:32:32:32 2dBm Nov 19, 2018 22:43:53.050235000 +07
  327  53.048842 32:32:32:32:32:32 5dBm Nov 19, 2018 22:43:53.173504000 +07
  328  53.146061 32:32:32:32:32:32 5dBm Nov 19, 2018 22:43:53.270723000 +07
  329  53.188713 32:32:32:32:32:32 6dBm Nov 19, 2018 22:43:53.313375000 +07
  330  53.325948 32:32:32:32:32:32 8dBm Nov 19, 2018 22:43:53.450610000 +07
  331  53.395711 32:32:32:32:32:32 7dBm Nov 19, 2018 22:43:53.520373000 +07
  332  53.458876 32:32:32:32:32:32 5dBm Nov 19, 2018 22:43:53.583538000 +07
  333  53.572713 32:32:32:32:32:32 5dBm Nov 19, 2018 22:43:53.697375000 +07
  334  53.675791 32:32:32:32:32:32 6dBm Nov 19, 2018 22:43:53.800453000 +07
  335  53.722808 32:32:32:32:32:32 5dBm Nov 19, 2018 22:43:53.847470000 +07
  336  53.765468 32:32:32:32:32:32 6dBm Nov 19, 2018 22:43:53.890130000 +07
  337  53.962127 32:32:32:32:32:32 5dBm Nov 19, 2018 22:43:54.086789000 +07
  338  54.023581 32:32:32:32:32:32 6dBm Nov 19, 2018 22:43:54.148243000 +07
  339  54.053828 32:32:32:32:32:32 5dBm Nov 19, 2018 22:43:54.178490000 +07
  340  54.144358 32:32:32:32:32:32 5dBm Nov 19, 2018 22:43:54.269020000 +07
  341  54.204443 32:32:32:32:32:32 8dBm Nov 19, 2018 22:43:54.329105000 +07
  342  54.258807 32:32:32:32:32:32 6dBm Nov 19, 2018 22:43:54.383469000 +07
  343  54.288749 32:32:32:32:32:32 5dBm Nov 19, 2018 22:43:54.413411000 +07
  344  54.336523 32:32:32:32:32:32 6dBm Nov 19, 2018 22:43:54.461185000 +07
  345  54.450207 32:32:32:32:32:32 7dBm Nov 19, 2018 22:43:54.574869000 +07
  346  54.659772 32:32:32:32:32:32 4dBm Nov 19, 2018 22:43:54.784434000 +07
  347  54.755512 32:32:32:32:32:32 5dBm Nov 19, 2018 22:43:54.880174000 +07
  348  54.961374 32:32:32:32:32:32 4dBm Nov 19, 2018 22:43:55.086036000 +07
  349  55.052512 32:32:32:32:32:32 6dBm Nov 19, 2018 22:43:55.177174000 +07
  350  55.267666 32:32:32:32:32:32 6dBm Nov 19, 2018 22:43:55.392328000 +07
  351  55.288703 32:32:32:32:32:32 6dBm Nov 19, 2018 22:43:55.413365000 +07
  352  55.381012 32:32:32:32:32:32 7dBm Nov 19, 2018 22:43:55.505674000 +07
  353  55.433377 32:32:32:32:32:32 6dBm Nov 19, 2018 22:43:55.558039000 +07
  354  55.460926 32:32:32:32:32:32 7dBm Nov 19, 2018 22:43:55.585588000 +07
  355  55.495936 32:32:32:32:32:32 5dBm Nov 19, 2018 22:43:55.620598000 +07
  356  55.530418 32:32:32:32:32:32 6dBm Nov 19, 2018 22:43:55.655080000 +07
  357  55.598843 32:32:32:32:32:32 6dBm Nov 19, 2018 22:43:55.723505000 +07
  358  55.687959 32:32:32:32:32:32 6dBm Nov 19, 2018 22:43:55.812621000 +07
  359  55.724133 32:32:32:32:32:32 1dBm Nov 19, 2018 22:43:55.848795000 +07
  360  55.801870 32:32:32:32:32:32 3dBm Nov 19, 2018 22:43:55.926532000 +07
  361  55.847350 32:32:32:32:32:32 6dBm Nov 19, 2018 22:43:55.972012000 +07
  362  56.125897 32:32:32:32:32:32 6dBm Nov 19, 2018 22:43:56.250559000 +07
  363  56.257142 32:32:32:32:32:32 6dBm Nov 19, 2018 22:43:56.381804000 +07
  364  56.347058 32:32:32:32:32:32 7dBm Nov 19, 2018 22:43:56.471720000 +07
  365  56.434579 32:32:32:32:32:32 5dBm Nov 19, 2018 22:43:56.559241000 +07
  366  56.465281 32:32:32:32:32:32 7dBm Nov 19, 2018 22:43:56.589943000 +07
  367  56.482825 32:32:32:32:32:32 5dBm Nov 19, 2018 22:43:56.607487000 +07
  368  56.501299 32:32:32:32:32:32 3dBm Nov 19, 2018 22:43:56.625961000 +07
  369  56.587399 32:32:32:32:32:32 8dBm Nov 19, 2018 22:43:56.712061000 +07
  370  56.705806 32:32:32:32:32:32 5dBm Nov 19, 2018 22:43:56.830468000 +07
  371  56.804318 32:32:32:32:32:32 5dBm Nov 19, 2018 22:43:56.928980000 +07
  372  56.901084 32:32:32:32:32:32 3dBm Nov 19, 2018 22:43:57.025746000 +07
  373  57.009211 32:32:32:32:32:32 4dBm Nov 19, 2018 22:43:57.133873000 +07
  374  57.122724 32:32:32:32:32:32 6dBm Nov 19, 2018 22:43:57.247386000 +07
  375  57.196198 32:32:32:32:32:32 7dBm Nov 19, 2018 22:43:57.320860000 +07
  376  57.309808 32:32:32:32:32:32 6dBm Nov 19, 2018 22:43:57.434470000 +07
  377  57.359877 32:32:32:32:32:32 4dBm Nov 19, 2018 22:43:57.484539000 +07
  378  57.375834 32:32:32:32:32:32 7dBm Nov 19, 2018 22:43:57.500496000 +07
  379  57.974531 32:32:32:32:32:32 5dBm Nov 19, 2018 22:43:58.099193000 +07
  380  58.082801 32:32:32:32:32:32 6dBm Nov 19, 2018 22:43:58.207463000 +07
  381  58.154572 32:32:32:32:32:32 6dBm Nov 19, 2018 22:43:58.279234000 +07
  382  58.319734 32:32:32:32:32:32 3dBm Nov 19, 2018 22:43:58.444396000 +07
  383  58.517678 32:32:32:32:32:32 6dBm Nov 19, 2018 22:43:58.642340000 +07
  384  58.538762 32:32:32:32:32:32 8dBm Nov 19, 2018 22:43:58.663424000 +07
  385  58.560599 32:32:32:32:32:32 4dBm Nov 19, 2018 22:43:58.685261000 +07
  386  58.731480 32:32:32:32:32:32 7dBm Nov 19, 2018 22:43:58.856142000 +07
  387  58.866792 32:32:32:32:32:32 6dBm Nov 19, 2018 22:43:58.991454000 +07
  388  59.008232 32:32:32:32:32:32 4dBm Nov 19, 2018 22:43:59.132894000 +07
  389  59.048626 32:32:32:32:32:32 3dBm Nov 19, 2018 22:43:59.173288000 +07
  390  59.069695 32:32:32:32:32:32 5dBm Nov 19, 2018 22:43:59.194357000 +07
  391  59.085099 32:32:32:32:32:32 7dBm Nov 19, 2018 22:43:59.209761000 +07
  392  59.221292 32:32:32:32:32:32 6dBm Nov 19, 2018 22:43:59.345954000 +07
  393  59.471266 32:32:32:32:32:32 4dBm Nov 19, 2018 22:43:59.595928000 +07
  394  59.502822 32:32:32:32:32:32 5dBm Nov 19, 2018 22:43:59.627484000 +07
  395  59.680832 32:32:32:32:32:32 6dBm Nov 19, 2018 22:43:59.805494000 +07
  396  59.781580 32:32:32:32:32:32 6dBm Nov 19, 2018 22:43:59.906242000 +07
  397  59.828525 32:32:32:32:32:32 4dBm Nov 19, 2018 22:43:59.953187000 +07
  398  59.864709 32:32:32:32:32:32 6dBm Nov 19, 2018 22:43:59.989371000 +07
  399  60.300478 32:32:32:32:32:32 5dBm Nov 19, 2018 22:44:00.425140000 +07
  400  60.328491 32:32:32:32:32:32 5dBm Nov 19, 2018 22:44:00.453153000 +07
  401  60.439281 32:32:32:32:32:32 5dBm Nov 19, 2018 22:44:00.563943000 +07
  402  60.701361 32:32:32:32:32:32 6dBm Nov 19, 2018 22:44:00.826023000 +07
  403  60.726273 32:32:32:32:32:32 4dBm Nov 19, 2018 22:44:00.850935000 +07
  404  60.743658 32:32:32:32:32:32 3dBm Nov 19, 2018 22:44:00.868320000 +07
  405  60.792990 32:32:32:32:32:32 3dBm Nov 19, 2018 22:44:00.917652000 +07
  406  61.165257 32:32:32:32:32:32 6dBm Nov 19, 2018 22:44:01.289919000 +07
  407  61.241747 32:32:32:32:32:32 6dBm Nov 19, 2018 22:44:01.366409000 +07
  408  61.527087 32:32:32:32:32:32 7dBm Nov 19, 2018 22:44:01.651749000 +07
  409  61.546621 32:32:32:32:32:32 5dBm Nov 19, 2018 22:44:01.671283000 +07
  410  61.672235 32:32:32:32:32:32 5dBm Nov 19, 2018 22:44:01.796897000 +07
  411  61.798881 32:32:32:32:32:32 5dBm Nov 19, 2018 22:44:01.923543000 +07
  412  61.993205 32:32:32:32:32:32 5dBm Nov 19, 2018 22:44:02.117867000 +07
  413  62.038315 32:32:32:32:32:32 6dBm Nov 19, 2018 22:44:02.162977000 +07
  414  62.083450 32:32:32:32:32:32 5dBm Nov 19, 2018 22:44:02.208112000 +07
  415  62.169904 32:32:32:32:32:32 6dBm Nov 19, 2018 22:44:02.294566000 +07
  416  62.463517 32:32:32:32:32:32 7dBm Nov 19, 2018 22:44:02.588179000 +07
  417  62.638201 32:32:32:32:32:32 6dBm Nov 19, 2018 22:44:02.762863000 +07
  418  62.759799 32:32:32:32:32:32 6dBm Nov 19, 2018 22:44:02.884461000 +07
  419  62.944053 32:32:32:32:32:32 6dBm Nov 19, 2018 22:44:03.068715000 +07
  420  62.980204 32:32:32:32:32:32 6dBm Nov 19, 2018 22:44:03.104866000 +07
  421  63.276924 32:32:32:32:32:32 4dBm Nov 19, 2018 22:44:03.401586000 +07
  422  63.325595 32:32:32:32:32:32 7dBm Nov 19, 2018 22:44:03.450257000 +07
  423  63.349817 32:32:32:32:32:32 5dBm Nov 19, 2018 22:44:03.474479000 +07
  424  63.369465 32:32:32:32:32:32 6dBm Nov 19, 2018 22:44:03.494127000 +07
  425  63.583790 32:32:32:32:32:32 7dBm Nov 19, 2018 22:44:03.708452000 +07
  426  63.856580 32:32:32:32:32:32 4dBm Nov 19, 2018 22:44:03.981242000 +07
  427  64.038790 32:32:32:32:32:32 4dBm Nov 19, 2018 22:44:04.163452000 +07
  428  64.074799 32:32:32:32:32:32 6dBm Nov 19, 2018 22:44:04.199461000 +07
  429  64.191886 32:32:32:32:32:32 5dBm Nov 19, 2018 22:44:04.316548000 +07
  430  64.220609 32:32:32:32:32:32 6dBm Nov 19, 2018 22:44:04.345271000 +07
  431  64.295483 32:32:32:32:32:32 6dBm Nov 19, 2018 22:44:04.420145000 +07
  432  64.443878 32:32:32:32:32:32 6dBm Nov 19, 2018 22:44:04.568540000 +07
  433  64.668091 32:32:32:32:32:32 5dBm Nov 19, 2018 22:44:04.792753000 +07
  434  64.741132 32:32:32:32:32:32 6dBm Nov 19, 2018 22:44:04.865794000 +07
  435  64.777727 32:32:32:32:32:32 6dBm Nov 19, 2018 22:44:04.902389000 +07
  436  64.893817 32:32:32:32:32:32 5dBm Nov 19, 2018 22:44:05.018479000 +07
  437  64.918534 32:32:32:32:32:32 6dBm Nov 19, 2018 22:44:05.043196000 +07
  438  64.978255 32:32:32:32:32:32 6dBm Nov 19, 2018 22:44:05.102917000 +07
  439  65.040803 32:32:32:32:32:32 4dBm Nov 19, 2018 22:44:05.165465000 +07
  440  65.160809 32:32:32:32:32:32 6dBm Nov 19, 2018 22:44:05.285471000 +07
  441  65.349777 32:32:32:32:32:32 6dBm Nov 19, 2018 22:44:05.474439000 +07
  442  65.365042 32:32:32:32:32:32 4dBm Nov 19, 2018 22:44:05.489704000 +07
  443  65.543620 32:32:32:32:32:32 5dBm Nov 19, 2018 22:44:05.668282000 +07
  444  65.647358 32:32:32:32:32:32 6dBm Nov 19, 2018 22:44:05.772020000 +07
  445  65.679983 32:32:32:32:32:32 6dBm Nov 19, 2018 22:44:05.804645000 +07
  446  65.822800 32:32:32:32:32:32 5dBm Nov 19, 2018 22:44:05.947462000 +07
  447  65.942506 32:32:32:32:32:32 5dBm Nov 19, 2018 22:44:06.067168000 +07
  448  66.007446 32:32:32:32:32:32 5dBm Nov 19, 2018 22:44:06.132108000 +07
  449  66.028887 32:32:32:32:32:32 3dBm Nov 19, 2018 22:44:06.153549000 +07
  450  66.365388 32:32:32:32:32:32 7dBm Nov 19, 2018 22:44:06.490050000 +07
  451  66.576116 32:32:32:32:32:32 6dBm Nov 19, 2018 22:44:06.700778000 +07
  452  66.600724 32:32:32:32:32:32 4dBm Nov 19, 2018 22:44:06.725386000 +07
  453  66.794015 32:32:32:32:32:32 5dBm Nov 19, 2018 22:44:06.918677000 +07
  454  66.948137 32:32:32:32:32:32 6dBm Nov 19, 2018 22:44:07.072799000 +07
  455  67.050909 32:32:32:32:32:32 7dBm Nov 19, 2018 22:44:07.175571000 +07
  456  67.152224 32:32:32:32:32:32 7dBm Nov 19, 2018 22:44:07.276886000 +07
  457  67.337141 32:32:32:32:32:32 5dBm Nov 19, 2018 22:44:07.461803000 +07
  458  67.393589 32:32:32:32:32:32 6dBm Nov 19, 2018 22:44:07.518251000 +07
  459  67.400456 32:32:32:32:32:32 5dBm Nov 19, 2018 22:44:07.525118000 +07
  460  67.539260 32:32:32:32:32:32 8dBm Nov 19, 2018 22:44:07.663922000 +07
  461  67.743290 32:32:32:32:32:32 6dBm Nov 19, 2018 22:44:07.867952000 +07
  462  67.797956 32:32:32:32:32:32 8dBm Nov 19, 2018 22:44:07.922618000 +07
  463  67.815260 32:32:32:32:32:32 5dBm Nov 19, 2018 22:44:07.939922000 +07
  464  67.932355 32:32:32:32:32:32 6dBm Nov 19, 2018 22:44:08.057017000 +07
  465  67.974030 32:32:32:32:32:32 5dBm Nov 19, 2018 22:44:08.098692000 +07
  466  68.289959 32:32:32:32:32:32 4dBm Nov 19, 2018 22:44:08.414621000 +07
  467  68.313654 32:32:32:32:32:32 5dBm Nov 19, 2018 22:44:08.438316000 +07
  468  68.490869 32:32:32:32:32:32 6dBm Nov 19, 2018 22:44:08.615531000 +07
  469  68.538523 32:32:32:32:32:32 7dBm Nov 19, 2018 22:44:08.663185000 +07
  470  68.584722 32:32:32:32:32:32 6dBm Nov 19, 2018 22:44:08.709384000 +07
  471  68.870493 32:32:32:32:32:32 6dBm Nov 19, 2018 22:44:08.995155000 +07
  472  69.184278 32:32:32:32:32:32 7dBm Nov 19, 2018 22:44:09.308940000 +07
  473  69.314151 32:32:32:32:32:32 7dBm Nov 19, 2018 22:44:09.438813000 +07
  474  69.376897 32:32:32:32:32:32 4dBm Nov 19, 2018 22:44:09.501559000 +07
  475  69.570052 32:32:32:32:32:32 7dBm Nov 19, 2018 22:44:09.694714000 +07
  476  69.637197 32:32:32:32:32:32 6dBm Nov 19, 2018 22:44:09.761859000 +07
  477  69.681800 32:32:32:32:32:32 6dBm Nov 19, 2018 22:44:09.806462000 +07
  478  69.762700 32:32:32:32:32:32 6dBm Nov 19, 2018 22:44:09.887362000 +07
  479  69.801403 32:32:32:32:32:32 4dBm Nov 19, 2018 22:44:09.926065000 +07
  480  69.824913 32:32:32:32:32:32 4dBm Nov 19, 2018 22:44:09.949575000 +07
  481  69.859244 32:32:32:32:32:32 4dBm Nov 19, 2018 22:44:09.983906000 +07
  482  69.933306 32:32:32:32:32:32 5dBm Nov 19, 2018 22:44:10.057968000 +07
  483  69.994469 32:32:32:32:32:32 5dBm Nov 19, 2018 22:44:10.119131000 +07
  484  70.218431 32:32:32:32:32:32 4dBm Nov 19, 2018 22:44:10.343093000 +07
  485  70.410323 32:32:32:32:32:32 7dBm Nov 19, 2018 22:44:10.534985000 +07
  486  70.419391 32:32:32:32:32:32 6dBm Nov 19, 2018 22:44:10.544053000 +07
  487  70.427508 32:32:32:32:32:32 5dBm Nov 19, 2018 22:44:10.552170000 +07
  488  70.487087 32:32:32:32:32:32 7dBm Nov 19, 2018 22:44:10.611749000 +07
  489  70.522166 32:32:32:32:32:32 4dBm Nov 19, 2018 22:44:10.646828000 +07
  490  70.785452 32:32:32:32:32:32 5dBm Nov 19, 2018 22:44:10.910114000 +07
  491  70.854230 32:32:32:32:32:32 5dBm Nov 19, 2018 22:44:10.978892000 +07
  492  70.880733 32:32:32:32:32:32 6dBm Nov 19, 2018 22:44:11.005395000 +07
  493  70.894477 32:32:32:32:32:32 6dBm Nov 19, 2018 22:44:11.019139000 +07
  494  70.956529 32:32:32:32:32:32 7dBm Nov 19, 2018 22:44:11.081191000 +07
  495  70.976672 32:32:32:32:32:32 6dBm Nov 19, 2018 22:44:11.101334000 +07
  496  71.076744 32:32:32:32:32:32 7dBm Nov 19, 2018 22:44:11.201406000 +07
  497  71.301132 32:32:32:32:32:32 5dBm Nov 19, 2018 22:44:11.425794000 +07
  498  71.454927 32:32:32:32:32:32 6dBm Nov 19, 2018 22:44:11.579589000 +07
  499  71.485758 32:32:32:32:32:32 7dBm Nov 19, 2018 22:44:11.610420000 +07
  500  71.507311 32:32:32:32:32:32 5dBm Nov 19, 2018 22:44:11.631973000 +07
  501  71.525187 32:32:32:32:32:32 7dBm Nov 19, 2018 22:44:11.649849000 +07
  502  71.585426 32:32:32:32:32:32 6dBm Nov 19, 2018 22:44:11.710088000 +07
  503  71.622144 32:32:32:32:32:32 6dBm Nov 19, 2018 22:44:11.746806000 +07
  504  71.793501 32:32:32:32:32:32 6dBm Nov 19, 2018 22:44:11.918163000 +07
  505  71.840376 32:32:32:32:32:32 6dBm Nov 19, 2018 22:44:11.965038000 +07
  506  71.933997 32:32:32:32:32:32 5dBm Nov 19, 2018 22:44:12.058659000 +07
  507  72.145672 32:32:32:32:32:32 5dBm Nov 19, 2018 22:44:12.270334000 +07
  508  72.333619 32:32:32:32:32:32 7dBm Nov 19, 2018 22:44:12.458281000 +07
  509  72.596240 32:32:32:32:32:32 6dBm Nov 19, 2018 22:44:12.720902000 +07
  510  72.761037 32:32:32:32:32:32 7dBm Nov 19, 2018 22:44:12.885699000 +07
  511  72.899930 32:32:32:32:32:32 7dBm Nov 19, 2018 22:44:13.024592000 +07
  512  73.002026 32:32:32:32:32:32 6dBm Nov 19, 2018 22:44:13.126688000 +07
  513  73.223378 32:32:32:32:32:32 6dBm Nov 19, 2018 22:44:13.348040000 +07
  514  73.285168 32:32:32:32:32:32 5dBm Nov 19, 2018 22:44:13.409830000 +07
  515  73.397736 32:32:32:32:32:32 8dBm Nov 19, 2018 22:44:13.522398000 +07
  516  73.498007 32:32:32:32:32:32 5dBm Nov 19, 2018 22:44:13.622669000 +07
  517  73.520219 32:32:32:32:32:32 5dBm Nov 19, 2018 22:44:13.644881000 +07
  518  73.592255 32:32:32:32:32:32 6dBm Nov 19, 2018 22:44:13.716917000 +07
  519  73.648962 32:32:32:32:32:32 5dBm Nov 19, 2018 22:44:13.773624000 +07
  520  73.687233 32:32:32:32:32:32 6dBm Nov 19, 2018 22:44:13.811895000 +07
  521  73.741340 32:32:32:32:32:32 7dBm Nov 19, 2018 22:44:13.866002000 +07
  522  73.761856 32:32:32:32:32:32 5dBm Nov 19, 2018 22:44:13.886518000 +07
  523  73.793692 32:32:32:32:32:32 7dBm Nov 19, 2018 22:44:13.918354000 +07
  524  73.811168 32:32:32:32:32:32 7dBm Nov 19, 2018 22:44:13.935830000 +07
  525  74.048774 32:32:32:32:32:32 5dBm Nov 19, 2018 22:44:14.173436000 +07
  526  74.100910 32:32:32:32:32:32 7dBm Nov 19, 2018 22:44:14.225572000 +07
  527  74.242045 32:32:32:32:32:32 6dBm Nov 19, 2018 22:44:14.366707000 +07
  528  74.316789 32:32:32:32:32:32 7dBm Nov 19, 2018 22:44:14.441451000 +07
  529  74.640057 32:32:32:32:32:32 7dBm Nov 19, 2018 22:44:14.764719000 +07
  530  74.717676 32:32:32:32:32:32 6dBm Nov 19, 2018 22:44:14.842338000 +07
  531  74.796080 32:32:32:32:32:32 5dBm Nov 19, 2018 22:44:14.920742000 +07
  532  74.867868 32:32:32:32:32:32 6dBm Nov 19, 2018 22:44:14.992530000 +07
  533  75.015343 32:32:32:32:32:32 6dBm Nov 19, 2018 22:44:15.140005000 +07
  534  75.547451 32:32:32:32:32:32 6dBm Nov 19, 2018 22:44:15.672113000 +07
  535  75.701102 32:32:32:32:32:32 7dBm Nov 19, 2018 22:44:15.825764000 +07
  536  76.035772 32:32:32:32:32:32 6dBm Nov 19, 2018 22:44:16.160434000 +07
  537  76.088256 32:32:32:32:32:32 6dBm Nov 19, 2018 22:44:16.212918000 +07
  538  76.120305 32:32:32:32:32:32 6dBm Nov 19, 2018 22:44:16.244967000 +07
  539  76.323227 32:32:32:32:32:32 7dBm Nov 19, 2018 22:44:16.447889000 +07
  540  76.327814 32:32:32:32:32:32 7dBm Nov 19, 2018 22:44:16.452476000 +07
  541  76.407876 32:32:32:32:32:32 5dBm Nov 19, 2018 22:44:16.532538000 +07
  542  76.503044 32:32:32:32:32:32 8dBm Nov 19, 2018 22:44:16.627706000 +07
  543  76.594769 32:32:32:32:32:32 7dBm Nov 19, 2018 22:44:16.719431000 +07
  544  76.631932 32:32:32:32:32:32 7dBm Nov 19, 2018 22:44:16.756594000 +07
  545  76.649201 32:32:32:32:32:32 2dBm Nov 19, 2018 22:44:16.773863000 +07
  546  76.730776 32:32:32:32:32:32 6dBm Nov 19, 2018 22:44:16.855438000 +07
  547  76.798795 32:32:32:32:32:32 7dBm Nov 19, 2018 22:44:16.923457000 +07
  548  76.810280 32:32:32:32:32:32 4dBm Nov 19, 2018 22:44:16.934942000 +07
  549  76.836911 32:32:32:32:32:32 7dBm Nov 19, 2018 22:44:16.961573000 +07
  550  76.916035 32:32:32:32:32:32 5dBm Nov 19, 2018 22:44:17.040697000 +07
  551  76.943810 32:32:32:32:32:32 5dBm Nov 19, 2018 22:44:17.068472000 +07
  552  76.955392 32:32:32:32:32:32 6dBm Nov 19, 2018 22:44:17.080054000 +07
  553  76.984388 32:32:32:32:32:32 5dBm Nov 19, 2018 22:44:17.109050000 +07
  554  77.019926 32:32:32:32:32:32 6dBm Nov 19, 2018 22:44:17.144588000 +07
  555  77.096698 32:32:32:32:32:32 4dBm Nov 19, 2018 22:44:17.221360000 +07
  556  77.402337 32:32:32:32:32:32 4dBm Nov 19, 2018 22:44:17.526999000 +07
  557  77.479658 32:32:32:32:32:32 7dBm Nov 19, 2018 22:44:17.604320000 +07
  558  77.542918 32:32:32:32:32:32 6dBm Nov 19, 2018 22:44:17.667580000 +07
  559  77.569691 32:32:32:32:32:32 6dBm Nov 19, 2018 22:44:17.694353000 +07
  560  77.853302 32:32:32:32:32:32 6dBm Nov 19, 2018 22:44:17.977964000 +07
  561  77.993643 32:32:32:32:32:32 7dBm Nov 19, 2018 22:44:18.118305000 +07
  562  78.606414 32:32:32:32:32:32 5dBm Nov 19, 2018 22:44:18.731076000 +07
  563  78.664721 32:32:32:32:32:32 6dBm Nov 19, 2018 22:44:18.789383000 +07
  564  78.688120 32:32:32:32:32:32 6dBm Nov 19, 2018 22:44:18.812782000 +07
  565  78.802370 32:32:32:32:32:32 8dBm Nov 19, 2018 22:44:18.927032000 +07
  566  78.901637 32:32:32:32:32:32 5dBm Nov 19, 2018 22:44:19.026299000 +07
  567  79.019019 32:32:32:32:32:32 4dBm Nov 19, 2018 22:44:19.143681000 +07
  568  79.077968 32:32:32:32:32:32 7dBm Nov 19, 2018 22:44:19.202630000 +07
  569  79.101580 32:32:32:32:32:32 2dBm Nov 19, 2018 22:44:19.226242000 +07
  570  79.336083 32:32:32:32:32:32 3dBm Nov 19, 2018 22:44:19.460745000 +07
  571  79.357899 32:32:32:32:32:32 6dBm Nov 19, 2018 22:44:19.482561000 +07
  572  79.413335 32:32:32:32:32:32 7dBm Nov 19, 2018 22:44:19.537997000 +07
  573  79.496863 32:32:32:32:32:32 6dBm Nov 19, 2018 22:44:19.621525000 +07
  574  79.500700 32:32:32:32:32:32 5dBm Nov 19, 2018 22:44:19.625362000 +07
  575  79.777434 32:32:32:32:32:32 7dBm Nov 19, 2018 22:44:19.902096000 +07
  576  79.793976 32:32:32:32:32:32 6dBm Nov 19, 2018 22:44:19.918638000 +07
  577  79.981532 32:32:32:32:32:32 6dBm Nov 19, 2018 22:44:20.106194000 +07
  578  80.004978 32:32:32:32:32:32 8dBm Nov 19, 2018 22:44:20.129640000 +07
  579  80.052793 32:32:32:32:32:32 7dBm Nov 19, 2018 22:44:20.177455000 +07
  580  80.082244 32:32:32:32:32:32 8dBm Nov 19, 2018 22:44:20.206906000 +07
  581  80.144482 32:32:32:32:32:32 7dBm Nov 19, 2018 22:44:20.269144000 +07
  582  80.227672 32:32:32:32:32:32 7dBm Nov 19, 2018 22:44:20.352334000 +07
  583  80.386340 32:32:32:32:32:32 6dBm Nov 19, 2018 22:44:20.511002000 +07
  584  80.403256 32:32:32:32:32:32 4dBm Nov 19, 2018 22:44:20.527918000 +07
  585  80.474353 32:32:32:32:32:32 5dBm Nov 19, 2018 22:44:20.599015000 +07
  586  80.535670 32:32:32:32:32:32 5dBm Nov 19, 2018 22:44:20.660332000 +07
  587  80.655595 32:32:32:32:32:32 6dBm Nov 19, 2018 22:44:20.780257000 +07
  588  80.678640 32:32:32:32:32:32 6dBm Nov 19, 2018 22:44:20.803302000 +07
  589  80.691803 32:32:32:32:32:32 2dBm Nov 19, 2018 22:44:20.816465000 +07
  590  80.700713 32:32:32:32:32:32 6dBm Nov 19, 2018 22:44:20.825375000 +07
  591  80.748821 32:32:32:32:32:32 7dBm Nov 19, 2018 22:44:20.873483000 +07
  592  81.144084 32:32:32:32:32:32 5dBm Nov 19, 2018 22:44:21.268746000 +07
  593  81.420260 32:32:32:32:32:32 4dBm Nov 19, 2018 22:44:21.544922000 +07
  594  81.495565 32:32:32:32:32:32 5dBm Nov 19, 2018 22:44:21.620227000 +07
  595  81.554492 32:32:32:32:32:32 7dBm Nov 19, 2018 22:44:21.679154000 +07
  596  81.598869 32:32:32:32:32:32 8dBm Nov 19, 2018 22:44:21.723531000 +07
  597  81.648494 32:32:32:32:32:32 7dBm Nov 19, 2018 22:44:21.773156000 +07
  598  81.724780 32:32:32:32:32:32 6dBm Nov 19, 2018 22:44:21.849442000 +07
  599  81.747938 32:32:32:32:32:32 6dBm Nov 19, 2018 22:44:21.872600000 +07
  600  81.811805 32:32:32:32:32:32 5dBm Nov 19, 2018 22:44:21.936467000 +07
  601  82.165257 32:32:32:32:32:32 8dBm Nov 19, 2018 22:44:22.289919000 +07
  602  82.327445 32:32:32:32:32:32 5dBm Nov 19, 2018 22:44:22.452107000 +07
  603  82.406073 32:32:32:32:32:32 6dBm Nov 19, 2018 22:44:22.530735000 +07
  604  82.542605 32:32:32:32:32:32 3dBm Nov 19, 2018 22:44:22.667267000 +07
  605  82.664728 32:32:32:32:32:32 5dBm Nov 19, 2018 22:44:22.789390000 +07
  606  82.783321 32:32:32:32:32:32 6dBm Nov 19, 2018 22:44:22.907983000 +07
  607  82.843387 32:32:32:32:32:32 6dBm Nov 19, 2018 22:44:22.968049000 +07
  608  82.865180 32:32:32:32:32:32 7dBm Nov 19, 2018 22:44:22.989842000 +07
  609  82.984213 32:32:32:32:32:32 8dBm Nov 19, 2018 22:44:23.108875000 +07
  610  83.081222 32:32:32:32:32:32 5dBm Nov 19, 2018 22:44:23.205884000 +07
  611  83.317965 32:32:32:32:32:32 6dBm Nov 19, 2018 22:44:23.442627000 +07
  612  83.431266 32:32:32:32:32:32 7dBm Nov 19, 2018 22:44:23.555928000 +07
  613  83.491921 32:32:32:32:32:32 6dBm Nov 19, 2018 22:44:23.616583000 +07
  614  83.611028 32:32:32:32:32:32 6dBm Nov 19, 2018 22:44:23.735690000 +07
  615  83.877248 32:32:32:32:32:32 6dBm Nov 19, 2018 22:44:24.001910000 +07
  616  84.182176 32:32:32:32:32:32 5dBm Nov 19, 2018 22:44:24.306838000 +07
  617  84.234521 32:32:32:32:32:32 7dBm Nov 19, 2018 22:44:24.359183000 +07
  618  84.298812 32:32:32:32:32:32 8dBm Nov 19, 2018 22:44:24.423474000 +07
  619  84.318910 32:32:32:32:32:32 8dBm Nov 19, 2018 22:44:24.443572000 +07
  620  84.575266 32:32:32:32:32:32 6dBm Nov 19, 2018 22:44:24.699928000 +07
  621  84.735705 32:32:32:32:32:32 3dBm Nov 19, 2018 22:44:24.860367000 +07
  622  84.851982 32:32:32:32:32:32 5dBm Nov 19, 2018 22:44:24.976644000 +07
  623  84.868450 32:32:32:32:32:32 8dBm Nov 19, 2018 22:44:24.993112000 +07
  624  84.878459 32:32:32:32:32:32 5dBm Nov 19, 2018 22:44:25.003121000 +07
  625  85.645575 32:32:32:32:32:32 4dBm Nov 19, 2018 22:44:25.770237000 +07
  626  86.138989 32:32:32:32:32:32 6dBm Nov 19, 2018 22:44:26.263651000 +07
  627  86.821822 32:32:32:32:32:32 7dBm Nov 19, 2018 22:44:26.946484000 +07
  628  86.937308 32:32:32:32:32:32 5dBm Nov 19, 2018 22:44:27.061970000 +07
  629  87.137049 32:32:32:32:32:32 6dBm Nov 19, 2018 22:44:27.261711000 +07
  630  87.283132 32:32:32:32:32:32 6dBm Nov 19, 2018 22:44:27.407794000 +07
  631  87.488817 32:32:32:32:32:32 4dBm Nov 19, 2018 22:44:27.613479000 +07
  632  87.677053 32:32:32:32:32:32 6dBm Nov 19, 2018 22:44:27.801715000 +07
  633  87.946100 32:32:32:32:32:32 8dBm Nov 19, 2018 22:44:28.070762000 +07
  634  88.029832 32:32:32:32:32:32 7dBm Nov 19, 2018 22:44:28.154494000 +07
  635  88.073597 32:32:32:32:32:32 6dBm Nov 19, 2018 22:44:28.198259000 +07
  636  88.204450 32:32:32:32:32:32 6dBm Nov 19, 2018 22:44:28.329112000 +07
  637  88.416770 32:32:32:32:32:32 5dBm Nov 19, 2018 22:44:28.541432000 +07
  638  88.530821 32:32:32:32:32:32 6dBm Nov 19, 2018 22:44:28.655483000 +07
  639  88.674796 32:32:32:32:32:32 4dBm Nov 19, 2018 22:44:28.799458000 +07
  640  88.706070 32:32:32:32:32:32 6dBm Nov 19, 2018 22:44:28.830732000 +07
  641  88.756513 32:32:32:32:32:32 6dBm Nov 19, 2018 22:44:28.881175000 +07
  642  88.797713 32:32:32:32:32:32 5dBm Nov 19, 2018 22:44:28.922375000 +07
  643  89.076078 32:32:32:32:32:32 5dBm Nov 19, 2018 22:44:29.200740000 +07
  644  89.283495 32:32:32:32:32:32 6dBm Nov 19, 2018 22:44:29.408157000 +07
  645  89.437074 32:32:32:32:32:32 2dBm Nov 19, 2018 22:44:29.561736000 +07
  646  89.736104 32:32:32:32:32:32 5dBm Nov 19, 2018 22:44:29.860766000 +07
  647  89.765031 32:32:32:32:32:32 6dBm Nov 19, 2018 22:44:29.889693000 +07
  648  90.001609 32:32:32:32:32:32 6dBm Nov 19, 2018 22:44:30.126271000 +07
  649  90.119008 32:32:32:32:32:32 5dBm Nov 19, 2018 22:44:30.243670000 +07
  650  90.253895 32:32:32:32:32:32 7dBm Nov 19, 2018 22:44:30.378557000 +07
  651  90.435303 32:32:32:32:32:32 6dBm Nov 19, 2018 22:44:30.559965000 +07
  652  90.458606 32:32:32:32:32:32 5dBm Nov 19, 2018 22:44:30.583268000 +07
  653  90.490988 32:32:32:32:32:32 5dBm Nov 19, 2018 22:44:30.615650000 +07
  654  90.504035 32:32:32:32:32:32 7dBm Nov 19, 2018 22:44:30.628697000 +07
  655  90.594552 32:32:32:32:32:32 5dBm Nov 19, 2018 22:44:30.719214000 +07
  656  90.719231 32:32:32:32:32:32 7dBm Nov 19, 2018 22:44:30.843893000 +07
  657  90.768882 32:32:32:32:32:32 5dBm Nov 19, 2018 22:44:30.893544000 +07
  658  90.825243 32:32:32:32:32:32 8dBm Nov 19, 2018 22:44:30.949905000 +07
  659  90.931375 32:32:32:32:32:32 6dBm Nov 19, 2018 22:44:31.056037000 +07
  660  91.006291 32:32:32:32:32:32 6dBm Nov 19, 2018 22:44:31.130953000 +07
  661  91.032680 32:32:32:32:32:32 4dBm Nov 19, 2018 22:44:31.157342000 +07
  662  91.068676 32:32:32:32:32:32 5dBm Nov 19, 2018 22:44:31.193338000 +07
  663  91.184059 32:32:32:32:32:32 7dBm Nov 19, 2018 22:44:31.308721000 +07
  664  91.223955 32:32:32:32:32:32 6dBm Nov 19, 2018 22:44:31.348617000 +07
  665  91.336567 32:32:32:32:32:32 5dBm Nov 19, 2018 22:44:31.461229000 +07
  666  91.362857 32:32:32:32:32:32 5dBm Nov 19, 2018 22:44:31.487519000 +07
  667  91.510191 32:32:32:32:32:32 5dBm Nov 19, 2018 22:44:31.634853000 +07
  668  91.684464 32:32:32:32:32:32 3dBm Nov 19, 2018 22:44:31.809126000 +07
  669  91.738795 32:32:32:32:32:32 6dBm Nov 19, 2018 22:44:31.863457000 +07
  670  91.819407 32:32:32:32:32:32 5dBm Nov 19, 2018 22:44:31.944069000 +07
  671  91.896062 32:32:32:32:32:32 6dBm Nov 19, 2018 22:44:32.020724000 +07
  672  92.178207 32:32:32:32:32:32 6dBm Nov 19, 2018 22:44:32.302869000 +07
  673  92.237859 32:32:32:32:32:32 6dBm Nov 19, 2018 22:44:32.362521000 +07
  674  92.254716 32:32:32:32:32:32 4dBm Nov 19, 2018 22:44:32.379378000 +07
  675  92.273901 32:32:32:32:32:32 7dBm Nov 19, 2018 22:44:32.398563000 +07
  676  92.300781 32:32:32:32:32:32 5dBm Nov 19, 2018 22:44:32.425443000 +07
  677  92.339753 32:32:32:32:32:32 6dBm Nov 19, 2018 22:44:32.464415000 +07
  678  92.511316 32:32:32:32:32:32 7dBm Nov 19, 2018 22:44:32.635978000 +07
  679  92.684591 32:32:32:32:32:32 6dBm Nov 19, 2018 22:44:32.809253000 +07
  680  92.982621 32:32:32:32:32:32 3dBm Nov 19, 2018 22:44:33.107283000 +07
  681  93.046678 32:32:32:32:32:32 5dBm Nov 19, 2018 22:44:33.171340000 +07
  682  93.108324 32:32:32:32:32:32 6dBm Nov 19, 2018 22:44:33.232986000 +07
  683  93.135537 32:32:32:32:32:32 5dBm Nov 19, 2018 22:44:33.260199000 +07
  684  93.204962 32:32:32:32:32:32 7dBm Nov 19, 2018 22:44:33.329624000 +07
  685  93.253299 32:32:32:32:32:32 8dBm Nov 19, 2018 22:44:33.377961000 +07
  686  93.283579 32:32:32:32:32:32 6dBm Nov 19, 2018 22:44:33.408241000 +07
  687  93.331362 32:32:32:32:32:32 6dBm Nov 19, 2018 22:44:33.456024000 +07
  688  93.410844 32:32:32:32:32:32 7dBm Nov 19, 2018 22:44:33.535506000 +07
  689  93.477456 32:32:32:32:32:32 6dBm Nov 19, 2018 22:44:33.602118000 +07
  690  93.495978 32:32:32:32:32:32 7dBm Nov 19, 2018 22:44:33.620640000 +07
  691  93.563778 32:32:32:32:32:32 4dBm Nov 19, 2018 22:44:33.688440000 +07
  692  93.689696 32:32:32:32:32:32 8dBm Nov 19, 2018 22:44:33.814358000 +07
  693  93.854943 32:32:32:32:32:32 5dBm Nov 19, 2018 22:44:33.979605000 +07
  694  93.874425 32:32:32:32:32:32 7dBm Nov 19, 2018 22:44:33.999087000 +07
  695  94.089994 32:32:32:32:32:32 6dBm Nov 19, 2018 22:44:34.214656000 +07
  696  94.146533 32:32:32:32:32:32 6dBm Nov 19, 2018 22:44:34.271195000 +07
  697  94.172813 32:32:32:32:32:32 6dBm Nov 19, 2018 22:44:34.297475000 +07
  698  94.287286 32:32:32:32:32:32 5dBm Nov 19, 2018 22:44:34.411948000 +07
  699  94.383688 32:32:32:32:32:32 6dBm Nov 19, 2018 22:44:34.508350000 +07
  700  94.405141 32:32:32:32:32:32 7dBm Nov 19, 2018 22:44:34.529803000 +07
  701  94.581124 32:32:32:32:32:32 6dBm Nov 19, 2018 22:44:34.705786000 +07
  702  94.592795 32:32:32:32:32:32 5dBm Nov 19, 2018 22:44:34.717457000 +07
  703  94.806964 32:32:32:32:32:32 7dBm Nov 19, 2018 22:44:34.931626000 +07
  704  94.838876 32:32:32:32:32:32 7dBm Nov 19, 2018 22:44:34.963538000 +07
  705  94.856078 32:32:32:32:32:32 5dBm Nov 19, 2018 22:44:34.980740000 +07
  706  94.937877 32:32:32:32:32:32 7dBm Nov 19, 2018 22:44:35.062539000 +07
  707  95.131177 32:32:32:32:32:32 6dBm Nov 19, 2018 22:44:35.255839000 +07
  708  95.247459 32:32:32:32:32:32 8dBm Nov 19, 2018 22:44:35.372121000 +07
  709  95.517484 32:32:32:32:32:32 6dBm Nov 19, 2018 22:44:35.642146000 +07
  710  95.531976 32:32:32:32:32:32 6dBm Nov 19, 2018 22:44:35.656638000 +07
  711  95.586913 32:32:32:32:32:32 5dBm Nov 19, 2018 22:44:35.711575000 +07
  712  95.653721 32:32:32:32:32:32 5dBm Nov 19, 2018 22:44:35.778383000 +07
  713  95.668300 32:32:32:32:32:32 7dBm Nov 19, 2018 22:44:35.792962000 +07
  714  95.752536 32:32:32:32:32:32 7dBm Nov 19, 2018 22:44:35.877198000 +07
  715  95.787861 32:32:32:32:32:32 4dBm Nov 19, 2018 22:44:35.912523000 +07
  716  95.820354 32:32:32:32:32:32 6dBm Nov 19, 2018 22:44:35.945016000 +07
  717  95.836724 32:32:32:32:32:32 6dBm Nov 19, 2018 22:44:35.961386000 +07
  718  95.892529 32:32:32:32:32:32 5dBm Nov 19, 2018 22:44:36.017191000 +07
  719  96.035242 32:32:32:32:32:32 6dBm Nov 19, 2018 22:44:36.159904000 +07
  720  96.073080 32:32:32:32:32:32 6dBm Nov 19, 2018 22:44:36.197742000 +07
  721  96.199466 32:32:32:32:32:32 6dBm Nov 19, 2018 22:44:36.324128000 +07
  722  96.400132 32:32:32:32:32:32 6dBm Nov 19, 2018 22:44:36.524794000 +07
  723  96.720366 32:32:32:32:32:32 7dBm Nov 19, 2018 22:44:36.845028000 +07
  724  97.028476 32:32:32:32:32:32 5dBm Nov 19, 2018 22:44:37.153138000 +07
  725  97.286303 32:32:32:32:32:32 8dBm Nov 19, 2018 22:44:37.410965000 +07
  726  97.481583 32:32:32:32:32:32 4dBm Nov 19, 2018 22:44:37.606245000 +07
  727  97.518818 32:32:32:32:32:32 2dBm Nov 19, 2018 22:44:37.643480000 +07
  728  97.751266 32:32:32:32:32:32 7dBm Nov 19, 2018 22:44:37.875928000 +07
  729  97.799513 32:32:32:32:32:32 6dBm Nov 19, 2018 22:44:37.924175000 +07
  730  97.918865 32:32:32:32:32:32 4dBm Nov 19, 2018 22:44:38.043527000 +07
  731  97.941571 32:32:32:32:32:32 6dBm Nov 19, 2018 22:44:38.066233000 +07
  732  98.001257 32:32:32:32:32:32 5dBm Nov 19, 2018 22:44:38.125919000 +07
  733  98.034330 32:32:32:32:32:32 7dBm Nov 19, 2018 22:44:38.158992000 +07
  734  98.064207 32:32:32:32:32:32 5dBm Nov 19, 2018 22:44:38.188869000 +07
  735  98.193174 32:32:32:32:32:32 7dBm Nov 19, 2018 22:44:38.317836000 +07
  736  98.262032 32:32:32:32:32:32 4dBm Nov 19, 2018 22:44:38.386694000 +07
  737  98.297647 32:32:32:32:32:32 6dBm Nov 19, 2018 22:44:38.422309000 +07
  738  99.153626 32:32:32:32:32:32 6dBm Nov 19, 2018 22:44:39.278288000 +07
  739  99.187492 32:32:32:32:32:32 5dBm Nov 19, 2018 22:44:39.312154000 +07
  740  99.266509 32:32:32:32:32:32 5dBm Nov 19, 2018 22:44:39.391171000 +07
  741  99.310078 32:32:32:32:32:32 5dBm Nov 19, 2018 22:44:39.434740000 +07
  742  99.775225 32:32:32:32:32:32 5dBm Nov 19, 2018 22:44:39.899887000 +07
  743  99.825596 32:32:32:32:32:32 6dBm Nov 19, 2018 22:44:39.950258000 +07
  744  99.895655 32:32:32:32:32:32 3dBm Nov 19, 2018 22:44:40.020317000 +07
  745  99.932142 32:32:32:32:32:32 4dBm Nov 19, 2018 22:44:40.056804000 +07
  746 100.116963 32:32:32:32:32:32 4dBm Nov 19, 2018 22:44:40.241625000 +07
  747 100.167291 32:32:32:32:32:32 5dBm Nov 19, 2018 22:44:40.291953000 +07
  748 100.296626 32:32:32:32:32:32 6dBm Nov 19, 2018 22:44:40.421288000 +07
  749 100.357643 32:32:32:32:32:32 4dBm Nov 19, 2018 22:44:40.482305000 +07
  750 100.559413 32:32:32:32:32:32 5dBm Nov 19, 2018 22:44:40.684075000 +07
  751 100.600935 32:32:32:32:32:32 6dBm Nov 19, 2018 22:44:40.725597000 +07
  752 100.643205 32:32:32:32:32:32 6dBm Nov 19, 2018 22:44:40.767867000 +07
  753 100.662036 32:32:32:32:32:32 8dBm Nov 19, 2018 22:44:40.786698000 +07
  754 100.730514 32:32:32:32:32:32 6dBm Nov 19, 2018 22:44:40.855176000 +07
  755 100.905017 32:32:32:32:32:32 7dBm Nov 19, 2018 22:44:41.029679000 +07
  756 100.918024 32:32:32:32:32:32 6dBm Nov 19, 2018 22:44:41.042686000 +07
  757 100.979423 32:32:32:32:32:32 5dBm Nov 19, 2018 22:44:41.104085000 +07
  758 101.095514 32:32:32:32:32:32 6dBm Nov 19, 2018 22:44:41.220176000 +07
  759 101.306560 32:32:32:32:32:32 6dBm Nov 19, 2018 22:44:41.431222000 +07
  760 101.357797 32:32:32:32:32:32 5dBm Nov 19, 2018 22:44:41.482459000 +07
  761 101.505810 32:32:32:32:32:32 6dBm Nov 19, 2018 22:44:41.630472000 +07
  762 101.530439 32:32:32:32:32:32 8dBm Nov 19, 2018 22:44:41.655101000 +07
  763 101.551425 32:32:32:32:32:32 6dBm Nov 19, 2018 22:44:41.676087000 +07
  764 101.696979 32:32:32:32:32:32 6dBm Nov 19, 2018 22:44:41.821641000 +07
  765 101.712523 32:32:32:32:32:32 6dBm Nov 19, 2018 22:44:41.837185000 +07
  766 101.734111 32:32:32:32:32:32 4dBm Nov 19, 2018 22:44:41.858773000 +07
  767 101.799543 32:32:32:32:32:32 4dBm Nov 19, 2018 22:44:41.924205000 +07
  768 101.936027 32:32:32:32:32:32 6dBm Nov 19, 2018 22:44:42.060689000 +07
  769 102.211102 32:32:32:32:32:32 8dBm Nov 19, 2018 22:44:42.335764000 +07
  770 102.279910 32:32:32:32:32:32 6dBm Nov 19, 2018 22:44:42.404572000 +07
  771 102.300913 32:32:32:32:32:32 5dBm Nov 19, 2018 22:44:42.425575000 +07
  772 102.452003 32:32:32:32:32:32 6dBm Nov 19, 2018 22:44:42.576665000 +07
  773 102.486087 32:32:32:32:32:32 7dBm Nov 19, 2018 22:44:42.610749000 +07
  774 102.644967 32:32:32:32:32:32 6dBm Nov 19, 2018 22:44:42.769629000 +07
  775 102.731365 32:32:32:32:32:32 5dBm Nov 19, 2018 22:44:42.856027000 +07
  776 102.835393 32:32:32:32:32:32 3dBm Nov 19, 2018 22:44:42.960055000 +07
  777 103.482200 32:32:32:32:32:32 1dBm Nov 19, 2018 22:44:43.606862000 +07
  778 103.687544 32:32:32:32:32:32 6dBm Nov 19, 2018 22:44:43.812206000 +07
  779 103.722194 32:32:32:32:32:32 7dBm Nov 19, 2018 22:44:43.846856000 +07
  780 103.746634 32:32:32:32:32:32 6dBm Nov 19, 2018 22:44:43.871296000 +07
  781 103.752810 32:32:32:32:32:32 4dBm Nov 19, 2018 22:44:43.877472000 +07
  782 103.991095 32:32:32:32:32:32 7dBm Nov 19, 2018 22:44:44.115757000 +07
  783 104.096995 32:32:32:32:32:32 5dBm Nov 19, 2018 22:44:44.221657000 +07
  784 104.444115 32:32:32:32:32:32 6dBm Nov 19, 2018 22:44:44.568777000 +07
  785 104.600753 32:32:32:32:32:32 5dBm Nov 19, 2018 22:44:44.725415000 +07
  786 104.714568 32:32:32:32:32:32 6dBm Nov 19, 2018 22:44:44.839230000 +07
  787 105.323432 32:32:32:32:32:32 5dBm Nov 19, 2018 22:44:45.448094000 +07
  788 105.392793 32:32:32:32:32:32 4dBm Nov 19, 2018 22:44:45.517455000 +07
  789 105.656645 32:32:32:32:32:32 5dBm Nov 19, 2018 22:44:45.781307000 +07
  790 105.746473 32:32:32:32:32:32 6dBm Nov 19, 2018 22:44:45.871135000 +07
  791 105.904481 32:32:32:32:32:32 6dBm Nov 19, 2018 22:44:46.029143000 +07
  792 106.090619 32:32:32:32:32:32 5dBm Nov 19, 2018 22:44:46.215281000 +07
  793 106.129439 32:32:32:32:32:32 7dBm Nov 19, 2018 22:44:46.254101000 +07
  794 106.158178 32:32:32:32:32:32 5dBm Nov 19, 2018 22:44:46.282840000 +07
  795 106.346471 32:32:32:32:32:32 5dBm Nov 19, 2018 22:44:46.471133000 +07
  796 106.466624 32:32:32:32:32:32 4dBm Nov 19, 2018 22:44:46.591286000 +07
  797 106.670844 32:32:32:32:32:32 5dBm Nov 19, 2018 22:44:46.795506000 +07
  798 106.722045 32:32:32:32:32:32 7dBm Nov 19, 2018 22:44:46.846707000 +07
  799 107.044883 32:32:32:32:32:32 6dBm Nov 19, 2018 22:44:47.169545000 +07
  800 107.346380 32:32:32:32:32:32 6dBm Nov 19, 2018 22:44:47.471042000 +07
  801 107.520423 32:32:32:32:32:32 7dBm Nov 19, 2018 22:44:47.645085000 +07
  802 107.591609 32:32:32:32:32:32 4dBm Nov 19, 2018 22:44:47.716271000 +07
  803 108.123006 32:32:32:32:32:32 6dBm Nov 19, 2018 22:44:48.247668000 +07
  804 108.240242 32:32:32:32:32:32 5dBm Nov 19, 2018 22:44:48.364904000 +07
  805 108.636259 32:32:32:32:32:32 5dBm Nov 19, 2018 22:44:48.760921000 +07
  806 108.660697 32:32:32:32:32:32 6dBm Nov 19, 2018 22:44:48.785359000 +07
  807 108.723020 32:32:32:32:32:32 6dBm Nov 19, 2018 22:44:48.847682000 +07
  808 108.887351 32:32:32:32:32:32 4dBm Nov 19, 2018 22:44:49.012013000 +07
  809 108.955996 32:32:32:32:32:32 8dBm Nov 19, 2018 22:44:49.080658000 +07
  810 109.140182 32:32:32:32:32:32 5dBm Nov 19, 2018 22:44:49.264844000 +07
  811 109.393685 32:32:32:32:32:32 5dBm Nov 19, 2018 22:44:49.518347000 +07
  812 109.458157 32:32:32:32:32:32 5dBm Nov 19, 2018 22:44:49.582819000 +07
  813 109.743863 32:32:32:32:32:32 6dBm Nov 19, 2018 22:44:49.868525000 +07
  814 109.999116 32:32:32:32:32:32 5dBm Nov 19, 2018 22:44:50.123778000 +07
  815 110.011931 32:32:32:32:32:32 7dBm Nov 19, 2018 22:44:50.136593000 +07
  816 110.065327 32:32:32:32:32:32 5dBm Nov 19, 2018 22:44:50.189989000 +07
  817 110.121714 32:32:32:32:32:32 6dBm Nov 19, 2018 22:44:50.246376000 +07
  818 110.229785 32:32:32:32:32:32 6dBm Nov 19, 2018 22:44:50.354447000 +07
  819 110.357692 32:32:32:32:32:32 4dBm Nov 19, 2018 22:44:50.482354000 +07
  820 110.423014 32:32:32:32:32:32 4dBm Nov 19, 2018 22:44:50.547676000 +07
  821 110.564577 32:32:32:32:32:32 6dBm Nov 19, 2018 22:44:50.689239000 +07
  822 110.776323 32:32:32:32:32:32 5dBm Nov 19, 2018 22:44:50.900985000 +07
  823 110.802754 32:32:32:32:32:32 6dBm Nov 19, 2018 22:44:50.927416000 +07
  824 110.840124 32:32:32:32:32:32 6dBm Nov 19, 2018 22:44:50.964786000 +07
  825 111.083837 32:32:32:32:32:32 6dBm Nov 19, 2018 22:44:51.208499000 +07
  826 111.241389 32:32:32:32:32:32 5dBm Nov 19, 2018 22:44:51.366051000 +07
  827 111.329114 32:32:32:32:32:32 7dBm Nov 19, 2018 22:44:51.453776000 +07
  828 111.363977 32:32:32:32:32:32 6dBm Nov 19, 2018 22:44:51.488639000 +07
  829 111.582426 32:32:32:32:32:32 5dBm Nov 19, 2018 22:44:51.707088000 +07
  830 111.720690 32:32:32:32:32:32 5dBm Nov 19, 2018 22:44:51.845352000 +07
  831 112.078818 32:32:32:32:32:32 7dBm Nov 19, 2018 22:44:52.203480000 +07
  832 112.185110 32:32:32:32:32:32 7dBm Nov 19, 2018 22:44:52.309772000 +07
  833 112.508394 32:32:32:32:32:32 2dBm Nov 19, 2018 22:44:52.633056000 +07
  834 113.024700 32:32:32:32:32:32 1dBm Nov 19, 2018 22:44:53.149362000 +07
  835 113.064388 32:32:32:32:32:32 4dBm Nov 19, 2018 22:44:53.189050000 +07
  836 113.102418 32:32:32:32:32:32 4dBm Nov 19, 2018 22:44:53.227080000 +07
  837 113.313887 32:32:32:32:32:32 5dBm Nov 19, 2018 22:44:53.438549000 +07
  838 113.432645 32:32:32:32:32:32 4dBm Nov 19, 2018 22:44:53.557307000 +07
  839 113.706452 32:32:32:32:32:32 6dBm Nov 19, 2018 22:44:53.831114000 +07
  840 113.766457 32:32:32:32:32:32 5dBm Nov 19, 2018 22:44:53.891119000 +07
  841 113.858121 32:32:32:32:32:32 6dBm Nov 19, 2018 22:44:53.982783000 +07
  842 113.941600 32:32:32:32:32:32 6dBm Nov 19, 2018 22:44:54.066262000 +07
  843 113.983197 32:32:32:32:32:32 4dBm Nov 19, 2018 22:44:54.107859000 +07
  844 114.017891 32:32:32:32:32:32 5dBm Nov 19, 2018 22:44:54.142553000 +07
  845 114.493612 32:32:32:32:32:32 5dBm Nov 19, 2018 22:44:54.618274000 +07
  846 114.669541 32:32:32:32:32:32 5dBm Nov 19, 2018 22:44:54.794203000 +07
  847 114.941372 32:32:32:32:32:32 6dBm Nov 19, 2018 22:44:55.066034000 +07
  848 114.969152 32:32:32:32:32:32 5dBm Nov 19, 2018 22:44:55.093814000 +07
  849 115.000949 32:32:32:32:32:32 5dBm Nov 19, 2018 22:44:55.125611000 +07
  850 115.031339 32:32:32:32:32:32 5dBm Nov 19, 2018 22:44:55.156001000 +07
  851 115.066304 32:32:32:32:32:32 6dBm Nov 19, 2018 22:44:55.190966000 +07
  852 115.181465 32:32:32:32:32:32 5dBm Nov 19, 2018 22:44:55.306127000 +07
  853 115.275568 32:32:32:32:32:32 6dBm Nov 19, 2018 22:44:55.400230000 +07
  854 115.303863 32:32:32:32:32:32 6dBm Nov 19, 2018 22:44:55.428525000 +07
  855 115.411814 32:32:32:32:32:32 5dBm Nov 19, 2018 22:44:55.536476000 +07
  856 115.551127 32:32:32:32:32:32 5dBm Nov 19, 2018 22:44:55.675789000 +07
  857 115.928678 32:32:32:32:32:32 4dBm Nov 19, 2018 22:44:56.053340000 +07
  858 116.025449 32:32:32:32:32:32 6dBm Nov 19, 2018 22:44:56.150111000 +07
  859 116.511516 32:32:32:32:32:32 6dBm Nov 19, 2018 22:44:56.636178000 +07
  860 116.694404 32:32:32:32:32:32 5dBm Nov 19, 2018 22:44:56.819066000 +07
  861 116.715892 32:32:32:32:32:32 4dBm Nov 19, 2018 22:44:56.840554000 +07
  862 117.080055 32:32:32:32:32:32 6dBm Nov 19, 2018 22:44:57.204717000 +07
  863 117.155702 32:32:32:32:32:32 7dBm Nov 19, 2018 22:44:57.280364000 +07
  864 117.260529 32:32:32:32:32:32 5dBm Nov 19, 2018 22:44:57.385191000 +07
  865 117.462252 32:32:32:32:32:32 4dBm Nov 19, 2018 22:44:57.586914000 +07
  866 117.487302 32:32:32:32:32:32 6dBm Nov 19, 2018 22:44:57.611964000 +07
  867 117.507932 32:32:32:32:32:32 6dBm Nov 19, 2018 22:44:57.632594000 +07
  868 117.966282 32:32:32:32:32:32 6dBm Nov 19, 2018 22:44:58.090944000 +07
  869 118.092959 32:32:32:32:32:32 5dBm Nov 19, 2018 22:44:58.217621000 +07
  870 118.711831 32:32:32:32:32:32 6dBm Nov 19, 2018 22:44:58.836493000 +07
  871 119.050403 32:32:32:32:32:32 6dBm Nov 19, 2018 22:44:59.175065000 +07
  872 119.284612 32:32:32:32:32:32 5dBm Nov 19, 2018 22:44:59.409274000 +07
  873 119.311590 32:32:32:32:32:32 5dBm Nov 19, 2018 22:44:59.436252000 +07
  874 120.011165 32:32:32:32:32:32 6dBm Nov 19, 2018 22:45:00.135827000 +07
  875 120.362444 32:32:32:32:32:32 7dBm Nov 19, 2018 22:45:00.487106000 +07
  876 120.430308 32:32:32:32:32:32 4dBm Nov 19, 2018 22:45:00.554970000 +07
  877 120.884198 32:32:32:32:32:32 4dBm Nov 19, 2018 22:45:01.008860000 +07
  878 121.076861 32:32:32:32:32:32 7dBm Nov 19, 2018 22:45:01.201523000 +07
  879 121.185840 32:32:32:32:32:32 6dBm Nov 19, 2018 22:45:01.310502000 +07
  880 122.188968 32:32:32:32:32:32 3dBm Nov 19, 2018 22:45:02.313630000 +07
  881 122.341107 32:32:32:32:32:32 6dBm Nov 19, 2018 22:45:02.465769000 +07
  882 122.406867 32:32:32:32:32:32 6dBm Nov 19, 2018 22:45:02.531529000 +07
  883 122.585068 32:32:32:32:32:32 6dBm Nov 19, 2018 22:45:02.709730000 +07
  884 122.892106 32:32:32:32:32:32 6dBm Nov 19, 2018 22:45:03.016768000 +07
  885 122.934310 32:32:32:32:32:32 8dBm Nov 19, 2018 22:45:03.058972000 +07
  886 123.028002 32:32:32:32:32:32 6dBm Nov 19, 2018 22:45:03.152664000 +07
  887 123.409515 32:32:32:32:32:32 6dBm Nov 19, 2018 22:45:03.534177000 +07
  888 123.619896 32:32:32:32:32:32 6dBm Nov 19, 2018 22:45:03.744558000 +07
  889 123.635607 32:32:32:32:32:32 4dBm Nov 19, 2018 22:45:03.760269000 +07
  890 123.657423 32:32:32:32:32:32 8dBm Nov 19, 2018 22:45:03.782085000 +07
  891 123.689302 32:32:32:32:32:32 6dBm Nov 19, 2018 22:45:03.813964000 +07
  892 123.756349 32:32:32:32:32:32 5dBm Nov 19, 2018 22:45:03.881011000 +07
  893 124.058867 32:32:32:32:32:32 6dBm Nov 19, 2018 22:45:04.183529000 +07
  894 124.178143 32:32:32:32:32:32 6dBm Nov 19, 2018 22:45:04.302805000 +07
  895 124.284025 32:32:32:32:32:32 7dBm Nov 19, 2018 22:45:04.408687000 +07
  896 124.326082 32:32:32:32:32:32 6dBm Nov 19, 2018 22:45:04.450744000 +07
  897 124.411492 32:32:32:32:32:32 5dBm Nov 19, 2018 22:45:04.536154000 +07
  898 124.497808 32:32:32:32:32:32 7dBm Nov 19, 2018 22:45:04.622470000 +07
  899 124.548557 32:32:32:32:32:32 6dBm Nov 19, 2018 22:45:04.673219000 +07
  900 124.576446 32:32:32:32:32:32 5dBm Nov 19, 2018 22:45:04.701108000 +07
  901 124.690581 32:32:32:32:32:32 5dBm Nov 19, 2018 22:45:04.815243000 +07
  902 124.715953 32:32:32:32:32:32 7dBm Nov 19, 2018 22:45:04.840615000 +07
  903 124.841608 32:32:32:32:32:32 6dBm Nov 19, 2018 22:45:04.966270000 +07
  904 124.887899 32:32:32:32:32:32 8dBm Nov 19, 2018 22:45:05.012561000 +07
  905 125.108436 32:32:32:32:32:32 7dBm Nov 19, 2018 22:45:05.233098000 +07
  906 125.157031 32:32:32:32:32:32 4dBm Nov 19, 2018 22:45:05.281693000 +07
  907 125.204636 32:32:32:32:32:32 8dBm Nov 19, 2018 22:45:05.329298000 +07
  908 125.336612 32:32:32:32:32:32 5dBm Nov 19, 2018 22:45:05.461274000 +07
  909 125.360832 32:32:32:32:32:32 6dBm Nov 19, 2018 22:45:05.485494000 +07
  910 125.393444 32:32:32:32:32:32 4dBm Nov 19, 2018 22:45:05.518106000 +07
  911 125.486786 32:32:32:32:32:32 6dBm Nov 19, 2018 22:45:05.611448000 +07
  912 125.544180 32:32:32:32:32:32 6dBm Nov 19, 2018 22:45:05.668842000 +07
  913 125.562707 32:32:32:32:32:32 5dBm Nov 19, 2018 22:45:05.687369000 +07
  914 125.604494 32:32:32:32:32:32 7dBm Nov 19, 2018 22:45:05.729156000 +07
  915 125.655989 32:32:32:32:32:32 4dBm Nov 19, 2018 22:45:05.780651000 +07
  916 125.821881 32:32:32:32:32:32 5dBm Nov 19, 2018 22:45:05.946543000 +07
  917 125.866659 32:32:32:32:32:32 6dBm Nov 19, 2018 22:45:05.991321000 +07
  918 125.886831 32:32:32:32:32:32 6dBm Nov 19, 2018 22:45:06.011493000 +07
  919 125.995925 32:32:32:32:32:32 2dBm Nov 19, 2018 22:45:06.120587000 +07
  920 126.094724 32:32:32:32:32:32 6dBm Nov 19, 2018 22:45:06.219386000 +07
  921 126.098729 32:32:32:32:32:32 7dBm Nov 19, 2018 22:45:06.223391000 +07
  922 126.155385 32:32:32:32:32:32 5dBm Nov 19, 2018 22:45:06.280047000 +07
  923 126.178933 32:32:32:32:32:32 8dBm Nov 19, 2018 22:45:06.303595000 +07
  924 126.197948 32:32:32:32:32:32 3dBm Nov 19, 2018 22:45:06.322610000 +07
  925 126.220736 32:32:32:32:32:32 6dBm Nov 19, 2018 22:45:06.345398000 +07
  926 126.278406 32:32:32:32:32:32 6dBm Nov 19, 2018 22:45:06.403068000 +07
  927 126.319462 32:32:32:32:32:32 6dBm Nov 19, 2018 22:45:06.444124000 +07
  928 126.359225 32:32:32:32:32:32 6dBm Nov 19, 2018 22:45:06.483887000 +07
  929 126.380084 32:32:32:32:32:32 6dBm Nov 19, 2018 22:45:06.504746000 +07
  930 126.420172 32:32:32:32:32:32 6dBm Nov 19, 2018 22:45:06.544834000 +07
  931 126.433940 32:32:32:32:32:32 7dBm Nov 19, 2018 22:45:06.558602000 +07
  932 126.478187 32:32:32:32:32:32 8dBm Nov 19, 2018 22:45:06.602849000 +07
  933 126.703238 32:32:32:32:32:32 7dBm Nov 19, 2018 22:45:06.827900000 +07
  934 126.727313 32:32:32:32:32:32 7dBm Nov 19, 2018 22:45:06.851975000 +07
  935 126.776277 32:32:32:32:32:32 6dBm Nov 19, 2018 22:45:06.900939000 +07
  936 126.797954 32:32:32:32:32:32 6dBm Nov 19, 2018 22:45:06.922616000 +07
  937 126.840543 32:32:32:32:32:32 8dBm Nov 19, 2018 22:45:06.965205000 +07
  938 126.989314 32:32:32:32:32:32 6dBm Nov 19, 2018 22:45:07.113976000 +07
  939 127.115848 32:32:32:32:32:32 8dBm Nov 19, 2018 22:45:07.240510000 +07
  940 127.218645 32:32:32:32:32:32 8dBm Nov 19, 2018 22:45:07.343307000 +07
  941 127.364166 32:32:32:32:32:32 7dBm Nov 19, 2018 22:45:07.488828000 +07
  942 127.452181 32:32:32:32:32:32 5dBm Nov 19, 2018 22:45:07.576843000 +07
