       1       032:32:32:32:32:3 10dBm   Nov 19,   201822:59:21.643488000 7          3
       20.08625932:32:32:32:32:3 10dBm   Nov 19,   201822:59:21.729747000 7         12
       30.14634132:32:32:32:32:3  7Bm N  ov 19, 2018 2 2:59:21.789829000  7        ###
       40.22764632:32:32:32:32:3  9Bm N  ov 19, 2018 2 2:59:21.871134000  7        ###
       50.24894732:32:32:32:32:3 10dBm   Nov 19,   201822:59:21.892435000 7        ###
       60.32146232:32:32:32:32:3  9Bm N  ov 19, 2018 2 2:59:21.964950000  7
       70.34218232:32:32:32:32:3  8Bm N  ov 19, 2018 2 2:59:21.985670000  7
       80.36063532:32:32:32:32:3  9Bm N  ov 19, 2018 2 2:59:22.004123000  7
       90.37713532:32:32:32:32:3 10dBm   Nov 19,   201822:59:22.020623000 7
      100.47354932:32:32:32:32:3 10dBm   Nov 19,   201822:59:22.117037000 7
      110.51912232:32:32:32:32:3  9Bm N  ov 19, 2018 2 2:59:22.162610000  7
      120.55036732:32:32:32:32:3  9Bm N  ov 19, 2018 2 2:59:22.193855000  7
      130.59808432:32:32:32:32:3  9Bm N  ov 19, 2018 2 2:59:22.241572000  7
      140.68538532:32:32:32:32:3  7Bm N  ov 19, 2018 2 2:59:22.328873000  7
      150.70144632:32:32:32:32:3  9Bm N  ov 19, 2018 2 2:59:22.344934000  7
      160.79720532:32:32:32:32:3  7Bm N  ov 19, 2018 2 2:59:22.440693000  7
      170.88560232:32:32:32:32:3  9Bm N  ov 19, 2018 2 2:59:22.529090000  7
      181.02702632:32:32:32:32:3  9Bm N  ov 19, 2018 2 2:59:22.670514000  7
      191.05150532:32:32:32:32:3  9Bm N  ov 19, 2018 2 2:59:22.694993000  7
      201.09144632:32:32:32:32:3  9Bm N  ov 19, 2018 2 2:59:22.734934000  7
      211.30251232:32:32:32:32:3  8Bm N  ov 19, 2018 2 2:59:22.946000000  7
      221.31841232:32:32:32:32:3  8Bm N  ov 19, 2018 2 2:59:22.961900000  7
      231.33211632:32:32:32:32:3  8Bm N  ov 19, 2018 2 2:59:22.975604000  7
      241.35216332:32:32:32:32:3  9Bm N  ov 19, 2018 2 2:59:22.995651000  7
      251.52579132:32:32:32:32:3  9Bm N  ov 19, 2018 2 2:59:23.169279000  7
      261.59863532:32:32:32:32:3  9Bm N  ov 19, 2018 2 2:59:23.242123000  7
      271.61418732:32:32:32:32:3  9Bm N  ov 19, 2018 2 2:59:23.257675000  7
      281.63784532:32:32:32:32:3  8Bm N  ov 19, 2018 2 2:59:23.281333000  7
      291.72585432:32:32:32:32:3  8Bm N  ov 19, 2018 2 2:59:23.369342000  7
      301.76309232:32:32:32:32:3  9Bm N  ov 19, 2018 2 2:59:23.406580000  7
      311.88629532:32:32:32:32:3  9Bm N  ov 19, 2018 2 2:59:23.529783000  7
      321.90525132:32:32:32:32:3  9Bm N  ov 19, 2018 2 2:59:23.548739000  7
      332.01896932:32:32:32:32:3  8Bm N  ov 19, 2018 2 2:59:23.662457000  7
      342.15454932:32:32:32:32:3  9Bm N  ov 19, 2018 2 2:59:23.798037000  7
      352.24771132:32:32:32:32:3 10dBm   Nov 19,   201822:59:23.891199000 7
      362.27486332:32:32:32:32:3  7Bm N  ov 19, 2018 2 2:59:23.918351000  7
      372.40314432:32:32:32:32:3  8Bm N  ov 19, 2018 2 2:59:24.046632000  7
      38 2.5370432:32:32:32:32:3  8Bm N  ov 19, 2018 2 2:59:24.180528000  7
      392.57915932:32:32:32:32:3  9Bm N  ov 19, 2018 2 2:59:24.222647000  7
      402.59734432:32:32:32:32:3 10dBm   Nov 19,   201822:59:24.240832000 7
      412.62748632:32:32:32:32:3  9Bm N  ov 19, 2018 2 2:59:24.270974000  7
      422.64623732:32:32:32:32:3  6Bm N  ov 19, 2018 2 2:59:24.289725000  7
      432.69949932:32:32:32:32:3  5Bm N  ov 19, 2018 2 2:59:24.342987000  7
      44 2.8246732:32:32:32:32:3 10dBm   Nov 19,   201822:59:24.468158000 7
      452.90596332:32:32:32:32:3  8Bm N  ov 19, 2018 2 2:59:24.549451000  7
      462.94468732:32:32:32:32:3  9Bm N  ov 19, 2018 2 2:59:24.588175000  7
      473.05689532:32:32:32:32:3  8Bm N  ov 19, 2018 2 2:59:24.700383000  7
      483.07501432:32:32:32:32:3 11dBm   Nov 19,   201822:59:24.718502000 7
      49 3.0914932:32:32:32:32:3  9Bm N  ov 19, 2018 2 2:59:24.734978000  7
      503.16404432:32:32:32:32:3  9Bm N  ov 19, 2018 2 2:59:24.807532000  7
      513.19360932:32:32:32:32:3 11dBm   Nov 19,   201822:59:24.837097000 7
      523.20828432:32:32:32:32:3  9Bm N  ov 19, 2018 2 2:59:24.851772000  7
      533.23052232:32:32:32:32:3  7Bm N  ov 19, 2018 2 2:59:24.874010000  7
      543.28297632:32:32:32:32:3 10dBm   Nov 19,   201822:59:24.926464000 7
      553.29889932:32:32:32:32:3  7Bm N  ov 19, 2018 2 2:59:24.942387000  7
      563.35090932:32:32:32:32:3  9Bm N  ov 19, 2018 2 2:59:24.994397000  7
      573.38978532:32:32:32:32:3 10dBm   Nov 19,   201822:59:25.033273000 7
      583.63785132:32:32:32:32:3  9Bm N  ov 19, 2018 2 2:59:25.281339000  7
      593.65213732:32:32:32:32:3 11dBm   Nov 19,   201822:59:25.295625000 7
      60 3.6897832:32:32:32:32:3 10dBm   Nov 19,   201822:59:25.333268000 7
      613.73814732:32:32:32:32:3  9Bm N  ov 19, 2018 2 2:59:25.381635000  7
      623.79852432:32:32:32:32:3 10dBm   Nov 19,   201822:59:25.442012000 7
      633.84395732:32:32:32:32:3  8Bm N  ov 19, 2018 2 2:59:25.487445000  7
      64 4.0879932:32:32:32:32:3  9Bm N  ov 19, 2018 2 2:59:25.731478000  7
      654.14507532:32:32:32:32:3  7Bm N  ov 19, 2018 2 2:59:25.788563000  7
      66 4.2792632:32:32:32:32:3  8Bm N  ov 19, 2018 2 2:59:25.922748000  7
      674.33357332:32:32:32:32:3 10dBm   Nov 19,   201822:59:25.977061000 7
      684.34902132:32:32:32:32:3  8Bm N  ov 19, 2018 2 2:59:25.992509000  7
      694.40079632:32:32:32:32:3  9Bm N  ov 19, 2018 2 2:59:26.044284000  7
      704.57424932:32:32:32:32:3  9Bm N  ov 19, 2018 2 2:59:26.217737000  7
      71 4.7589432:32:32:32:32:3 11dBm   Nov 19,   201822:59:26.402428000 7
      724.79026432:32:32:32:32:3  9Bm N  ov 19, 2018 2 2:59:26.433752000  7
      734.79720132:32:32:32:32:3 10dBm   Nov 19,   201822:59:26.440689000 7
      744.95582732:32:32:32:32:3 10dBm   Nov 19,   201822:59:26.599315000 7
      754.98749532:32:32:32:32:3  6Bm N  ov 19, 2018 2 2:59:26.630983000  7
      765.00629432:32:32:32:32:3 12dBm   Nov 19,   201822:59:26.649782000 7
      775.01041932:32:32:32:32:3  9Bm N  ov 19, 2018 2 2:59:26.653907000  7
      785.03170932:32:32:32:32:3  9Bm N  ov 19, 2018 2 2:59:26.675197000  7
      79 5.0359732:32:32:32:32:3  9Bm N  ov 19, 2018 2 2:59:26.679458000  7
      805.09515632:32:32:32:32:3  8Bm N  ov 19, 2018 2 2:59:26.738644000  7
      815.12182732:32:32:32:32:3  9Bm N  ov 19, 2018 2 2:59:26.765315000  7
      825.15720132:32:32:32:32:3 10dBm   Nov 19,   201822:59:26.800689000 7
      835.31961532:32:32:32:32:3  7Bm N  ov 19, 2018 2 2:59:26.963103000  7
      845.33928232:32:32:32:32:3  7Bm N  ov 19, 2018 2 2:59:26.982770000  7
      855.35270932:32:32:32:32:3  8Bm N  ov 19, 2018 2 2:59:26.996197000  7
      865.46127432:32:32:32:32:3  9Bm N  ov 19, 2018 2 2:59:27.104762000  7
      875.68457832:32:32:32:32:3 10dBm   Nov 19,   201822:59:27.328066000 7
      886.15794132:32:32:32:32:3  8Bm N  ov 19, 2018 2 2:59:27.801429000  7
      896.18113732:32:32:32:32:3  9Bm N  ov 19, 2018 2 2:59:27.824625000  7
      906.59425632:32:32:32:32:3 10dBm   Nov 19,   201822:59:28.237744000 7
      916.66667132:32:32:32:32:3  8Bm N  ov 19, 2018 2 2:59:28.310159000  7
      926.87083732:32:32:32:32:3  9Bm N  ov 19, 2018 2 2:59:28.514325000  7
      93 6.9116332:32:32:32:32:3  7Bm N  ov 19, 2018 2 2:59:28.555118000  7
      946.95901332:32:32:32:32:3  9Bm N  ov 19, 2018 2 2:59:28.602501000  7
      957.10745932:32:32:32:32:3  8Bm N  ov 19, 2018 2 2:59:28.750947000  7
      967.11706432:32:32:32:32:3  8Bm N  ov 19, 2018 2 2:59:28.760552000  7
      977.15489932:32:32:32:32:3  8Bm N  ov 19, 2018 2 2:59:28.798387000  7
      98 7.1773132:32:32:32:32:3  7Bm N  ov 19, 2018 2 2:59:28.820798000  7
      997.26745732:32:32:32:32:3 10dBm   Nov 19,   201822:59:28.910945000 7
     1007.40685932:32:32:32:32:3  8Bm N  ov 19, 2018 2 2:59:29.050347000  7
     1017.43065132:32:32:32:32:3 10dBm   Nov 19,   201822:59:29.074139000 7
     1027.68448132:32:32:32:32:3  8Bm N  ov 19, 2018 2 2:59:29.327969000  7
     103 7.7357732:32:32:32:32:3  9Bm N  ov 19, 2018 2 2:59:29.379258000  7
     1047.85143932:32:32:32:32:3  7Bm N  ov 19, 2018 2 2:59:29.494927000  7
     1057.94376232:32:32:32:32:3  6Bm N  ov 19, 2018 2 2:59:29.587250000  7
     106 8.0138232:32:32:32:32:3 10dBm   Nov 19,   201822:59:29.657308000 7
     1078.09074132:32:32:32:32:3 10dBm   Nov 19,   201822:59:29.734229000 7
     1088.16121532:32:32:32:32:3  8Bm N  ov 19, 2018 2 2:59:29.804703000  7
     1098.24123432:32:32:32:32:3  8Bm N  ov 19, 2018 2 2:59:29.884722000  7
     1108.32648632:32:32:32:32:3 10dBm   Nov 19,   201822:59:29.969974000 7
     1118.40706632:32:32:32:32:3  9Bm N  ov 19, 2018 2 2:59:30.050554000  7
     1128.43490732:32:32:32:32:3  9Bm N  ov 19, 2018 2 2:59:30.078395000  7
     1138.44570732:32:32:32:32:3  9Bm N  ov 19, 2018 2 2:59:30.089195000  7
     1148.49138232:32:32:32:32:3  8Bm N  ov 19, 2018 2 2:59:30.134870000  7
     1158.53563132:32:32:32:32:3 10dBm   Nov 19,   201822:59:30.179119000 7
     116 8.7182132:32:32:32:32:3  8Bm N  ov 19, 2018 2 2:59:30.361698000  7
     117 8.7713932:32:32:32:32:3  8Bm N  ov 19, 2018 2 2:59:30.414878000  7
     1188.77917532:32:32:32:32:3  9Bm N  ov 19, 2018 2 2:59:30.422663000  7
     1198.82118732:32:32:32:32:3  7Bm N  ov 19, 2018 2 2:59:30.464675000  7
     1208.85368432:32:32:32:32:3  9Bm N  ov 19, 2018 2 2:59:30.497172000  7
     1219.04150432:32:32:32:32:3  8Bm N  ov 19, 2018 2 2:59:30.684992000  7
     1229.07558932:32:32:32:32:3  9Bm N  ov 19, 2018 2 2:59:30.719077000  7
     1239.10478132:32:32:32:32:3  9Bm N  ov 19, 2018 2 2:59:30.748269000  7
     1249.20927532:32:32:32:32:3  6Bm N  ov 19, 2018 2 2:59:30.852763000  7
     1259.35393532:32:32:32:32:3  9Bm N  ov 19, 2018 2 2:59:30.997423000  7
     1269.37737232:32:32:32:32:3  9Bm N  ov 19, 2018 2 2:59:31.020860000  7
     1279.40170432:32:32:32:32:3  8Bm N  ov 19, 2018 2 2:59:31.045192000  7
     1289.43892832:32:32:32:32:3  8Bm N  ov 19, 2018 2 2:59:31.082416000  7
     1299.45811732:32:32:32:32:3  7Bm N  ov 19, 2018 2 2:59:31.101605000  7
     1309.51947932:32:32:32:32:3 10dBm   Nov 19,   201822:59:31.162967000 7
     1319.54449832:32:32:32:32:3  9Bm N  ov 19, 2018 2 2:59:31.187986000  7
     1329.57459632:32:32:32:32:3  8Bm N  ov 19, 2018 2 2:59:31.218084000  7
     1339.59286332:32:32:32:32:3  7Bm N  ov 19, 2018 2 2:59:31.236351000  7
     1349.66905132:32:32:32:32:3  8Bm N  ov 19, 2018 2 2:59:31.312539000  7
     1359.80494432:32:32:32:32:3 10dBm   Nov 19,   201822:59:31.448432000 7
     1369.84009332:32:32:32:32:3  8Bm N  ov 19, 2018 2 2:59:31.483581000  7
     1379.88970332:32:32:32:32:3  8Bm N  ov 19, 2018 2 2:59:31.533191000  7
     1389.91323232:32:32:32:32:3  6Bm N  ov 19, 2018 2 2:59:31.556720000  7
  139  10.11724732:32:32:32:32:3  9Bm N  ov 19, 2018 2 2:59:31.760735000  7
  140  10.15841332:32:32:32:32:3 10dBm   Nov 19,   201822:59:31.801901000 7
  141  10.18032632:32:32:32:32:3  8Bm N  ov 19, 2018 2 2:59:31.823814000  7
  142  10.37586532:32:32:32:32:3  9Bm N  ov 19, 2018 2 2:59:32.019353000  7
  143  10.52680132:32:32:32:32:3  8Bm N  ov 19, 2018 2 2:59:32.170289000  7
  144  10.61066832:32:32:32:32:3  9Bm N  ov 19, 2018 2 2:59:32.254156000  7
  145  10.61723232:32:32:32:32:3  8Bm N  ov 19, 2018 2 2:59:32.260720000  7
  146  10.67995432:32:32:32:32:3  9Bm N  ov 19, 2018 2 2:59:32.323442000  7
  147  10.70589432:32:32:32:32:3  8Bm N  ov 19, 2018 2 2:59:32.349382000  7
  148  10.90937532:32:32:32:32:3  9Bm N  ov 19, 2018 2 2:59:32.552863000  7
  149  10.93194732:32:32:32:32:3  8Bm N  ov 19, 2018 2 2:59:32.575435000  7
  150  10.94518232:32:32:32:32:3  7Bm N  ov 19, 2018 2 2:59:32.588670000  7
  151  11.24240132:32:32:32:32:3  7Bm N  ov 19, 2018 2 2:59:32.885889000  7
  152  11.53822732:32:32:32:32:3 11dBm   Nov 19,   201822:59:33.181715000 7
  153  11.62483732:32:32:32:32:3  8Bm N  ov 19, 2018 2 2:59:33.268325000  7
  154  1 1.6369832:32:32:32:32:3  9Bm N  ov 19, 2018 2 2:59:33.280468000  7
  155  11.65483632:32:32:32:32:3 11dBm   Nov 19,   201822:59:33.298324000 7
  156  11.84003732:32:32:32:32:3  8Bm N  ov 19, 2018 2 2:59:33.483525000  7
  157  12.00527432:32:32:32:32:3  9Bm N  ov 19, 2018 2 2:59:33.648762000  7
  158  12.48876132:32:32:32:32:3 10dBm   Nov 19,   201822:59:34.132249000 7
  159  12.53919632:32:32:32:32:3 10dBm   Nov 19,   201822:59:34.182684000 7
  160  12.68987932:32:32:32:32:3  9Bm N  ov 19, 2018 2 2:59:34.333367000  7
  161  12.71923432:32:32:32:32:3 10dBm   Nov 19,   201822:59:34.362722000 7
  162  12.78633132:32:32:32:32:3 10dBm   Nov 19,   201822:59:34.429819000 7
  163  12.83749232:32:32:32:32:3  8Bm N  ov 19, 2018 2 2:59:34.480980000  7
  164  12.87802432:32:32:32:32:3  8Bm N  ov 19, 2018 2 2:59:34.521512000  7
  165  12.95609232:32:32:32:32:3  9Bm N  ov 19, 2018 2 2:59:34.599580000  7
  166  13.00216732:32:32:32:32:3  8Bm N  ov 19, 2018 2 2:59:34.645655000  7
  167  13.00655832:32:32:32:32:3  5Bm N  ov 19, 2018 2 2:59:34.650046000  7
  168  13.08903732:32:32:32:32:3 10dBm   Nov 19,   201822:59:34.732525000 7
  169  13.14823832:32:32:32:32:3  9Bm N  ov 19, 2018 2 2:59:34.791726000  7
  170  13.16701832:32:32:32:32:3  8Bm N  ov 19, 2018 2 2:59:34.810506000  7
  171  13.21755732:32:32:32:32:3  9Bm N  ov 19, 2018 2 2:59:34.861045000  7
  172  13.21960232:32:32:32:32:3  9Bm N  ov 19, 2018 2 2:59:34.863090000  7
  173  13.24102132:32:32:32:32:3 10dBm   Nov 19,   201822:59:34.884509000 7
  174  13.25556532:32:32:32:32:3  9Bm N  ov 19, 2018 2 2:59:34.899053000  7
  175  13.27479632:32:32:32:32:3  6Bm N  ov 19, 2018 2 2:59:34.918284000  7
  176  13.35824532:32:32:32:32:3  9Bm N  ov 19, 2018 2 2:59:35.001733000  7
  177  13.43930132:32:32:32:32:3  9Bm N  ov 19, 2018 2 2:59:35.082789000  7
  178  13.47709132:32:32:32:32:3  8Bm N  ov 19, 2018 2 2:59:35.120579000  7
  179  13.55739732:32:32:32:32:3  8Bm N  ov 19, 2018 2 2:59:35.200885000  7
  180  13.60194232:32:32:32:32:3  6Bm N  ov 19, 2018 2 2:59:35.245430000  7
  181  1 3.6073932:32:32:32:32:3  7Bm N  ov 19, 2018 2 2:59:35.250878000  7
  182  13.64578832:32:32:32:32:3  9Bm N  ov 19, 2018 2 2:59:35.289276000  7
  183  1 3.6759932:32:32:32:32:3  8Bm N  ov 19, 2018 2 2:59:35.319478000  7
  184  14.27785732:32:32:32:32:3  8Bm N  ov 19, 2018 2 2:59:35.921345000  7
  185  14.31034532:32:32:32:32:3  8Bm N  ov 19, 2018 2 2:59:35.953833000  7
  186  14.80683532:32:32:32:32:3  8Bm N  ov 19, 2018 2 2:59:36.450323000  7
  187  14.88732632:32:32:32:32:3  9Bm N  ov 19, 2018 2 2:59:36.530814000  7
  188  14.95290832:32:32:32:32:3  8Bm N  ov 19, 2018 2 2:59:36.596396000  7
  189  15.05810432:32:32:32:32:3  8Bm N  ov 19, 2018 2 2:59:36.701592000  7
  190  15.08021332:32:32:32:32:3 10dBm   Nov 19,   201822:59:36.723701000 7
  191  15.46379132:32:32:32:32:3  8Bm N  ov 19, 2018 2 2:59:37.107279000  7
  192  15.65337232:32:32:32:32:3  8Bm N  ov 19, 2018 2 2:59:37.296860000  7
  193  15.86432432:32:32:32:32:3  8Bm N  ov 19, 2018 2 2:59:37.507812000  7
  194  15.93020232:32:32:32:32:3  9Bm N  ov 19, 2018 2 2:59:37.573690000  7
  195  16.07202832:32:32:32:32:3  8Bm N  ov 19, 2018 2 2:59:37.715516000  7
  196  16.20159732:32:32:32:32:3  7Bm N  ov 19, 2018 2 2:59:37.845085000  7
  197  16.27483632:32:32:32:32:3  8Bm N  ov 19, 2018 2 2:59:37.918324000  7
  198  16.39183632:32:32:32:32:3  9Bm N  ov 19, 2018 2 2:59:38.035324000  7
  199  16.44576632:32:32:32:32:3  8Bm N  ov 19, 2018 2 2:59:38.089254000  7
  200  16.50164932:32:32:32:32:3  9Bm N  ov 19, 2018 2 2:59:38.145137000  7
  201  16.64298932:32:32:32:32:3  8Bm N  ov 19, 2018 2 2:59:38.286477000  7
  202  1 6.6734132:32:32:32:32:3  7Bm N  ov 19, 2018 2 2:59:38.316898000  7
  203  1 6.6920132:32:32:32:32:3  7Bm N  ov 19, 2018 2 2:59:38.335498000  7
  204  16.75017532:32:32:32:32:3  8Bm N  ov 19, 2018 2 2:59:38.393663000  7
  205  16.76906132:32:32:32:32:3  6Bm N  ov 19, 2018 2 2:59:38.412549000  7
  206  16.90948932:32:32:32:32:3  8Bm N  ov 19, 2018 2 2:59:38.552977000  7
  207  17.07095732:32:32:32:32:3  7Bm N  ov 19, 2018 2 2:59:38.714445000  7
  208  17.11642132:32:32:32:32:3  8Bm N  ov 19, 2018 2 2:59:38.759909000  7
  209  17.20821832:32:32:32:32:3  6Bm N  ov 19, 2018 2 2:59:38.851706000  7
  210  1 7.3701432:32:32:32:32:3  6Bm N  ov 19, 2018 2 2:59:39.013628000  7
  211  1   7.40832:32:32:32:32:3  7Bm N  ov 19, 2018 2 2:59:39.051488000  7
  212  17.51670532:32:32:32:32:3  9Bm N  ov 19, 2018 2 2:59:39.160193000  7
  213  17.53807132:32:32:32:32:3  7Bm N  ov 19, 2018 2 2:59:39.181559000  7
  214  17.56426332:32:32:32:32:3  7Bm N  ov 19, 2018 2 2:59:39.207751000  7
  215  17.58563932:32:32:32:32:3  7Bm N  ov 19, 2018 2 2:59:39.229127000  7
  216  17.61269432:32:32:32:32:3  6Bm N  ov 19, 2018 2 2:59:39.256182000  7
  217  17.63142132:32:32:32:32:3  8Bm N  ov 19, 2018 2 2:59:39.274909000  7
  218  17.69669932:32:32:32:32:3  9Bm N  ov 19, 2018 2 2:59:39.340187000  7
  219  1 7.7208432:32:32:32:32:3  9Bm N  ov 19, 2018 2 2:59:39.364328000  7
  220  17.74362732:32:32:32:32:3  8Bm N  ov 19, 2018 2 2:59:39.387115000  7
  221  17.76167632:32:32:32:32:3  8Bm N  ov 19, 2018 2 2:59:39.405164000  7
  222  17.79146332:32:32:32:32:3  9Bm N  ov 19, 2018 2 2:59:39.434951000  7
  223  1 7.8345132:32:32:32:32:3  7Bm N  ov 19, 2018 2 2:59:39.477998000  7
  224  17.85151932:32:32:32:32:3  7Bm N  ov 19, 2018 2 2:59:39.495007000  7
  225  17.88765732:32:32:32:32:3  8Bm N  ov 19, 2018 2 2:59:39.531145000  7
  226  17.97780332:32:32:32:32:3  5Bm N  ov 19, 2018 2 2:59:39.621291000  7
  227  1 8.1201832:32:32:32:32:3  8Bm N  ov 19, 2018 2 2:59:39.763668000  7
  228  18.24537832:32:32:32:32:3  9Bm N  ov 19, 2018 2 2:59:39.888866000  7
  229  18.25658832:32:32:32:32:3  8Bm N  ov 19, 2018 2 2:59:39.900076000  7
  230  18.37620832:32:32:32:32:3  9Bm N  ov 19, 2018 2 2:59:40.019696000  7
  231  18.58601532:32:32:32:32:3  8Bm N  ov 19, 2018 2 2:59:40.229503000  7
  232  18.66916932:32:32:32:32:3  9Bm N  ov 19, 2018 2 2:59:40.312657000  7
  233  18.78382732:32:32:32:32:3  8Bm N  ov 19, 2018 2 2:59:40.427315000  7
  234  18.96136232:32:32:32:32:3  6Bm N  ov 19, 2018 2 2:59:40.604850000  7
  235  18.98532732:32:32:32:32:3  9Bm N  ov 19, 2018 2 2:59:40.628815000  7
  236  19.14669932:32:32:32:32:3  9Bm N  ov 19, 2018 2 2:59:40.790187000  7
  237  19.18366432:32:32:32:32:3  6Bm N  ov 19, 2018 2 2:59:40.827152000  7
  238  19.21821832:32:32:32:32:3  8Bm N  ov 19, 2018 2 2:59:40.861706000  7
  239  19.22873832:32:32:32:32:3  8Bm N  ov 19, 2018 2 2:59:40.872226000  7
  240  19.25185332:32:32:32:32:3  9Bm N  ov 19, 2018 2 2:59:40.895341000  7
  241  19.34398432:32:32:32:32:3  8Bm N  ov 19, 2018 2 2:59:40.987472000  7
  242  19.48794232:32:32:32:32:3  8Bm N  ov 19, 2018 2 2:59:41.131430000  7
  243  1 9.5561932:32:32:32:32:3  9Bm N  ov 19, 2018 2 2:59:41.199678000  7
  244  19.58686932:32:32:32:32:3  8Bm N  ov 19, 2018 2 2:59:41.230357000  7
  245  19.64112532:32:32:32:32:3  8Bm N  ov 19, 2018 2 2:59:41.284613000  7
  246  19.70369632:32:32:32:32:3  9Bm N  ov 19, 2018 2 2:59:41.347184000  7
  247  19.74278432:32:32:32:32:3  9Bm N  ov 19, 2018 2 2:59:41.386272000  7
  248  19.76409832:32:32:32:32:3  7Bm N  ov 19, 2018 2 2:59:41.407586000  7
  249  19.95985532:32:32:32:32:3  9Bm N  ov 19, 2018 2 2:59:41.603343000  7
  250  20.07898132:32:32:32:32:3  8Bm N  ov 19, 2018 2 2:59:41.722469000  7
  251  20.40073632:32:32:32:32:3 10dBm   Nov 19,   201822:59:42.044224000 7
  252  20.46919432:32:32:32:32:3  9Bm N  ov 19, 2018 2 2:59:42.112682000  7
  253  20.63772232:32:32:32:32:3  8Bm N  ov 19, 2018 2 2:59:42.281210000  7
  254  20.71189632:32:32:32:32:3  8Bm N  ov 19, 2018 2 2:59:42.355384000  7
  255  20.79161932:32:32:32:32:3  9Bm N  ov 19, 2018 2 2:59:42.435107000  7
  256  20.79764432:32:32:32:32:3  9Bm N  ov 19, 2018 2 2:59:42.441132000  7
  257  20.84342732:32:32:32:32:3  7Bm N  ov 19, 2018 2 2:59:42.486915000  7
  258  20.95495632:32:32:32:32:3  5Bm N  ov 19, 2018 2 2:59:42.598444000  7
  259  21.21883832:32:32:32:32:3  9Bm N  ov 19, 2018 2 2:59:42.862326000  7
  260  21.35624632:32:32:32:32:3  8Bm N  ov 19, 2018 2 2:59:42.999734000  7
  261  21.38153132:32:32:32:32:3  9Bm N  ov 19, 2018 2 2:59:43.025019000  7
  262  21.44874832:32:32:32:32:3  8Bm N  ov 19, 2018 2 2:59:43.092236000  7
  263  21.45263532:32:32:32:32:3  8Bm N  ov 19, 2018 2 2:59:43.096123000  7
  264  21.81663232:32:32:32:32:3 10dBm   Nov 19,   201822:59:43.460120000 7
  265  21.93529132:32:32:32:32:3  8Bm N  ov 19, 2018 2 2:59:43.578779000  7
  266  22.03716632:32:32:32:32:3  9Bm N  ov 19, 2018 2 2:59:43.680654000  7
  267  22.09699632:32:32:32:32:3  7Bm N  ov 19, 2018 2 2:59:43.740484000  7
  268  22.24401332:32:32:32:32:3  9Bm N  ov 19, 2018 2 2:59:43.887501000  7
  269  22.29823632:32:32:32:32:3  8Bm N  ov 19, 2018 2 2:59:43.941724000  7
  270  22.31785332:32:32:32:32:3  7Bm N  ov 19, 2018 2 2:59:43.961341000  7
  271  22.62744132:32:32:32:32:3  7Bm N  ov 19, 2018 2 2:59:44.270929000  7
  272  22.64714432:32:32:32:32:3  9Bm N  ov 19, 2018 2 2:59:44.290632000  7
  273  22.76239532:32:32:32:32:3  9Bm N  ov 19, 2018 2 2:59:44.405883000  7
  274  22.83165832:32:32:32:32:3  8Bm N  ov 19, 2018 2 2:59:44.475146000  7
  275  23.02890232:32:32:32:32:3 10dBm   Nov 19,   201822:59:44.672390000 7
  276  23.11516132:32:32:32:32:3  9Bm N  ov 19, 2018 2 2:59:44.758649000  7
  277  23.64863632:32:32:32:32:3  6Bm N  ov 19, 2018 2 2:59:45.292124000  7
  278  23.68682832:32:32:32:32:3  9Bm N  ov 19, 2018 2 2:59:45.330316000  7
  279  23.76283232:32:32:32:32:3  8Bm N  ov 19, 2018 2 2:59:45.406320000  7
  280  23.81822632:32:32:32:32:3  8Bm N  ov 19, 2018 2 2:59:45.461714000  7
  281  23.83226232:32:32:32:32:3  8Bm N  ov 19, 2018 2 2:59:45.475750000  7
  282  23.93117532:32:32:32:32:3  8Bm N  ov 19, 2018 2 2:59:45.574663000  7
  283  24.06975332:32:32:32:32:3  7Bm N  ov 19, 2018 2 2:59:45.713241000  7
  284  24.32990132:32:32:32:32:3  8Bm N  ov 19, 2018 2 2:59:45.973389000  7
  285  24.35654532:32:32:32:32:3  9Bm N  ov 19, 2018 2 2:59:46.000033000  7
  286  24.40557732:32:32:32:32:3  7Bm N  ov 19, 2018 2 2:59:46.049065000  7
  287  24.81169732:32:32:32:32:3  8Bm N  ov 19, 2018 2 2:59:46.455185000  7
  288  25.08796132:32:32:32:32:3  8Bm N  ov 19, 2018 2 2:59:46.731449000  7
  289  25.14748932:32:32:32:32:3  9Bm N  ov 19, 2018 2 2:59:46.790977000  7
  290  25.22236832:32:32:32:32:3  9Bm N  ov 19, 2018 2 2:59:46.865856000  7
  291  25.28446632:32:32:32:32:3  7Bm N  ov 19, 2018 2 2:59:46.927954000  7
  292  25.31425232:32:32:32:32:3  9Bm N  ov 19, 2018 2 2:59:46.957740000  7
  293  25.48377132:32:32:32:32:3  8Bm N  ov 19, 2018 2 2:59:47.127259000  7
  294  25.59053532:32:32:32:32:3 10dBm   Nov 19,   201822:59:47.234023000 7
  295  25.66987232:32:32:32:32:3  9Bm N  ov 19, 2018 2 2:59:47.313360000  7
  296  25.74336332:32:32:32:32:3  8Bm N  ov 19, 2018 2 2:59:47.386851000  7
  297  25.79465932:32:32:32:32:3 10dBm   Nov 19,   201822:59:47.438147000 7
  298  25.92706232:32:32:32:32:3  8Bm N  ov 19, 2018 2 2:59:47.570550000  7
  299  25.94071732:32:32:32:32:3  7Bm N  ov 19, 2018 2 2:59:47.584205000  7
  300  25.95774132:32:32:32:32:3  9Bm N  ov 19, 2018 2 2:59:47.601229000  7
  301  26.05705132:32:32:32:32:3  6Bm N  ov 19, 2018 2 2:59:47.700539000  7
  302  26.17057432:32:32:32:32:3  8Bm N  ov 19, 2018 2 2:59:47.814062000  7
  303  26.22864532:32:32:32:32:3  8Bm N  ov 19, 2018 2 2:59:47.872133000  7
  304  26.40560232:32:32:32:32:3  8Bm N  ov 19, 2018 2 2:59:48.049090000  7
  305  26.55401932:32:32:32:32:3  8Bm N  ov 19, 2018 2 2:59:48.197507000  7
  306  26.58828332:32:32:32:32:3  9Bm N  ov 19, 2018 2 2:59:48.231771000  7
  307  26.67912632:32:32:32:32:3  6Bm N  ov 19, 2018 2 2:59:48.322614000  7
  308  26.77801732:32:32:32:32:3  9Bm N  ov 19, 2018 2 2:59:48.421505000  7
  309  27.05564132:32:32:32:32:3  7Bm N  ov 19, 2018 2 2:59:48.699129000  7
  310  27.10755932:32:32:32:32:3  8Bm N  ov 19, 2018 2 2:59:48.751047000  7
  311  27.27118732:32:32:32:32:3  6Bm N  ov 19, 2018 2 2:59:48.914675000  7
  312  27.29421832:32:32:32:32:3 11dBm   Nov 19,   201822:59:48.937706000 7
  313  27.31135232:32:32:32:32:3  7Bm N  ov 19, 2018 2 2:59:48.954840000  7
  314  27.31804632:32:32:32:32:3  8Bm N  ov 19, 2018 2 2:59:48.961534000  7
  315  2 7.4232232:32:32:32:32:3  8Bm N  ov 19, 2018 2 2:59:49.066708000  7
  316  2 7.4920232:32:32:32:32:3  8Bm N  ov 19, 2018 2 2:59:49.135508000  7
  317  27.52718532:32:32:32:32:3  8Bm N  ov 19, 2018 2 2:59:49.170673000  7
  318  2 7.6177232:32:32:32:32:3  8Bm N  ov 19, 2018 2 2:59:49.261208000  7
  319  27.65537232:32:32:32:32:3  8Bm N  ov 19, 2018 2 2:59:49.298860000  7
  320  27.79779432:32:32:32:32:3  8Bm N  ov 19, 2018 2 2:59:49.441282000  7
  321  28.07628432:32:32:32:32:3  7Bm N  ov 19, 2018 2 2:59:49.719772000  7
  322  28.09476932:32:32:32:32:3  9Bm N  ov 19, 2018 2 2:59:49.738257000  7
  323  2 8.2677732:32:32:32:32:3  6Bm N  ov 19, 2018 2 2:59:49.911258000  7
  324  28.41635332:32:32:32:32:3  8Bm N  ov 19, 2018 2 2:59:50.059841000  7
  325  28.49393932:32:32:32:32:3  7Bm N  ov 19, 2018 2 2:59:50.137427000  7
  326  28.83767132:32:32:32:32:3  8Bm N  ov 19, 2018 2 2:59:50.481159000  7
  327  28.99452632:32:32:32:32:3  8Bm N  ov 19, 2018 2 2:59:50.638014000  7
  328  29.00540532:32:32:32:32:3  7Bm N  ov 19, 2018 2 2:59:50.648893000  7
  329  2 9.4455332:32:32:32:32:3 10dBm   Nov 19,   201822:59:51.089018000 7
  330  2 9.4754832:32:32:32:32:3  5Bm N  ov 19, 2018 2 2:59:51.118968000  7
  331  29.62479332:32:32:32:32:3  9Bm N  ov 19, 2018 2 2:59:51.268281000  7
  332  2  9.656932:32:32:32:32:3  7Bm N  ov 19, 2018 2 2:59:51.300388000  7
  333  2 9.6611632:32:32:32:32:3  8Bm N  ov 19, 2018 2 2:59:51.304648000  7
  334  29.69225632:32:32:32:32:3  9Bm N  ov 19, 2018 2 2:59:51.335744000  7
  335  2 9.7575932:32:32:32:32:3  8Bm N  ov 19, 2018 2 2:59:51.401078000  7
  336  29.86015332:32:32:32:32:3  9Bm N  ov 19, 2018 2 2:59:51.503641000  7
  337  29.91083532:32:32:32:32:3  6Bm N  ov 19, 2018 2 2:59:51.554323000  7
  338  29.95590432:32:32:32:32:3  8Bm N  ov 19, 2018 2 2:59:51.599392000  7
  339  30.11974932:32:32:32:32:3 10dBm   Nov 19,   201822:59:51.763237000 7
  340  30.12416132:32:32:32:32:3  7Bm N  ov 19, 2018 2 2:59:51.767649000  7
  341  30.13062632:32:32:32:32:3 11dBm   Nov 19,   201822:59:51.774114000 7
  342  30.32831232:32:32:32:32:3  8Bm N  ov 19, 2018 2 2:59:51.971800000  7
  343  30.39412532:32:32:32:32:3  3Bm N  ov 19, 2018 2 2:59:52.037613000  7
  344  3  0.410132:32:32:32:32:3  8Bm N  ov 19, 2018 2 2:59:52.053588000  7
  345  30.49908532:32:32:32:32:3  8Bm N  ov 19, 2018 2 2:59:52.142573000  7
  346  30.54502932:32:32:32:32:3  8Bm N  ov 19, 2018 2 2:59:52.188517000  7
  347  30.62303232:32:32:32:32:3  9Bm N  ov 19, 2018 2 2:59:52.266520000  7
  348  30.64042432:32:32:32:32:3  8Bm N  ov 19, 2018 2 2:59:52.283912000  7
  349  30.69131232:32:32:32:32:3  8Bm N  ov 19, 2018 2 2:59:52.334800000  7
  350  30.81861532:32:32:32:32:3  8Bm N  ov 19, 2018 2 2:59:52.462103000  7
  351  30.87749632:32:32:32:32:3  9Bm N  ov 19, 2018 2 2:59:52.520984000  7
  352  30.90541732:32:32:32:32:3  6Bm N  ov 19, 2018 2 2:59:52.548905000  7
  353  31.01235732:32:32:32:32:3  9Bm N  ov 19, 2018 2 2:59:52.655845000  7
  354  3 1.2154332:32:32:32:32:3  8Bm N  ov 19, 2018 2 2:59:52.858918000  7
  355  31.27808932:32:32:32:32:3  9Bm N  ov 19, 2018 2 2:59:52.921577000  7
  356  31.39127332:32:32:32:32:3  8Bm N  ov 19, 2018 2 2:59:53.034761000  7
  357  31.42416132:32:32:32:32:3  8Bm N  ov 19, 2018 2 2:59:53.067649000  7
  358  31.55235132:32:32:32:32:3  9Bm N  ov 19, 2018 2 2:59:53.195839000  7
  359  31.68121732:32:32:32:32:3  8Bm N  ov 19, 2018 2 2:59:53.324705000  7
  360  31.76793632:32:32:32:32:3  7Bm N  ov 19, 2018 2 2:59:53.411424000  7
  361  32.07096832:32:32:32:32:3  9Bm N  ov 19, 2018 2 2:59:53.714456000  7
  362  32.10338132:32:32:32:32:3  8Bm N  ov 19, 2018 2 2:59:53.746869000  7
  363  32.19521832:32:32:32:32:3 10dBm   Nov 19,   201822:59:53.838706000 7
  364  32.37185432:32:32:32:32:3  9Bm N  ov 19, 2018 2 2:59:54.015342000  7
  365  32.41690232:32:32:32:32:3  8Bm N  ov 19, 2018 2 2:59:54.060390000  7
  366  32.52368232:32:32:32:32:3  9Bm N  ov 19, 2018 2 2:59:54.167170000  7
  367  32.65773532:32:32:32:32:3  9Bm N  ov 19, 2018 2 2:59:54.301223000  7
  368  32.86993932:32:32:32:32:3  6Bm N  ov 19, 2018 2 2:59:54.513427000  7
  369  32.91861832:32:32:32:32:3  9Bm N  ov 19, 2018 2 2:59:54.562106000  7
  370  33.10826132:32:32:32:32:3  9Bm N  ov 19, 2018 2 2:59:54.751749000  7
  371  33.22638932:32:32:32:32:3  8Bm N  ov 19, 2018 2 2:59:54.869877000  7
  372  33.39590232:32:32:32:32:3  9Bm N  ov 19, 2018 2 2:59:55.039390000  7
  373  33.43010732:32:32:32:32:3  8Bm N  ov 19, 2018 2 2:59:55.073595000  7
  374  33.46144132:32:32:32:32:3 10dBm   Nov 19,   201822:59:55.104929000 7
  375  33.53837132:32:32:32:32:3 11dBm   Nov 19,   201822:59:55.181859000 7
  376  33.62095732:32:32:32:32:3  9Bm N  ov 19, 2018 2 2:59:55.264445000  7
  377  33.65201932:32:32:32:32:3 10dBm   Nov 19,   201822:59:55.295507000 7
  378  33.69497432:32:32:32:32:3 10dBm   Nov 19,   201822:59:55.338462000 7
  379  33.74677932:32:32:32:32:3  8Bm N  ov 19, 2018 2 2:59:55.390267000  7
  380  33.82461932:32:32:32:32:3  8Bm N  ov 19, 2018 2 2:59:55.468107000  7
  381  33.97801532:32:32:32:32:3  9Bm N  ov 19, 2018 2 2:59:55.621503000  7
  382  34.03922632:32:32:32:32:3 10dBm   Nov 19,   201822:59:55.682714000 7
  383  34.12171232:32:32:32:32:3  8Bm N  ov 19, 2018 2 2:59:55.765200000  7
  384  34.28019732:32:32:32:32:3  7Bm N  ov 19, 2018 2 2:59:55.923685000  7
  385  34.35561332:32:32:32:32:3  9Bm N  ov 19, 2018 2 2:59:55.999101000  7
  386  34.47123732:32:32:32:32:3  9Bm N  ov 19, 2018 2 2:59:56.114725000  7
  387  34.50191832:32:32:32:32:3  8Bm N  ov 19, 2018 2 2:59:56.145406000  7
  388  34.51173632:32:32:32:32:3 10dBm   Nov 19,   201822:59:56.155224000 7
  389  34.52357332:32:32:32:32:3  8Bm N  ov 19, 2018 2 2:59:56.167061000  7
  390  34.55001932:32:32:32:32:3  9Bm N  ov 19, 2018 2 2:59:56.193507000  7
  391  34.63048732:32:32:32:32:3  8Bm N  ov 19, 2018 2 2:59:56.273975000  7
  392  34.80129832:32:32:32:32:3  6Bm N  ov 19, 2018 2 2:59:56.444786000  7
  393  34.92140632:32:32:32:32:3  8Bm N  ov 19, 2018 2 2:59:56.564894000  7
  394  35.01621132:32:32:32:32:3 10dBm   Nov 19,   201822:59:56.659699000 7
  395  35.03234632:32:32:32:32:3  7Bm N  ov 19, 2018 2 2:59:56.675834000  7
  396  35.18510332:32:32:32:32:3  8Bm N  ov 19, 2018 2 2:59:56.828591000  7
  397  35.23133532:32:32:32:32:3  8Bm N  ov 19, 2018 2 2:59:56.874823000  7
  398  35.28576532:32:32:32:32:3  9Bm N  ov 19, 2018 2 2:59:56.929253000  7
  399  35.31933532:32:32:32:32:3  8Bm N  ov 19, 2018 2 2:59:56.962823000  7
  400  35.41567932:32:32:32:32:3 10dBm   Nov 19,   201822:59:57.059167000 7
  401  35.46536332:32:32:32:32:3  8Bm N  ov 19, 2018 2 2:59:57.108851000  7
  402  35.48181732:32:32:32:32:3  7Bm N  ov 19, 2018 2 2:59:57.125305000  7
  403  35.53008732:32:32:32:32:3  6Bm N  ov 19, 2018 2 2:59:57.173575000  7
  404  35.71561532:32:32:32:32:3 10dBm   Nov 19,   201822:59:57.359103000 7
  405  35.74055232:32:32:32:32:3  8Bm N  ov 19, 2018 2 2:59:57.384040000  7
  406  35.76010632:32:32:32:32:3  8Bm N  ov 19, 2018 2 2:59:57.403594000  7
  407  35.81401932:32:32:32:32:3  9Bm N  ov 19, 2018 2 2:59:57.457507000  7
  408  35.83360532:32:32:32:32:3  8Bm N  ov 19, 2018 2 2:59:57.477093000  7
  409  35.88161932:32:32:32:32:3  9Bm N  ov 19, 2018 2 2:59:57.525107000  7
  410  35.96770932:32:32:32:32:3  8Bm N  ov 19, 2018 2 2:59:57.611197000  7
  411  3 6.0692332:32:32:32:32:3 11dBm   Nov 19,   201822:59:57.712718000 7
  412  36.12755832:32:32:32:32:3  9Bm N  ov 19, 2018 2 2:59:57.771046000  7
  413  36.30766132:32:32:32:32:3  9Bm N  ov 19, 2018 2 2:59:57.951149000  7
  414  36.47237632:32:32:32:32:3  8Bm N  ov 19, 2018 2 2:59:58.115864000  7
  415  36.55149332:32:32:32:32:3  8Bm N  ov 19, 2018 2 2:59:58.194981000  7
  416  36.62377432:32:32:32:32:3 10dBm   Nov 19,   201822:59:58.267262000 7
  417  36.70725432:32:32:32:32:3  9Bm N  ov 19, 2018 2 2:59:58.350742000  7
  418  36.81112932:32:32:32:32:3  9Bm N  ov 19, 2018 2 2:59:58.454617000  7
  419  36.89696332:32:32:32:32:3  9Bm N  ov 19, 2018 2 2:59:58.540451000  7
  420  36.91510532:32:32:32:32:3  8Bm N  ov 19, 2018 2 2:59:58.558593000  7
  421  36.95066232:32:32:32:32:3  8Bm N  ov 19, 2018 2 2:59:58.594150000  7
  422  37.07235232:32:32:32:32:3  8Bm N  ov 19, 2018 2 2:59:58.715840000  7
  423  37.09236432:32:32:32:32:3  9Bm N  ov 19, 2018 2 2:59:58.735852000  7
  424  37.17589232:32:32:32:32:3  8Bm N  ov 19, 2018 2 2:59:58.819380000  7
  425  37.34937932:32:32:32:32:3  8Bm N  ov 19, 2018 2 2:59:58.992867000  7
  426  37.42215732:32:32:32:32:3  8Bm N  ov 19, 2018 2 2:59:59.065645000  7
  427  37.47147632:32:32:32:32:3  8Bm N  ov 19, 2018 2 2:59:59.114964000  7
  428  37.53816432:32:32:32:32:3  9Bm N  ov 19, 2018 2 2:59:59.181652000  7
  429  37.55429432:32:32:32:32:3  8Bm N  ov 19, 2018 2 2:59:59.197782000  7
  430  37.61612232:32:32:32:32:3  9Bm N  ov 19, 2018 2 2:59:59.259610000  7
  431  38.23673432:32:32:32:32:3  8Bm N  ov 19, 2018 2 2:59:59.880222000  7
  432  38.24541332:32:32:32:32:3  8Bm N  ov 19, 2018 2 2:59:59.888901000  7
  433  3 8.3991232:32:32:32:32:3  8Bm N  ov 19, 2018 2 3:00:00.042608000  7
  434  38.48624432:32:32:32:32:3  7Bm N  ov 19, 2018 2 3:00:00.129732000  7
  435  38.59757432:32:32:32:32:3  9Bm N  ov 19, 2018 2 3:00:00.241062000  7
  436  38.73595632:32:32:32:32:3  9Bm N  ov 19, 2018 2 3:00:00.379444000  7
  437  38.80537232:32:32:32:32:3  8Bm N  ov 19, 2018 2 3:00:00.448860000  7
  438  39.00082732:32:32:32:32:3  8Bm N  ov 19, 2018 2 3:00:00.644315000  7
  439  39.02261532:32:32:32:32:3 10dBm   Nov 19,   201823:00:00.666103000 7
  440  39.02982232:32:32:32:32:3 10dBm   Nov 19,   201823:00:00.673310000 7
  441  39.04867832:32:32:32:32:3  9Bm N  ov 19, 2018 2 3:00:00.692166000  7
  442  39.28635232:32:32:32:32:3  9Bm N  ov 19, 2018 2 3:00:00.929840000  7
  443  3 9.3218732:32:32:32:32:3 10dBm   Nov 19,   201823:00:00.965358000 7
  444  3 9.3703332:32:32:32:32:3  9Bm N  ov 19, 2018 2 3:00:01.013818000  7
  445  3   9.42632:32:32:32:32:3  8Bm N  ov 19, 2018 2 3:00:01.069488000  7
  446  39.50750232:32:32:32:32:3  9Bm N  ov 19, 2018 2 3:00:01.150990000  7
  447  39.61415832:32:32:32:32:3  8Bm N  ov 19, 2018 2 3:00:01.257646000  7
  448  39.72349332:32:32:32:32:3 10dBm   Nov 19,   201823:00:01.366981000 7
  449  39.89199832:32:32:32:32:3  9Bm N  ov 19, 2018 2 3:00:01.535486000  7
  450  40.03889532:32:32:32:32:3  9Bm N  ov 19, 2018 2 3:00:01.682383000  7
  451  40.13224732:32:32:32:32:3  8Bm N  ov 19, 2018 2 3:00:01.775735000  7
  452  40.22917832:32:32:32:32:3  8Bm N  ov 19, 2018 2 3:00:01.872666000  7
  453  40.25010932:32:32:32:32:3  8Bm N  ov 19, 2018 2 3:00:01.893597000  7
  454  40.29786832:32:32:32:32:3 10dBm   Nov 19,   201823:00:01.941356000 7
  455  40.31292332:32:32:32:32:3  9Bm N  ov 19, 2018 2 3:00:01.956411000  7
  456  40.49658132:32:32:32:32:3  8Bm N  ov 19, 2018 2 3:00:02.140069000  7
  457  4 0.7461132:32:32:32:32:3  8Bm N  ov 19, 2018 2 3:00:02.389598000  7
  458  40.83264632:32:32:32:32:3  8Bm N  ov 19, 2018 2 3:00:02.476134000  7
  459  4 0.8616132:32:32:32:32:3  7Bm N  ov 19, 2018 2 3:00:02.505098000  7
  460  40.87753632:32:32:32:32:3  8Bm N  ov 19, 2018 2 3:00:02.521024000  7
  461  40.88668332:32:32:32:32:3  9Bm N  ov 19, 2018 2 3:00:02.530171000  7
  462  40.91202332:32:32:32:32:3  7Bm N  ov 19, 2018 2 3:00:02.555511000  7
  463  40.99794732:32:32:32:32:3  7Bm N  ov 19, 2018 2 3:00:02.641435000  7
  464  41.14209932:32:32:32:32:3  9Bm N  ov 19, 2018 2 3:00:02.785587000  7
  465  41.23383332:32:32:32:32:3 10dBm   Nov 19,   201823:00:02.877321000 7
  466  41.55302232:32:32:32:32:3  7Bm N  ov 19, 2018 2 3:00:03.196510000  7
  467  41.71425732:32:32:32:32:3  8Bm N  ov 19, 2018 2 3:00:03.357745000  7
  468  41.77057532:32:32:32:32:3  8Bm N  ov 19, 2018 2 3:00:03.414063000  7
  469  41.99923832:32:32:32:32:3  9Bm N  ov 19, 2018 2 3:00:03.642726000  7
  470  42.01374932:32:32:32:32:3 10dBm   Nov 19,   201823:00:03.657237000 7
  471  42.11055232:32:32:32:32:3  8Bm N  ov 19, 2018 2 3:00:03.754040000  7
  472  4 2.1323832:32:32:32:32:3  9Bm N  ov 19, 2018 2 3:00:03.775868000  7
  473  4 2.2209432:32:32:32:32:3  9Bm N  ov 19, 2018 2 3:00:03.864428000  7
  474  4 2.2936332:32:32:32:32:3  8Bm N  ov 19, 2018 2 3:00:03.937118000  7
  475  42.63291332:32:32:32:32:3  7Bm N  ov 19, 2018 2 3:00:04.276401000  7
  476  42.66500532:32:32:32:32:3  8Bm N  ov 19, 2018 2 3:00:04.308493000  7
  477  42.82215432:32:32:32:32:3  8Bm N  ov 19, 2018 2 3:00:04.465642000  7
  478  42.98996832:32:32:32:32:3  8Bm N  ov 19, 2018 2 3:00:04.633456000  7
  479  43.02064232:32:32:32:32:3  9Bm N  ov 19, 2018 2 3:00:04.664130000  7
  480  43.06854632:32:32:32:32:3  9Bm N  ov 19, 2018 2 3:00:04.712034000  7
  481  43.15369632:32:32:32:32:3  9Bm N  ov 19, 2018 2 3:00:04.797184000  7
  482  43.30529332:32:32:32:32:3  7Bm N  ov 19, 2018 2 3:00:04.948781000  7
  483  43.32675732:32:32:32:32:3  7Bm N  ov 19, 2018 2 3:00:04.970245000  7
  484  43.94095832:32:32:32:32:3  7Bm N  ov 19, 2018 2 3:00:05.584446000  7
  485  44.04510332:32:32:32:32:3  8Bm N  ov 19, 2018 2 3:00:05.688591000  7
  486  44.06825232:32:32:32:32:3  8Bm N  ov 19, 2018 2 3:00:05.711740000  7
  487  44.08773632:32:32:32:32:3  8Bm N  ov 19, 2018 2 3:00:05.731224000  7
  488  44.12408732:32:32:32:32:3  8Bm N  ov 19, 2018 2 3:00:05.767575000  7
  489  44.16966432:32:32:32:32:3  8Bm N  ov 19, 2018 2 3:00:05.813152000  7
  490  44.29659132:32:32:32:32:3 10dBm   Nov 19,   201823:00:05.940079000 7
  491  44.41441632:32:32:32:32:3  8Bm N  ov 19, 2018 2 3:00:06.057904000  7
  492  44.58741432:32:32:32:32:3  8Bm N  ov 19, 2018 2 3:00:06.230902000  7
  493  44.73158732:32:32:32:32:3  7Bm N  ov 19, 2018 2 3:00:06.375075000  7
  494  44.76236432:32:32:32:32:3 10dBm   Nov 19,   201823:00:06.405852000 7
  495  44.91216232:32:32:32:32:3  9Bm N  ov 19, 2018 2 3:00:06.555650000  7
  496  44.96257232:32:32:32:32:3  6Bm N  ov 19, 2018 2 3:00:06.606060000  7
  497  4 5.1271632:32:32:32:32:3  9Bm N  ov 19, 2018 2 3:00:06.770648000  7
  498  45.36959932:32:32:32:32:3  9Bm N  ov 19, 2018 2 3:00:07.013087000  7
  499  4 5.4810532:32:32:32:32:3  9Bm N  ov 19, 2018 2 3:00:07.124538000  7
  500  45.57980532:32:32:32:32:3  7Bm N  ov 19, 2018 2 3:00:07.223293000  7
  501  45.60631832:32:32:32:32:3  8Bm N  ov 19, 2018 2 3:00:07.249806000  7
  502  45.82018132:32:32:32:32:3  9Bm N  ov 19, 2018 2 3:00:07.463669000  7
  503  45.88536832:32:32:32:32:3 11dBm   Nov 19,   201823:00:07.528856000 7
  504  45.96592732:32:32:32:32:3  7Bm N  ov 19, 2018 2 3:00:07.609415000  7
  505  46.13396732:32:32:32:32:3  8Bm N  ov 19, 2018 2 3:00:07.777455000  7
  506  46.17960932:32:32:32:32:3  9Bm N  ov 19, 2018 2 3:00:07.823097000  7
  507  46.26636232:32:32:32:32:3 10dBm   Nov 19,   201823:00:07.909850000 7
  508  46.35173732:32:32:32:32:3  6Bm N  ov 19, 2018 2 3:00:07.995225000  7
  509  4 6.4317732:32:32:32:32:3  9Bm N  ov 19, 2018 2 3:00:08.075258000  7
  510  46.63908132:32:32:32:32:3  8Bm N  ov 19, 2018 2 3:00:08.282569000  7
  511  46.71350832:32:32:32:32:3  7Bm N  ov 19, 2018 2 3:00:08.356996000  7
  512  46.76763932:32:32:32:32:3  8Bm N  ov 19, 2018 2 3:00:08.411127000  7
  513  46.78279432:32:32:32:32:3  7Bm N  ov 19, 2018 2 3:00:08.426282000  7
  514  46.94953332:32:32:32:32:3  9Bm N  ov 19, 2018 2 3:00:08.593021000  7
  515  47.03756232:32:32:32:32:3  7Bm N  ov 19, 2018 2 3:00:08.681050000  7
  516  4 7.1407932:32:32:32:32:3  8Bm N  ov 19, 2018 2 3:00:08.784278000  7
  517  47.52521832:32:32:32:32:3  9Bm N  ov 19, 2018 2 3:00:09.168706000  7
  518  47.56894732:32:32:32:32:3  8Bm N  ov 19, 2018 2 3:00:09.212435000  7
  519  47.91769332:32:32:32:32:3  9Bm N  ov 19, 2018 2 3:00:09.561181000  7
  520  47.95396832:32:32:32:32:3 10dBm   Nov 19,   201823:00:09.597456000 7
  521  47.96222432:32:32:32:32:3  9Bm N  ov 19, 2018 2 3:00:09.605712000  7
  522  47.99281632:32:32:32:32:3  8Bm N  ov 19, 2018 2 3:00:09.636304000  7
  523  48.00915232:32:32:32:32:3  8Bm N  ov 19, 2018 2 3:00:09.652640000  7
  524  48.02714432:32:32:32:32:3 10dBm   Nov 19,   201823:00:09.670632000 7
  525  48.04711232:32:32:32:32:3  9Bm N  ov 19, 2018 2 3:00:09.690600000  7
  526  48.17446432:32:32:32:32:3 10dBm   Nov 19,   201823:00:09.817952000 7
  527  48.61885832:32:32:32:32:3  8Bm N  ov 19, 2018 2 3:00:10.262346000  7
  528  48.81158432:32:32:32:32:3  8Bm N  ov 19, 2018 2 3:00:10.455072000  7
  529  48.85327632:32:32:32:32:3  8Bm N  ov 19, 2018 2 3:00:10.496764000  7
  530  48.95621732:32:32:32:32:3  8Bm N  ov 19, 2018 2 3:00:10.599705000  7
  531  48.97551832:32:32:32:32:3  9Bm N  ov 19, 2018 2 3:00:10.619006000  7
  532  48.99248832:32:32:32:32:3  9Bm N  ov 19, 2018 2 3:00:10.635976000  7
  533  49.11136932:32:32:32:32:3  9Bm N  ov 19, 2018 2 3:00:10.754857000  7
  534  4 9.1409932:32:32:32:32:3  8Bm N  ov 19, 2018 2 3:00:10.784478000  7
  535  49.25845532:32:32:32:32:3  8Bm N  ov 19, 2018 2 3:00:10.901943000  7
  536  49.29626432:32:32:32:32:3  7Bm N  ov 19, 2018 2 3:00:10.939752000  7
  537  49.57902532:32:32:32:32:3  6Bm N  ov 19, 2018 2 3:00:11.222513000  7
  538  49.63057932:32:32:32:32:3  5Bm N  ov 19, 2018 2 3:00:11.274067000  7
  539  50.31357932:32:32:32:32:3  8Bm N  ov 19, 2018 2 3:00:11.957067000  7
  540  50.35217132:32:32:32:32:3  6Bm N  ov 19, 2018 2 3:00:11.995659000  7
  541  50.39333332:32:32:32:32:3 10dBm   Nov 19,   201823:00:12.036821000 7
  542  50.48122832:32:32:32:32:3 10dBm   Nov 19,   201823:00:12.124716000 7
  543  50.51462932:32:32:32:32:3  9Bm N  ov 19, 2018 2 3:00:12.158117000  7
  544  50.70714532:32:32:32:32:3  7Bm N  ov 19, 2018 2 3:00:12.350633000  7
  545  50.92258932:32:32:32:32:3  8Bm N  ov 19, 2018 2 3:00:12.566077000  7
  546  51.18374632:32:32:32:32:3  9Bm N  ov 19, 2018 2 3:00:12.827234000  7
  547  51.27148732:32:32:32:32:3  9Bm N  ov 19, 2018 2 3:00:12.914975000  7
  548  51.40453432:32:32:32:32:3  6Bm N  ov 19, 2018 2 3:00:13.048022000  7
  549  51.42356932:32:32:32:32:3  8Bm N  ov 19, 2018 2 3:00:13.067057000  7
  550  51.43646632:32:32:32:32:3 10dBm   Nov 19,   201823:00:13.079954000 7
  551  51.57143832:32:32:32:32:3  9Bm N  ov 19, 2018 2 3:00:13.214926000  7
  552  5 1.6577832:32:32:32:32:3  8Bm N  ov 19, 2018 2 3:00:13.301268000  7
  553  51.77974332:32:32:32:32:3  9Bm N  ov 19, 2018 2 3:00:13.423231000  7
  554  51.79907732:32:32:32:32:3  9Bm N  ov 19, 2018 2 3:00:13.442565000  7
  555  51.81319632:32:32:32:32:3  7Bm N  ov 19, 2018 2 3:00:13.456684000  7
  556  51.82618932:32:32:32:32:3  8Bm N  ov 19, 2018 2 3:00:13.469677000  7
  557  52.13394832:32:32:32:32:3  8Bm N  ov 19, 2018 2 3:00:13.777436000  7
  558  52.29694832:32:32:32:32:3  9Bm N  ov 19, 2018 2 3:00:13.940436000  7
  559  52.38391632:32:32:32:32:3  7Bm N  ov 19, 2018 2 3:00:14.027404000  7
  560  52.40477932:32:32:32:32:3 10dBm   Nov 19,   201823:00:14.048267000 7
  561  52.43300932:32:32:32:32:3 10dBm   Nov 19,   201823:00:14.076497000 7
  562  52.45089932:32:32:32:32:3  8Bm N  ov 19, 2018 2 3:00:14.094387000  7
  563  52.53306332:32:32:32:32:3  7Bm N  ov 19, 2018 2 3:00:14.176551000  7
  564  52.61281132:32:32:32:32:3 10dBm   Nov 19,   201823:00:14.256299000 7
  565  52.79590332:32:32:32:32:3  7Bm N  ov 19, 2018 2 3:00:14.439391000  7
  566  52.81984832:32:32:32:32:3  9Bm N  ov 19, 2018 2 3:00:14.463336000  7
  567  52.83806132:32:32:32:32:3  8Bm N  ov 19, 2018 2 3:00:14.481549000  7
  568  52.89854632:32:32:32:32:3  8Bm N  ov 19, 2018 2 3:00:14.542034000  7
  569  5 2.9860132:32:32:32:32:3  9Bm N  ov 19, 2018 2 3:00:14.629498000  7
  570  5 3.0390432:32:32:32:32:3  9Bm N  ov 19, 2018 2 3:00:14.682528000  7
  571  53.05284232:32:32:32:32:3  9Bm N  ov 19, 2018 2 3:00:14.696330000  7
  572  53.10611332:32:32:32:32:3 10dBm   Nov 19,   201823:00:14.749601000 7
  573  53.35429132:32:32:32:32:3  8Bm N  ov 19, 2018 2 3:00:14.997779000  7
  574  53.41296532:32:32:32:32:3  8Bm N  ov 19, 2018 2 3:00:15.056453000  7
  575  53.42719532:32:32:32:32:3 10dBm   Nov 19,   201823:00:15.070683000 7
  576  53.53938632:32:32:32:32:3  9Bm N  ov 19, 2018 2 3:00:15.182874000  7
  577  53.62269332:32:32:32:32:3  8Bm N  ov 19, 2018 2 3:00:15.266181000  7
  578  53.73695932:32:32:32:32:3  8Bm N  ov 19, 2018 2 3:00:15.380447000  7
  579  53.95475332:32:32:32:32:3 10dBm   Nov 19,   201823:00:15.598241000 7
  580  5 4.0457832:32:32:32:32:3  9Bm N  ov 19, 2018 2 3:00:15.689268000  7
  581  54.10340332:32:32:32:32:3  9Bm N  ov 19, 2018 2 3:00:15.746891000  7
  582  54.12719532:32:32:32:32:3  7Bm N  ov 19, 2018 2 3:00:15.770683000  7
  583  54.14886532:32:32:32:32:3  9Bm N  ov 19, 2018 2 3:00:15.792353000  7
  584  54.16299732:32:32:32:32:3  9Bm N  ov 19, 2018 2 3:00:15.806485000  7
  585  54.19905532:32:32:32:32:3  8Bm N  ov 19, 2018 2 3:00:15.842543000  7
  586  54.37088832:32:32:32:32:3  9Bm N  ov 19, 2018 2 3:00:16.014376000  7
  587  5 4.4760132:32:32:32:32:3  9Bm N  ov 19, 2018 2 3:00:16.119498000  7
  588  54.51422832:32:32:32:32:3  8Bm N  ov 19, 2018 2 3:00:16.157716000  7
  589  54.58621832:32:32:32:32:3  8Bm N  ov 19, 2018 2 3:00:16.229706000  7
  590  54.61687932:32:32:32:32:3  6Bm N  ov 19, 2018 2 3:00:16.260367000  7
  591  54.70734532:32:32:32:32:3  8Bm N  ov 19, 2018 2 3:00:16.350833000  7
  592  54.75146532:32:32:32:32:3 10dBm   Nov 19,   201823:00:16.394953000 7
  593  54.76123132:32:32:32:32:3  9Bm N  ov 19, 2018 2 3:00:16.404719000  7
  594  54.88783432:32:32:32:32:3  9Bm N  ov 19, 2018 2 3:00:16.531322000  7
  595  54.93415632:32:32:32:32:3  9Bm N  ov 19, 2018 2 3:00:16.577644000  7
  596  55.15324332:32:32:32:32:3  9Bm N  ov 19, 2018 2 3:00:16.796731000  7
  597  55.27584432:32:32:32:32:3 10dBm   Nov 19,   201823:00:16.919332000 7
  598  55.29282832:32:32:32:32:3  9Bm N  ov 19, 2018 2 3:00:16.936316000  7
  599  55.35938232:32:32:32:32:3  7Bm N  ov 19, 2018 2 3:00:17.002870000  7
  600  55.38477332:32:32:32:32:3  8Bm N  ov 19, 2018 2 3:00:17.028261000  7
  601  5 5.5906432:32:32:32:32:3  9Bm N  ov 19, 2018 2 3:00:17.234128000  7
  602  55.72436332:32:32:32:32:3  9Bm N  ov 19, 2018 2 3:00:17.367851000  7
  603  55.88332832:32:32:32:32:3  9Bm N  ov 19, 2018 2 3:00:17.526816000  7
  604  55.91276132:32:32:32:32:3  7Bm N  ov 19, 2018 2 3:00:17.556249000  7
  605  56.05930632:32:32:32:32:3  9Bm N  ov 19, 2018 2 3:00:17.702794000  7
  606  5 6.1477532:32:32:32:32:3  9Bm N  ov 19, 2018 2 3:00:17.791238000  7
  607  56.17258532:32:32:32:32:3  8Bm N  ov 19, 2018 2 3:00:17.816073000  7
  608  56.36654432:32:32:32:32:3 10dBm   Nov 19,   201823:00:18.010032000 7
  609  56.69404932:32:32:32:32:3  8Bm N  ov 19, 2018 2 3:00:18.337537000  7
  610  56.81080132:32:32:32:32:3  9Bm N  ov 19, 2018 2 3:00:18.454289000  7
  611  56.85150732:32:32:32:32:3  9Bm N  ov 19, 2018 2 3:00:18.494995000  7
  612  5 7.0345332:32:32:32:32:3  7Bm N  ov 19, 2018 2 3:00:18.678018000  7
  613  57.06870332:32:32:32:32:3 10dBm   Nov 19,   201823:00:18.712191000 7
  614  57.11509732:32:32:32:32:3  9Bm N  ov 19, 2018 2 3:00:18.758585000  7
  615  57.41678732:32:32:32:32:3  9Bm N  ov 19, 2018 2 3:00:19.060275000  7
  616  57.46327432:32:32:32:32:3  7Bm N  ov 19, 2018 2 3:00:19.106762000  7
  617  57.73869132:32:32:32:32:3  5Bm N  ov 19, 2018 2 3:00:19.382179000  7
  618  57.77390732:32:32:32:32:3  7Bm N  ov 19, 2018 2 3:00:19.417395000  7
  619  57.79033332:32:32:32:32:3  7Bm N  ov 19, 2018 2 3:00:19.433821000  7
  620  57.99542432:32:32:32:32:3  7Bm N  ov 19, 2018 2 3:00:19.638912000  7
  621  58.07610932:32:32:32:32:3  8Bm N  ov 19, 2018 2 3:00:19.719597000  7
  622  58.28569232:32:32:32:32:3  8Bm N  ov 19, 2018 2 3:00:19.929180000  7
  623  58.44785732:32:32:32:32:3  7Bm N  ov 19, 2018 2 3:00:20.091345000  7
  624  58.50049532:32:32:32:32:3  9Bm N  ov 19, 2018 2 3:00:20.143983000  7
  625  58.56077532:32:32:32:32:3  8Bm N  ov 19, 2018 2 3:00:20.204263000  7
  626  58.59636232:32:32:32:32:3  7Bm N  ov 19, 2018 2 3:00:20.239850000  7
  627  58.67520632:32:32:32:32:3 10dBm   Nov 19,   201823:00:20.318694000 7
  628  58.70378632:32:32:32:32:3  8Bm N  ov 19, 2018 2 3:00:20.347274000  7
  629  58.86530432:32:32:32:32:3  9Bm N  ov 19, 2018 2 3:00:20.508792000  7
  630  58.96330832:32:32:32:32:3  7Bm N  ov 19, 2018 2 3:00:20.606796000  7
  631  59.02656532:32:32:32:32:3  8Bm N  ov 19, 2018 2 3:00:20.670053000  7
  632  59.05360132:32:32:32:32:3  8Bm N  ov 19, 2018 2 3:00:20.697089000  7
  633  59.09220632:32:32:32:32:3  9Bm N  ov 19, 2018 2 3:00:20.735694000  7
  634  5 9.3350732:32:32:32:32:3  7Bm N  ov 19, 2018 2 3:00:20.978558000  7
  635  59.36195132:32:32:32:32:3  9Bm N  ov 19, 2018 2 3:00:21.005439000  7
  636  59.81425232:32:32:32:32:3  6Bm N  ov 19, 2018 2 3:00:21.457740000  7
  637  59.97895432:32:32:32:32:3  8Bm N  ov 19, 2018 2 3:00:21.622442000  7
  638  60.04048232:32:32:32:32:3  8Bm N  ov 19, 2018 2 3:00:21.683970000  7
  639  60.42088532:32:32:32:32:3  9Bm N  ov 19, 2018 2 3:00:22.064373000  7
  640  6 0.5464432:32:32:32:32:3  5Bm N  ov 19, 2018 2 3:00:22.189928000  7
  641  60.94266132:32:32:32:32:3  7Bm N  ov 19, 2018 2 3:00:22.586149000  7
  642  6 0.9807332:32:32:32:32:3  9Bm N  ov 19, 2018 2 3:00:22.624218000  7
  643  61.37901332:32:32:32:32:3  9Bm N  ov 19, 2018 2 3:00:23.022501000  7
  644  61.42269132:32:32:32:32:3  9Bm N  ov 19, 2018 2 3:00:23.066179000  7
  645  61.55690932:32:32:32:32:3  9Bm N  ov 19, 2018 2 3:00:23.200397000  7
  646  61.73822132:32:32:32:32:3  8Bm N  ov 19, 2018 2 3:00:23.381709000  7
  647  61.86146932:32:32:32:32:3  7Bm N  ov 19, 2018 2 3:00:23.504957000  7
  648  61.87772932:32:32:32:32:3  9Bm N  ov 19, 2018 2 3:00:23.521217000  7
  649  61.89445232:32:32:32:32:3  9Bm N  ov 19, 2018 2 3:00:23.537940000  7
  650  61.90753432:32:32:32:32:3  9Bm N  ov 19, 2018 2 3:00:23.551022000  7
  651  62.04391532:32:32:32:32:3 10dBm   Nov 19,   201823:00:23.687403000 7
  652  62.09430532:32:32:32:32:3  9Bm N  ov 19, 2018 2 3:00:23.737793000  7
  653  62.32317732:32:32:32:32:3  9Bm N  ov 19, 2018 2 3:00:23.966665000  7
  654  62.34447532:32:32:32:32:3  9Bm N  ov 19, 2018 2 3:00:23.987963000  7
  655  62.36283732:32:32:32:32:3 10dBm   Nov 19,   201823:00:24.006325000 7
  656  6 2.4410432:32:32:32:32:3  7Bm N  ov 19, 2018 2 3:00:24.084528000  7
  657  62.48565632:32:32:32:32:3  9Bm N  ov 19, 2018 2 3:00:24.129144000  7
  658  62.68985632:32:32:32:32:3  8Bm N  ov 19, 2018 2 3:00:24.333344000  7
  659  62.74739732:32:32:32:32:3  8Bm N  ov 19, 2018 2 3:00:24.390885000  7
  660  62.76940532:32:32:32:32:3  8Bm N  ov 19, 2018 2 3:00:24.412893000  7
  661  62.78912432:32:32:32:32:3  8Bm N  ov 19, 2018 2 3:00:24.432612000  7
  662  62.82058232:32:32:32:32:3  8Bm N  ov 19, 2018 2 3:00:24.464070000  7
  663  6 2.8753632:32:32:32:32:3  7Bm N  ov 19, 2018 2 3:00:24.518848000  7
  664  62.92230932:32:32:32:32:3  9Bm N  ov 19, 2018 2 3:00:24.565797000  7
  665  62.95692832:32:32:32:32:3  8Bm N  ov 19, 2018 2 3:00:24.600416000  7
  666  62.98056632:32:32:32:32:3 10dBm   Nov 19,   201823:00:24.624054000 7
  667  63.19005832:32:32:32:32:3  9Bm N  ov 19, 2018 2 3:00:24.833546000  7
  668  63.24429832:32:32:32:32:3  6Bm N  ov 19, 2018 2 3:00:24.887786000  7
  669  63.27135932:32:32:32:32:3  9Bm N  ov 19, 2018 2 3:00:24.914847000  7
  670  63.29284232:32:32:32:32:3  8Bm N  ov 19, 2018 2 3:00:24.936330000  7
  671  63.59438432:32:32:32:32:3  9Bm N  ov 19, 2018 2 3:00:25.237872000  7
  672  63.66774132:32:32:32:32:3  9Bm N  ov 19, 2018 2 3:00:25.311229000  7
  673  63.78268832:32:32:32:32:3  8Bm N  ov 19, 2018 2 3:00:25.426176000  7
  674  6 3.8495632:32:32:32:32:3  9Bm N  ov 19, 2018 2 3:00:25.493048000  7
  675  63.88077432:32:32:32:32:3  7Bm N  ov 19, 2018 2 3:00:25.524262000  7
  676  6 3.9044832:32:32:32:32:3  7Bm N  ov 19, 2018 2 3:00:25.547968000  7
  677  63.96024132:32:32:32:32:3  8Bm N  ov 19, 2018 2 3:00:25.603729000  7
  678  64.04470632:32:32:32:32:3 10dBm   Nov 19,   201823:00:25.688194000 7
  679  64.43948532:32:32:32:32:3  8Bm N  ov 19, 2018 2 3:00:26.082973000  7
  680  64.45861732:32:32:32:32:3 10dBm   Nov 19,   201823:00:26.102105000 7
  681  64.48890332:32:32:32:32:3  9Bm N  ov 19, 2018 2 3:00:26.132391000  7
  682  6 4.6136232:32:32:32:32:3 11dBm   Nov 19,   201823:00:26.257108000 7
  683  64.68173932:32:32:32:32:3  7Bm N  ov 19, 2018 2 3:00:26.325227000  7
  684  64.75953232:32:32:32:32:3  8Bm N  ov 19, 2018 2 3:00:26.403020000  7
  685  64.95353832:32:32:32:32:3 10dBm   Nov 19,   201823:00:26.597026000 7
  686  65.00725732:32:32:32:32:3  8Bm N  ov 19, 2018 2 3:00:26.650745000  7
  687  65.35716332:32:32:32:32:3  9Bm N  ov 19, 2018 2 3:00:27.000651000  7
  688  65.40369832:32:32:32:32:3  9Bm N  ov 19, 2018 2 3:00:27.047186000  7
  689  65.46314332:32:32:32:32:3  8Bm N  ov 19, 2018 2 3:00:27.106631000  7
  690  65.50415632:32:32:32:32:3  8Bm N  ov 19, 2018 2 3:00:27.147644000  7
  691  65.69437932:32:32:32:32:3  9Bm N  ov 19, 2018 2 3:00:27.337867000  7
  692  65.75457632:32:32:32:32:3  9Bm N  ov 19, 2018 2 3:00:27.398064000  7
  693  65.87583432:32:32:32:32:3 10dBm   Nov 19,   201823:00:27.519322000 7
  694  65.94583232:32:32:32:32:3  8Bm N  ov 19, 2018 2 3:00:27.589320000  7
  695  6 5.9909332:32:32:32:32:3  9Bm N  ov 19, 2018 2 3:00:27.634418000  7
  696  66.01386232:32:32:32:32:3  8Bm N  ov 19, 2018 2 3:00:27.657350000  7
  697  66.11250532:32:32:32:32:3  7Bm N  ov 19, 2018 2 3:00:27.755993000  7
  698  66.18028632:32:32:32:32:3  8Bm N  ov 19, 2018 2 3:00:27.823774000  7
  699  66.20624132:32:32:32:32:3  8Bm N  ov 19, 2018 2 3:00:27.849729000  7
  700  66.21312132:32:32:32:32:3  8Bm N  ov 19, 2018 2 3:00:27.856609000  7
  701  66.45421132:32:32:32:32:3  8Bm N  ov 19, 2018 2 3:00:28.097699000  7
  702  66.47147832:32:32:32:32:3  8Bm N  ov 19, 2018 2 3:00:28.114966000  7
  703  66.50026832:32:32:32:32:3  8Bm N  ov 19, 2018 2 3:00:28.143756000  7
  704  66.65715132:32:32:32:32:3  8Bm N  ov 19, 2018 2 3:00:28.300639000  7
  705  66.70126232:32:32:32:32:3  8Bm N  ov 19, 2018 2 3:00:28.344750000  7
  706  66.83899432:32:32:32:32:3  7Bm N  ov 19, 2018 2 3:00:28.482482000  7
  707  67.09717332:32:32:32:32:3  8Bm N  ov 19, 2018 2 3:00:28.740661000  7
  708  67.31225832:32:32:32:32:3  7Bm N  ov 19, 2018 2 3:00:28.955746000  7
  709  67.35065832:32:32:32:32:3 10dBm   Nov 19,   201823:00:28.994146000 7
  710  67.53167132:32:32:32:32:3  9Bm N  ov 19, 2018 2 3:00:29.175159000  7
  711  6 7.5530232:32:32:32:32:3  8Bm N  ov 19, 2018 2 3:00:29.196508000  7
  712  67.57076932:32:32:32:32:3  9Bm N  ov 19, 2018 2 3:00:29.214257000  7
  713  67.68066532:32:32:32:32:3  8Bm N  ov 19, 2018 2 3:00:29.324153000  7
  714  67.71886232:32:32:32:32:3  8Bm N  ov 19, 2018 2 3:00:29.362350000  7
  715  67.74031932:32:32:32:32:3  9Bm N  ov 19, 2018 2 3:00:29.383807000  7
  716  67.76074432:32:32:32:32:3  9Bm N  ov 19, 2018 2 3:00:29.404232000  7
  717  67.84067432:32:32:32:32:3  7Bm N  ov 19, 2018 2 3:00:29.484162000  7
  718  67.98485532:32:32:32:32:3  8Bm N  ov 19, 2018 2 3:00:29.628343000  7
  719  68.04962932:32:32:32:32:3  8Bm N  ov 19, 2018 2 3:00:29.693117000  7
  720  68.07029332:32:32:32:32:3 11dBm   Nov 19,   201823:00:29.713781000 7
  721  68.14471432:32:32:32:32:3  9Bm N  ov 19, 2018 2 3:00:29.788202000  7
  722  68.20324332:32:32:32:32:3  8Bm N  ov 19, 2018 2 3:00:29.846731000  7
  723  68.22901332:32:32:32:32:3  9Bm N  ov 19, 2018 2 3:00:29.872501000  7
  724  68.23586232:32:32:32:32:3  7Bm N  ov 19, 2018 2 3:00:29.879350000  7
  725  68.34915632:32:32:32:32:3  9Bm N  ov 19, 2018 2 3:00:29.992644000  7
  726  68.42922732:32:32:32:32:3  7Bm N  ov 19, 2018 2 3:00:30.072715000  7
  727  68.49801832:32:32:32:32:3  8Bm N  ov 19, 2018 2 3:00:30.141506000  7
  728  68.74276932:32:32:32:32:3  6Bm N  ov 19, 2018 2 3:00:30.386257000  7
  729  68.78712332:32:32:32:32:3  9Bm N  ov 19, 2018 2 3:00:30.430611000  7
  730  68.92115732:32:32:32:32:3  8Bm N  ov 19, 2018 2 3:00:30.564645000  7
  731  69.00817732:32:32:32:32:3  7Bm N  ov 19, 2018 2 3:00:30.651665000  7
  732  69.12533432:32:32:32:32:3  6Bm N  ov 19, 2018 2 3:00:30.768822000  7
  733  69.16539532:32:32:32:32:3  8Bm N  ov 19, 2018 2 3:00:30.808883000  7
  734  69.20887732:32:32:32:32:3 10dBm   Nov 19,   201823:00:30.852365000 7
  735  69.23959132:32:32:32:32:3  9Bm N  ov 19, 2018 2 3:00:30.883079000  7
  736  69.28328132:32:32:32:32:3 10dBm   Nov 19,   201823:00:30.926769000 7
  737  69.31186832:32:32:32:32:3  8Bm N  ov 19, 2018 2 3:00:30.955356000  7
  738  69.41230532:32:32:32:32:3  9Bm N  ov 19, 2018 2 3:00:31.055793000  7
  739  69.46732832:32:32:32:32:3 10dBm   Nov 19,   201823:00:31.110816000 7
  740  69.50084232:32:32:32:32:3  9Bm N  ov 19, 2018 2 3:00:31.144330000  7
  741  69.58989532:32:32:32:32:3  9Bm N  ov 19, 2018 2 3:00:31.233383000  7
  742  69.64218832:32:32:32:32:3  9Bm N  ov 19, 2018 2 3:00:31.285676000  7
  743  69.65818132:32:32:32:32:3  9Bm N  ov 19, 2018 2 3:00:31.301669000  7
  744  69.84176932:32:32:32:32:3  9Bm N  ov 19, 2018 2 3:00:31.485257000  7
  745  6 9.8567632:32:32:32:32:3  5Bm N  ov 19, 2018 2 3:00:31.500248000  7
  746  6 9.9027632:32:32:32:32:3  9Bm N  ov 19, 2018 2 3:00:31.546248000  7
  747  70.00163132:32:32:32:32:3  5Bm N  ov 19, 2018 2 3:00:31.645119000  7
  748  70.01816132:32:32:32:32:3  9Bm N  ov 19, 2018 2 3:00:31.661649000  7
  749  70.08020932:32:32:32:32:3  7Bm N  ov 19, 2018 2 3:00:31.723697000  7
  750  70.15226132:32:32:32:32:3  8Bm N  ov 19, 2018 2 3:00:31.795749000  7
  751  7 0.1676832:32:32:32:32:3  7Bm N  ov 19, 2018 2 3:00:31.811168000  7
  752  70.24097432:32:32:32:32:3  9Bm N  ov 19, 2018 2 3:00:31.884462000  7
  753  70.46662632:32:32:32:32:3  8Bm N  ov 19, 2018 2 3:00:32.110114000  7
  754  70.49003332:32:32:32:32:3 10dBm   Nov 19,   201823:00:32.133521000 7
  755  70.59807732:32:32:32:32:3  9Bm N  ov 19, 2018 2 3:00:32.241565000  7
  756  70.62087632:32:32:32:32:3 10dBm   Nov 19,   201823:00:32.264364000 7
  757  70.81729432:32:32:32:32:3 10dBm   Nov 19,   201823:00:32.460782000 7
  758  70.92966532:32:32:32:32:3  9Bm N  ov 19, 2018 2 3:00:32.573153000  7
  759  70.94351432:32:32:32:32:3  8Bm N  ov 19, 2018 2 3:00:32.587002000  7
  760  70.96385432:32:32:32:32:3 11dBm   Nov 19,   201823:00:32.607342000 7
  761  71.05486532:32:32:32:32:3  9Bm N  ov 19, 2018 2 3:00:32.698353000  7
  762  71.08554332:32:32:32:32:3  7Bm N  ov 19, 2018 2 3:00:32.729031000  7
  763  7 1.1501132:32:32:32:32:3 10dBm   Nov 19,   201823:00:32.793598000 7
  764  71.27283432:32:32:32:32:3  7Bm N  ov 19, 2018 2 3:00:32.916322000  7
  765  7 1.5418732:32:32:32:32:3 12dBm   Nov 19,   201823:00:33.185358000 7
  766  71.56629632:32:32:32:32:3 10dBm   Nov 19,   201823:00:33.209784000 7
  767  7 1.6467732:32:32:32:32:3  7Bm N  ov 19, 2018 2 3:00:33.290258000  7
  768  7 1.7220232:32:32:32:32:3  8Bm N  ov 19, 2018 2 3:00:33.365508000  7
  769  71.90328132:32:32:32:32:3  7Bm N  ov 19, 2018 2 3:00:33.546769000  7
  770  71.93425432:32:32:32:32:3  6Bm N  ov 19, 2018 2 3:00:33.577742000  7
  771  72.03010132:32:32:32:32:3  9Bm N  ov 19, 2018 2 3:00:33.673589000  7
  772  72.07896632:32:32:32:32:3 10dBm   Nov 19,   201823:00:33.722454000 7
  773  72.19767332:32:32:32:32:3  8Bm N  ov 19, 2018 2 3:00:33.841161000  7
  774  72.26624832:32:32:32:32:3 10dBm   Nov 19,   201823:00:33.909736000 7
  775  7 2.2938532:32:32:32:32:3  9Bm N  ov 19, 2018 2 3:00:33.937338000  7
  776  72.33536232:32:32:32:32:3  8Bm N  ov 19, 2018 2 3:00:33.978850000  7
  777  72.34758632:32:32:32:32:3 10dBm   Nov 19,   201823:00:33.991074000 7
  778  72.51506232:32:32:32:32:3  7Bm N  ov 19, 2018 2 3:00:34.158550000  7
  779  7 2.7022132:32:32:32:32:3  7Bm N  ov 19, 2018 2 3:00:34.345698000  7
  780  72.85514332:32:32:32:32:3  9Bm N  ov 19, 2018 2 3:00:34.498631000  7
  781  72.92588632:32:32:32:32:3  8Bm N  ov 19, 2018 2 3:00:34.569374000  7
  782  72.95131432:32:32:32:32:3  9Bm N  ov 19, 2018 2 3:00:34.594802000  7
  783  72.98971432:32:32:32:32:3 10dBm   Nov 19,   201823:00:34.633202000 7
  784  73.08493632:32:32:32:32:3  8Bm N  ov 19, 2018 2 3:00:34.728424000  7
  785  7 3.4838732:32:32:32:32:3  8Bm N  ov 19, 2018 2 3:00:35.127358000  7
  786  73.71632732:32:32:32:32:3  7Bm N  ov 19, 2018 2 3:00:35.359815000  7
  787  73.74437832:32:32:32:32:3  8Bm N  ov 19, 2018 2 3:00:35.387866000  7
  788  73.75385532:32:32:32:32:3  7Bm N  ov 19, 2018 2 3:00:35.397343000  7
  789  73.81478432:32:32:32:32:3  8Bm N  ov 19, 2018 2 3:00:35.458272000  7
  790  74.08186232:32:32:32:32:3  7Bm N  ov 19, 2018 2 3:00:35.725350000  7
  791  74.17863532:32:32:32:32:3  7Bm N  ov 19, 2018 2 3:00:35.822123000  7
  792  74.20401432:32:32:32:32:3  7Bm N  ov 19, 2018 2 3:00:35.847502000  7
  793  74.42953632:32:32:32:32:3  7Bm N  ov 19, 2018 2 3:00:36.073024000  7
  794  74.48018332:32:32:32:32:3  8Bm N  ov 19, 2018 2 3:00:36.123671000  7
  795  74.65213132:32:32:32:32:3 10dBm   Nov 19,   201823:00:36.295619000 7
  796  74.86916632:32:32:32:32:3  9Bm N  ov 19, 2018 2 3:00:36.512654000  7
  797  74.95520932:32:32:32:32:3  7Bm N  ov 19, 2018 2 3:00:36.598697000  7
  798  74.97462332:32:32:32:32:3  7Bm N  ov 19, 2018 2 3:00:36.618111000  7
  799  75.01113232:32:32:32:32:3  9Bm N  ov 19, 2018 2 3:00:36.654620000  7
  800  75.02331732:32:32:32:32:3  8Bm N  ov 19, 2018 2 3:00:36.666805000  7
  801  75.04258632:32:32:32:32:3 10dBm   Nov 19,   201823:00:36.686074000 7
  802  75.14142832:32:32:32:32:3  8Bm N  ov 19, 2018 2 3:00:36.784916000  7
  803  75.44954732:32:32:32:32:3  9Bm N  ov 19, 2018 2 3:00:37.093035000  7
  804  75.54737432:32:32:32:32:3  9Bm N  ov 19, 2018 2 3:00:37.190862000  7
  805  75.64127432:32:32:32:32:3  9Bm N  ov 19, 2018 2 3:00:37.284762000  7
  806  75.73341632:32:32:32:32:3  8Bm N  ov 19, 2018 2 3:00:37.376904000  7
  807  75.90755232:32:32:32:32:3  8Bm N  ov 19, 2018 2 3:00:37.551040000  7
  808  76.18297232:32:32:32:32:3  7Bm N  ov 19, 2018 2 3:00:37.826460000  7
  809  76.22479932:32:32:32:32:3  8Bm N  ov 19, 2018 2 3:00:37.868287000  7
  810  76.24678832:32:32:32:32:3  8Bm N  ov 19, 2018 2 3:00:37.890276000  7
  811  76.49286532:32:32:32:32:3  6Bm N  ov 19, 2018 2 3:00:38.136353000  7
  812  76.55481132:32:32:32:32:3  8Bm N  ov 19, 2018 2 3:00:38.198299000  7
  813  76.62574732:32:32:32:32:3  9Bm N  ov 19, 2018 2 3:00:38.269235000  7
  814  76.64354232:32:32:32:32:3  8Bm N  ov 19, 2018 2 3:00:38.287030000  7
  815  76.79855232:32:32:32:32:3 10dBm   Nov 19,   201823:00:38.442040000 7
  816  7 6.9233832:32:32:32:32:3  8Bm N  ov 19, 2018 2 3:00:38.566868000  7
  817  77.00680132:32:32:32:32:3  9Bm N  ov 19, 2018 2 3:00:38.650289000  7
  818  77.02627632:32:32:32:32:3  7Bm N  ov 19, 2018 2 3:00:38.669764000  7
  819  77.08254332:32:32:32:32:3  9Bm N  ov 19, 2018 2 3:00:38.726031000  7
  820  77.24951532:32:32:32:32:3  9Bm N  ov 19, 2018 2 3:00:38.893003000  7
  821  77.29967432:32:32:32:32:3  7Bm N  ov 19, 2018 2 3:00:38.943162000  7
  822  7 7.3508632:32:32:32:32:3  9Bm N  ov 19, 2018 2 3:00:38.994348000  7
  823  77.35406532:32:32:32:32:3  9Bm N  ov 19, 2018 2 3:00:38.997553000  7
  824  77.46034232:32:32:32:32:3  8Bm N  ov 19, 2018 2 3:00:39.103830000  7
  825  77.53559732:32:32:32:32:3  9Bm N  ov 19, 2018 2 3:00:39.179085000  7
  826  77.69464932:32:32:32:32:3  9Bm N  ov 19, 2018 2 3:00:39.338137000  7
  827  77.94263332:32:32:32:32:3  8Bm N  ov 19, 2018 2 3:00:39.586121000  7
  828  78.07176832:32:32:32:32:3  8Bm N  ov 19, 2018 2 3:00:39.715256000  7
  829  78.18088732:32:32:32:32:3  8Bm N  ov 19, 2018 2 3:00:39.824375000  7
  830  78.20023132:32:32:32:32:3  9Bm N  ov 19, 2018 2 3:00:39.843719000  7
  831  7 8.3047232:32:32:32:32:3  8Bm N  ov 19, 2018 2 3:00:39.948208000  7
  832  78.51433332:32:32:32:32:3 10dBm   Nov 19,   201823:00:40.157821000 7
  833  78.53876332:32:32:32:32:3  7Bm N  ov 19, 2018 2 3:00:40.182251000  7
  834  78.67097232:32:32:32:32:3  9Bm N  ov 19, 2018 2 3:00:40.314460000  7
  835  78.75122432:32:32:32:32:3  9Bm N  ov 19, 2018 2 3:00:40.394712000  7
  836  78.78812132:32:32:32:32:3  7Bm N  ov 19, 2018 2 3:00:40.431609000  7
  837  78.85965832:32:32:32:32:3  9Bm N  ov 19, 2018 2 3:00:40.503146000  7
  838  78.92719232:32:32:32:32:3  9Bm N  ov 19, 2018 2 3:00:40.570680000  7
  839  79.06645232:32:32:32:32:3  8Bm N  ov 19, 2018 2 3:00:40.709940000  7
  840  79.12015532:32:32:32:32:3 10dBm   Nov 19,   201823:00:40.763643000 7
  841  79.13370832:32:32:32:32:3  9Bm N  ov 19, 2018 2 3:00:40.777196000  7
  842  79.17989932:32:32:32:32:3  8Bm N  ov 19, 2018 2 3:00:40.823387000  7
  843  79.28299732:32:32:32:32:3  9Bm N  ov 19, 2018 2 3:00:40.926485000  7
  844  7  9.312932:32:32:32:32:3  8Bm N  ov 19, 2018 2 3:00:40.956388000  7
  845  79.33738232:32:32:32:32:3 10dBm   Nov 19,   201823:00:40.980870000 7
  846  79.45699732:32:32:32:32:3  9Bm N  ov 19, 2018 2 3:00:41.100485000  7
  847  79.52177532:32:32:32:32:3  8Bm N  ov 19, 2018 2 3:00:41.165263000  7
  848  79.53876332:32:32:32:32:3  6Bm N  ov 19, 2018 2 3:00:41.182251000  7
  849  79.67305232:32:32:32:32:3 10dBm   Nov 19,   201823:00:41.316540000 7
  850  79.73229432:32:32:32:32:3  9Bm N  ov 19, 2018 2 3:00:41.375782000  7
  851  79.75181932:32:32:32:32:3 10dBm   Nov 19,   201823:00:41.395307000 7
  852  79.78471732:32:32:32:32:3 10dBm   Nov 19,   201823:00:41.428205000 7
  853  79.80392632:32:32:32:32:3  9Bm N  ov 19, 2018 2 3:00:41.447414000  7
  854  79.85394532:32:32:32:32:3  8Bm N  ov 19, 2018 2 3:00:41.497433000  7
  855  79.93881532:32:32:32:32:3  8Bm N  ov 19, 2018 2 3:00:41.582303000  7
  856  7 9.9718232:32:32:32:32:3  7Bm N  ov 19, 2018 2 3:00:41.615308000  7
  857  80.03570432:32:32:32:32:3  9Bm N  ov 19, 2018 2 3:00:41.679192000  7
  858  80.05841232:32:32:32:32:3  9Bm N  ov 19, 2018 2 3:00:41.701900000  7
  859  80.11027232:32:32:32:32:3  8Bm N  ov 19, 2018 2 3:00:41.753760000  7
  860  8  0.205632:32:32:32:32:3  9Bm N  ov 19, 2018 2 3:00:41.849088000  7
  861  80.23115732:32:32:32:32:3  8Bm N  ov 19, 2018 2 3:00:41.874645000  7
  862  8 0.3024332:32:32:32:32:3  7Bm N  ov 19, 2018 2 3:00:41.945918000  7
  863  8 0.3332332:32:32:32:32:3  8Bm N  ov 19, 2018 2 3:00:41.976718000  7
  864  80.40302732:32:32:32:32:3  8Bm N  ov 19, 2018 2 3:00:42.046515000  7
  865  80.53299432:32:32:32:32:3  8Bm N  ov 19, 2018 2 3:00:42.176482000  7
  866  80.55832232:32:32:32:32:3  8Bm N  ov 19, 2018 2 3:00:42.201810000  7
  867  80.65454432:32:32:32:32:3  7Bm N  ov 19, 2018 2 3:00:42.298032000  7
  868  80.67407232:32:32:32:32:3  9Bm N  ov 19, 2018 2 3:00:42.317560000  7
  869  80.77868232:32:32:32:32:3  9Bm N  ov 19, 2018 2 3:00:42.422170000  7
  870  80.82215332:32:32:32:32:3  8Bm N  ov 19, 2018 2 3:00:42.465641000  7
  871  80.84632532:32:32:32:32:3  8Bm N  ov 19, 2018 2 3:00:42.489813000  7
  872  81.00597632:32:32:32:32:3  8Bm N  ov 19, 2018 2 3:00:42.649464000  7
  873  81.04717732:32:32:32:32:3  6Bm N  ov 19, 2018 2 3:00:42.690665000  7
  874  81.07186532:32:32:32:32:3  9Bm N  ov 19, 2018 2 3:00:42.715353000  7
  875  81.23547732:32:32:32:32:3  9Bm N  ov 19, 2018 2 3:00:42.878965000  7
  876  81.47439832:32:32:32:32:3 10dBm   Nov 19,   201823:00:43.117886000 7
  877  8 1.5125932:32:32:32:32:3  9Bm N  ov 19, 2018 2 3:00:43.156078000  7
  878  81.53094832:32:32:32:32:3  7Bm N  ov 19, 2018 2 3:00:43.174436000  7
  879  81.55764232:32:32:32:32:3 10dBm   Nov 19,   201823:00:43.201130000 7
  880  81.59455332:32:32:32:32:3  8Bm N  ov 19, 2018 2 3:00:43.238041000  7
  881  81.61469132:32:32:32:32:3  8Bm N  ov 19, 2018 2 3:00:43.258179000  7
  882  81.70108332:32:32:32:32:3  8Bm N  ov 19, 2018 2 3:00:43.344571000  7
  883  82.09433932:32:32:32:32:3 10dBm   Nov 19,   201823:00:43.737827000 7
  884  82.12423532:32:32:32:32:3  8Bm N  ov 19, 2018 2 3:00:43.767723000  7
  885  82.27517732:32:32:32:32:3  8Bm N  ov 19, 2018 2 3:00:43.918665000  7
  886  82.46151132:32:32:32:32:3 10dBm   Nov 19,   201823:00:44.104999000 7
  887  82.51907832:32:32:32:32:3  8Bm N  ov 19, 2018 2 3:00:44.162566000  7
  888  82.53596432:32:32:32:32:3  8Bm N  ov 19, 2018 2 3:00:44.179452000  7
  889  82.77543432:32:32:32:32:3  9Bm N  ov 19, 2018 2 3:00:44.418922000  7
  890  82.86429332:32:32:32:32:3  8Bm N  ov 19, 2018 2 3:00:44.507781000  7
  891  82.89786232:32:32:32:32:3  6Bm N  ov 19, 2018 2 3:00:44.541350000  7
  892  83.02407432:32:32:32:32:3  9Bm N  ov 19, 2018 2 3:00:44.667562000  7
  893  83.03287132:32:32:32:32:3  9Bm N  ov 19, 2018 2 3:00:44.676359000  7
  894  83.07516132:32:32:32:32:3  9Bm N  ov 19, 2018 2 3:00:44.718649000  7
  895  83.12313332:32:32:32:32:3 10dBm   Nov 19,   201823:00:44.766621000 7
  896  83.30856532:32:32:32:32:3 10dBm   Nov 19,   201823:00:44.952053000 7
  897  83.55651932:32:32:32:32:3  8Bm N  ov 19, 2018 2 3:00:45.200007000  7
  898  83.75118632:32:32:32:32:3  8Bm N  ov 19, 2018 2 3:00:45.394674000  7
  899  83.79930732:32:32:32:32:3 10dBm   Nov 19,   201823:00:45.442795000 7
  900  83.83423632:32:32:32:32:3  6Bm N  ov 19, 2018 2 3:00:45.477724000  7
  901  8 3.9001332:32:32:32:32:3 10dBm   Nov 19,   201823:00:45.543618000 7
  902  84.00606132:32:32:32:32:3 10dBm   Nov 19,   201823:00:45.649549000 7
  903  84.20402632:32:32:32:32:3  8Bm N  ov 19, 2018 2 3:00:45.847514000  7
  904  84.37196132:32:32:32:32:3  7Bm N  ov 19, 2018 2 3:00:46.015449000  7
  905  84.45294332:32:32:32:32:3  9Bm N  ov 19, 2018 2 3:00:46.096431000  7
  906  8  4.554932:32:32:32:32:3 10dBm   Nov 19,   201823:00:46.198388000 7
  907  84.58148532:32:32:32:32:3  8Bm N  ov 19, 2018 2 3:00:46.224973000  7
  908  8 4.5971832:32:32:32:32:3 10dBm   Nov 19,   201823:00:46.240668000 7
  909  8 4.6293132:32:32:32:32:3  9Bm N  ov 19, 2018 2 3:00:46.272798000  7
  910  84.65560632:32:32:32:32:3  9Bm N  ov 19, 2018 2 3:00:46.299094000  7
  911  84.68835932:32:32:32:32:3 10dBm   Nov 19,   201823:00:46.331847000 7
  912  8 4.7446232:32:32:32:32:3  8Bm N  ov 19, 2018 2 3:00:46.388108000  7
  913  84.84870232:32:32:32:32:3  9Bm N  ov 19, 2018 2 3:00:46.492190000  7
  914  84.87033632:32:32:32:32:3  7Bm N  ov 19, 2018 2 3:00:46.513824000  7
  915  84.98732932:32:32:32:32:3  9Bm N  ov 19, 2018 2 3:00:46.630817000  7
  916  85.25438932:32:32:32:32:3  7Bm N  ov 19, 2018 2 3:00:46.897877000  7
  917  85.27507632:32:32:32:32:3  7Bm N  ov 19, 2018 2 3:00:46.918564000  7
  918  85.29866732:32:32:32:32:3  9Bm N  ov 19, 2018 2 3:00:46.942155000  7
  919  85.33271632:32:32:32:32:3  9Bm N  ov 19, 2018 2 3:00:46.976204000  7
  920  85.39382232:32:32:32:32:3 10dBm   Nov 19,   201823:00:47.037310000 7
  921  85.43083832:32:32:32:32:3  9Bm N  ov 19, 2018 2 3:00:47.074326000  7
  922  85.59253932:32:32:32:32:3  8Bm N  ov 19, 2018 2 3:00:47.236027000  7
  923  85.62396832:32:32:32:32:3  9Bm N  ov 19, 2018 2 3:00:47.267456000  7
  924  85.71145432:32:32:32:32:3  8Bm N  ov 19, 2018 2 3:00:47.354942000  7
  925  85.73486532:32:32:32:32:3  8Bm N  ov 19, 2018 2 3:00:47.378353000  7
  926  85.88122632:32:32:32:32:3 10dBm   Nov 19,   201823:00:47.524714000 7
  927  86.06984632:32:32:32:32:3  9Bm N  ov 19, 2018 2 3:00:47.713334000  7
  928  86.12166232:32:32:32:32:3  9Bm N  ov 19, 2018 2 3:00:47.765150000  7
  929  86.47126832:32:32:32:32:3  9Bm N  ov 19, 2018 2 3:00:48.114756000  7
  930  86.48631332:32:32:32:32:3  9Bm N  ov 19, 2018 2 3:00:48.129801000  7
  931  86.49162932:32:32:32:32:3  9Bm N  ov 19, 2018 2 3:00:48.135117000  7
  932  86.52008932:32:32:32:32:3 10dBm   Nov 19,   201823:00:48.163577000 7
  933  86.58144632:32:32:32:32:3  9Bm N  ov 19, 2018 2 3:00:48.224934000  7
  934  86.59998932:32:32:32:32:3  8Bm N  ov 19, 2018 2 3:00:48.243477000  7
  935  8 6.6854432:32:32:32:32:3  9Bm N  ov 19, 2018 2 3:00:48.328928000  7
  936  86.72360532:32:32:32:32:3 10dBm   Nov 19,   201823:00:48.367093000 7
  937  86.74235232:32:32:32:32:3  9Bm N  ov 19, 2018 2 3:00:48.385840000  7
  938  87.34448232:32:32:32:32:3  9Bm N  ov 19, 2018 2 3:00:48.987970000  7
  939  8  7.430432:32:32:32:32:3  8Bm N  ov 19, 2018 2 3:00:49.073888000  7
  940  87.58735732:32:32:32:32:3  9Bm N  ov 19, 2018 2 3:00:49.230845000  7
  941  87.61530132:32:32:32:32:3 10dBm   Nov 19,   201823:00:49.258789000 7
  942  87.61890532:32:32:32:32:3  8Bm N  ov 19, 2018 2 3:00:49.262393000  7
  943  87.71266132:32:32:32:32:3  9Bm N  ov 19, 2018 2 3:00:49.356149000  7
  944  87.79608632:32:32:32:32:3  9Bm N  ov 19, 2018 2 3:00:49.439574000  7
  945  8 7.8987232:32:32:32:32:3  9Bm N  ov 19, 2018 2 3:00:49.542208000  7
  946  87.91725832:32:32:32:32:3 10dBm   Nov 19,   201823:00:49.560746000 7
  947  87.92192632:32:32:32:32:3  8Bm N  ov 19, 2018 2 3:00:49.565414000  7
  948  87.96444632:32:32:32:32:3  6Bm N  ov 19, 2018 2 3:00:49.607934000  7
  949  87.98562732:32:32:32:32:3  8Bm N  ov 19, 2018 2 3:00:49.629115000  7
  950  88.01024732:32:32:32:32:3  9Bm N  ov 19, 2018 2 3:00:49.653735000  7
  951  88.02372832:32:32:32:32:3  6Bm N  ov 19, 2018 2 3:00:49.667216000  7
  952  88.10698132:32:32:32:32:3  8Bm N  ov 19, 2018 2 3:00:49.750469000  7
  953  88.26486232:32:32:32:32:3  9Bm N  ov 19, 2018 2 3:00:49.908350000  7
  954  88.49753332:32:32:32:32:3  9Bm N  ov 19, 2018 2 3:00:50.141021000  7
  955  88.65541832:32:32:32:32:3  9Bm N  ov 19, 2018 2 3:00:50.298906000  7
  956  88.69598732:32:32:32:32:3 10dBm   Nov 19,   201823:00:50.339475000 7
  957  88.71305332:32:32:32:32:3  7Bm N  ov 19, 2018 2 3:00:50.356541000  7
  958  88.73095232:32:32:32:32:3  9Bm N  ov 19, 2018 2 3:00:50.374440000  7
  959  88.74427132:32:32:32:32:3 10dBm   Nov 19,   201823:00:50.387759000 7
  960  88.76822432:32:32:32:32:3  9Bm N  ov 19, 2018 2 3:00:50.411712000  7
  961  88.80961532:32:32:32:32:3  9Bm N  ov 19, 2018 2 3:00:50.453103000  7
  962  88.87560532:32:32:32:32:3  8Bm N  ov 19, 2018 2 3:00:50.519093000  7
  963  88.97477132:32:32:32:32:3  8Bm N  ov 19, 2018 2 3:00:50.618259000  7
  964  89.05605732:32:32:32:32:3  8Bm N  ov 19, 2018 2 3:00:50.699545000  7
  965  89.10961932:32:32:32:32:3  9Bm N  ov 19, 2018 2 3:00:50.753107000  7
  966  8 9.2390232:32:32:32:32:3  8Bm N  ov 19, 2018 2 3:00:50.882508000  7
  967  8 9.2761632:32:32:32:32:3  8Bm N  ov 19, 2018 2 3:00:50.919648000  7
  968  89.60860332:32:32:32:32:3 10dBm   Nov 19,   201823:00:51.252091000 7
  969  89.67347732:32:32:32:32:3  7Bm N  ov 19, 2018 2 3:00:51.316965000  7
  970  89.80893232:32:32:32:32:3  9Bm N  ov 19, 2018 2 3:00:51.452420000  7
  971  90.16459332:32:32:32:32:3  8Bm N  ov 19, 2018 2 3:00:51.808081000  7
  972  90.21757332:32:32:32:32:3  6Bm N  ov 19, 2018 2 3:00:51.861061000  7
  973  90.25791832:32:32:32:32:3  9Bm N  ov 19, 2018 2 3:00:51.901406000  7
  974  90.29514432:32:32:32:32:3  9Bm N  ov 19, 2018 2 3:00:51.938632000  7
  975  90.36101332:32:32:32:32:3  9Bm N  ov 19, 2018 2 3:00:52.004501000  7
  976  90.46837532:32:32:32:32:3  6Bm N  ov 19, 2018 2 3:00:52.111863000  7
  977  90.49075632:32:32:32:32:3  7Bm N  ov 19, 2018 2 3:00:52.134244000  7
  978  90.58829132:32:32:32:32:3  9Bm N  ov 19, 2018 2 3:00:52.231779000  7
  979  90.59611332:32:32:32:32:3  9Bm N  ov 19, 2018 2 3:00:52.239601000  7
  980  90.61392432:32:32:32:32:3  7Bm N  ov 19, 2018 2 3:00:52.257412000  7
  981  90.68778232:32:32:32:32:3  9Bm N  ov 19, 2018 2 3:00:52.331270000  7
  982  90.72731932:32:32:32:32:3  9Bm N  ov 19, 2018 2 3:00:52.370807000  7
  983  90.74835332:32:32:32:32:3  7Bm N  ov 19, 2018 2 3:00:52.391841000  7
  984  90.79535732:32:32:32:32:3 10dBm   Nov 19,   201823:00:52.438845000 7
  985  9 1.0405932:32:32:32:32:3  7Bm N  ov 19, 2018 2 3:00:52.684078000  7
  986  91.12420932:32:32:32:32:3  9Bm N  ov 19, 2018 2 3:00:52.767697000  7
  987  9 1.1456932:32:32:32:32:3  8Bm N  ov 19, 2018 2 3:00:52.789178000  7
  988  91.25943432:32:32:32:32:3  9Bm N  ov 19, 2018 2 3:00:52.902922000  7
  989  91.50175432:32:32:32:32:3  9Bm N  ov 19, 2018 2 3:00:53.145242000  7
  990  91.52334532:32:32:32:32:3  8Bm N  ov 19, 2018 2 3:00:53.166833000  7
  991  91.54721632:32:32:32:32:3  7Bm N  ov 19, 2018 2 3:00:53.190704000  7
  992  91.57218432:32:32:32:32:3 10dBm   Nov 19,   201823:00:53.215672000 7
  993  91.91044832:32:32:32:32:3  9Bm N  ov 19, 2018 2 3:00:53.553936000  7
  994  92.05201332:32:32:32:32:3 10dBm   Nov 19,   201823:00:53.695501000 7
  995  92.26723432:32:32:32:32:3  8Bm N  ov 19, 2018 2 3:00:53.910722000  7
  996  92.52497632:32:32:32:32:3  8Bm N  ov 19, 2018 2 3:00:54.168464000  7
  997  92.61362232:32:32:32:32:3  9Bm N  ov 19, 2018 2 3:00:54.257110000  7
  998  92.64195232:32:32:32:32:3  6Bm N  ov 19, 2018 2 3:00:54.285440000  7
  999  92.85613432:32:32:32:32:3  9Bm N  ov 19, 2018 2 3:00:54.499622000  7
 1000  93.05366732:32:32:32:32:3  9Bm N  ov 19, 2018 2 3:00:54.697155000  7
 1001  93.08458632:32:32:32:32:3  8Bm N  ov 19, 2018 2 3:00:54.728074000  7
 1002  93.11338332:32:32:32:32:3  7Bm N  ov 19, 2018 2 3:00:54.756871000  7
 1003  93.23988432:32:32:32:32:3 10dBm   Nov 19,   201823:00:54.883372000 7
 1004  93.28069532:32:32:32:32:3  9Bm N  ov 19, 2018 2 3:00:54.924183000  7
 1005  93.40506532:32:32:32:32:3  8Bm N  ov 19, 2018 2 3:00:55.048553000  7
 1006  93.42264332:32:32:32:32:3  8Bm N  ov 19, 2018 2 3:00:55.066131000  7
 1007  93.43381432:32:32:32:32:3  9Bm N  ov 19, 2018 2 3:00:55.077302000  7
 1008  93.49887832:32:32:32:32:3  8Bm N  ov 19, 2018 2 3:00:55.142366000  7
 1009  93.60739132:32:32:32:32:3  8Bm N  ov 19, 2018 2 3:00:55.250879000  7
 1010  93.66773332:32:32:32:32:3  9Bm N  ov 19, 2018 2 3:00:55.311221000  7
 1011  93.70475932:32:32:32:32:3  9Bm N  ov 19, 2018 2 3:00:55.348247000  7
 1012  94.06018732:32:32:32:32:3 10dBm   Nov 19,   201823:00:55.703675000 7
 1013  9 4.0847332:32:32:32:32:3  9Bm N  ov 19, 2018 2 3:00:55.728218000  7
 1014  94.17583832:32:32:32:32:3  8Bm N  ov 19, 2018 2 3:00:55.819326000  7
 1015  94.24285832:32:32:32:32:3  8Bm N  ov 19, 2018 2 3:00:55.886346000  7
 1016  94.47495332:32:32:32:32:3  9Bm N  ov 19, 2018 2 3:00:56.118441000  7
 1017  94.77335832:32:32:32:32:3  9Bm N  ov 19, 2018 2 3:00:56.416846000  7
 1018  94.79099432:32:32:32:32:3  9Bm N  ov 19, 2018 2 3:00:56.434482000  7
 1019  94.82123232:32:32:32:32:3  9Bm N  ov 19, 2018 2 3:00:56.464720000  7
 1020  94.83990632:32:32:32:32:3  8Bm N  ov 19, 2018 2 3:00:56.483394000  7
 1021  94.93561932:32:32:32:32:3  9Bm N  ov 19, 2018 2 3:00:56.579107000  7
 1022  9  5.043832:32:32:32:32:3  5Bm N  ov 19, 2018 2 3:00:56.687288000  7
 1023  9 5.0689932:32:32:32:32:3  8Bm N  ov 19, 2018 2 3:00:56.712478000  7
 1024  95.10279232:32:32:32:32:3 10dBm   Nov 19,   201823:00:56.746280000 7
 1025  95.15384832:32:32:32:32:3  9Bm N  ov 19, 2018 2 3:00:56.797336000  7
 1026  95.40756232:32:32:32:32:3  8Bm N  ov 19, 2018 2 3:00:57.051050000  7
 1027  95.41381732:32:32:32:32:3  8Bm N  ov 19, 2018 2 3:00:57.057305000  7
 1028  95.42023232:32:32:32:32:3  9Bm N  ov 19, 2018 2 3:00:57.063720000  7
 1029  95.42593732:32:32:32:32:3 10dBm   Nov 19,   201823:00:57.069425000 7
 1030  95.78509132:32:32:32:32:3  8Bm N  ov 19, 2018 2 3:00:57.428579000  7
 1031  96.06143632:32:32:32:32:3  9Bm N  ov 19, 2018 2 3:00:57.704924000  7
 1032  96.09892732:32:32:32:32:3  9Bm N  ov 19, 2018 2 3:00:57.742415000  7
 1033  96.17161832:32:32:32:32:3 10dBm   Nov 19,   201823:00:57.815106000 7
 1034  96.20876132:32:32:32:32:3  8Bm N  ov 19, 2018 2 3:00:57.852249000  7
 1035  96.34244832:32:32:32:32:3  9Bm N  ov 19, 2018 2 3:00:57.985936000  7
 1036  96.40219232:32:32:32:32:3  5Bm N  ov 19, 2018 2 3:00:58.045680000  7
 1037  96.45907732:32:32:32:32:3  9Bm N  ov 19, 2018 2 3:00:58.102565000  7
 1038  96.49776332:32:32:32:32:3  8Bm N  ov 19, 2018 2 3:00:58.141251000  7
 1039  96.77820732:32:32:32:32:3 10dBm   Nov 19,   201823:00:58.421695000 7
 1040  96.90154532:32:32:32:32:3  9Bm N  ov 19, 2018 2 3:00:58.545033000  7
 1041  97.00791532:32:32:32:32:3  7Bm N  ov 19, 2018 2 3:00:58.651403000  7
 1042  97.15712532:32:32:32:32:3  8Bm N  ov 19, 2018 2 3:00:58.800613000  7
 1043  97.18965932:32:32:32:32:3  7Bm N  ov 19, 2018 2 3:00:58.833147000  7
 1044  97.26776232:32:32:32:32:3  8Bm N  ov 19, 2018 2 3:00:58.911250000  7
 1045  97.36868332:32:32:32:32:3  8Bm N  ov 19, 2018 2 3:00:59.012171000  7
 1046  9 7.4899532:32:32:32:32:3  7Bm N  ov 19, 2018 2 3:00:59.133438000  7
 1047  9 7.5693932:32:32:32:32:3  9Bm N  ov 19, 2018 2 3:00:59.212878000  7
 1048  97.58482932:32:32:32:32:3  9Bm N  ov 19, 2018 2 3:00:59.228317000  7
 1049  97.69731532:32:32:32:32:3  8Bm N  ov 19, 2018 2 3:00:59.340803000  7
 1050  97.77138232:32:32:32:32:3  9Bm N  ov 19, 2018 2 3:00:59.414870000  7
 1051  98.13882632:32:32:32:32:3  9Bm N  ov 19, 2018 2 3:00:59.782314000  7
 1052  98.40513732:32:32:32:32:3  8Bm N  ov 19, 2018 2 3:01:00.048625000  7
 1053  98.51956332:32:32:32:32:3  8Bm N  ov 19, 2018 2 3:01:00.163051000  7
 1054  98.53850432:32:32:32:32:3  7Bm N  ov 19, 2018 2 3:01:00.181992000  7
 1055  98.62527632:32:32:32:32:3  7Bm N  ov 19, 2018 2 3:01:00.268764000  7
 1056  98.86082732:32:32:32:32:3  9Bm N  ov 19, 2018 2 3:01:00.504315000  7
 1057  99.08459132:32:32:32:32:3  8Bm N  ov 19, 2018 2 3:01:00.728079000  7
 1058  99.32159932:32:32:32:32:3  9Bm N  ov 19, 2018 2 3:01:00.965087000  7
 1059  99.37194532:32:32:32:32:3  8Bm N  ov 19, 2018 2 3:01:01.015433000  7
 1060  9 9.5454232:32:32:32:32:3  8Bm N  ov 19, 2018 2 3:01:01.188908000  7
 1061  9 9.5633532:32:32:32:32:3  9Bm N  ov 19, 2018 2 3:01:01.206838000  7
 1062  99.57494932:32:32:32:32:3  8Bm N  ov 19, 2018 2 3:01:01.218437000  7
 1063  99.78492632:32:32:32:32:3  8Bm N  ov 19, 2018 2 3:01:01.428414000  7
 1064  99.94791732:32:32:32:32:3  8Bm N  ov 19, 2018 2 3:01:01.591405000  7
 1065  9 9.9717132:32:32:32:32:3  8Bm N  ov 19, 2018 2 3:01:01.615198000  7
 1066  99.98041432:32:32:32:32:3  7Bm N  ov 19, 2018 2 3:01:01.623902000  7
 1067 100.00435832:32:32:32:32:3  6Bm N  ov 19, 2018 2 3:01:01.647846000  7
 1068 100.26590732:32:32:32:32:3  8Bm N  ov 19, 2018 2 3:01:01.909395000  7
 1069 100.30752432:32:32:32:32:3  8Bm N  ov 19, 2018 2 3:01:01.951012000  7
 1070 100.32430432:32:32:32:32:3  8Bm N  ov 19, 2018 2 3:01:01.967792000  7
 1071 100.33454532:32:32:32:32:3  7Bm N  ov 19, 2018 2 3:01:01.978033000  7
 1072 100.34036732:32:32:32:32:3  7Bm N  ov 19, 2018 2 3:01:01.983855000  7
 1073 100.44575232:32:32:32:32:3  7Bm N  ov 19, 2018 2 3:01:02.089240000  7
 1074 100.47326432:32:32:32:32:3  8Bm N  ov 19, 2018 2 3:01:02.116752000  7
 1075 100.64680432:32:32:32:32:3  9Bm N  ov 19, 2018 2 3:01:02.290292000  7
 1076 100.87441332:32:32:32:32:3  7Bm N  ov 19, 2018 2 3:01:02.517901000  7
 1077 100.89290732:32:32:32:32:3 10dBm   Nov 19,   201823:01:02.536395000 7
 1078 100.91117732:32:32:32:32:3 11dBm   Nov 19,   201823:01:02.554665000 7
 1079 100.97332132:32:32:32:32:3  8Bm N  ov 19, 2018 2 3:01:02.616809000  7
 1080 10 1.0567632:32:32:32:32:3  8Bm N  ov 19, 2018 2 3:01:02.700248000  7
 1081 101.16943732:32:32:32:32:3  8Bm N  ov 19, 2018 2 3:01:02.812925000  7
 1082 101.33336332:32:32:32:32:3  7Bm N  ov 19, 2018 2 3:01:02.976851000  7
 1083 101.37648332:32:32:32:32:3  9Bm N  ov 19, 2018 2 3:01:03.019971000  7
 1084 101.40982432:32:32:32:32:3  7Bm N  ov 19, 2018 2 3:01:03.053312000  7
 1085 101.67203732:32:32:32:32:3  8Bm N  ov 19, 2018 2 3:01:03.315525000  7
 1086 101.68595632:32:32:32:32:3  9Bm N  ov 19, 2018 2 3:01:03.329444000  7
 1087 101.73705232:32:32:32:32:3  8Bm N  ov 19, 2018 2 3:01:03.380540000  7
 1088 101.78210332:32:32:32:32:3  7Bm N  ov 19, 2018 2 3:01:03.425591000  7
 1089 101.87103132:32:32:32:32:3  9Bm N  ov 19, 2018 2 3:01:03.514519000  7
 1090 101.96807132:32:32:32:32:3  9Bm N  ov 19, 2018 2 3:01:03.611559000  7
 1091 102.00949932:32:32:32:32:3  8Bm N  ov 19, 2018 2 3:01:03.652987000  7
 1092 102.16950732:32:32:32:32:3  8Bm N  ov 19, 2018 2 3:01:03.812995000  7
 1093 10  2.195832:32:32:32:32:3  8Bm N  ov 19, 2018 2 3:01:03.839288000  7
 1094 102.28291332:32:32:32:32:3  7Bm N  ov 19, 2018 2 3:01:03.926401000  7
 1095 102.31740832:32:32:32:32:3  7Bm N  ov 19, 2018 2 3:01:03.960896000  7
 1096 102.33947332:32:32:32:32:3 10dBm   Nov 19,   201823:01:03.982961000 7
 1097 102.36285332:32:32:32:32:3  8Bm N  ov 19, 2018 2 3:01:04.006341000  7
 1098 102.46415332:32:32:32:32:3  8Bm N  ov 19, 2018 2 3:01:04.107641000  7
 1099 102.58997532:32:32:32:32:3  7Bm N  ov 19, 2018 2 3:01:04.233463000  7
 1100 102.66680832:32:32:32:32:3  8Bm N  ov 19, 2018 2 3:01:04.310296000  7
 1101 102.74132232:32:32:32:32:3  8Bm N  ov 19, 2018 2 3:01:04.384810000  7
 1102 102.83119732:32:32:32:32:3  9Bm N  ov 19, 2018 2 3:01:04.474685000  7
 1103 102.93250232:32:32:32:32:3 10dBm   Nov 19,   201823:01:04.575990000 7
 1104 10 2.9593132:32:32:32:32:3  8Bm N  ov 19, 2018 2 3:01:04.602798000  7
 1105 103.00736732:32:32:32:32:3  9Bm N  ov 19, 2018 2 3:01:04.650855000  7
 1106 103.05316732:32:32:32:32:3 10dBm   Nov 19,   201823:01:04.696655000 7
 1107 103.07150732:32:32:32:32:3  7Bm N  ov 19, 2018 2 3:01:04.714995000  7
 1108 103.13061532:32:32:32:32:3  8Bm N  ov 19, 2018 2 3:01:04.774103000  7
 1109 103.18315532:32:32:32:32:3  5Bm N  ov 19, 2018 2 3:01:04.826643000  7
 1110 103.21081132:32:32:32:32:3  7Bm N  ov 19, 2018 2 3:01:04.854299000  7
 1111 103.24246532:32:32:32:32:3  8Bm N  ov 19, 2018 2 3:01:04.885953000  7
 1112 103.25818732:32:32:32:32:3  9Bm N  ov 19, 2018 2 3:01:04.901675000  7
 1113 10 3.2828432:32:32:32:32:3  8Bm N  ov 19, 2018 2 3:01:04.926328000  7
 1114 10 3.4162232:32:32:32:32:3  9Bm N  ov 19, 2018 2 3:01:05.059708000  7
 1115 103.67079832:32:32:32:32:3  8Bm N  ov 19, 2018 2 3:01:05.314286000  7
 1116 103.71804232:32:32:32:32:3  7Bm N  ov 19, 2018 2 3:01:05.361530000  7
 1117 103.73432932:32:32:32:32:3  8Bm N  ov 19, 2018 2 3:01:05.377817000  7
 1118 103.76402632:32:32:32:32:3  8Bm N  ov 19, 2018 2 3:01:05.407514000  7
 1119 103.79617732:32:32:32:32:3  9Bm N  ov 19, 2018 2 3:01:05.439665000  7
 1120 103.81277432:32:32:32:32:3 10dBm   Nov 19,   201823:01:05.456262000 7
 1121 103.83579132:32:32:32:32:3  9Bm N  ov 19, 2018 2 3:01:05.479279000  7
 1122 103.86411332:32:32:32:32:3  8Bm N  ov 19, 2018 2 3:01:05.507601000  7
 1123 103.91930732:32:32:32:32:3  7Bm N  ov 19, 2018 2 3:01:05.562795000  7
 1124 103.98729232:32:32:32:32:3  9Bm N  ov 19, 2018 2 3:01:05.630780000  7
 1125 104.14523732:32:32:32:32:3  9Bm N  ov 19, 2018 2 3:01:05.788725000  7
 1126 104.21197532:32:32:32:32:3  9Bm N  ov 19, 2018 2 3:01:05.855463000  7
 1127 10 4.3230832:32:32:32:32:3  9Bm N  ov 19, 2018 2 3:01:05.966568000  7
 1128 104.44581732:32:32:32:32:3  8Bm N  ov 19, 2018 2 3:01:06.089305000  7
 1129 104.50359332:32:32:32:32:3  6Bm N  ov 19, 2018 2 3:01:06.147081000  7
 1130 104.72022432:32:32:32:32:3  8Bm N  ov 19, 2018 2 3:01:06.363712000  7
 1131 104.82658932:32:32:32:32:3  8Bm N  ov 19, 2018 2 3:01:06.470077000  7
 1132 104.86477832:32:32:32:32:3  8Bm N  ov 19, 2018 2 3:01:06.508266000  7
 1133 104.89182732:32:32:32:32:3  8Bm N  ov 19, 2018 2 3:01:06.535315000  7
 1134 104.97167832:32:32:32:32:3  8Bm N  ov 19, 2018 2 3:01:06.615166000  7
 1135 105.37452432:32:32:32:32:3  9Bm N  ov 19, 2018 2 3:01:07.018012000  7
 1136 10 5.6809432:32:32:32:32:3  8Bm N  ov 19, 2018 2 3:01:07.324428000  7
 1137 105.72677232:32:32:32:32:3  8Bm N  ov 19, 2018 2 3:01:07.370260000  7
 1138 105.75190532:32:32:32:32:3  8Bm N  ov 19, 2018 2 3:01:07.395393000  7
 1139 105.78391932:32:32:32:32:3  7Bm N  ov 19, 2018 2 3:01:07.427407000  7
 1140 105.80427832:32:32:32:32:3  8Bm N  ov 19, 2018 2 3:01:07.447766000  7
 1141 105.84980232:32:32:32:32:3  9Bm N  ov 19, 2018 2 3:01:07.493290000  7
 1142 10 5.8909832:32:32:32:32:3  7Bm N  ov 19, 2018 2 3:01:07.534468000  7
 1143 105.91137232:32:32:32:32:3  9Bm N  ov 19, 2018 2 3:01:07.554860000  7
 1144 105.92503932:32:32:32:32:3  8Bm N  ov 19, 2018 2 3:01:07.568527000  7
 1145 105.98862132:32:32:32:32:3  9Bm N  ov 19, 2018 2 3:01:07.632109000  7
 1146 106.01583732:32:32:32:32:3  9Bm N  ov 19, 2018 2 3:01:07.659325000  7
 1147 106.10972432:32:32:32:32:3  9Bm N  ov 19, 2018 2 3:01:07.753212000  7
 1148 106.31033432:32:32:32:32:3 10dBm   Nov 19,   201823:01:07.953822000 7
 1149 106.57162732:32:32:32:32:3  9Bm N  ov 19, 2018 2 3:01:08.215115000  7
 1150 106.78273732:32:32:32:32:3  8Bm N  ov 19, 2018 2 3:01:08.426225000  7
 1151 106.80147132:32:32:32:32:3  7Bm N  ov 19, 2018 2 3:01:08.444959000  7
 1152 106.84755832:32:32:32:32:3  8Bm N  ov 19, 2018 2 3:01:08.491046000  7
 1153 106.90130632:32:32:32:32:3  8Bm N  ov 19, 2018 2 3:01:08.544794000  7
 1154 106.92964432:32:32:32:32:3 10dBm   Nov 19,   201823:01:08.573132000 7
 1155 107.29768232:32:32:32:32:3  3Bm N  ov 19, 2018 2 3:01:08.941170000  7
 1156 107.46350432:32:32:32:32:3 10dBm   Nov 19,   201823:01:09.106992000 7
 1157 107.69354132:32:32:32:32:3  9Bm N  ov 19, 2018 2 3:01:09.337029000  7
 1158 10 7.7496332:32:32:32:32:3  8Bm N  ov 19, 2018 2 3:01:09.393118000  7
 1159 10 7.7992932:32:32:32:32:3  8Bm N  ov 19, 2018 2 3:01:09.442778000  7
 1160 107.81714732:32:32:32:32:3  9Bm N  ov 19, 2018 2 3:01:09.460635000  7
 1161 107.86690932:32:32:32:32:3  8Bm N  ov 19, 2018 2 3:01:09.510397000  7
 1162 107.88870932:32:32:32:32:3  8Bm N  ov 19, 2018 2 3:01:09.532197000  7
 1163 107.92197232:32:32:32:32:3  8Bm N  ov 19, 2018 2 3:01:09.565460000  7
 1164 10 7.9835732:32:32:32:32:3  7Bm N  ov 19, 2018 2 3:01:09.627058000  7
 1165 108.02102332:32:32:32:32:3  8Bm N  ov 19, 2018 2 3:01:09.664511000  7
 1166 108.05151632:32:32:32:32:3  9Bm N  ov 19, 2018 2 3:01:09.695004000  7
 1167 108.10432632:32:32:32:32:3  9Bm N  ov 19, 2018 2 3:01:09.747814000  7
 1168 108.29425332:32:32:32:32:3  9Bm N  ov 19, 2018 2 3:01:09.937741000  7
 1169 10  8.315232:32:32:32:32:3  8Bm N  ov 19, 2018 2 3:01:09.958688000  7
 1170 108.56527532:32:32:32:32:3  9Bm N  ov 19, 2018 2 3:01:10.208763000  7
 1171 10  8.592132:32:32:32:32:3  9Bm N  ov 19, 2018 2 3:01:10.235588000  7
 1172 108.62320932:32:32:32:32:3  8Bm N  ov 19, 2018 2 3:01:10.266697000  7
 1173 108.71355732:32:32:32:32:3  8Bm N  ov 19, 2018 2 3:01:10.357045000  7
 1174 108.79050832:32:32:32:32:3  7Bm N  ov 19, 2018 2 3:01:10.433996000  7
 1175 108.84297932:32:32:32:32:3  9Bm N  ov 19, 2018 2 3:01:10.486467000  7
 1176 108.86464532:32:32:32:32:3  8Bm N  ov 19, 2018 2 3:01:10.508133000  7
 1177 108.88942832:32:32:32:32:3  9Bm N  ov 19, 2018 2 3:01:10.532916000  7
 1178 109.00409932:32:32:32:32:3  7Bm N  ov 19, 2018 2 3:01:10.647587000  7
 1179 109.06968832:32:32:32:32:3  9Bm N  ov 19, 2018 2 3:01:10.713176000  7
 1180 109.07733532:32:32:32:32:3  9Bm N  ov 19, 2018 2 3:01:10.720823000  7
 1181 10 9.1011932:32:32:32:32:3  9Bm N  ov 19, 2018 2 3:01:10.744678000  7
 1182 109.34574632:32:32:32:32:3  9Bm N  ov 19, 2018 2 3:01:10.989234000  7
 1183 10 9.3979732:32:32:32:32:3  7Bm N  ov 19, 2018 2 3:01:11.041458000  7
 1184 109.60264332:32:32:32:32:3  9Bm N  ov 19, 2018 2 3:01:11.246131000  7
 1185 109.64600232:32:32:32:32:3  6Bm N  ov 19, 2018 2 3:01:11.289490000  7
 1186 109.67935832:32:32:32:32:3  7Bm N  ov 19, 2018 2 3:01:11.322846000  7
 1187 109.89362132:32:32:32:32:3  8Bm N  ov 19, 2018 2 3:01:11.537109000  7
 1188 10 9.9044332:32:32:32:32:3  8Bm N  ov 19, 2018 2 3:01:11.547918000  7
 1189 110.02667332:32:32:32:32:3  8Bm N  ov 19, 2018 2 3:01:11.670161000  7
 1190 110.18358232:32:32:32:32:3  9Bm N  ov 19, 2018 2 3:01:11.827070000  7
 1191 110.24025132:32:32:32:32:3 10dBm   Nov 19,   201823:01:11.883739000 7
 1192 110.25095332:32:32:32:32:3  8Bm N  ov 19, 2018 2 3:01:11.894441000  7
 1193 110.29532632:32:32:32:32:3 10dBm   Nov 19,   201823:01:11.938814000 7
 1194 110.35646132:32:32:32:32:3  9Bm N  ov 19, 2018 2 3:01:11.999949000  7
 1195 110.39273632:32:32:32:32:3  7Bm N  ov 19, 2018 2 3:01:12.036224000  7
 1196 110.41011532:32:32:32:32:3  8Bm N  ov 19, 2018 2 3:01:12.053603000  7
 1197 110.43100432:32:32:32:32:3  7Bm N  ov 19, 2018 2 3:01:12.074492000  7
 1198 110.48499332:32:32:32:32:3  9Bm N  ov 19, 2018 2 3:01:12.128481000  7
 1199 110.49753832:32:32:32:32:3  9Bm N  ov 19, 2018 2 3:01:12.141026000  7
 1200 110.54097632:32:32:32:32:3  7Bm N  ov 19, 2018 2 3:01:12.184464000  7
 1201 11 0.5920332:32:32:32:32:3  9Bm N  ov 19, 2018 2 3:01:12.235518000  7
 1202 11 0.7711732:32:32:32:32:3  7Bm N  ov 19, 2018 2 3:01:12.414658000  7
 1203 110.88340332:32:32:32:32:3  9Bm N  ov 19, 2018 2 3:01:12.526891000  7
 1204 110.96925832:32:32:32:32:3  9Bm N  ov 19, 2018 2 3:01:12.612746000  7
 1205 111.00412532:32:32:32:32:3  8Bm N  ov 19, 2018 2 3:01:12.647613000  7
 1206 111.04691332:32:32:32:32:3  8Bm N  ov 19, 2018 2 3:01:12.690401000  7
 1207 111.06257132:32:32:32:32:3  8Bm N  ov 19, 2018 2 3:01:12.706059000  7
 1208 111.21953932:32:32:32:32:3  9Bm N  ov 19, 2018 2 3:01:12.863027000  7
 1209 111.26825832:32:32:32:32:3  9Bm N  ov 19, 2018 2 3:01:12.911746000  7
 1210 111.40915232:32:32:32:32:3  6Bm N  ov 19, 2018 2 3:01:13.052640000  7
 1211 111.42555632:32:32:32:32:3  9Bm N  ov 19, 2018 2 3:01:13.069044000  7
 1212 111.58899132:32:32:32:32:3  9Bm N  ov 19, 2018 2 3:01:13.232479000  7
 1213 111.69458232:32:32:32:32:3  9Bm N  ov 19, 2018 2 3:01:13.338070000  7
 1214 111.83706932:32:32:32:32:3  9Bm N  ov 19, 2018 2 3:01:13.480557000  7
 1215 111.88631332:32:32:32:32:3  9Bm N  ov 19, 2018 2 3:01:13.529801000  7
 1216 111.97975932:32:32:32:32:3  9Bm N  ov 19, 2018 2 3:01:13.623247000  7
 1217 112.01334132:32:32:32:32:3  8Bm N  ov 19, 2018 2 3:01:13.656829000  7
 1218 112.02462532:32:32:32:32:3  7Bm N  ov 19, 2018 2 3:01:13.668113000  7
 1219 112.06123832:32:32:32:32:3  9Bm N  ov 19, 2018 2 3:01:13.704726000  7
 1220 112.10868932:32:32:32:32:3  8Bm N  ov 19, 2018 2 3:01:13.752177000  7
 1221 112.29093732:32:32:32:32:3  9Bm N  ov 19, 2018 2 3:01:13.934425000  7
 1222 112.30721832:32:32:32:32:3  8Bm N  ov 19, 2018 2 3:01:13.950706000  7
 1223 112.37291832:32:32:32:32:3  9Bm N  ov 19, 2018 2 3:01:14.016406000  7
 1224 112.38945132:32:32:32:32:3  8Bm N  ov 19, 2018 2 3:01:14.032939000  7
 1225 112.41181832:32:32:32:32:3  8Bm N  ov 19, 2018 2 3:01:14.055306000  7
 1226 112.76731532:32:32:32:32:3 10dBm   Nov 19,   201823:01:14.410803000 7
 1227 112.81681632:32:32:32:32:3 10dBm   Nov 19,   201823:01:14.460304000 7
 1228 112.85741632:32:32:32:32:3  7Bm N  ov 19, 2018 2 3:01:14.500904000  7
 1229 112.99409232:32:32:32:32:3 10dBm   Nov 19,   201823:01:14.637580000 7
 1230 113.26236832:32:32:32:32:3  7Bm N  ov 19, 2018 2 3:01:14.905856000  7
 1231 113.50358632:32:32:32:32:3 11dBm   Nov 19,   201823:01:15.147074000 7
 1232 113.61027732:32:32:32:32:3  9Bm N  ov 19, 2018 2 3:01:15.253765000  7
 1233 113.66780132:32:32:32:32:3  7Bm N  ov 19, 2018 2 3:01:15.311289000  7
 1234 113.68974632:32:32:32:32:3  7Bm N  ov 19, 2018 2 3:01:15.333234000  7
 1235 113.70745932:32:32:32:32:3  8Bm N  ov 19, 2018 2 3:01:15.350947000  7
 1236 113.72943832:32:32:32:32:3  8Bm N  ov 19, 2018 2 3:01:15.372926000  7
 1237 113.94022132:32:32:32:32:3  9Bm N  ov 19, 2018 2 3:01:15.583709000  7
 1238 114.03439132:32:32:32:32:3  8Bm N  ov 19, 2018 2 3:01:15.677879000  7
