    1   0.000000 32:32:32:32:32:32 5dBm Nov 19, 2018 23:16:36.287983000 +07
    2   0.451958 32:32:32:32:32:32 5dBm Nov 19, 2018 23:16:36.739941000 +07
    3   0.515738 32:32:32:32:32:32 6dBm Nov 19, 2018 23:16:36.803721000 +07
    4   0.721627 32:32:32:32:32:32 7dBm Nov 19, 2018 23:16:37.009610000 +07
    5   0.763468 32:32:32:32:32:32 5dBm Nov 19, 2018 23:16:37.051451000 +07
    6   1.071176 32:32:32:32:32:32 4dBm Nov 19, 2018 23:16:37.359159000 +07
    7   1.077486 32:32:32:32:32:32 4dBm Nov 19, 2018 23:16:37.365469000 +07
    8   1.198261 32:32:32:32:32:32 5dBm Nov 19, 2018 23:16:37.486244000 +07
    9   1.385138 32:32:32:32:32:32 4dBm Nov 19, 2018 23:16:37.673121000 +07
   10   2.041486 32:32:32:32:32:32 6dBm Nov 19, 2018 23:16:38.329469000 +07
   11   2.205040 32:32:32:32:32:32 4dBm Nov 19, 2018 23:16:38.493023000 +07
   12   2.256752 32:32:32:32:32:32 7dBm Nov 19, 2018 23:16:38.544735000 +07
   13   2.501792 32:32:32:32:32:32 6dBm Nov 19, 2018 23:16:38.789775000 +07
   14   2.671506 32:32:32:32:32:32 4dBm Nov 19, 2018 23:16:38.959489000 +07
   15   3.320711 32:32:32:32:32:32 3dBm Nov 19, 2018 23:16:39.608694000 +07
   16   3.755025 32:32:32:32:32:32 5dBm Nov 19, 2018 23:16:40.043008000 +07
   17   4.550738 32:32:32:32:32:32 5dBm Nov 19, 2018 23:16:40.838721000 +07
   18   4.974791 32:32:32:32:32:32 6dBm Nov 19, 2018 23:16:41.262774000 +07
   19   5.060642 32:32:32:32:32:32 2dBm Nov 19, 2018 23:16:41.348625000 +07
   20   5.163559 32:32:32:32:32:32 5dBm Nov 19, 2018 23:16:41.451542000 +07
   21   5.914565 32:32:32:32:32:32 3dBm Nov 19, 2018 23:16:42.202548000 +07
   22   6.526462 32:32:32:32:32:32 5dBm Nov 19, 2018 23:16:42.814445000 +07
   23   6.700563 32:32:32:32:32:32 5dBm Nov 19, 2018 23:16:42.988546000 +07
   24   7.030950 32:32:32:32:32:32 5dBm Nov 19, 2018 23:16:43.318933000 +07
   25   7.897058 32:32:32:32:32:32 4dBm Nov 19, 2018 23:16:44.185041000 +07
   26   8.356520 32:32:32:32:32:32 4dBm Nov 19, 2018 23:16:44.644503000 +07
   27   8.412354 32:32:32:32:32:32 6dBm Nov 19, 2018 23:16:44.700337000 +07
   28   8.501171 32:32:32:32:32:32 5dBm Nov 19, 2018 23:16:44.789154000 +07
   29   9.053554 32:32:32:32:32:32 4dBm Nov 19, 2018 23:16:45.341537000 +07
   30   9.579519 32:32:32:32:32:32 5dBm Nov 19, 2018 23:16:45.867502000 +07
   31   9.784898 32:32:32:32:32:32 6dBm Nov 19, 2018 23:16:46.072881000 +07
   32   9.832162 32:32:32:32:32:32 7dBm Nov 19, 2018 23:16:46.120145000 +07
   33  10.437560 32:32:32:32:32:32 2dBm Nov 19, 2018 23:16:46.725543000 +07
   34  10.690419 32:32:32:32:32:32 4dBm Nov 19, 2018 23:16:46.978402000 +07
   35  10.765261 32:32:32:32:32:32 5dBm Nov 19, 2018 23:16:47.053244000 +07
   36  10.938359 32:32:32:32:32:32 5dBm Nov 19, 2018 23:16:47.226342000 +07
   37  11.166811 32:32:32:32:32:32 6dBm Nov 19, 2018 23:16:47.454794000 +07
   38  11.266772 32:32:32:32:32:32 6dBm Nov 19, 2018 23:16:47.554755000 +07
   39  11.519572 32:32:32:32:32:32 5dBm Nov 19, 2018 23:16:47.807555000 +07
   40  11.712242 32:32:32:32:32:32 5dBm Nov 19, 2018 23:16:48.000225000 +07
   41  11.871775 32:32:32:32:32:32 5dBm Nov 19, 2018 23:16:48.159758000 +07
   42  11.915311 32:32:32:32:32:32 0dBm Nov 19, 2018 23:16:48.203294000 +07
   43  12.536321 32:32:32:32:32:32 5dBm Nov 19, 2018 23:16:48.824304000 +07
   44  12.671917 32:32:32:32:32:32 6dBm Nov 19, 2018 23:16:48.959900000 +07
   45  14.095865 32:32:32:32:32:32 5dBm Nov 19, 2018 23:16:50.383848000 +07
   46  14.590036 32:32:32:32:32:32 6dBm Nov 19, 2018 23:16:50.878019000 +07
   47  14.829366 32:32:32:32:32:32 6dBm Nov 19, 2018 23:16:51.117349000 +07
   48  15.134742 32:32:32:32:32:32 4dBm Nov 19, 2018 23:16:51.422725000 +07
   49  15.966059 32:32:32:32:32:32 6dBm Nov 19, 2018 23:16:52.254042000 +07
   50  15.978098 32:32:32:32:32:32 5dBm Nov 19, 2018 23:16:52.266081000 +07
   51  15.995522 32:32:32:32:32:32 3dBm Nov 19, 2018 23:16:52.283505000 +07
   52  16.148837 32:32:32:32:32:32 6dBm Nov 19, 2018 23:16:52.436820000 +07
   53  16.320462 32:32:32:32:32:32 3dBm Nov 19, 2018 23:16:52.608445000 +07
   54  16.359529 32:32:32:32:32:32 5dBm Nov 19, 2018 23:16:52.647512000 +07
   55  17.767698 32:32:32:32:32:32 3dBm Nov 19, 2018 23:16:54.055681000 +07
   56  18.592883 32:32:32:32:32:32 5dBm Nov 19, 2018 23:16:54.880866000 +07
   57  19.014164 32:32:32:32:32:32 5dBm Nov 19, 2018 23:16:55.302147000 +07
   58  19.236652 32:32:32:32:32:32 5dBm Nov 19, 2018 23:16:55.524635000 +07
   59  20.422510 32:32:32:32:32:32 3dBm Nov 19, 2018 23:16:56.710493000 +07
   60  20.591401 32:32:32:32:32:32 4dBm Nov 19, 2018 23:16:56.879384000 +07
   61  20.788337 32:32:32:32:32:32 4dBm Nov 19, 2018 23:16:57.076320000 +07
   62  21.023292 32:32:32:32:32:32 6dBm Nov 19, 2018 23:16:57.311275000 +07
   63  21.116802 32:32:32:32:32:32 5dBm Nov 19, 2018 23:16:57.404785000 +07
   64  21.342275 32:32:32:32:32:32 6dBm Nov 19, 2018 23:16:57.630258000 +07
   65  22.174531 32:32:32:32:32:32 5dBm Nov 19, 2018 23:16:58.462514000 +07
   66  22.265853 32:32:32:32:32:32 5dBm Nov 19, 2018 23:16:58.553836000 +07
   67  22.400467 32:32:32:32:32:32 7dBm Nov 19, 2018 23:16:58.688450000 +07
   68  22.531519 32:32:32:32:32:32 4dBm Nov 19, 2018 23:16:58.819502000 +07
   69  23.101250 32:32:32:32:32:32 5dBm Nov 19, 2018 23:16:59.389233000 +07
   70  23.318578 32:32:32:32:32:32 6dBm Nov 19, 2018 23:16:59.606561000 +07
   71  23.330746 32:32:32:32:32:32 4dBm Nov 19, 2018 23:16:59.618729000 +07
   72  23.905078 32:32:32:32:32:32 7dBm Nov 19, 2018 23:17:00.193061000 +07
   73  23.998609 32:32:32:32:32:32 1dBm Nov 19, 2018 23:17:00.286592000 +07
   74  24.168149 32:32:32:32:32:32 5dBm Nov 19, 2018 23:17:00.456132000 +07
   75  24.253399 32:32:32:32:32:32 5dBm Nov 19, 2018 23:17:00.541382000 +07
   76  24.302443 32:32:32:32:32:32 6dBm Nov 19, 2018 23:17:00.590426000 +07
   77  24.522582 32:32:32:32:32:32 5dBm Nov 19, 2018 23:17:00.810565000 +07
   78  25.890909 32:32:32:32:32:32 5dBm Nov 19, 2018 23:17:02.178892000 +07
   79  25.927205 32:32:32:32:32:32 4dBm Nov 19, 2018 23:17:02.215188000 +07
   80  26.166329 32:32:32:32:32:32 5dBm Nov 19, 2018 23:17:02.454312000 +07
   81  26.285081 32:32:32:32:32:32 4dBm Nov 19, 2018 23:17:02.573064000 +07
   82  26.456881 32:32:32:32:32:32 4dBm Nov 19, 2018 23:17:02.744864000 +07
   83  26.639895 32:32:32:32:32:32 6dBm Nov 19, 2018 23:17:02.927878000 +07
   84  27.142353 32:32:32:32:32:32 4dBm Nov 19, 2018 23:17:03.430336000 +07
   85  27.452825 32:32:32:32:32:32 5dBm Nov 19, 2018 23:17:03.740808000 +07
   86  27.542565 32:32:32:32:32:32 6dBm Nov 19, 2018 23:17:03.830548000 +07
   87  27.746821 32:32:32:32:32:32 5dBm Nov 19, 2018 23:17:04.034804000 +07
   88  28.254437 32:32:32:32:32:32 5dBm Nov 19, 2018 23:17:04.542420000 +07
   89  28.283367 32:32:32:32:32:32 4dBm Nov 19, 2018 23:17:04.571350000 +07
   90  28.441504 32:32:32:32:32:32 3dBm Nov 19, 2018 23:17:04.729487000 +07
   91  29.395974 32:32:32:32:32:32 4dBm Nov 19, 2018 23:17:05.683957000 +07
   92  29.501026 32:32:32:32:32:32 3dBm Nov 19, 2018 23:17:05.789009000 +07
   93  29.575017 32:32:32:32:32:32 6dBm Nov 19, 2018 23:17:05.863000000 +07
   94  30.821009 32:32:32:32:32:32 6dBm Nov 19, 2018 23:17:07.108992000 +07
   95  30.861140 32:32:32:32:32:32 6dBm Nov 19, 2018 23:17:07.149123000 +07
   96  31.179622 32:32:32:32:32:32 6dBm Nov 19, 2018 23:17:07.467605000 +07
   97  31.252203 32:32:32:32:32:32 4dBm Nov 19, 2018 23:17:07.540186000 +07
   98  31.440724 32:32:32:32:32:32 4dBm Nov 19, 2018 23:17:07.728707000 +07
   99  31.547391 32:32:32:32:32:32 3dBm Nov 19, 2018 23:17:07.835374000 +07
  100  31.787074 32:32:32:32:32:32 4dBm Nov 19, 2018 23:17:08.075057000 +07
  101  31.831161 32:32:32:32:32:32 3dBm Nov 19, 2018 23:17:08.119144000 +07
  102  32.168459 32:32:32:32:32:32 5dBm Nov 19, 2018 23:17:08.456442000 +07
  103  32.381391 32:32:32:32:32:32 5dBm Nov 19, 2018 23:17:08.669374000 +07
  104  32.711149 32:32:32:32:32:32 5dBm Nov 19, 2018 23:17:08.999132000 +07
  105  32.870136 32:32:32:32:32:32 1dBm Nov 19, 2018 23:17:09.158119000 +07
  106  33.136985 32:32:32:32:32:32 5dBm Nov 19, 2018 23:17:09.424968000 +07
  107  33.602660 32:32:32:32:32:32 5dBm Nov 19, 2018 23:17:09.890643000 +07
  108  33.859185 32:32:32:32:32:32 4dBm Nov 19, 2018 23:17:10.147168000 +07
  109  33.941380 32:32:32:32:32:32 6dBm Nov 19, 2018 23:17:10.229363000 +07
  110  34.000773 32:32:32:32:32:32 5dBm Nov 19, 2018 23:17:10.288756000 +07
  111  34.136518 32:32:32:32:32:32 5dBm Nov 19, 2018 23:17:10.424501000 +07
  112  34.151135 32:32:32:32:32:32 6dBm Nov 19, 2018 23:17:10.439118000 +07
  113  34.467250 32:32:32:32:32:32 5dBm Nov 19, 2018 23:17:10.755233000 +07
  114  34.781600 32:32:32:32:32:32 5dBm Nov 19, 2018 23:17:11.069583000 +07
  115  34.840599 32:32:32:32:32:32 4dBm Nov 19, 2018 23:17:11.128582000 +07
  116  36.197826 32:32:32:32:32:32 6dBm Nov 19, 2018 23:17:12.485809000 +07
  117  36.460103 32:32:32:32:32:32 2dBm Nov 19, 2018 23:17:12.748086000 +07
  118  37.311192 32:32:32:32:32:32 6dBm Nov 19, 2018 23:17:13.599175000 +07
  119  37.682712 32:32:32:32:32:32 3dBm Nov 19, 2018 23:17:13.970695000 +07
  120  37.935581 32:32:32:32:32:32 5dBm Nov 19, 2018 23:17:14.223564000 +07
  121  38.098547 32:32:32:32:32:32 4dBm Nov 19, 2018 23:17:14.386530000 +07
  122  38.148767 32:32:32:32:32:32 6dBm Nov 19, 2018 23:17:14.436750000 +07
  123  38.387527 32:32:32:32:32:32 4dBm Nov 19, 2018 23:17:14.675510000 +07
  124  39.675053 32:32:32:32:32:32 6dBm Nov 19, 2018 23:17:15.963036000 +07
  125  39.862114 32:32:32:32:32:32 5dBm Nov 19, 2018 23:17:16.150097000 +07
  126  39.986975 32:32:32:32:32:32 1dBm Nov 19, 2018 23:17:16.274958000 +07
  127  40.075761 32:32:32:32:32:32 7dBm Nov 19, 2018 23:17:16.363744000 +07
  128  41.151336 32:32:32:32:32:32 3dBm Nov 19, 2018 23:17:17.439319000 +07
  129  41.355698 32:32:32:32:32:32 6dBm Nov 19, 2018 23:17:17.643681000 +07
  130  41.843395 32:32:32:32:32:32 6dBm Nov 19, 2018 23:17:18.131378000 +07
  131  42.056809 32:32:32:32:32:32 4dBm Nov 19, 2018 23:17:18.344792000 +07
  132  42.223433 32:32:32:32:32:32 3dBm Nov 19, 2018 23:17:18.511416000 +07
  133  42.576535 32:32:32:32:32:32 3dBm Nov 19, 2018 23:17:18.864518000 +07
  134  43.032820 32:32:32:32:32:32 3dBm Nov 19, 2018 23:17:19.320803000 +07
  135  43.827687 32:32:32:32:32:32 5dBm Nov 19, 2018 23:17:20.115670000 +07
  136  44.032894 32:32:32:32:32:32 5dBm Nov 19, 2018 23:17:20.320877000 +07
  137  44.489566 32:32:32:32:32:32 5dBm Nov 19, 2018 23:17:20.777549000 +07
  138  45.444268 32:32:32:32:32:32 6dBm Nov 19, 2018 23:17:21.732251000 +07
  139  45.452823 32:32:32:32:32:32 4dBm Nov 19, 2018 23:17:21.740806000 +07
  140  45.578958 32:32:32:32:32:32 7dBm Nov 19, 2018 23:17:21.866941000 +07
  141  45.667270 32:32:32:32:32:32 5dBm Nov 19, 2018 23:17:21.955253000 +07
  142  46.111541 32:32:32:32:32:32 2dBm Nov 19, 2018 23:17:22.399524000 +07
  143  46.225740 32:32:32:32:32:32 4dBm Nov 19, 2018 23:17:22.513723000 +07
  144  46.989108 32:32:32:32:32:32 3dBm Nov 19, 2018 23:17:23.277091000 +07
  145  48.159388 32:32:32:32:32:32 4dBm Nov 19, 2018 23:17:24.447371000 +07
  146  48.220300 32:32:32:32:32:32 4dBm Nov 19, 2018 23:17:24.508283000 +07
  147  48.481927 32:32:32:32:32:32 5dBm Nov 19, 2018 23:17:24.769910000 +07
  148  49.761007 32:32:32:32:32:32 5dBm Nov 19, 2018 23:17:26.048990000 +07
  149  51.146659 32:32:32:32:32:32 5dBm Nov 19, 2018 23:17:27.434642000 +07
  150  51.298172 32:32:32:32:32:32 3dBm Nov 19, 2018 23:17:27.586155000 +07
  151  51.541633 32:32:32:32:32:32 5dBm Nov 19, 2018 23:17:27.829616000 +07
  152  51.855726 32:32:32:32:32:32 5dBm Nov 19, 2018 23:17:28.143709000 +07
  153  51.921081 32:32:32:32:32:32 7dBm Nov 19, 2018 23:17:28.209064000 +07
  154  52.020116 32:32:32:32:32:32 5dBm Nov 19, 2018 23:17:28.308099000 +07
  155  52.548978 32:32:32:32:32:32 6dBm Nov 19, 2018 23:17:28.836961000 +07
  156  52.734517 32:32:32:32:32:32 4dBm Nov 19, 2018 23:17:29.022500000 +07
  157  52.771905 32:32:32:32:32:32 5dBm Nov 19, 2018 23:17:29.059888000 +07
  158  52.842707 32:32:32:32:32:32 5dBm Nov 19, 2018 23:17:29.130690000 +07
  159  52.912134 32:32:32:32:32:32 4dBm Nov 19, 2018 23:17:29.200117000 +07
  160  53.636183 32:32:32:32:32:32 5dBm Nov 19, 2018 23:17:29.924166000 +07
  161  53.764358 32:32:32:32:32:32 5dBm Nov 19, 2018 23:17:30.052341000 +07
  162  54.224219 32:32:32:32:32:32 5dBm Nov 19, 2018 23:17:30.512202000 +07
  163  54.611918 32:32:32:32:32:32 4dBm Nov 19, 2018 23:17:30.899901000 +07
  164  54.960702 32:32:32:32:32:32 4dBm Nov 19, 2018 23:17:31.248685000 +07
  165  55.776869 32:32:32:32:32:32 4dBm Nov 19, 2018 23:17:32.064852000 +07
  166  56.298579 32:32:32:32:32:32 4dBm Nov 19, 2018 23:17:32.586562000 +07
  167  57.162791 32:32:32:32:32:32 6dBm Nov 19, 2018 23:17:33.450774000 +07
  168  57.778812 32:32:32:32:32:32 5dBm Nov 19, 2018 23:17:34.066795000 +07
  169  58.310239 32:32:32:32:32:32 5dBm Nov 19, 2018 23:17:34.598222000 +07
  170  58.437123 32:32:32:32:32:32 4dBm Nov 19, 2018 23:17:34.725106000 +07
  171  58.655827 32:32:32:32:32:32 5dBm Nov 19, 2018 23:17:34.943810000 +07
  172  58.762460 32:32:32:32:32:32 4dBm Nov 19, 2018 23:17:35.050443000 +07
  173  60.868645 32:32:32:32:32:32 6dBm Nov 19, 2018 23:17:37.156628000 +07
  174  61.447375 32:32:32:32:32:32 4dBm Nov 19, 2018 23:17:37.735358000 +07
  175  62.094162 32:32:32:32:32:32 4dBm Nov 19, 2018 23:17:38.382145000 +07
  176  62.619602 32:32:32:32:32:32 2dBm Nov 19, 2018 23:17:38.907585000 +07
  177  63.287368 32:32:32:32:32:32 6dBm Nov 19, 2018 23:17:39.575351000 +07
  178  63.424804 32:32:32:32:32:32 4dBm Nov 19, 2018 23:17:39.712787000 +07
  179  63.449843 32:32:32:32:32:32 5dBm Nov 19, 2018 23:17:39.737826000 +07
  180  64.046838 32:32:32:32:32:32 5dBm Nov 19, 2018 23:17:40.334821000 +07
  181  64.215047 32:32:32:32:32:32 4dBm Nov 19, 2018 23:17:40.503030000 +07
  182  64.383086 32:32:32:32:32:32 3dBm Nov 19, 2018 23:17:40.671069000 +07
  183  65.340299 32:32:32:32:32:32 2dBm Nov 19, 2018 23:17:41.628282000 +07
  184  66.248916 32:32:32:32:32:32 5dBm Nov 19, 2018 23:17:42.536899000 +07
  185  66.461288 32:32:32:32:32:32 5dBm Nov 19, 2018 23:17:42.749271000 +07
  186  66.526992 32:32:32:32:32:32 4dBm Nov 19, 2018 23:17:42.814975000 +07
  187  67.591801 32:32:32:32:32:32 5dBm Nov 19, 2018 23:17:43.879784000 +07
  188  67.617729 32:32:32:32:32:32 4dBm Nov 19, 2018 23:17:43.905712000 +07
  189  67.915883 32:32:32:32:32:32 4dBm Nov 19, 2018 23:17:44.203866000 +07
  190  67.989332 32:32:32:32:32:32 5dBm Nov 19, 2018 23:17:44.277315000 +07
  191  68.120929 32:32:32:32:32:32 5dBm Nov 19, 2018 23:17:44.408912000 +07
  192  68.292173 32:32:32:32:32:32 6dBm Nov 19, 2018 23:17:44.580156000 +07
  193  68.918063 32:32:32:32:32:32 4dBm Nov 19, 2018 23:17:45.206046000 +07
  194  69.540891 32:32:32:32:32:32 4dBm Nov 19, 2018 23:17:45.828874000 +07
  195  69.938236 32:32:32:32:32:32 2dBm Nov 19, 2018 23:17:46.226219000 +07
  196  70.025112 32:32:32:32:32:32 5dBm Nov 19, 2018 23:17:46.313095000 +07
  197  70.078968 32:32:32:32:32:32 5dBm Nov 19, 2018 23:17:46.366951000 +07
  198  70.372808 32:32:32:32:32:32 5dBm Nov 19, 2018 23:17:46.660791000 +07
  199  70.421566 32:32:32:32:32:32 4dBm Nov 19, 2018 23:17:46.709549000 +07
  200  71.283064 32:32:32:32:32:32 6dBm Nov 19, 2018 23:17:47.571047000 +07
  201  71.308088 32:32:32:32:32:32 1dBm Nov 19, 2018 23:17:47.596071000 +07
  202  71.670842 32:32:32:32:32:32 4dBm Nov 19, 2018 23:17:47.958825000 +07
  203  72.380026 32:32:32:32:32:32 4dBm Nov 19, 2018 23:17:48.668009000 +07
  204  72.931120 32:32:32:32:32:32 4dBm Nov 19, 2018 23:17:49.219103000 +07
  205  72.963666 32:32:32:32:32:32 4dBm Nov 19, 2018 23:17:49.251649000 +07
  206  73.465641 32:32:32:32:32:32 3dBm Nov 19, 2018 23:17:49.753624000 +07
  207  73.948918 32:32:32:32:32:32 5dBm Nov 19, 2018 23:17:50.236901000 +07
  208  74.278122 32:32:32:32:32:32 6dBm Nov 19, 2018 23:17:50.566105000 +07
  209  74.587642 32:32:32:32:32:32 4dBm Nov 19, 2018 23:17:50.875625000 +07
  210  74.881649 32:32:32:32:32:32 4dBm Nov 19, 2018 23:17:51.169632000 +07
  211  74.944865 32:32:32:32:32:32 5dBm Nov 19, 2018 23:17:51.232848000 +07
  212  75.172765 32:32:32:32:32:32 5dBm Nov 19, 2018 23:17:51.460748000 +07
  213  75.329968 32:32:32:32:32:32 5dBm Nov 19, 2018 23:17:51.617951000 +07
  214  75.585675 32:32:32:32:32:32 6dBm Nov 19, 2018 23:17:51.873658000 +07
  215  75.838615 32:32:32:32:32:32 4dBm Nov 19, 2018 23:17:52.126598000 +07
  216  75.898385 32:32:32:32:32:32 4dBm Nov 19, 2018 23:17:52.186368000 +07
  217  75.983516 32:32:32:32:32:32 7dBm Nov 19, 2018 23:17:52.271499000 +07
  218  76.448803 32:32:32:32:32:32 5dBm Nov 19, 2018 23:17:52.736786000 +07
  219  76.688659 32:32:32:32:32:32 5dBm Nov 19, 2018 23:17:52.976642000 +07
  220  77.700800 32:32:32:32:32:32 5dBm Nov 19, 2018 23:17:53.988783000 +07
  221  77.861249 32:32:32:32:32:32 6dBm Nov 19, 2018 23:17:54.149232000 +07
  222  78.831856 32:32:32:32:32:32 4dBm Nov 19, 2018 23:17:55.119839000 +07
  223  79.196513 32:32:32:32:32:32 4dBm Nov 19, 2018 23:17:55.484496000 +07
  224  79.630326 32:32:32:32:32:32 3dBm Nov 19, 2018 23:17:55.918309000 +07
  225  79.864357 32:32:32:32:32:32 5dBm Nov 19, 2018 23:17:56.152340000 +07
  226  81.544204 32:32:32:32:32:32 5dBm Nov 19, 2018 23:17:57.832187000 +07
  227  81.590875 32:32:32:32:32:32 5dBm Nov 19, 2018 23:17:57.878858000 +07
  228  81.866602 32:32:32:32:32:32 0dBm Nov 19, 2018 23:17:58.154585000 +07
  229  81.889744 32:32:32:32:32:32 4dBm Nov 19, 2018 23:17:58.177727000 +07
  230  84.189333 32:32:32:32:32:32 4dBm Nov 19, 2018 23:18:00.477316000 +07
  231  84.672540 32:32:32:32:32:32 5dBm Nov 19, 2018 23:18:00.960523000 +07
  232  84.895101 32:32:32:32:32:32 6dBm Nov 19, 2018 23:18:01.183084000 +07
  233  85.102681 32:32:32:32:32:32 2dBm Nov 19, 2018 23:18:01.390664000 +07
  234  85.417425 32:32:32:32:32:32 4dBm Nov 19, 2018 23:18:01.705408000 +07
  235  86.041123 32:32:32:32:32:32 5dBm Nov 19, 2018 23:18:02.329106000 +07
  236  86.795073 32:32:32:32:32:32 5dBm Nov 19, 2018 23:18:03.083056000 +07
  237  88.157103 32:32:32:32:32:32 7dBm Nov 19, 2018 23:18:04.445086000 +07
  238  88.806899 32:32:32:32:32:32 6dBm Nov 19, 2018 23:18:05.094882000 +07
  239  89.067139 32:32:32:32:32:32 5dBm Nov 19, 2018 23:18:05.355122000 +07
  240  89.716904 32:32:32:32:32:32 5dBm Nov 19, 2018 23:18:06.004887000 +07
  241  89.895278 32:32:32:32:32:32 7dBm Nov 19, 2018 23:18:06.183261000 +07
  242  90.334084 32:32:32:32:32:32 5dBm Nov 19, 2018 23:18:06.622067000 +07
  243  90.368586 32:32:32:32:32:32 4dBm Nov 19, 2018 23:18:06.656569000 +07
  244  90.592151 32:32:32:32:32:32 3dBm Nov 19, 2018 23:18:06.880134000 +07
  245  90.638618 32:32:32:32:32:32 4dBm Nov 19, 2018 23:18:06.926601000 +07
  246  90.737942 32:32:32:32:32:32 4dBm Nov 19, 2018 23:18:07.025925000 +07
  247  91.108795 32:32:32:32:32:32 5dBm Nov 19, 2018 23:18:07.396778000 +07
  248  91.220566 32:32:32:32:32:32 4dBm Nov 19, 2018 23:18:07.508549000 +07
  249  92.137056 32:32:32:32:32:32 4dBm Nov 19, 2018 23:18:08.425039000 +07
  250 104.725702 32:32:32:32:32:32 4dBm Nov 19, 2018 23:18:21.013685000 +07
  251 108.459107 32:32:32:32:32:32 4dBm Nov 19, 2018 23:18:24.747090000 +07
  252 111.639709 32:32:32:32:32:32 6dBm Nov 19, 2018 23:18:27.927692000 +07
  253 113.831025 32:32:32:32:32:32 4dBm Nov 19, 2018 23:18:30.119008000 +07
  254 118.774805 32:32:32:32:32:32 5dBm Nov 19, 2018 23:18:35.062788000 +07
  255 125.572634 32:32:32:32:32:32 4dBm Nov 19, 2018 23:18:41.860617000 +07
  256 132.051009 32:32:32:32:32:32 5dBm Nov 19, 2018 23:18:48.338992000 +07
  257 138.931653 32:32:32:32:32:32 4dBm Nov 19, 2018 23:18:55.219636000 +07
  258 139.749486 32:32:32:32:32:32 6dBm Nov 19, 2018 23:18:56.037469000 +07
  259 140.212762 32:32:32:32:32:32 4dBm Nov 19, 2018 23:18:56.500745000 +07
  260 144.967098 32:32:32:32:32:32 5dBm Nov 19, 2018 23:19:01.255081000 +07
  261 147.986198 32:32:32:32:32:32 4dBm Nov 19, 2018 23:19:04.274181000 +07
  262 149.353454 32:32:32:32:32:32 4dBm Nov 19, 2018 23:19:05.641437000 +07
  263 157.284331 32:32:32:32:32:32 5dBm Nov 19, 2018 23:19:13.572314000 +07
  264 157.686403 32:32:32:32:32:32 5dBm Nov 19, 2018 23:19:13.974386000 +07
  265 158.903938 32:32:32:32:32:32 6dBm Nov 19, 2018 23:19:15.191921000 +07
  266 158.938606 32:32:32:32:32:32 5dBm Nov 19, 2018 23:19:15.226589000 +07
  267 159.078531 32:32:32:32:32:32 6dBm Nov 19, 2018 23:19:15.366514000 +07
  268 159.107568 32:32:32:32:32:32 5dBm Nov 19, 2018 23:19:15.395551000 +07
  269 159.114061 32:32:32:32:32:32 6dBm Nov 19, 2018 23:19:15.402044000 +07
  270 159.131765 32:32:32:32:32:32 5dBm Nov 19, 2018 23:19:15.419748000 +07
  271 159.483445 32:32:32:32:32:32 6dBm Nov 19, 2018 23:19:15.771428000 +07
  272 159.580778 32:32:32:32:32:32 5dBm Nov 19, 2018 23:19:15.868761000 +07
  273 160.339684 32:32:32:32:32:32 5dBm Nov 19, 2018 23:19:16.627667000 +07
  274 161.667779 32:32:32:32:32:32 4dBm Nov 19, 2018 23:19:17.955762000 +07
  275 162.068782 32:32:32:32:32:32 4dBm Nov 19, 2018 23:19:18.356765000 +07
  276 162.117962 32:32:32:32:32:32 6dBm Nov 19, 2018 23:19:18.405945000 +07
  277 162.725914 32:32:32:32:32:32 2dBm Nov 19, 2018 23:19:19.013897000 +07
  278 163.419915 32:32:32:32:32:32 5dBm Nov 19, 2018 23:19:19.707898000 +07
  279 163.567920 32:32:32:32:32:32 5dBm Nov 19, 2018 23:19:19.855903000 +07
