    1   0.000000               Dec 19, 2055 23:41:56.262146000 +07
    2   0.000000               Dec 19, 2055 23:41:56.262146000 +07
    3   0.000000               Dec 19, 2055 23:41:56.262146000 +07
    4 -1170373704.620324 78:78:78:78:78:78  Nov 17, 2018 23:53:31.641822000 +07
