               1       032:32:32:32:32:3  6Bm N  ov 18, 2018 0 0:55:06.589278000  7          3
               28.35017232:32:32:32:32:3  5Bm N  ov 18, 2018 0 0:55:14.939450000  7         10
             3  7.83897632:32:32:32:32:3  4Bm N  ov 18, 2018 0 0:55:34.428254000  7        ###
             4   8.0531132:32:32:32:32:3  6Bm N  ov 18, 2018 0 0:55:34.642388000  7        ###
             5  1.75176632:32:32:32:32:3  5Bm N  ov 18, 2018 0 0:55:48.341044000  7        ###
             6  1.91596332:32:32:32:32:3  5Bm N  ov 18, 2018 0 0:55:48.505241000  7
             7  2.13102432:32:32:32:32:3  7Bm N  ov 18, 2018 0 0:55:48.720302000  7
             8  2.19345532:32:32:32:32:3  6Bm N  ov 18, 2018 0 0:55:48.782733000  7
             9  2.29456232:32:32:32:32:3 10dBm   Nov 18,   201800:55:48.883840000 7
            10  2.31068532:32:32:32:32:3  8Bm N  ov 18, 2018 0 0:55:48.899963000  7
            11  7.25457632:32:32:32:32:3  5Bm N  ov 18, 2018 0 0:55:53.843854000  7
            12  7.26263532:32:32:32:32:3  5Bm N  ov 18, 2018 0 0:55:53.851913000  7
            13  8.35749332:32:32:32:32:3  7Bm N  ov 18, 2018 0 0:55:54.946771000  7
            14  8.64566932:32:32:32:32:3  3Bm N  ov 18, 2018 0 0:55:55.234947000  7
            15  8.84655532:32:32:32:32:3  5Bm N  ov 18, 2018 0 0:55:55.435833000  7
            16  8.86512832:32:32:32:32:3  7Bm N  ov 18, 2018 0 0:55:55.454406000  7
            17  9.33709232:32:32:32:32:3  3Bm N  ov 18, 2018 0 0:55:55.926370000  7
            18  0.92624932:32:32:32:32:3  5Bm N  ov 18, 2018 0 0:55:57.515527000  7
            19   3.3948232:32:32:32:32:3  6Bm N  ov 18, 2018 0 0:56:09.984098000  7
            20  3.69382232:32:32:32:32:3  6Bm N  ov 18, 2018 0 0:56:10.283100000  7
            21  4.16757132:32:32:32:32:3  3Bm N  ov 18, 2018 0 0:56:10.756849000  7
            22  4.92361632:32:32:32:32:3  7Bm N  ov 18, 2018 0 0:56:11.512894000  7
            23  7.96199332:32:32:32:32:3  6Bm N  ov 18, 2018 0 0:56:14.551271000  7
            24  8.02822132:32:32:32:32:3  4Bm N  ov 18, 2018 0 0:56:14.617499000  7
            25  8.12137832:32:32:32:32:3  4Bm N  ov 18, 2018 0 0:56:14.710656000  7
            26  8.29335832:32:32:32:32:3  7Bm N  ov 18, 2018 0 0:56:14.882636000  7
            27   8.3115132:32:32:32:32:3  7Bm N  ov 18, 2018 0 0:56:14.900788000  7
            28  8.32940332:32:32:32:32:3  5Bm N  ov 18, 2018 0 0:56:14.918681000  7
            29  8.34823232:32:32:32:32:3  7Bm N  ov 18, 2018 0 0:56:14.937510000  7
            30  8.98277332:32:32:32:32:3  7Bm N  ov 18, 2018 0 0:56:15.572051000  7
            31  9.02433732:32:32:32:32:3  7Bm N  ov 18, 2018 0 0:56:15.613615000  7
            32  6.38971832:32:32:32:32:3  3Bm N  ov 18, 2018 0 0:56:22.978996000  7
            33  3.80813932:32:32:32:32:3  6Bm N  ov 18, 2018 0 0:56:40.397417000  7
            34  3.89935632:32:32:32:32:3  7Bm N  ov 18, 2018 0 0:56:40.488634000  7
            35  4.28605232:32:32:32:32:3  8Bm N  ov 18, 2018 0 0:56:40.875330000  7
            36  4.37010332:32:32:32:32:3  7Bm N  ov 18, 2018 0 0:56:40.959381000  7
            37    5.509332:32:32:32:32:3  5Bm N  ov 18, 2018 0 0:56:42.098578000  7
            38  5.68709832:32:32:32:32:3  6Bm N  ov 18, 2018 0 0:56:42.276376000  7
            39  5.75027632:32:32:32:32:3  4Bm N  ov 18, 2018 0 0:56:42.339554000  7
            40  6.23847332:32:32:32:32:3  5Bm N  ov 18, 2018 0 0:56:42.827751000  7
            41  6.35938132:32:32:32:32:3  7Bm N  ov 18, 2018 0 0:56:42.948659000  7
            42  6.52021632:32:32:32:32:3  6Bm N  ov 18, 2018 0 0:56:43.109494000  7
            43  6.63111932:32:32:32:32:3  3Bm N  ov 18, 2018 0 0:56:43.220397000  7
            44  6.68986932:32:32:32:32:3  5Bm N  ov 18, 2018 0 0:56:43.279147000  7
            45  6.73045132:32:32:32:32:3  3Bm N  ov 18, 2018 0 0:56:43.319729000  7
            46  6.96756432:32:32:32:32:3  7Bm N  ov 18, 2018 0 0:56:43.556842000  7
            47  7.03379832:32:32:32:32:3  5Bm N  ov 18, 2018 0 0:56:43.623076000  7
            48  7.33090432:32:32:32:32:3  6Bm N  ov 18, 2018 0 0:56:43.920182000  7
            49   7.3472232:32:32:32:32:3  6Bm N  ov 18, 2018 0 0:56:43.936498000  7
            50  7.50112632:32:32:32:32:3  5Bm N  ov 18, 2018 0 0:56:44.090404000  7
            51   7.5595532:32:32:32:32:3  6Bm N  ov 18, 2018 0 0:56:44.148828000  7
            52  8.59164232:32:32:32:32:3  7Bm N  ov 18, 2018 0 0:56:45.180920000  7
            53  8.66885832:32:32:32:32:3  6Bm N  ov 18, 2018 0 0:56:45.258136000  7
            54  8.92246232:32:32:32:32:3  6Bm N  ov 18, 2018 0 0:56:45.511740000  7
            55  9.13960532:32:32:32:32:3  6Bm N  ov 18, 2018 0 0:56:45.728883000  7
            56  9.70660932:32:32:32:32:3  4Bm N  ov 18, 2018 0 0:56:46.295887000  7
            57  9.91624532:32:32:32:32:3  6Bm N  ov 18, 2018 0 0:56:46.505523000  7
            58 13.15244432:32:32:32:32:3  5Bm N  ov 18, 2018 0 0:56:49.741722000  7
            59 170370009          672868    Dec   19, 2055 23: 41:56.262146000 +0  
