                1       032:32:32:32:32:3  6Bm N  ov 18, 2018 0 0:14:47.365316000  7          1
                20.48590132:32:32:32:32:3 10dBm   Nov 18,   201800:14:47.851217000 7         11
                30.73438532:32:32:32:32:3  7Bm N  ov 18, 2018 0 0:14:48.099701000  7        ###
                41.05794432:32:32:32:32:3  5Bm N  ov 18, 2018 0 0:14:48.423260000  7        ###
                52.52157132:32:32:32:32:3  4Bm N  ov 18, 2018 0 0:14:49.886887000  7        ###
                64.57525132:32:32:32:32:3  6Bm N  ov 18, 2018 0 0:14:51.940567000  7
                75.83186832:32:32:32:32:3  5Bm N  ov 18, 2018 0 0:14:53.197184000  7
                86.03515432:32:32:32:32:3  5Bm N  ov 18, 2018 0 0:14:53.400470000  7
                96.59341432:32:32:32:32:3  4Bm N  ov 18, 2018 0 0:14:53.958730000  7
               106.62061832:32:32:32:32:3  6Bm N  ov 18, 2018 0 0:14:53.985934000  7
               117.88071132:32:32:32:32:3  7Bm N  ov 18, 2018 0 0:14:55.246027000  7
               12 8.2880532:32:32:32:32:3  7Bm N  ov 18, 2018 0 0:14:55.653366000  7
               138.94990432:32:32:32:32:3  6Bm N  ov 18, 2018 0 0:14:56.315220000  7
            14  1 1.3933832:32:32:32:32:3  4Bm N  ov 18, 2018 0 0:14:58.758696000  7
            15  11.87609232:32:32:32:32:3  5Bm N  ov 18, 2018 0 0:14:59.241408000  7
            16  14.43300932:32:32:32:32:3  5Bm N  ov 18, 2018 0 0:15:01.798325000  7
            17  15.60375732:32:32:32:32:3  6Bm N  ov 18, 2018 0 0:15:02.969073000  7
            18  15.89001732:32:32:32:32:3  6Bm N  ov 18, 2018 0 0:15:03.255333000  7
            19  16.41492332:32:32:32:32:3  7Bm N  ov 18, 2018 0 0:15:03.780239000  7
            20  16.51957832:32:32:32:32:3  6Bm N  ov 18, 2018 0 0:15:03.884894000  7
            21  16.95917532:32:32:32:32:3  4Bm N  ov 18, 2018 0 0:15:04.324491000  7
            22  17.33895532:32:32:32:32:3  5Bm N  ov 18, 2018 0 0:15:04.704271000  7
            23  19.35925332:32:32:32:32:3  5Bm N  ov 18, 2018 0 0:15:06.724569000  7
            24  19.71968432:32:32:32:32:3  6Bm N  ov 18, 2018 0 0:15:07.085000000  7
            25  19.74977532:32:32:32:32:3  4Bm N  ov 18, 2018 0 0:15:07.115091000  7
            26  19.81744632:32:32:32:32:3  4Bm N  ov 18, 2018 0 0:15:07.182762000  7
            27  19.98645932:32:32:32:32:3  6Bm N  ov 18, 2018 0 0:15:07.351775000  7
            28  20.12953732:32:32:32:32:3  7Bm N  ov 18, 2018 0 0:15:07.494853000  7
            29  21.45803332:32:32:32:32:3  4Bm N  ov 18, 2018 0 0:15:08.823349000  7
            30  21.56265132:32:32:32:32:3  5Bm N  ov 18, 2018 0 0:15:08.927967000  7
            31  21.80070332:32:32:32:32:3  7Bm N  ov 18, 2018 0 0:15:09.166019000  7
            32  22.71002432:32:32:32:32:3  5Bm N  ov 18, 2018 0 0:15:10.075340000  7
            33  22.78561832:32:32:32:32:3  5Bm N  ov 18, 2018 0 0:15:10.150934000  7
            34  22.92535432:32:32:32:32:3  6Bm N  ov 18, 2018 0 0:15:10.290670000  7
            35  23.57856232:32:32:32:32:3  5Bm N  ov 18, 2018 0 0:15:10.943878000  7
            36  2 4.5587732:32:32:32:32:3  5Bm N  ov 18, 2018 0 0:15:11.924086000  7
            37  25.45293832:32:32:32:32:3  5Bm N  ov 18, 2018 0 0:15:12.818254000  7
            38  25.59671632:32:32:32:32:3  5Bm N  ov 18, 2018 0 0:15:12.962032000  7
            39  26.01518432:32:32:32:32:3  7Bm N  ov 18, 2018 0 0:15:13.380500000  7
            40  26.15322232:32:32:32:32:3  6Bm N  ov 18, 2018 0 0:15:13.518538000  7
            41  26.54066432:32:32:32:32:3  5Bm N  ov 18, 2018 0 0:15:13.905980000  7
            42  27.26793932:32:32:32:32:3  6Bm N  ov 18, 2018 0 0:15:14.633255000  7
            43  27.53272232:32:32:32:32:3  5Bm N  ov 18, 2018 0 0:15:14.898038000  7
            44  28.23506932:32:32:32:32:3  4Bm N  ov 18, 2018 0 0:15:15.600385000  7
            45  28.99654832:32:32:32:32:3  3Bm N  ov 18, 2018 0 0:15:16.361864000  7
            46  29.04244532:32:32:32:32:3  6Bm N  ov 18, 2018 0 0:15:16.407761000  7
            47  31.54828632:32:32:32:32:3  7Bm N  ov 18, 2018 0 0:15:18.913602000  7
            48  31.95006832:32:32:32:32:3  6Bm N  ov 18, 2018 0 0:15:19.315384000  7
            49  32.08213732:32:32:32:32:3  6Bm N  ov 18, 2018 0 0:15:19.447453000  7
            50  3 2.3240632:32:32:32:32:3  8Bm N  ov 18, 2018 0 0:15:19.689376000  7
            51  33.01740332:32:32:32:32:3  6Bm N  ov 18, 2018 0 0:15:20.382719000  7
            52  33.60591132:32:32:32:32:3  7Bm N  ov 18, 2018 0 0:15:20.971227000  7
            53  33.72385232:32:32:32:32:3  9Bm N  ov 18, 2018 0 0:15:21.089168000  7
            54  33.93821532:32:32:32:32:3  5Bm N  ov 18, 2018 0 0:15:21.303531000  7
            55  34.14146432:32:32:32:32:3  7Bm N  ov 18, 2018 0 0:15:21.506780000  7
            56  34.50868332:32:32:32:32:3  8Bm N  ov 18, 2018 0 0:15:21.873999000  7
            57  36.04505632:32:32:32:32:3  7Bm N  ov 18, 2018 0 0:15:23.410372000  7
            58  36.13117732:32:32:32:32:3 11dBm   Nov 18,   201800:15:23.496493000 7
            59  36.17690832:32:32:32:32:3 10dBm   Nov 18,   201800:15:23.542224000 7
            60  36.38025132:32:32:32:32:3 10dBm   Nov 18,   201800:15:23.745567000 7
            61  37.04395732:32:32:32:32:3  8Bm N  ov 18, 2018 0 0:15:24.409273000  7
            62  3 7.4699632:32:32:32:32:3  9Bm N  ov 18, 2018 0 0:15:24.835276000  7
            63  38.23839932:32:32:32:32:3  8Bm N  ov 18, 2018 0 0:15:25.603715000  7
            64  38.93513432:32:32:32:32:3  9Bm N  ov 18, 2018 0 0:15:26.300450000  7
            65  39.08372732:32:32:32:32:3  8Bm N  ov 18, 2018 0 0:15:26.449043000  7
            66  39.58127632:32:32:32:32:3  9Bm N  ov 18, 2018 0 0:15:26.946592000  7
            67  3 9.9939332:32:32:32:32:3  7Bm N  ov 18, 2018 0 0:15:27.359246000  7
            68  41.22452332:32:32:32:32:3  8Bm N  ov 18, 2018 0 0:15:28.589839000  7
            69  42.22245332:32:32:32:32:3 10dBm   Nov 18,   201800:15:29.587769000 7
            70  4 2.3507532:32:32:32:32:3  8Bm N  ov 18, 2018 0 0:15:29.716066000  7
            71  42.41362132:32:32:32:32:3  9Bm N  ov 18, 2018 0 0:15:29.778937000  7
            72  43.22419932:32:32:32:32:3  9Bm N  ov 18, 2018 0 0:15:30.589515000  7
            73  44.54481932:32:32:32:32:3 10dBm   Nov 18,   201800:15:31.910135000 7
            74  45.47388532:32:32:32:32:3  9Bm N  ov 18, 2018 0 0:15:32.839201000  7
            75  45.54682432:32:32:32:32:3  8Bm N  ov 18, 2018 0 0:15:32.912140000  7
            76  45.76917832:32:32:32:32:3  8Bm N  ov 18, 2018 0 0:15:33.134494000  7
            77  46.06980932:32:32:32:32:3  7Bm N  ov 18, 2018 0 0:15:33.435125000  7
            78  46.32430432:32:32:32:32:3  9Bm N  ov 18, 2018 0 0:15:33.689620000  7
            79  47.22865932:32:32:32:32:3 10dBm   Nov 18,   201800:15:34.593975000 7
            80  4 7.3721532:32:32:32:32:3 10dBm   Nov 18,   201800:15:34.737466000 7
            81  47.59275832:32:32:32:32:3 10dBm   Nov 18,   201800:15:34.958074000 7
            82  4 8.7569632:32:32:32:32:3  8Bm N  ov 18, 2018 0 0:15:36.122276000  7
            83  48.76649532:32:32:32:32:3  9Bm N  ov 18, 2018 0 0:15:36.131811000  7
            84  48.86738132:32:32:32:32:3  9Bm N  ov 18, 2018 0 0:15:36.232697000  7
            85  49.17127832:32:32:32:32:3  9Bm N  ov 18, 2018 0 0:15:36.536594000  7
            86  4 9.5899532:32:32:32:32:3  9Bm N  ov 18, 2018 0 0:15:36.955266000  7
            87  49.73221932:32:32:32:32:3  8Bm N  ov 18, 2018 0 0:15:37.097535000  7
            88  49.79317332:32:32:32:32:3 10dBm   Nov 18,   201800:15:37.158489000 7
            89  49.87025832:32:32:32:32:3  6Bm N  ov 18, 2018 0 0:15:37.235574000  7
            90  50.13247432:32:32:32:32:3  9Bm N  ov 18, 2018 0 0:15:37.497790000  7
            91  50.45742532:32:32:32:32:3  8Bm N  ov 18, 2018 0 0:15:37.822741000  7
            92  50.53582832:32:32:32:32:3  9Bm N  ov 18, 2018 0 0:15:37.901144000  7
            93  50.54989632:32:32:32:32:3 11dBm   Nov 18,   201800:15:37.915212000 7
            94  50.71233932:32:32:32:32:3  8Bm N  ov 18, 2018 0 0:15:38.077655000  7
            95  51.48807432:32:32:32:32:3  8Bm N  ov 18, 2018 0 0:15:38.853390000  7
            96  51.90275332:32:32:32:32:3  9Bm N  ov 18, 2018 0 0:15:39.268069000  7
            97  52.15379632:32:32:32:32:3  9Bm N  ov 18, 2018 0 0:15:39.519112000  7
            98  52.27322732:32:32:32:32:3  9Bm N  ov 18, 2018 0 0:15:39.638543000  7
            99  52.49653732:32:32:32:32:3 10dBm   Nov 18,   201800:15:39.861853000 7
           100  52.87945832:32:32:32:32:3  8Bm N  ov 18, 2018 0 0:15:40.244774000  7
           101  52.98615432:32:32:32:32:3  9Bm N  ov 18, 2018 0 0:15:40.351470000  7
           102  53.13200932:32:32:32:32:3 10dBm   Nov 18,   201800:15:40.497325000 7
           103  53.50541132:32:32:32:32:3  9Bm N  ov 18, 2018 0 0:15:40.870727000  7
           104  53.62699632:32:32:32:32:3 10dBm   Nov 18,   201800:15:40.992312000 7
           105  53.84238932:32:32:32:32:3  7Bm N  ov 18, 2018 0 0:15:41.207705000  7
           106  54.04855932:32:32:32:32:3  8Bm N  ov 18, 2018 0 0:15:41.413875000  7
           107  54.42950632:32:32:32:32:3  9Bm N  ov 18, 2018 0 0:15:41.794822000  7
           108  54.50251332:32:32:32:32:3 10dBm   Nov 18,   201800:15:41.867829000 7
           109  54.57436132:32:32:32:32:3  8Bm N  ov 18, 2018 0 0:15:41.939677000  7
           110  54.71641432:32:32:32:32:3  8Bm N  ov 18, 2018 0 0:15:42.081730000  7
           111  54.80786832:32:32:32:32:3  9Bm N  ov 18, 2018 0 0:15:42.173184000  7
           112  55.29633532:32:32:32:32:3  7Bm N  ov 18, 2018 0 0:15:42.661651000  7
           113  55.55552232:32:32:32:32:3 10dBm   Nov 18,   201800:15:42.920838000 7
           114  5 6.3605132:32:32:32:32:3  5Bm N  ov 18, 2018 0 0:15:43.725826000  7
           115  56.61136432:32:32:32:32:3  7Bm N  ov 18, 2018 0 0:15:43.976680000  7
           116  56.82484432:32:32:32:32:3  9Bm N  ov 18, 2018 0 0:15:44.190160000  7
           117  57.09862532:32:32:32:32:3  9Bm N  ov 18, 2018 0 0:15:44.463941000  7
           118  57.20253132:32:32:32:32:3 10dBm   Nov 18,   201800:15:44.567847000 7
           119  57.27651132:32:32:32:32:3  9Bm N  ov 18, 2018 0 0:15:44.641827000  7
           120  57.51678232:32:32:32:32:3 10dBm   Nov 18,   201800:15:44.882098000 7
           121  5 7.8589432:32:32:32:32:3 10dBm   Nov 18,   201800:15:45.224256000 7
           122  57.92182632:32:32:32:32:3  6Bm N  ov 18, 2018 0 0:15:45.287142000  7
           123  58.14585932:32:32:32:32:3  9Bm N  ov 18, 2018 0 0:15:45.511175000  7
           124  58.24541132:32:32:32:32:3  9Bm N  ov 18, 2018 0 0:15:45.610727000  7
           125  58.78109332:32:32:32:32:3  6Bm N  ov 18, 2018 0 0:15:46.146409000  7
           126  59.03600932:32:32:32:32:3  8Bm N  ov 18, 2018 0 0:15:46.401325000  7
           127  59.17402832:32:32:32:32:3  9Bm N  ov 18, 2018 0 0:15:46.539344000  7
           128  59.45109232:32:32:32:32:3 11dBm   Nov 18,   201800:15:46.816408000 7
           129  59.73767132:32:32:32:32:3  9Bm N  ov 18, 2018 0 0:15:47.102987000  7
           130  59.75931832:32:32:32:32:3 10dBm   Nov 18,   201800:15:47.124634000 7
           131  59.82284532:32:32:32:32:3 10dBm   Nov 18,   201800:15:47.188161000 7
           132  60.04629932:32:32:32:32:3  8Bm N  ov 18, 2018 0 0:15:47.411615000  7
           133  60.94295532:32:32:32:32:3  8Bm N  ov 18, 2018 0 0:15:48.308271000  7
           134  61.29521432:32:32:32:32:3  9Bm N  ov 18, 2018 0 0:15:48.660530000  7
           135  61.39260832:32:32:32:32:3  8Bm N  ov 18, 2018 0 0:15:48.757924000  7
           136  61.54462732:32:32:32:32:3  9Bm N  ov 18, 2018 0 0:15:48.909943000  7
           137  61.61107232:32:32:32:32:3  9Bm N  ov 18, 2018 0 0:15:48.976388000  7
           138  62.24311632:32:32:32:32:3  7Bm N  ov 18, 2018 0 0:15:49.608432000  7
           139  62.29679532:32:32:32:32:3  7Bm N  ov 18, 2018 0 0:15:49.662111000  7
           140  62.35634932:32:32:32:32:3  8Bm N  ov 18, 2018 0 0:15:49.721665000  7
           141  62.87030132:32:32:32:32:3  8Bm N  ov 18, 2018 0 0:15:50.235617000  7
           142  63.08250332:32:32:32:32:3 10dBm   Nov 18,   201800:15:50.447819000 7
           143  63.24712732:32:32:32:32:3 10dBm   Nov 18,   201800:15:50.612443000 7
           144  63.97427132:32:32:32:32:3 10dBm   Nov 18,   201800:15:51.339587000 7
           145  65.17789432:32:32:32:32:3  8Bm N  ov 18, 2018 0 0:15:52.543210000  7
           146  65.35713332:32:32:32:32:3 10dBm   Nov 18,   201800:15:52.722449000 7
           147  65.47125732:32:32:32:32:3  7Bm N  ov 18, 2018 0 0:15:52.836573000  7
           148  65.89571832:32:32:32:32:3 10dBm   Nov 18,   201800:15:53.261034000 7
           149  66.00499832:32:32:32:32:3  7Bm N  ov 18, 2018 0 0:15:53.370314000  7
           150  66.19811832:32:32:32:32:3  8Bm N  ov 18, 2018 0 0:15:53.563434000  7
           151  66.70405732:32:32:32:32:3  9Bm N  ov 18, 2018 0 0:15:54.069373000  7
           152  66.83449232:32:32:32:32:3  8Bm N  ov 18, 2018 0 0:15:54.199808000  7
           153  67.15624432:32:32:32:32:3  8Bm N  ov 18, 2018 0 0:15:54.521560000  7
           154  67.41756332:32:32:32:32:3  6Bm N  ov 18, 2018 0 0:15:54.782879000  7
           155  67.59686932:32:32:32:32:3  7Bm N  ov 18, 2018 0 0:15:54.962185000  7
           156  6 7.6925632:32:32:32:32:3  5Bm N  ov 18, 2018 0 0:15:55.057876000  7
           157  68.51481932:32:32:32:32:3  8Bm N  ov 18, 2018 0 0:15:55.880135000  7
           158  69.52649932:32:32:32:32:3  7Bm N  ov 18, 2018 0 0:15:56.891815000  7
           159  70.17941732:32:32:32:32:3  7Bm N  ov 18, 2018 0 0:15:57.544733000  7
           160  70.39695232:32:32:32:32:3  7Bm N  ov 18, 2018 0 0:15:57.762268000  7
           161  70.56979232:32:32:32:32:3  6Bm N  ov 18, 2018 0 0:15:57.935108000  7
           162  70.73034332:32:32:32:32:3  6Bm N  ov 18, 2018 0 0:15:58.095659000  7
           163  70.83210432:32:32:32:32:3  5Bm N  ov 18, 2018 0 0:15:58.197420000  7
           164  71.13739532:32:32:32:32:3  8Bm N  ov 18, 2018 0 0:15:58.502711000  7
           165  71.52184332:32:32:32:32:3  6Bm N  ov 18, 2018 0 0:15:58.887159000  7
           166  71.65923632:32:32:32:32:3  8Bm N  ov 18, 2018 0 0:15:59.024552000  7
           167  71.73255332:32:32:32:32:3  6Bm N  ov 18, 2018 0 0:15:59.097869000  7
           168  71.93916932:32:32:32:32:3  8Bm N  ov 18, 2018 0 0:15:59.304485000  7
           169  72.09099332:32:32:32:32:3  9Bm N  ov 18, 2018 0 0:15:59.456309000  7
           170  72.14745232:32:32:32:32:3  8Bm N  ov 18, 2018 0 0:15:59.512768000  7
           171  72.23139832:32:32:32:32:3  7Bm N  ov 18, 2018 0 0:15:59.596714000  7
           172  72.67331732:32:32:32:32:3  6Bm N  ov 18, 2018 0 0:16:00.038633000  7
           173  73.09735832:32:32:32:32:3  8Bm N  ov 18, 2018 0 0:16:00.462674000  7
           174  73.69348732:32:32:32:32:3  7Bm N  ov 18, 2018 0 0:16:01.058803000  7
           175  73.77173232:32:32:32:32:3  8Bm N  ov 18, 2018 0 0:16:01.137048000  7
           176  74.54154832:32:32:32:32:3  9Bm N  ov 18, 2018 0 0:16:01.906864000  7
           177  74.66089932:32:32:32:32:3  7Bm N  ov 18, 2018 0 0:16:02.026215000  7
           178  74.95416632:32:32:32:32:3  8Bm N  ov 18, 2018 0 0:16:02.319482000  7
           179  75.33654532:32:32:32:32:3  7Bm N  ov 18, 2018 0 0:16:02.701861000  7
           180  75.52248532:32:32:32:32:3  9Bm N  ov 18, 2018 0 0:16:02.887801000  7
           181  75.59593632:32:32:32:32:3  8Bm N  ov 18, 2018 0 0:16:02.961252000  7
           182  75.76323132:32:32:32:32:3  6Bm N  ov 18, 2018 0 0:16:03.128547000  7
           183  77.10794432:32:32:32:32:3  7Bm N  ov 18, 2018 0 0:16:04.473260000  7
           184  77.33565632:32:32:32:32:3  7Bm N  ov 18, 2018 0 0:16:04.700972000  7
           185  77.42556432:32:32:32:32:3  8Bm N  ov 18, 2018 0 0:16:04.790880000  7
           186  77.57280532:32:32:32:32:3  8Bm N  ov 18, 2018 0 0:16:04.938121000  7
           187  77.71553932:32:32:32:32:3  8Bm N  ov 18, 2018 0 0:16:05.080855000  7
           188  77.92046432:32:32:32:32:3  7Bm N  ov 18, 2018 0 0:16:05.285780000  7
           189  78.05513332:32:32:32:32:3  6Bm N  ov 18, 2018 0 0:16:05.420449000  7
           190  78.94920532:32:32:32:32:3  6Bm N  ov 18, 2018 0 0:16:06.314521000  7
           191  79.15144732:32:32:32:32:3  6Bm N  ov 18, 2018 0 0:16:06.516763000  7
           192  79.28403632:32:32:32:32:3  5Bm N  ov 18, 2018 0 0:16:06.649352000  7
           193  79.43185332:32:32:32:32:3  6Bm N  ov 18, 2018 0 0:16:06.797169000  7
           194  79.67450132:32:32:32:32:3  5Bm N  ov 18, 2018 0 0:16:07.039817000  7
           195  79.75455232:32:32:32:32:3  8Bm N  ov 18, 2018 0 0:16:07.119868000  7
           196  80.38032532:32:32:32:32:3  8Bm N  ov 18, 2018 0 0:16:07.745641000  7
           197  81.49229132:32:32:32:32:3  7Bm N  ov 18, 2018 0 0:16:08.857607000  7
           198  81.72943332:32:32:32:32:3  8Bm N  ov 18, 2018 0 0:16:09.094749000  7
           199  8  1.852532:32:32:32:32:3  8Bm N  ov 18, 2018 0 0:16:09.217816000  7
           200  81.87276332:32:32:32:32:3  7Bm N  ov 18, 2018 0 0:16:09.238079000  7
           201  82.14379632:32:32:32:32:3  6Bm N  ov 18, 2018 0 0:16:09.509112000  7
           202  82.33637632:32:32:32:32:3  7Bm N  ov 18, 2018 0 0:16:09.701692000  7
           203  82.73656232:32:32:32:32:3  7Bm N  ov 18, 2018 0 0:16:10.101878000  7
           204  82.76266232:32:32:32:32:3  9Bm N  ov 18, 2018 0 0:16:10.127978000  7
           205  82.81575432:32:32:32:32:3  8Bm N  ov 18, 2018 0 0:16:10.181070000  7
           206  82.89043432:32:32:32:32:3  7Bm N  ov 18, 2018 0 0:16:10.255750000  7
           207  83.92988232:32:32:32:32:3  7Bm N  ov 18, 2018 0 0:16:11.295198000  7
           208  84.18137832:32:32:32:32:3  6Bm N  ov 18, 2018 0 0:16:11.546694000  7
           209  84.33952632:32:32:32:32:3  7Bm N  ov 18, 2018 0 0:16:11.704842000  7
           210  85.76894932:32:32:32:32:3  8Bm N  ov 18, 2018 0 0:16:13.134265000  7
           211  85.89109232:32:32:32:32:3  8Bm N  ov 18, 2018 0 0:16:13.256408000  7
           212  86.33124132:32:32:32:32:3  8Bm N  ov 18, 2018 0 0:16:13.696557000  7
           213  86.92439532:32:32:32:32:3  7Bm N  ov 18, 2018 0 0:16:14.289711000  7
           214  87.36111932:32:32:32:32:3  7Bm N  ov 18, 2018 0 0:16:14.726435000  7
           215  8 7.6746432:32:32:32:32:3  7Bm N  ov 18, 2018 0 0:16:15.039956000  7
           216  87.77446732:32:32:32:32:3  7Bm N  ov 18, 2018 0 0:16:15.139783000  7
           217  8  7.987332:32:32:32:32:3  7Bm N  ov 18, 2018 0 0:16:15.352616000  7
           218  88.56082932:32:32:32:32:3  9Bm N  ov 18, 2018 0 0:16:15.926145000  7
           219  88.68038132:32:32:32:32:3  5Bm N  ov 18, 2018 0 0:16:16.045697000  7
           220  88.88960832:32:32:32:32:3  8Bm N  ov 18, 2018 0 0:16:16.254924000  7
           221  89.25072632:32:32:32:32:3  8Bm N  ov 18, 2018 0 0:16:16.616042000  7
           222  8 9.5137932:32:32:32:32:3  8Bm N  ov 18, 2018 0 0:16:16.879106000  7
           223  89.81382532:32:32:32:32:3  8Bm N  ov 18, 2018 0 0:16:17.179141000  7
           224  90.36032432:32:32:32:32:3  7Bm N  ov 18, 2018 0 0:16:17.725640000  7
           225  90.97363732:32:32:32:32:3  5Bm N  ov 18, 2018 0 0:16:18.338953000  7
           226  91.08277832:32:32:32:32:3  9Bm N  ov 18, 2018 0 0:16:18.448094000  7
           227  9 1.5929832:32:32:32:32:3  8Bm N  ov 18, 2018 0 0:16:18.958296000  7
           228  91.82416432:32:32:32:32:3  7Bm N  ov 18, 2018 0 0:16:19.189480000  7
           229  92.05960732:32:32:32:32:3  7Bm N  ov 18, 2018 0 0:16:19.424923000  7
           230  92.45022132:32:32:32:32:3  7Bm N  ov 18, 2018 0 0:16:19.815537000  7
           231  92.56910832:32:32:32:32:3  7Bm N  ov 18, 2018 0 0:16:19.934424000  7
           232  92.63541532:32:32:32:32:3  5Bm N  ov 18, 2018 0 0:16:20.000731000  7
           233  93.52531832:32:32:32:32:3  6Bm N  ov 18, 2018 0 0:16:20.890634000  7
           234  93.63457632:32:32:32:32:3  5Bm N  ov 18, 2018 0 0:16:20.999892000  7
           235  94.33284132:32:32:32:32:3  8Bm N  ov 18, 2018 0 0:16:21.698157000  7
           236  94.41686232:32:32:32:32:3  6Bm N  ov 18, 2018 0 0:16:21.782178000  7
           237  94.55872232:32:32:32:32:3  7Bm N  ov 18, 2018 0 0:16:21.924038000  7
           238  95.01620532:32:32:32:32:3  7Bm N  ov 18, 2018 0 0:16:22.381521000  7
           239  95.54212832:32:32:32:32:3  5Bm N  ov 18, 2018 0 0:16:22.907444000  7
           240  95.66304632:32:32:32:32:3  6Bm N  ov 18, 2018 0 0:16:23.028362000  7
           241  95.94163532:32:32:32:32:3  5Bm N  ov 18, 2018 0 0:16:23.306951000  7
           242  96.12654332:32:32:32:32:3  8Bm N  ov 18, 2018 0 0:16:23.491859000  7
           243  96.36959832:32:32:32:32:3  8Bm N  ov 18, 2018 0 0:16:23.734914000  7
           244  96.52472332:32:32:32:32:3  7Bm N  ov 18, 2018 0 0:16:23.890039000  7
           245  96.70409232:32:32:32:32:3  8Bm N  ov 18, 2018 0 0:16:24.069408000  7
           246  96.93043332:32:32:32:32:3  6Bm N  ov 18, 2018 0 0:16:24.295749000  7
           247  97.20175832:32:32:32:32:3  9Bm N  ov 18, 2018 0 0:16:24.567074000  7
           248  97.51031832:32:32:32:32:3  8Bm N  ov 18, 2018 0 0:16:24.875634000  7
           249  97.65615932:32:32:32:32:3  6Bm N  ov 18, 2018 0 0:16:25.021475000  7
           250  97.78023832:32:32:32:32:3  7Bm N  ov 18, 2018 0 0:16:25.145554000  7
           251  97.79783932:32:32:32:32:3  6Bm N  ov 18, 2018 0 0:16:25.163155000  7
           252  98.32498532:32:32:32:32:3  7Bm N  ov 18, 2018 0 0:16:25.690301000  7
           253  98.49417932:32:32:32:32:3  6Bm N  ov 18, 2018 0 0:16:25.859495000  7
           254  98.58765732:32:32:32:32:3  8Bm N  ov 18, 2018 0 0:16:25.952973000  7
           255  98.66323732:32:32:32:32:3  7Bm N  ov 18, 2018 0 0:16:26.028553000  7
           256  98.74550432:32:32:32:32:3  7Bm N  ov 18, 2018 0 0:16:26.110820000  7
           257  99.07934832:32:32:32:32:3  6Bm N  ov 18, 2018 0 0:16:26.444664000  7
           258  99.23573532:32:32:32:32:3  8Bm N  ov 18, 2018 0 0:16:26.601051000  7
           259  99.56713632:32:32:32:32:3  7Bm N  ov 18, 2018 0 0:16:26.932452000  7
           260  99.57716832:32:32:32:32:3  6Bm N  ov 18, 2018 0 0:16:26.942484000  7
           261  9 9.8031432:32:32:32:32:3  8Bm N  ov 18, 2018 0 0:16:27.168456000  7
           262  99.98286832:32:32:32:32:3  7Bm N  ov 18, 2018 0 0:16:27.348184000  7
           263 100.39066832:32:32:32:32:3  7Bm N  ov 18, 2018 0 0:16:27.755984000  7
           264 100.87642732:32:32:32:32:3  7Bm N  ov 18, 2018 0 0:16:28.241743000  7
           265 101.38114932:32:32:32:32:3  5Bm N  ov 18, 2018 0 0:16:28.746465000  7
           266 101.59485632:32:32:32:32:3  7Bm N  ov 18, 2018 0 0:16:28.960172000  7
           267 102.11271432:32:32:32:32:3  9Bm N  ov 18, 2018 0 0:16:29.478030000  7
           268 10 2.3747632:32:32:32:32:3  7Bm N  ov 18, 2018 0 0:16:29.740076000  7
           269 102.88023632:32:32:32:32:3  8Bm N  ov 18, 2018 0 0:16:30.245552000  7
           270 103.13485432:32:32:32:32:3  7Bm N  ov 18, 2018 0 0:16:30.500170000  7
           271 103.29499732:32:32:32:32:3  6Bm N  ov 18, 2018 0 0:16:30.660313000  7
           272 104.99049932:32:32:32:32:3  7Bm N  ov 18, 2018 0 0:16:32.355815000  7
           273 105.66923332:32:32:32:32:3  8Bm N  ov 18, 2018 0 0:16:33.034549000  7
           274 105.78119232:32:32:32:32:3  6Bm N  ov 18, 2018 0 0:16:33.146508000  7
           275 106.00774632:32:32:32:32:3  8Bm N  ov 18, 2018 0 0:16:33.373062000  7
           276 106.33888132:32:32:32:32:3  6Bm N  ov 18, 2018 0 0:16:33.704197000  7
           277 107.08470132:32:32:32:32:3  9Bm N  ov 18, 2018 0 0:16:34.450017000  7
           278 107.15893332:32:32:32:32:3  7Bm N  ov 18, 2018 0 0:16:34.524249000  7
           279 107.41663232:32:32:32:32:3  8Bm N  ov 18, 2018 0 0:16:34.781948000  7
           280 107.57147232:32:32:32:32:3  7Bm N  ov 18, 2018 0 0:16:34.936788000  7
           281 107.66610932:32:32:32:32:3  9Bm N  ov 18, 2018 0 0:16:35.031425000  7
           282 10 8.5060732:32:32:32:32:3  5Bm N  ov 18, 2018 0 0:16:35.871386000  7
           283 109.80643632:32:32:32:32:3  6Bm N  ov 18, 2018 0 0:16:37.171752000  7
           284 110.85880632:32:32:32:32:3  7Bm N  ov 18, 2018 0 0:16:38.224122000  7
           285 11 1.2251732:32:32:32:32:3  7Bm N  ov 18, 2018 0 0:16:38.590486000  7
           286 111.66827532:32:32:32:32:3  7Bm N  ov 18, 2018 0 0:16:39.033591000  7
           287 111.73313432:32:32:32:32:3  8Bm N  ov 18, 2018 0 0:16:39.098450000  7
           288 112.04033832:32:32:32:32:3  8Bm N  ov 18, 2018 0 0:16:39.405654000  7
           289 112.29648532:32:32:32:32:3  8Bm N  ov 18, 2018 0 0:16:39.661801000  7
           290 112.50160232:32:32:32:32:3  7Bm N  ov 18, 2018 0 0:16:39.866918000  7
           291 112.55872732:32:32:32:32:3  7Bm N  ov 18, 2018 0 0:16:39.924043000  7
           292 112.69135232:32:32:32:32:3  6Bm N  ov 18, 2018 0 0:16:40.056668000  7
           293 112.82126432:32:32:32:32:3  6Bm N  ov 18, 2018 0 0:16:40.186580000  7
           294 11 3.3552432:32:32:32:32:3  7Bm N  ov 18, 2018 0 0:16:40.720556000  7
           295 113.86724232:32:32:32:32:3  7Bm N  ov 18, 2018 0 0:16:41.232558000  7
           296 114.44188132:32:32:32:32:3  8Bm N  ov 18, 2018 0 0:16:41.807197000  7
           297 114.87449632:32:32:32:32:3  7Bm N  ov 18, 2018 0 0:16:42.239812000  7
           298 115.04507732:32:32:32:32:3  8Bm N  ov 18, 2018 0 0:16:42.410393000  7
           299 115.81634632:32:32:32:32:3  7Bm N  ov 18, 2018 0 0:16:43.181662000  7
           300 11 6.0221132:32:32:32:32:3  6Bm N  ov 18, 2018 0 0:16:43.387426000  7
           301 116.53906132:32:32:32:32:3  7Bm N  ov 18, 2018 0 0:16:43.904377000  7
           302 116.60456932:32:32:32:32:3  6Bm N  ov 18, 2018 0 0:16:43.969885000  7
           303 117.42392332:32:32:32:32:3  7Bm N  ov 18, 2018 0 0:16:44.789239000  7
           304 118.12494332:32:32:32:32:3  7Bm N  ov 18, 2018 0 0:16:45.490259000  7
           305 119.32138332:32:32:32:32:3  6Bm N  ov 18, 2018 0 0:16:46.686699000  7
           306 119.87110832:32:32:32:32:3  6Bm N  ov 18, 2018 0 0:16:47.236424000  7
           307 12 0.3308132:32:32:32:32:3  6Bm N  ov 18, 2018 0 0:16:47.696126000  7
           308 120.55746832:32:32:32:32:3  5Bm N  ov 18, 2018 0 0:16:47.922784000  7
           309 120.62741632:32:32:32:32:3  6Bm N  ov 18, 2018 0 0:16:47.992732000  7
           310 121.33395532:32:32:32:32:3  6Bm N  ov 18, 2018 0 0:16:48.699271000  7
           311 121.58005232:32:32:32:32:3  6Bm N  ov 18, 2018 0 0:16:48.945368000  7
           312 12 1.7765332:32:32:32:32:3  7Bm N  ov 18, 2018 0 0:16:49.141846000  7
           313 121.77912732:32:32:32:32:3  7Bm N  ov 18, 2018 0 0:16:49.144443000  7
           314 122.60721432:32:32:32:32:3  6Bm N  ov 18, 2018 0 0:16:49.972530000  7
           315 122.88922132:32:32:32:32:3  6Bm N  ov 18, 2018 0 0:16:50.254537000  7
           316 123.02023932:32:32:32:32:3  6Bm N  ov 18, 2018 0 0:16:50.385555000  7
           317 124.10406732:32:32:32:32:3  6Bm N  ov 18, 2018 0 0:16:51.469383000  7
           318 124.32795932:32:32:32:32:3  5Bm N  ov 18, 2018 0 0:16:51.693275000  7
           319 124.53136132:32:32:32:32:3  4Bm N  ov 18, 2018 0 0:16:51.896677000  7
           320 124.71961732:32:32:32:32:3  7Bm N  ov 18, 2018 0 0:16:52.084933000  7
           321 125.37449632:32:32:32:32:3  7Bm N  ov 18, 2018 0 0:16:52.739812000  7
           322 125.79349332:32:32:32:32:3  6Bm N  ov 18, 2018 0 0:16:53.158809000  7
           323 125.86118132:32:32:32:32:3  6Bm N  ov 18, 2018 0 0:16:53.226497000  7
           324 125.91254232:32:32:32:32:3  4Bm N  ov 18, 2018 0 0:16:53.277858000  7
           325 125.98645932:32:32:32:32:3  6Bm N  ov 18, 2018 0 0:16:53.351775000  7
           326 126.27853632:32:32:32:32:3  6Bm N  ov 18, 2018 0 0:16:53.643852000  7
           327 12 7.1337732:32:32:32:32:3  7Bm N  ov 18, 2018 0 0:16:54.499086000  7
           328 127.65053832:32:32:32:32:3  1Bm N  ov 18, 2018 0 0:16:55.015854000  7
           329 127.99784632:32:32:32:32:3  6Bm N  ov 18, 2018 0 0:16:55.363162000  7
           330 128.09956132:32:32:32:32:3  4Bm N  ov 18, 2018 0 0:16:55.464877000  7
           331 129.12715532:32:32:32:32:3  7Bm N  ov 18, 2018 0 0:16:56.492471000  7
           332 129.43691732:32:32:32:32:3  5Bm N  ov 18, 2018 0 0:16:56.802233000  7
           333 129.67141332:32:32:32:32:3  6Bm N  ov 18, 2018 0 0:16:57.036729000  7
           334 131.80064832:32:32:32:32:3  4Bm N  ov 18, 2018 0 0:16:59.165964000  7
           335 133.33570832:32:32:32:32:3  7Bm N  ov 18, 2018 0 0:17:00.701024000  7
           336 133.45424632:32:32:32:32:3  6Bm N  ov 18, 2018 0 0:17:00.819562000  7
           337 133.52262132:32:32:32:32:3  5Bm N  ov 18, 2018 0 0:17:00.887937000  7
           338 133.78828132:32:32:32:32:3  4Bm N  ov 18, 2018 0 0:17:01.153597000  7
           339 134.29991332:32:32:32:32:3  3Bm N  ov 18, 2018 0 0:17:01.665229000  7
           340 134.45141632:32:32:32:32:3  4Bm N  ov 18, 2018 0 0:17:01.816732000  7
           341 136.70900132:32:32:32:32:3  6Bm N  ov 18, 2018 0 0:17:04.074317000  7
           342 137.67467232:32:32:32:32:3  5Bm N  ov 18, 2018 0 0:17:05.039988000  7
           343 138.30722432:32:32:32:32:3  5Bm N  ov 18, 2018 0 0:17:05.672540000  7
           344 138.55774632:32:32:32:32:3  7Bm N  ov 18, 2018 0 0:17:05.923062000  7
           345 138.82646532:32:32:32:32:3  5Bm N  ov 18, 2018 0 0:17:06.191781000  7
           346 139.21027932:32:32:32:32:3  5Bm N  ov 18, 2018 0 0:17:06.575595000  7
           347 139.72696932:32:32:32:32:3  6Bm N  ov 18, 2018 0 0:17:07.092285000  7
           348 139.95698232:32:32:32:32:3  5Bm N  ov 18, 2018 0 0:17:07.322298000  7
           349 140.44837532:32:32:32:32:3  5Bm N  ov 18, 2018 0 0:17:07.813691000  7
           350 140.99202732:32:32:32:32:3  4Bm N  ov 18, 2018 0 0:17:08.357343000  7
           351 14 1.2631232:32:32:32:32:3  2Bm N  ov 18, 2018 0 0:17:08.628436000  7
           352 141.33850432:32:32:32:32:3  7Bm N  ov 18, 2018 0 0:17:08.703820000  7
           353 141.75776732:32:32:32:32:3  4Bm N  ov 18, 2018 0 0:17:09.123083000  7
           354 142.79801532:32:32:32:32:3  6Bm N  ov 18, 2018 0 0:17:10.163331000  7
           355 14 3.1546932:32:32:32:32:3  4Bm N  ov 18, 2018 0 0:17:10.520006000  7
           356 143.87343532:32:32:32:32:3  5Bm N  ov 18, 2018 0 0:17:11.238751000  7
