                1       032:32:32:32:32:3  4Bm N  ov 18, 2018 0 0:52:24.030005000  7          2
                22.37724232:32:32:32:32:3  6Bm N  ov 18, 2018 0 0:52:26.407247000  7          8
                3 3.6657232:32:32:32:32:3  6Bm N  ov 18, 2018 0 0:52:27.695725000  7        ###
                43.84710432:32:32:32:32:3  4Bm N  ov 18, 2018 0 0:52:27.877109000  7        ###
                53.92069332:32:32:32:32:3  5Bm N  ov 18, 2018 0 0:52:27.950698000  7        ###
                64.10410432:32:32:32:32:3  3Bm N  ov 18, 2018 0 0:52:28.134109000  7
                74.22152232:32:32:32:32:3  5Bm N  ov 18, 2018 0 0:52:28.251527000  7
                84.49749332:32:32:32:32:3  6Bm N  ov 18, 2018 0 0:52:28.527498000  7
                94.57863632:32:32:32:32:3  5Bm N  ov 18, 2018 0 0:52:28.608641000  7
               104.69554632:32:32:32:32:3  7Bm N  ov 18, 2018 0 0:52:28.725551000  7
               114.74422232:32:32:32:32:3  4Bm N  ov 18, 2018 0 0:52:28.774227000  7
               124.85660532:32:32:32:32:3  6Bm N  ov 18, 2018 0 0:52:28.886610000  7
               134.87465132:32:32:32:32:3  4Bm N  ov 18, 2018 0 0:52:28.904656000  7
               144.89271832:32:32:32:32:3  6Bm N  ov 18, 2018 0 0:52:28.922723000  7
               155.03162732:32:32:32:32:3  6Bm N  ov 18, 2018 0 0:52:29.061632000  7
               165.15990732:32:32:32:32:3  6Bm N  ov 18, 2018 0 0:52:29.189912000  7
               175.52967332:32:32:32:32:3  6Bm N  ov 18, 2018 0 0:52:29.559678000  7
               185.90886832:32:32:32:32:3  7Bm N  ov 18, 2018 0 0:52:29.938873000  7
               196.65511132:32:32:32:32:3  6Bm N  ov 18, 2018 0 0:52:30.685116000  7
               20 6.7442332:32:32:32:32:3  6Bm N  ov 18, 2018 0 0:52:30.774235000  7
               216.76372832:32:32:32:32:3  5Bm N  ov 18, 2018 0 0:52:30.793733000  7
               22 6.8186732:32:32:32:32:3  6Bm N  ov 18, 2018 0 0:52:30.848675000  7
               236.97459632:32:32:32:32:3  4Bm N  ov 18, 2018 0 0:52:31.004601000  7
               247.00158332:32:32:32:32:3  6Bm N  ov 18, 2018 0 0:52:31.031588000  7
               257.08752132:32:32:32:32:3  5Bm N  ov 18, 2018 0 0:52:31.117526000  7
               267.20499232:32:32:32:32:3  5Bm N  ov 18, 2018 0 0:52:31.234997000  7
               277.37430232:32:32:32:32:3  6Bm N  ov 18, 2018 0 0:52:31.404307000  7
               287.67062532:32:32:32:32:3  7Bm N  ov 18, 2018 0 0:52:31.700630000  7
               297.73688732:32:32:32:32:3  4Bm N  ov 18, 2018 0 0:52:31.766892000  7
               308.15285732:32:32:32:32:3  6Bm N  ov 18, 2018 0 0:52:32.182862000  7
               318.38047532:32:32:32:32:3  6Bm N  ov 18, 2018 0 0:52:32.410480000  7
               328.57395632:32:32:32:32:3  4Bm N  ov 18, 2018 0 0:52:32.603961000  7
               338.64314932:32:32:32:32:3  5Bm N  ov 18, 2018 0 0:52:32.673154000  7
               349.27721832:32:32:32:32:3  6Bm N  ov 18, 2018 0 0:52:33.307223000  7
               359.59547332:32:32:32:32:3  5Bm N  ov 18, 2018 0 0:52:33.625478000  7
            36  10.05131132:32:32:32:32:3  5Bm N  ov 18, 2018 0 0:52:34.081316000  7
            37  10.45125732:32:32:32:32:3  4Bm N  ov 18, 2018 0 0:52:34.481262000  7
            38  10.93930232:32:32:32:32:3  5Bm N  ov 18, 2018 0 0:52:34.969307000  7
            39  10.96970132:32:32:32:32:3  6Bm N  ov 18, 2018 0 0:52:34.999706000  7
            40  11.71732832:32:32:32:32:3  6Bm N  ov 18, 2018 0 0:52:35.747333000  7
            41  11.93328832:32:32:32:32:3  5Bm N  ov 18, 2018 0 0:52:35.963293000  7
            42  13.03944232:32:32:32:32:3  6Bm N  ov 18, 2018 0 0:52:37.069447000  7
            43  1  3.772432:32:32:32:32:3  6Bm N  ov 18, 2018 0 0:52:37.802405000  7
            44  14.17228232:32:32:32:32:3  6Bm N  ov 18, 2018 0 0:52:38.202287000  7
            45  14.20435632:32:32:32:32:3  5Bm N  ov 18, 2018 0 0:52:38.234361000  7
            46  14.25053832:32:32:32:32:3  5Bm N  ov 18, 2018 0 0:52:38.280543000  7
            47  14.40226432:32:32:32:32:3  6Bm N  ov 18, 2018 0 0:52:38.432269000  7
            48  14.57139532:32:32:32:32:3  3Bm N  ov 18, 2018 0 0:52:38.601400000  7
            49  14.68773332:32:32:32:32:3  6Bm N  ov 18, 2018 0 0:52:38.717738000  7
            50  14.81288732:32:32:32:32:3  5Bm N  ov 18, 2018 0 0:52:38.842892000  7
            51  14.85679132:32:32:32:32:3  6Bm N  ov 18, 2018 0 0:52:38.886796000  7
            52  14.88562832:32:32:32:32:3  5Bm N  ov 18, 2018 0 0:52:38.915633000  7
            53  15.11527832:32:32:32:32:3  5Bm N  ov 18, 2018 0 0:52:39.145283000  7
            54  15.30534332:32:32:32:32:3  4Bm N  ov 18, 2018 0 0:52:39.335348000  7
            55  15.48939832:32:32:32:32:3  5Bm N  ov 18, 2018 0 0:52:39.519403000  7
            56  15.55341632:32:32:32:32:3  6Bm N  ov 18, 2018 0 0:52:39.583421000  7
            57  16.15778232:32:32:32:32:3  4Bm N  ov 18, 2018 0 0:52:40.187787000  7
            58  16.26836932:32:32:32:32:3  6Bm N  ov 18, 2018 0 0:52:40.298374000  7
            59  1 6.6918732:32:32:32:32:3  5Bm N  ov 18, 2018 0 0:52:40.721875000  7
            60  16.73338732:32:32:32:32:3  5Bm N  ov 18, 2018 0 0:52:40.763392000  7
            61  16.90382432:32:32:32:32:3  6Bm N  ov 18, 2018 0 0:52:40.933829000  7
            62  17.33915432:32:32:32:32:3  5Bm N  ov 18, 2018 0 0:52:41.369159000  7
            63  17.44111232:32:32:32:32:3  3Bm N  ov 18, 2018 0 0:52:41.471117000  7
            64  17.65455332:32:32:32:32:3  5Bm N  ov 18, 2018 0 0:52:41.684558000  7
            65  17.73920832:32:32:32:32:3  7Bm N  ov 18, 2018 0 0:52:41.769213000  7
            66  18.05016732:32:32:32:32:3  7Bm N  ov 18, 2018 0 0:52:42.080172000  7
            67  18.08016132:32:32:32:32:3  7Bm N  ov 18, 2018 0 0:52:42.110166000  7
            68  18.40656332:32:32:32:32:3  5Bm N  ov 18, 2018 0 0:52:42.436568000  7
            69  18.43299232:32:32:32:32:3  6Bm N  ov 18, 2018 0 0:52:42.462997000  7
            70  18.50459432:32:32:32:32:3  5Bm N  ov 18, 2018 0 0:52:42.534599000  7
            71  18.52259232:32:32:32:32:3  5Bm N  ov 18, 2018 0 0:52:42.552597000  7
            72  18.60908932:32:32:32:32:3  5Bm N  ov 18, 2018 0 0:52:42.639094000  7
            73  19.12825632:32:32:32:32:3  5Bm N  ov 18, 2018 0 0:52:43.158261000  7
            74  19.18281532:32:32:32:32:3  6Bm N  ov 18, 2018 0 0:52:43.212820000  7
            75  19.28165332:32:32:32:32:3  6Bm N  ov 18, 2018 0 0:52:43.311658000  7
            76  19.30005832:32:32:32:32:3  7Bm N  ov 18, 2018 0 0:52:43.330063000  7
            77  19.37786532:32:32:32:32:3  2Bm N  ov 18, 2018 0 0:52:43.407870000  7
            78  19.72000232:32:32:32:32:3  6Bm N  ov 18, 2018 0 0:52:43.750007000  7
            79  20.04526132:32:32:32:32:3  6Bm N  ov 18, 2018 0 0:52:44.075266000  7
            80  20.16283932:32:32:32:32:3  4Bm N  ov 18, 2018 0 0:52:44.192844000  7
            81  20.19795232:32:32:32:32:3  5Bm N  ov 18, 2018 0 0:52:44.227957000  7
            82  20.26854732:32:32:32:32:3  7Bm N  ov 18, 2018 0 0:52:44.298552000  7
            83  2 0.3259532:32:32:32:32:3  6Bm N  ov 18, 2018 0 0:52:44.355955000  7
            84  2 0.3640932:32:32:32:32:3  6Bm N  ov 18, 2018 0 0:52:44.394095000  7
            85  20.45627532:32:32:32:32:3  5Bm N  ov 18, 2018 0 0:52:44.486280000  7
            86  20.81979532:32:32:32:32:3  6Bm N  ov 18, 2018 0 0:52:44.849800000  7
            87  21.40410632:32:32:32:32:3  6Bm N  ov 18, 2018 0 0:52:45.434111000  7
            88  21.56809832:32:32:32:32:3  6Bm N  ov 18, 2018 0 0:52:45.598103000  7
            89  21.70386732:32:32:32:32:3  6Bm N  ov 18, 2018 0 0:52:45.733872000  7
            90  21.76595432:32:32:32:32:3  6Bm N  ov 18, 2018 0 0:52:45.795959000  7
            91  21.82961732:32:32:32:32:3  7Bm N  ov 18, 2018 0 0:52:45.859622000  7
            92  22.69393232:32:32:32:32:3  5Bm N  ov 18, 2018 0 0:52:46.723937000  7
            93  23.08024132:32:32:32:32:3  7Bm N  ov 18, 2018 0 0:52:47.110246000  7
            94  23.49552232:32:32:32:32:3  6Bm N  ov 18, 2018 0 0:52:47.525527000  7
            95  23.74836432:32:32:32:32:3  5Bm N  ov 18, 2018 0 0:52:47.778369000  7
            96  23.79076832:32:32:32:32:3  6Bm N  ov 18, 2018 0 0:52:47.820773000  7
            97  23.94697432:32:32:32:32:3  4Bm N  ov 18, 2018 0 0:52:47.976979000  7
            98  24.06540332:32:32:32:32:3  5Bm N  ov 18, 2018 0 0:52:48.095408000  7
            99  24.09311832:32:32:32:32:3  5Bm N  ov 18, 2018 0 0:52:48.123123000  7
           100  24.18015832:32:32:32:32:3  6Bm N  ov 18, 2018 0 0:52:48.210163000  7
           101  24.26708632:32:32:32:32:3  6Bm N  ov 18, 2018 0 0:52:48.297091000  7
           102  2 4.3752732:32:32:32:32:3  7Bm N  ov 18, 2018 0 0:52:48.405275000  7
           103  24.43077632:32:32:32:32:3  3Bm N  ov 18, 2018 0 0:52:48.460781000  7
           104  24.73240132:32:32:32:32:3  6Bm N  ov 18, 2018 0 0:52:48.762406000  7
           105  24.76706532:32:32:32:32:3  4Bm N  ov 18, 2018 0 0:52:48.797070000  7
           106  24.89866932:32:32:32:32:3  5Bm N  ov 18, 2018 0 0:52:48.928674000  7
           107  25.04714432:32:32:32:32:3  5Bm N  ov 18, 2018 0 0:52:49.077149000  7
           108  25.08880132:32:32:32:32:3  5Bm N  ov 18, 2018 0 0:52:49.118806000  7
           109  25.09224532:32:32:32:32:3  4Bm N  ov 18, 2018 0 0:52:49.122250000  7
           110  25.18322232:32:32:32:32:3  4Bm N  ov 18, 2018 0 0:52:49.213227000  7
           111  25.98956232:32:32:32:32:3  8Bm N  ov 18, 2018 0 0:52:50.019567000  7
           112  26.25654332:32:32:32:32:3  5Bm N  ov 18, 2018 0 0:52:50.286548000  7
           113  26.37728432:32:32:32:32:3  4Bm N  ov 18, 2018 0 0:52:50.407289000  7
           114  26.42618732:32:32:32:32:3  6Bm N  ov 18, 2018 0 0:52:50.456192000  7
           115  27.17554532:32:32:32:32:3  7Bm N  ov 18, 2018 0 0:52:51.205550000  7
           116  28.80660932:32:32:32:32:3  4Bm N  ov 18, 2018 0 0:52:52.836614000  7
           117  29.20965832:32:32:32:32:3  5Bm N  ov 18, 2018 0 0:52:53.239663000  7
           118  30.11409232:32:32:32:32:3  6Bm N  ov 18, 2018 0 0:52:54.144097000  7
           119  30.33376832:32:32:32:32:3  5Bm N  ov 18, 2018 0 0:52:54.363773000  7
           120  30.94668232:32:32:32:32:3  4Bm N  ov 18, 2018 0 0:52:54.976687000  7
           121  33.32311432:32:32:32:32:3  5Bm N  ov 18, 2018 0 0:52:57.353119000  7
           122  33.77710732:32:32:32:32:3  6Bm N  ov 18, 2018 0 0:52:57.807112000  7
           123  34.27140432:32:32:32:32:3  6Bm N  ov 18, 2018 0 0:52:58.301409000  7
           124  34.35684132:32:32:32:32:3  4Bm N  ov 18, 2018 0 0:52:58.386846000  7
           125  34.45300732:32:32:32:32:3  5Bm N  ov 18, 2018 0 0:52:58.483012000  7
           126  35.74739732:32:32:32:32:3  6Bm N  ov 18, 2018 0 0:52:59.777402000  7
           127  3 6.0082132:32:32:32:32:3  4Bm N  ov 18, 2018 0 0:53:00.038215000  7
           128  36.25479732:32:32:32:32:3  6Bm N  ov 18, 2018 0 0:53:00.284802000  7
           129  37.48036732:32:32:32:32:3  6Bm N  ov 18, 2018 0 0:53:01.510372000  7
           130  37.66739232:32:32:32:32:3  6Bm N  ov 18, 2018 0 0:53:01.697397000  7
           131  39.05321832:32:32:32:32:3  5Bm N  ov 18, 2018 0 0:53:03.083223000  7
           132  39.27317632:32:32:32:32:3  4Bm N  ov 18, 2018 0 0:53:03.303181000  7
           133  40.46082232:32:32:32:32:3  6Bm N  ov 18, 2018 0 0:53:04.490827000  7
           134  42.92792132:32:32:32:32:3  4Bm N  ov 18, 2018 0 0:53:06.957926000  7
           135  4 3.3301832:32:32:32:32:3  5Bm N  ov 18, 2018 0 0:53:07.360185000  7
           136  44.12964732:32:32:32:32:3  5Bm N  ov 18, 2018 0 0:53:08.159652000  7
           137  44.45627632:32:32:32:32:3  6Bm N  ov 18, 2018 0 0:53:08.486281000  7
           138  46.89501232:32:32:32:32:3  6Bm N  ov 18, 2018 0 0:53:10.925017000  7
           139  4  8.020632:32:32:32:32:3  5Bm N  ov 18, 2018 0 0:53:12.050605000  7
           140  48.38740232:32:32:32:32:3  6Bm N  ov 18, 2018 0 0:53:12.417407000  7
           141  49.60714832:32:32:32:32:3  5Bm N  ov 18, 2018 0 0:53:13.637153000  7
           142  49.74056432:32:32:32:32:3  4Bm N  ov 18, 2018 0 0:53:13.770569000  7
           143  49.77144532:32:32:32:32:3  5Bm N  ov 18, 2018 0 0:53:13.801450000  7
           144  50.43425232:32:32:32:32:3  4Bm N  ov 18, 2018 0 0:53:14.464257000  7
           145  51.39176832:32:32:32:32:3  3Bm N  ov 18, 2018 0 0:53:15.421773000  7
           146  51.63176232:32:32:32:32:3  5Bm N  ov 18, 2018 0 0:53:15.661767000  7
           147  5  1.977332:32:32:32:32:3  4Bm N  ov 18, 2018 0 0:53:16.007305000  7
           148  52.02645832:32:32:32:32:3  6Bm N  ov 18, 2018 0 0:53:16.056463000  7
           149  52.11382332:32:32:32:32:3  6Bm N  ov 18, 2018 0 0:53:16.143828000  7
           150  53.16180232:32:32:32:32:3  5Bm N  ov 18, 2018 0 0:53:17.191807000  7
           151  53.94321832:32:32:32:32:3  6Bm N  ov 18, 2018 0 0:53:17.973223000  7
           152  54.71516332:32:32:32:32:3  4Bm N  ov 18, 2018 0 0:53:18.745168000  7
           153  54.76388232:32:32:32:32:3  5Bm N  ov 18, 2018 0 0:53:18.793887000  7
           154  55.03075232:32:32:32:32:3  4Bm N  ov 18, 2018 0 0:53:19.060757000  7
           155  56.73798632:32:32:32:32:3  5Bm N  ov 18, 2018 0 0:53:20.767991000  7
           156  58.45732132:32:32:32:32:3  4Bm N  ov 18, 2018 0 0:53:22.487326000  7
           157  59.04303832:32:32:32:32:3  2Bm N  ov 18, 2018 0 0:53:23.073043000  7
           158  60.41895632:32:32:32:32:3  4Bm N  ov 18, 2018 0 0:53:24.448961000  7
           159  62.38931332:32:32:32:32:3  6Bm N  ov 18, 2018 0 0:53:26.419318000  7
           160  62.50829932:32:32:32:32:3  4Bm N  ov 18, 2018 0 0:53:26.538304000  7
           161  6  3.263932:32:32:32:32:3  5Bm N  ov 18, 2018 0 0:53:27.293905000  7
           162  69.05094432:32:32:32:32:3  4Bm N  ov 18, 2018 0 0:53:33.080949000  7
           163  69.20527532:32:32:32:32:3  6Bm N  ov 18, 2018 0 0:53:33.235280000  7
           164  77.00770432:32:32:32:32:3  5Bm N  ov 18, 2018 0 0:53:41.037709000  7
           165  86.45779932:32:32:32:32:3  6Bm N  ov 18, 2018 0 0:53:50.487804000  7
           166  94.56624432:32:32:32:32:3  5Bm N  ov 18, 2018 0 0:53:58.596249000  7
           167  95.22660432:32:32:32:32:3  4Bm N  ov 18, 2018 0 0:53:59.256609000  7
           168  97.61708132:32:32:32:32:3  4Bm N  ov 18, 2018 0 0:54:01.647086000  7
           169 102.39882832:32:32:32:32:3  5Bm N  ov 18, 2018 0 0:54:06.428833000  7
           170 102.56111732:32:32:32:32:3  4Bm N  ov 18, 2018 0 0:54:06.591122000  7
           171 104.15997132:32:32:32:32:3  4Bm N  ov 18, 2018 0 0:54:08.189976000  7
           172 104.55711632:32:32:32:32:3  6Bm N  ov 18, 2018 0 0:54:08.587121000  7
           173 105.35483732:32:32:32:32:3  5Bm N  ov 18, 2018 0 0:54:09.384842000  7
           174 105.55964432:32:32:32:32:3  6Bm N  ov 18, 2018 0 0:54:09.589649000  7
           175 105.58019832:32:32:32:32:3  5Bm N  ov 18, 2018 0 0:54:09.610203000  7
           176 106.08905632:32:32:32:32:3  3Bm N  ov 18, 2018 0 0:54:10.119061000  7
           177 106.96723632:32:32:32:32:3  4Bm N  ov 18, 2018 0 0:54:10.997241000  7
           178 111.99282232:32:32:32:32:3  6Bm N  ov 18, 2018 0 0:54:16.022827000  7
           179 112.88107532:32:32:32:32:3  4Bm N  ov 18, 2018 0 0:54:16.911080000  7
           180 112.93593832:32:32:32:32:3  4Bm N  ov 18, 2018 0 0:54:16.965943000  7
           181 113.13254132:32:32:32:32:3  3Bm N  ov 18, 2018 0 0:54:17.162546000  7
           182 114.41525432:32:32:32:32:3  6Bm N  ov 18, 2018 0 0:54:18.445259000  7
           183 116.64792732:32:32:32:32:3  3Bm N  ov 18, 2018 0 0:54:20.677932000  7
           184 117.00642132:32:32:32:32:3  5Bm N  ov 18, 2018 0 0:54:21.036426000  7
           185 117.13778232:32:32:32:32:3  4Bm N  ov 18, 2018 0 0:54:21.167787000  7
