                1       032:32:32:32:32:3  8Bm N  ov 18, 2018 0 1:24:05.610184000  7          3
                2   0.03732:32:32:32:32:3  8Bm N  ov 18, 2018 0 1:24:05.647184000  7         10
                30.35201732:32:32:32:32:3  4Bm N  ov 18, 2018 0 1:24:05.962201000  7        ###
                40.67019832:32:32:32:32:3  7Bm N  ov 18, 2018 0 1:24:06.280382000  7        ###
                50.71832732:32:32:32:32:3  5Bm N  ov 18, 2018 0 1:24:06.328511000  7        ###
                60.93161332:32:32:32:32:3  7Bm N  ov 18, 2018 0 1:24:06.541797000  7
                70.99621332:32:32:32:32:3  8Bm N  ov 18, 2018 0 1:24:06.606397000  7
                81.08436332:32:32:32:32:3  5Bm N  ov 18, 2018 0 1:24:06.694547000  7
                91.13254432:32:32:32:32:3  7Bm N  ov 18, 2018 0 1:24:06.742728000  7
               101.20109632:32:32:32:32:3  8Bm N  ov 18, 2018 0 1:24:06.811280000  7
               111.23593732:32:32:32:32:3  6Bm N  ov 18, 2018 0 1:24:06.846121000  7
               121.33813432:32:32:32:32:3  9Bm N  ov 18, 2018 0 1:24:06.948318000  7
               131.36266532:32:32:32:32:3  8Bm N  ov 18, 2018 0 1:24:06.972849000  7
               141.45678732:32:32:32:32:3  6Bm N  ov 18, 2018 0 1:24:07.066971000  7
               151.50740332:32:32:32:32:3  5Bm N  ov 18, 2018 0 1:24:07.117587000  7
               16 1.7699832:32:32:32:32:3  4Bm N  ov 18, 2018 0 1:24:07.380164000  7
               177.76183832:32:32:32:32:3  6Bm N  ov 18, 2018 0 1:24:13.372022000  7
               189.04207932:32:32:32:32:3  5Bm N  ov 18, 2018 0 1:24:14.652263000  7
               199.42296432:32:32:32:32:3  3Bm N  ov 18, 2018 0 1:24:15.033148000  7
            20  13.07602832:32:32:32:32:3  5Bm N  ov 18, 2018 0 1:24:18.686212000  7
            21  13.16180632:32:32:32:32:3  4Bm N  ov 18, 2018 0 1:24:18.771990000  7
            22  13.49810832:32:32:32:32:3  5Bm N  ov 18, 2018 0 1:24:19.108292000  7
            23  13.55417532:32:32:32:32:3  5Bm N  ov 18, 2018 0 1:24:19.164359000  7
            24  15.15548732:32:32:32:32:3  4Bm N  ov 18, 2018 0 1:24:20.765671000  7
            25  27.91198232:32:32:32:32:3  4Bm N  ov 18, 2018 0 1:24:33.522166000  7
            26  33.14232232:32:32:32:32:3  6Bm N  ov 18, 2018 0 1:24:38.752506000  7
            27  33.16187232:32:32:32:32:3  5Bm N  ov 18, 2018 0 1:24:38.772056000  7
            28  34.20770632:32:32:32:32:3  7Bm N  ov 18, 2018 0 1:24:39.817890000  7
            29  34.22424832:32:32:32:32:3  5Bm N  ov 18, 2018 0 1:24:39.834432000  7
            30  34.25033932:32:32:32:32:3  6Bm N  ov 18, 2018 0 1:24:39.860523000  7
            31  34.26775432:32:32:32:32:3  5Bm N  ov 18, 2018 0 1:24:39.877938000  7
            32  3 4.3074532:32:32:32:32:3  6Bm N  ov 18, 2018 0 1:24:39.917634000  7
            33  35.53213532:32:32:32:32:3  5Bm N  ov 18, 2018 0 1:24:41.142319000  7
            34  3  6.200532:32:32:32:32:3  6Bm N  ov 18, 2018 0 1:24:41.810684000  7
            35  36.27919832:32:32:32:32:3  6Bm N  ov 18, 2018 0 1:24:41.889382000  7
            36  36.51778932:32:32:32:32:3  6Bm N  ov 18, 2018 0 1:24:42.127973000  7
            37  3 6.8279532:32:32:32:32:3  8Bm N  ov 18, 2018 0 1:24:42.438134000  7
            38  36.92036332:32:32:32:32:3  5Bm N  ov 18, 2018 0 1:24:42.530547000  7
            39  37.34084632:32:32:32:32:3  6Bm N  ov 18, 2018 0 1:24:42.951030000  7
            40  37.43985832:32:32:32:32:3  5Bm N  ov 18, 2018 0 1:24:43.050042000  7
            41  37.67056232:32:32:32:32:3  5Bm N  ov 18, 2018 0 1:24:43.280746000  7
            42  38.62193332:32:32:32:32:3  6Bm N  ov 18, 2018 0 1:24:44.232117000  7
            43  38.79217332:32:32:32:32:3  6Bm N  ov 18, 2018 0 1:24:44.402357000  7
            44  38.99832432:32:32:32:32:3  5Bm N  ov 18, 2018 0 1:24:44.608508000  7
            45  39.05642932:32:32:32:32:3  6Bm N  ov 18, 2018 0 1:24:44.666613000  7
            46  39.25675232:32:32:32:32:3  3Bm N  ov 18, 2018 0 1:24:44.866936000  7
            47  39.58739232:32:32:32:32:3  6Bm N  ov 18, 2018 0 1:24:45.197576000  7
            48  39.65139732:32:32:32:32:3  5Bm N  ov 18, 2018 0 1:24:45.261581000  7
            49  3 9.9561932:32:32:32:32:3  6Bm N  ov 18, 2018 0 1:24:45.566374000  7
            50  40.17051632:32:32:32:32:3  5Bm N  ov 18, 2018 0 1:24:45.780700000  7
            51  40.30914532:32:32:32:32:3  5Bm N  ov 18, 2018 0 1:24:45.919329000  7
            52  4 0.4788632:32:32:32:32:3  5Bm N  ov 18, 2018 0 1:24:46.089044000  7
            53  4 0.6073632:32:32:32:32:3  5Bm N  ov 18, 2018 0 1:24:46.217544000  7
            54  40.62871732:32:32:32:32:3  6Bm N  ov 18, 2018 0 1:24:46.238901000  7
            55  40.75284632:32:32:32:32:3  5Bm N  ov 18, 2018 0 1:24:46.363030000  7
            56  40.98425532:32:32:32:32:3  3Bm N  ov 18, 2018 0 1:24:46.594439000  7
            57  41.00889432:32:32:32:32:3  6Bm N  ov 18, 2018 0 1:24:46.619078000  7
            58  41.95297332:32:32:32:32:3  8Bm N  ov 18, 2018 0 1:24:47.563157000  7
            59  42.02439632:32:32:32:32:3  4Bm N  ov 18, 2018 0 1:24:47.634580000  7
            60  42.06522332:32:32:32:32:3  5Bm N  ov 18, 2018 0 1:24:47.675407000  7
            61  44.36697532:32:32:32:32:3  4Bm N  ov 18, 2018 0 1:24:49.977159000  7
            62  44.85470432:32:32:32:32:3  4Bm N  ov 18, 2018 0 1:24:50.464888000  7
            63  44.93300732:32:32:32:32:3  4Bm N  ov 18, 2018 0 1:24:50.543191000  7
            64  45.09930132:32:32:32:32:3  5Bm N  ov 18, 2018 0 1:24:50.709485000  7
            65  45.35252732:32:32:32:32:3  4Bm N  ov 18, 2018 0 1:24:50.962711000  7
            66  45.45627832:32:32:32:32:3  7Bm N  ov 18, 2018 0 1:24:51.066462000  7
            67  45.48934632:32:32:32:32:3  5Bm N  ov 18, 2018 0 1:24:51.099530000  7
            68  45.51438332:32:32:32:32:3  5Bm N  ov 18, 2018 0 1:24:51.124567000  7
            69  45.83654532:32:32:32:32:3  6Bm N  ov 18, 2018 0 1:24:51.446729000  7
            70  45.98700932:32:32:32:32:3  3Bm N  ov 18, 2018 0 1:24:51.597193000  7
            71  53.81444532:32:32:32:32:3  7Bm N  ov 18, 2018 0 1:24:59.424629000  7
            72  53.83771432:32:32:32:32:3  6Bm N  ov 18, 2018 0 1:24:59.447898000  7
            73  53.85138432:32:32:32:32:3  3Bm N  ov 18, 2018 0 1:24:59.461568000  7
            74  53.89275132:32:32:32:32:3  6Bm N  ov 18, 2018 0 1:24:59.502935000  7
            75  53.99934232:32:32:32:32:3  4Bm N  ov 18, 2018 0 1:24:59.609526000  7
            76  54.08807432:32:32:32:32:3  6Bm N  ov 18, 2018 0 1:24:59.698258000  7
            77  54.12520732:32:32:32:32:3  7Bm N  ov 18, 2018 0 1:24:59.735391000  7
            78  54.14136632:32:32:32:32:3  5Bm N  ov 18, 2018 0 1:24:59.751550000  7
            79  54.34936132:32:32:32:32:3  5Bm N  ov 18, 2018 0 1:24:59.959545000  7
            80  54.48530932:32:32:32:32:3  6Bm N  ov 18, 2018 0 1:25:00.095493000  7
            81  54.51805232:32:32:32:32:3  6Bm N  ov 18, 2018 0 1:25:00.128236000  7
            82  54.53681332:32:32:32:32:3  5Bm N  ov 18, 2018 0 1:25:00.146997000  7
            83  54.55948832:32:32:32:32:3  7Bm N  ov 18, 2018 0 1:25:00.169672000  7
            84  5 4.6374432:32:32:32:32:3  6Bm N  ov 18, 2018 0 1:25:00.247624000  7
            85  54.66722832:32:32:32:32:3  6Bm N  ov 18, 2018 0 1:25:00.277412000  7
            86  54.83374532:32:32:32:32:3  5Bm N  ov 18, 2018 0 1:25:00.443929000  7
            87  55.05215332:32:32:32:32:3  6Bm N  ov 18, 2018 0 1:25:00.662337000  7
            88  55.27508632:32:32:32:32:3  6Bm N  ov 18, 2018 0 1:25:00.885270000  7
            89  55.62131932:32:32:32:32:3  5Bm N  ov 18, 2018 0 1:25:01.231503000  7
            90  55.65362232:32:32:32:32:3  4Bm N  ov 18, 2018 0 1:25:01.263806000  7
            91  55.65885332:32:32:32:32:3  5Bm N  ov 18, 2018 0 1:25:01.269037000  7
            92  55.70423532:32:32:32:32:3  3Bm N  ov 18, 2018 0 1:25:01.314419000  7
            93  55.73780932:32:32:32:32:3  6Bm N  ov 18, 2018 0 1:25:01.347993000  7
            94  55.74244432:32:32:32:32:3  5Bm N  ov 18, 2018 0 1:25:01.352628000  7
            95  55.88645132:32:32:32:32:3  7Bm N  ov 18, 2018 0 1:25:01.496635000  7
            96  55.90734632:32:32:32:32:3  7Bm N  ov 18, 2018 0 1:25:01.517530000  7
            97  55.95211332:32:32:32:32:3  5Bm N  ov 18, 2018 0 1:25:01.562297000  7
            98  56.18092832:32:32:32:32:3  3Bm N  ov 18, 2018 0 1:25:01.791112000  7
            99  57.69649532:32:32:32:32:3  4Bm N  ov 18, 2018 0 1:25:03.306679000  7
           100  57.74174732:32:32:32:32:3  4Bm N  ov 18, 2018 0 1:25:03.351931000  7
           101  63.96881432:32:32:32:32:3  4Bm N  ov 18, 2018 0 1:25:09.578998000  7
           102  65.52512132:32:32:32:32:3  5Bm N  ov 18, 2018 0 1:25:11.135305000  7
           103  65.60624132:32:32:32:32:3  8Bm N  ov 18, 2018 0 1:25:11.216425000  7
           104  6 5.6332632:32:32:32:32:3  7Bm N  ov 18, 2018 0 1:25:11.243444000  7
           105  65.65251432:32:32:32:32:3  8Bm N  ov 18, 2018 0 1:25:11.262698000  7
           106  6 5.6679432:32:32:32:32:3  6Bm N  ov 18, 2018 0 1:25:11.278124000  7
           107  65.76439832:32:32:32:32:3  7Bm N  ov 18, 2018 0 1:25:11.374582000  7
           108  65.97747232:32:32:32:32:3  8Bm N  ov 18, 2018 0 1:25:11.587656000  7
           109  66.08449632:32:32:32:32:3 10dBm   Nov 18,   201801:25:11.694680000 7
           110  66.10467932:32:32:32:32:3 10dBm   Nov 18,   201801:25:11.714863000 7
           111  66.19424832:32:32:32:32:3  9Bm N  ov 18, 2018 0 1:25:11.804432000  7
           112  66.21439532:32:32:32:32:3  8Bm N  ov 18, 2018 0 1:25:11.824579000  7
           113  66.26346932:32:32:32:32:3  8Bm N  ov 18, 2018 0 1:25:11.873653000  7
           114  66.32195832:32:32:32:32:3  9Bm N  ov 18, 2018 0 1:25:11.932142000  7
           115  66.39898132:32:32:32:32:3  9Bm N  ov 18, 2018 0 1:25:12.009165000  7
           116  66.42821332:32:32:32:32:3  8Bm N  ov 18, 2018 0 1:25:12.038397000  7
           117  6 6.4663232:32:32:32:32:3 10dBm   Nov 18,   201801:25:12.076504000 7
           118  66.56947432:32:32:32:32:3  9Bm N  ov 18, 2018 0 1:25:12.179658000  7
           119  66.72309232:32:32:32:32:3  9Bm N  ov 18, 2018 0 1:25:12.333276000  7
           120  66.76430432:32:32:32:32:3  8Bm N  ov 18, 2018 0 1:25:12.374488000  7
           121  66.95558932:32:32:32:32:3  8Bm N  ov 18, 2018 0 1:25:12.565773000  7
           122  67.02434532:32:32:32:32:3 10dBm   Nov 18,   201801:25:12.634529000 7
           123  67.12379932:32:32:32:32:3  8Bm N  ov 18, 2018 0 1:25:12.733983000  7
           124  67.12598332:32:32:32:32:3  9Bm N  ov 18, 2018 0 1:25:12.736167000  7
           125  67.18124932:32:32:32:32:3  9Bm N  ov 18, 2018 0 1:25:12.791433000  7
           126  6 7.2323932:32:32:32:32:3 10dBm   Nov 18,   201801:25:12.842574000 7
           127  67.29400932:32:32:32:32:3 10dBm   Nov 18,   201801:25:12.904193000 7
           128  67.32960632:32:32:32:32:3  8Bm N  ov 18, 2018 0 1:25:12.939790000  7
           129  67.35908332:32:32:32:32:3  9Bm N  ov 18, 2018 0 1:25:12.969267000  7
           130  67.36267532:32:32:32:32:3  9Bm N  ov 18, 2018 0 1:25:12.972859000  7
           131  67.37606332:32:32:32:32:3  8Bm N  ov 18, 2018 0 1:25:12.986247000  7
           132  67.39692332:32:32:32:32:3  7Bm N  ov 18, 2018 0 1:25:13.007107000  7
           133  6 7.4146732:32:32:32:32:3  9Bm N  ov 18, 2018 0 1:25:13.024854000  7
           134  67.47293932:32:32:32:32:3  8Bm N  ov 18, 2018 0 1:25:13.083123000  7
           135  68.59348532:32:32:32:32:3  4Bm N  ov 18, 2018 0 1:25:14.203669000  7
           136  68.63119332:32:32:32:32:3  5Bm N  ov 18, 2018 0 1:25:14.241377000  7
           137  68.67280632:32:32:32:32:3  5Bm N  ov 18, 2018 0 1:25:14.282990000  7
           138  68.72234432:32:32:32:32:3  6Bm N  ov 18, 2018 0 1:25:14.332528000  7
           139  68.78534232:32:32:32:32:3  5Bm N  ov 18, 2018 0 1:25:14.395526000  7
           140  70.37899432:32:32:32:32:3  3Bm N  ov 18, 2018 0 1:25:15.989178000  7
           141  70.51004632:32:32:32:32:3  5Bm N  ov 18, 2018 0 1:25:16.120230000  7
           142  70.75267732:32:32:32:32:3  3Bm N  ov 18, 2018 0 1:25:16.362861000  7
           143  70.85905832:32:32:32:32:3  3Bm N  ov 18, 2018 0 1:25:16.469242000  7
           144  71.18582932:32:32:32:32:3  6Bm N  ov 18, 2018 0 1:25:16.796013000  7
           145  71.40417932:32:32:32:32:3  6Bm N  ov 18, 2018 0 1:25:17.014363000  7
           146  71.56897832:32:32:32:32:3  6Bm N  ov 18, 2018 0 1:25:17.179162000  7
           147  71.66303332:32:32:32:32:3  7Bm N  ov 18, 2018 0 1:25:17.273217000  7
           148  71.73898532:32:32:32:32:3  6Bm N  ov 18, 2018 0 1:25:17.349169000  7
           149  71.81644732:32:32:32:32:3  7Bm N  ov 18, 2018 0 1:25:17.426631000  7
           150  71.90083132:32:32:32:32:3  7Bm N  ov 18, 2018 0 1:25:17.511015000  7
           151  72.09357532:32:32:32:32:3  6Bm N  ov 18, 2018 0 1:25:17.703759000  7
           152  72.29988532:32:32:32:32:3  5Bm N  ov 18, 2018 0 1:25:17.910069000  7
           153  72.37978432:32:32:32:32:3  6Bm N  ov 18, 2018 0 1:25:17.989968000  7
           154  72.55705532:32:32:32:32:3  4Bm N  ov 18, 2018 0 1:25:18.167239000  7
           155  78.63133232:32:32:32:32:3  4Bm N  ov 18, 2018 0 1:25:24.241516000  7
           156  78.74727632:32:32:32:32:3  5Bm N  ov 18, 2018 0 1:25:24.357460000  7
           157  78.77875632:32:32:32:32:3  6Bm N  ov 18, 2018 0 1:25:24.388940000  7
           158  78.85714832:32:32:32:32:3  6Bm N  ov 18, 2018 0 1:25:24.467332000  7
           159  90.83436832:32:32:32:32:3  6Bm N  ov 18, 2018 0 1:25:36.444552000  7
           160 106.26444432:32:32:32:32:3  4Bm N  ov 18, 2018 0 1:25:51.874628000  7
           161 106.77970932:32:32:32:32:3  4Bm N  ov 18, 2018 0 1:25:52.389893000  7
