    1   0.000000 32:32:32:32:32:32 5dBm
    2   0.122436 32:32:32:32:32:32 6dBm
    3   0.219526 32:32:32:32:32:32 5dBm
    4   0.245499 32:32:32:32:32:32 4dBm
    5   0.461369 32:32:32:32:32:32 4dBm
    6   0.745095 32:32:32:32:32:32 4dBm
    7   0.814474 32:32:32:32:32:32 4dBm
    8   0.964260 32:32:32:32:32:32 6dBm
    9   1.020059 32:32:32:32:32:32 4dBm
   10   1.203320 32:32:32:32:32:32 7dBm
   11   1.316784 32:32:32:32:32:32 5dBm
   12   2.589924 32:32:32:32:32:32 7dBm
   13   3.040842 32:32:32:32:32:32 5dBm
   14   4.167510 32:32:32:32:32:32 8dBm
   15   4.676469 32:32:32:32:32:32 6dBm
   16   4.806884 32:32:32:32:32:32 5dBm
   17   5.385470 32:32:32:32:32:32 7dBm
   18   5.643147 32:32:32:32:32:32 5dBm
   19   6.316210 32:32:32:32:32:32 4dBm
   20   6.795642 32:32:32:32:32:32 6dBm
   21   7.025430 32:32:32:32:32:32 6dBm
   22   7.145174 32:32:32:32:32:32 6dBm
   23   7.244221 32:32:32:32:32:32 7dBm
   24   7.566246 32:32:32:32:32:32 6dBm
   25   7.603928 32:32:32:32:32:32 6dBm
   26   7.672462 32:32:32:32:32:32 7dBm
   27   7.779024 32:32:32:32:32:32 5dBm
   28   7.804224 32:32:32:32:32:32 5dBm
   29   8.088176 32:32:32:32:32:32 6dBm
   30   8.150479 32:32:32:32:32:32 6dBm
   31   8.185320 32:32:32:32:32:32 6dBm
   32   8.303225 32:32:32:32:32:32 5dBm
   33   8.324118 32:32:32:32:32:32 6dBm
   34   8.376537 32:32:32:32:32:32 7dBm
   35   8.564723 32:32:32:32:32:32 6dBm
   36   8.668058 32:32:32:32:32:32 7dBm
   37   8.736746 32:32:32:32:32:32 6dBm
   38   8.840047 32:32:32:32:32:32 5dBm
   39   8.953555 32:32:32:32:32:32 4dBm
   40   8.987441 32:32:32:32:32:32 6dBm
   41   9.018671 32:32:32:32:32:32 5dBm
   42   9.071691 32:32:32:32:32:32 6dBm
   43   9.422768 32:32:32:32:32:32 6dBm
   44   9.527706 32:32:32:32:32:32 6dBm
   45   9.652891 32:32:32:32:32:32 7dBm
   46   9.683034 32:32:32:32:32:32 7dBm
   47   9.875737 32:32:32:32:32:32 5dBm
   48   9.935901 32:32:32:32:32:32 5dBm
   49   9.971949 32:32:32:32:32:32 6dBm
   50  10.063978 32:32:32:32:32:32 3dBm
   51  10.102071 32:32:32:32:32:32 6dBm
   52  10.180171 32:32:32:32:32:32 6dBm
   53  10.273906 32:32:32:32:32:32 7dBm
   54  10.336883 32:32:32:32:32:32 6dBm
   55  10.551174 32:32:32:32:32:32 6dBm
   56  10.597193 32:32:32:32:32:32 5dBm
   57  10.653939 32:32:32:32:32:32 6dBm
   58  10.699284 32:32:32:32:32:32 5dBm
   59  10.791506 32:32:32:32:32:32 5dBm
   60  10.994177 32:32:32:32:32:32 6dBm
   61  11.028675 32:32:32:32:32:32 5dBm
   62  11.057498 32:32:32:32:32:32 6dBm
   63  11.105708 32:32:32:32:32:32 6dBm
   64  11.162406 32:32:32:32:32:32 5dBm
   65  11.276793 32:32:32:32:32:32 5dBm
   66  11.309884 32:32:32:32:32:32 5dBm
   67  11.334421 32:32:32:32:32:32 5dBm
   68  11.401717 32:32:32:32:32:32 1dBm
   69  11.434051 32:32:32:32:32:32 6dBm
   70  11.479118 32:32:32:32:32:32 6dBm
   71  11.526768 32:32:32:32:32:32 5dBm
   72  11.647147 32:32:32:32:32:32 3dBm
   73  11.675362 32:32:32:32:32:32 5dBm
   74  11.727029 32:32:32:32:32:32 5dBm
   75  11.751406 32:32:32:32:32:32 3dBm
   76  11.974564 32:32:32:32:32:32 7dBm
   77  12.108965 32:32:32:32:32:32 3dBm
   78  12.254377 32:32:32:32:32:32 5dBm
   79  12.381218 32:32:32:32:32:32 6dBm
   80  12.442305 32:32:32:32:32:32 5dBm
   81  12.468539 32:32:32:32:32:32 6dBm
   82  12.497639 32:32:32:32:32:32 6dBm
   83  12.543820 32:32:32:32:32:32 6dBm
   84  12.557007 32:32:32:32:32:32 7dBm
   85  12.609808 32:32:32:32:32:32 7dBm
   86  12.632649 32:32:32:32:32:32 6dBm
   87  12.695624 32:32:32:32:32:32 3dBm
   88  12.729273 32:32:32:32:32:32 7dBm
   89  12.792287 32:32:32:32:32:32 4dBm
   90  12.947334 32:32:32:32:32:32 5dBm
   91  13.005176 32:32:32:32:32:32 4dBm
   92  13.050098 32:32:32:32:32:32 6dBm
   93  13.139646 32:32:32:32:32:32 5dBm
   94  13.157133 32:32:32:32:32:32 6dBm
   95  13.236642 32:32:32:32:32:32 5dBm
   96  13.407612 32:32:32:32:32:32 5dBm
   97  13.445539 32:32:32:32:32:32 6dBm
   98  13.473627 32:32:32:32:32:32 6dBm
   99  13.487989 32:32:32:32:32:32 5dBm
  100  13.507853 32:32:32:32:32:32 5dBm
  101  13.693555 32:32:32:32:32:32 7dBm
  102  13.792362 32:32:32:32:32:32 5dBm
  103  13.953825 32:32:32:32:32:32 6dBm
  104  14.200551 32:32:32:32:32:32 7dBm
  105  14.240212 32:32:32:32:32:32 6dBm
  106  14.337073 32:32:32:32:32:32 6dBm
  107  14.373493 32:32:32:32:32:32 7dBm
  108  14.405081 32:32:32:32:32:32 5dBm
  109  14.446228 32:32:32:32:32:32 5dBm
  110  14.470876 32:32:32:32:32:32 5dBm
  111  14.490965 32:32:32:32:32:32 2dBm
  112  14.543046 32:32:32:32:32:32 6dBm
  113  14.828669 32:32:32:32:32:32 6dBm
  114  14.870438 32:32:32:32:32:32 6dBm
  115  14.882436 32:32:32:32:32:32 5dBm
  116  15.005435 32:32:32:32:32:32 5dBm
  117  16.020296 32:32:32:32:32:32 7dBm
  118  17.609295 32:32:32:32:32:32 5dBm
  119  17.627050 32:32:32:32:32:32 6dBm
  120  17.814620 32:32:32:32:32:32 7dBm
  121  18.035217 32:32:32:32:32:32 6dBm
  122  18.391428 32:32:32:32:32:32 5dBm
  123  18.637759 32:32:32:32:32:32 5dBm
  124  18.707916 32:32:32:32:32:32 6dBm
  125  20.316194 32:32:32:32:32:32 7dBm
  126  20.355550 32:32:32:32:32:32 7dBm
  127  21.687207 32:32:32:32:32:32 5dBm
  128  22.002679 32:32:32:32:32:32 5dBm
  129  22.113311 32:32:32:32:32:32 6dBm
  130  23.850443 32:32:32:32:32:32 5dBm
  131  23.925758 32:32:32:32:32:32 5dBm
  132  24.061779 32:32:32:32:32:32 4dBm
  133  24.113499 32:32:32:32:32:32 4dBm
  134  24.159492 32:32:32:32:32:32 6dBm
  135  24.185037 32:32:32:32:32:32 4dBm
  136  24.200078 32:32:32:32:32:32 5dBm
  137  24.492859 32:32:32:32:32:32 5dBm
  138  26.505953 32:32:32:32:32:32 4dBm
  139  26.583699 32:32:32:32:32:32 3dBm
  140  26.810833 32:32:32:32:32:32 6dBm
  141  26.888560 32:32:32:32:32:32 6dBm
  142  27.306005 32:32:32:32:32:32 4dBm
  143  27.589475 32:32:32:32:32:32 5dBm
  144  27.707698 32:32:32:32:32:32 6dBm
  145  27.872157 32:32:32:32:32:32 7dBm
  146  27.895392 32:32:32:32:32:32 5dBm
  147  27.990500 32:32:32:32:32:32 6dBm
  148  28.049662 32:32:32:32:32:32 7dBm
  149  28.072195 32:32:32:32:32:32 5dBm
  150  28.108304 32:32:32:32:32:32 5dBm
  151  28.142880 32:32:32:32:32:32 8dBm
  152  28.143648 32:32:32:32:32:32 6dBm
  153  28.242314 32:32:32:32:32:32 6dBm
  154  28.278531 32:32:32:32:32:32 7dBm
  155  28.342374 32:32:32:32:32:32 6dBm
  156  28.369963 32:32:32:32:32:32 4dBm
  157  28.918480 32:32:32:32:32:32 5dBm
  158  28.963281 32:32:32:32:32:32 7dBm
  159  29.261885 32:32:32:32:32:32 6dBm
  160  29.360796 32:32:32:32:32:32 6dBm
  161  29.416594 32:32:32:32:32:32 6dBm
  162  29.462035 32:32:32:32:32:32 6dBm
  163  29.481704 32:32:32:32:32:32 5dBm
  164  29.701273 32:32:32:32:32:32 4dBm
  165  29.759505 32:32:32:32:32:32 4dBm
  166  29.783977 32:32:32:32:32:32 1dBm
  167  29.818808 32:32:32:32:32:32 6dBm
  168  29.835596 32:32:32:32:32:32 7dBm
  169  30.131404 32:32:32:32:32:32 3dBm
  170  30.196212 32:32:32:32:32:32 6dBm
  171  30.307216 32:32:32:32:32:32 6dBm
  172  30.488086 32:32:32:32:32:32 7dBm
  173  30.501096 32:32:32:32:32:32 6dBm
  174  30.551925 32:32:32:32:32:32 6dBm
  175  30.565466 32:32:32:32:32:32 5dBm
  176  30.592760 32:32:32:32:32:32 6dBm
  177  30.618595 32:32:32:32:32:32 6dBm
  178  31.034557 32:32:32:32:32:32 4dBm
  179  31.120687 32:32:32:32:32:32 5dBm
  180  31.275346 32:32:32:32:32:32 5dBm
  181  32.791715 32:32:32:32:32:32 7dBm
  182  33.359008 32:32:32:32:32:32 8dBm
  183  33.938783 32:32:32:32:32:32 4dBm
  184  34.252481 32:32:32:32:32:32 2dBm
  185  34.397141 32:32:32:32:32:32 6dBm
  186  34.530934 32:32:32:32:32:32 7dBm
  187  35.523324 32:32:32:32:32:32 6dBm
  188  35.584794 32:32:32:32:32:32 6dBm
  189  36.111045 32:32:32:32:32:32 6dBm
  190  36.238195 32:32:32:32:32:32 4dBm
  191  36.269246 32:32:32:32:32:32 8dBm
  192  36.303697 32:32:32:32:32:32 6dBm
  193  36.360159 32:32:32:32:32:32 8dBm
  194  36.382440 32:32:32:32:32:32 7dBm
  195  36.462979 32:32:32:32:32:32 5dBm
  196  36.775583 32:32:32:32:32:32 3dBm
  197  37.639026 32:32:32:32:32:32 4dBm
  198  37.967909 32:32:32:32:32:32 7dBm
  199  38.786766 32:32:32:32:32:32 6dBm
  200  38.833976 32:32:32:32:32:32 6dBm
  201  38.857486 32:32:32:32:32:32 5dBm
  202  39.117639 32:32:32:32:32:32 4dBm
  203  39.167462 32:32:32:32:32:32 5dBm
  204  39.845834 32:32:32:32:32:32 4dBm
  205  39.934815 32:32:32:32:32:32 9dBm
  206  39.975267 32:32:32:32:32:32 4dBm
  207  39.999763 32:32:32:32:32:32 7dBm
  208  40.316643 32:32:32:32:32:32 4dBm
  209  40.523024 32:32:32:32:32:32 6dBm
  210  40.551864 32:32:32:32:32:32 6dBm
  211  40.634407 32:32:32:32:32:32 5dBm
  212  41.903334 32:32:32:32:32:32 7dBm
  213  41.992895 32:32:32:32:32:32 8dBm
  214  42.053952 32:32:32:32:32:32 8dBm
  215  42.092080 32:32:32:32:32:32 9dBm
  216  42.175695 32:32:32:32:32:32 9dBm
  217  42.229549 32:32:32:32:32:32 7dBm
  218  42.292433 32:32:32:32:32:32 6dBm
  219  42.327607 32:32:32:32:32:32 6dBm
  220  42.347701 32:32:32:32:32:32 6dBm
  221  42.478557 32:32:32:32:32:32 5dBm
  222  42.510793 32:32:32:32:32:32 6dBm
  223  42.554355 32:32:32:32:32:32 3dBm
  224  42.737794 32:32:32:32:32:32 5dBm
  225  42.822667 32:32:32:32:32:32 3dBm
  226  42.950843 32:32:32:32:32:32 6dBm
  227  42.984298 32:32:32:32:32:32 5dBm
  228  43.003223 32:32:32:32:32:32 6dBm
  229  43.023037 32:32:32:32:32:32 6dBm
  230  43.078427 32:32:32:32:32:32 6dBm
  231  43.096513 32:32:32:32:32:32 5dBm
  232  43.117831 32:32:32:32:32:32 6dBm
  233  43.183159 32:32:32:32:32:32 6dBm
  234  43.212432 32:32:32:32:32:32 5dBm
  235  43.309837 32:32:32:32:32:32 4dBm
  236  43.386824 32:32:32:32:32:32 5dBm
  237  43.444237 32:32:32:32:32:32 5dBm
  238  43.522214 32:32:32:32:32:32 5dBm
  239  43.567553 32:32:32:32:32:32 4dBm
  240  43.785377 32:32:32:32:32:32 7dBm
  241  43.821708 32:32:32:32:32:32 7dBm
  242  43.948192 32:32:32:32:32:32 4dBm
  243  43.987068 32:32:32:32:32:32 6dBm
  244  44.110701 32:32:32:32:32:32 5dBm
  245  44.145146 32:32:32:32:32:32 5dBm
  246  44.276588 32:32:32:32:32:32 5dBm
  247  44.362133 32:32:32:32:32:32 6dBm
  248  44.455596 32:32:32:32:32:32 7dBm
  249  44.525826 32:32:32:32:32:32 7dBm
  250  44.577005 32:32:32:32:32:32 3dBm
  251  44.825550 32:32:32:32:32:32 6dBm
  252  45.942437 32:32:32:32:32:32 5dBm
  253  45.991497 32:32:32:32:32:32 6dBm
  254  46.011350 32:32:32:32:32:32 6dBm
  255  46.058155 32:32:32:32:32:32 4dBm
  256  46.256503 32:32:32:32:32:32 4dBm
  257  46.368788 32:32:32:32:32:32 6dBm
  258  46.392353 32:32:32:32:32:32 5dBm
  259  46.591937 32:32:32:32:32:32 9dBm
  260  46.627886 32:32:32:32:32:32 7dBm
  261  46.754801 32:32:32:32:32:32 6dBm
  262  46.834451 32:32:32:32:32:32 6dBm
  263  46.857888 32:32:32:32:32:32 6dBm
  264  46.958292 32:32:32:32:32:32 7dBm
  265  46.973670 32:32:32:32:32:32 7dBm
  266  46.998363 32:32:32:32:32:32 7dBm
  267  47.089340 32:32:32:32:32:32 6dBm
  268  47.170732 32:32:32:32:32:32 7dBm
  269  47.209623 32:32:32:32:32:32 6dBm
  270  47.294249 32:32:32:32:32:32 6dBm
  271  47.345388 32:32:32:32:32:32 5dBm
  272  47.389122 32:32:32:32:32:32 7dBm
  273  47.437977 32:32:32:32:32:32 4dBm
  274  47.514020 32:32:32:32:32:32 7dBm
  275  47.593691 32:32:32:32:32:32 6dBm
  276  47.669296 32:32:32:32:32:32 7dBm
  277  47.769499 32:32:32:32:32:32 6dBm
  278  48.095289 32:32:32:32:32:32 2dBm
  279  49.342926 32:32:32:32:32:32 7dBm
  280  49.377811 32:32:32:32:32:32 7dBm
  281  49.386170 32:32:32:32:32:32 7dBm
  282  49.437844 32:32:32:32:32:32 4dBm
  283  49.462894 32:32:32:32:32:32 8dBm
  284  49.482376 32:32:32:32:32:32 6dBm
  285  49.542869 32:32:32:32:32:32 7dBm
  286  49.598585 32:32:32:32:32:32 7dBm
  287  49.755185 32:32:32:32:32:32 6dBm
  288  49.794919 32:32:32:32:32:32 8dBm
  289  49.827497 32:32:32:32:32:32 8dBm
  290  49.833608 32:32:32:32:32:32 7dBm
  291  50.007315 32:32:32:32:32:32 5dBm
  292  50.639410 32:32:32:32:32:32 6dBm
  293  50.746948 32:32:32:32:32:32 5dBm
  294  50.786307 32:32:32:32:32:32 7dBm
  295  50.905546 32:32:32:32:32:32 9dBm
  296  51.188371 32:32:32:32:32:32 6dBm
  297  51.408681 32:32:32:32:32:32 7dBm
  298  51.438166 32:32:32:32:32:32 7dBm
  299  51.470957 32:32:32:32:32:32 8dBm
  300  51.488609 32:32:32:32:32:32 6dBm
  301  51.620856 32:32:32:32:32:32 7dBm
  302  51.657095 32:32:32:32:32:32 7dBm
  303  51.695454 32:32:32:32:32:32 7dBm
  304  51.725386 32:32:32:32:32:32 6dBm
  305  51.772450 32:32:32:32:32:32 8dBm
  306  51.842314 32:32:32:32:32:32 6dBm
  307  51.905913 32:32:32:32:32:32 7dBm
  308  52.039494 32:32:32:32:32:32 7dBm
  309  52.122639 32:32:32:32:32:32 5dBm
  310  52.186871 32:32:32:32:32:32 5dBm
  311  52.229136 32:32:32:32:32:32 7dBm
  312  52.473504 32:32:32:32:32:32 4dBm
  313  52.586812 32:32:32:32:32:32 4dBm
  314  53.943119 32:32:32:32:32:32 6dBm
  315  53.984910 32:32:32:32:32:32 5dBm
  316  54.155264 32:32:32:32:32:32 5dBm
  317  54.182224 32:32:32:32:32:32 6dBm
  318  54.239676 32:32:32:32:32:32 6dBm
  319  54.336021 32:32:32:32:32:32 6dBm
  320  54.544538 32:32:32:32:32:32 8dBm
  321  54.608017 32:32:32:32:32:32 7dBm
  322  54.701630 32:32:32:32:32:32 7dBm
  323  54.811782 32:32:32:32:32:32 6dBm
  324  54.888540 32:32:32:32:32:32 5dBm
  325  54.954150 32:32:32:32:32:32 4dBm
  326  55.311747 32:32:32:32:32:32 5dBm
  327  55.357573 32:32:32:32:32:32 7dBm
  328  55.363608 32:32:32:32:32:32 5dBm
  329  55.492142 32:32:32:32:32:32 6dBm
  330  55.565980 32:32:32:32:32:32 7dBm
  331  55.758188 32:32:32:32:32:32 6dBm
  332  56.126266 32:32:32:32:32:32 8dBm
  333  56.319903 32:32:32:32:32:32 6dBm
  334  56.339507 32:32:32:32:32:32 7dBm
  335  56.442038 32:32:32:32:32:32 7dBm
  336  56.702538 32:32:32:32:32:32 6dBm
  337  56.733598 32:32:32:32:32:32 3dBm
  338  56.742390 32:32:32:32:32:32 6dBm
  339  56.845260 32:32:32:32:32:32 8dBm
  340  56.900340 32:32:32:32:32:32 7dBm
  341  56.951828 32:32:32:32:32:32 8dBm
  342  56.968708 32:32:32:32:32:32 7dBm
  343  57.066404 32:32:32:32:32:32 5dBm
  344  57.623697 32:32:32:32:32:32 3dBm
  345  57.868561 32:32:32:32:32:32 5dBm
  346  58.038230 32:32:32:32:32:32 7dBm
  347  58.088605 32:32:32:32:32:32 3dBm
  348  58.151574 32:32:32:32:32:32 7dBm
  349  58.175625 32:32:32:32:32:32 8dBm
  350  58.191162 32:32:32:32:32:32 8dBm
  351  58.266714 32:32:32:32:32:32 9dBm
  352  58.375074 32:32:32:32:32:32 7dBm
  353  58.480947 32:32:32:32:32:32 4dBm
  354  58.548904 32:32:32:32:32:32 4dBm
  355  58.702213 32:32:32:32:32:32 6dBm
  356  58.765768 32:32:32:32:32:32 8dBm
  357  59.292073 32:32:32:32:32:32 7dBm
  358  59.576201 32:32:32:32:32:32 6dBm
  359  59.629467 32:32:32:32:32:32 5dBm
  360  59.706350 32:32:32:32:32:32 4dBm
  361  60.389933 32:32:32:32:32:32 5dBm
  362  60.573594 32:32:32:32:32:32 4dBm
  363  62.194577 32:32:32:32:32:32 3dBm
  364  62.804243 32:32:32:32:32:32 5dBm
  365  63.101598 32:32:32:32:32:32 4dBm
  366  63.326038 32:32:32:32:32:32 4dBm
  367  63.350828 32:32:32:32:32:32 5dBm
  368  63.422573 32:32:32:32:32:32 6dBm
  369  63.918976 32:32:32:32:32:32 6dBm
  370  64.455225 32:32:32:32:32:32 5dBm
  371  64.545300 32:32:32:32:32:32 5dBm
  372  64.877432 32:32:32:32:32:32 5dBm
  373  64.943588 32:32:32:32:32:32 2dBm
  374  65.655858 32:32:32:32:32:32 5dBm
  375  65.950186 32:32:32:32:32:32 4dBm
  376  65.992392 32:32:32:32:32:32 5dBm
  377  66.899686 32:32:32:32:32:32 4dBm
  378  66.973180 32:32:32:32:32:32 2dBm
  379  67.399238 32:32:32:32:32:32 6dBm
  380  67.502431 32:32:32:32:32:32 4dBm
  381  67.608419 32:32:32:32:32:32 4dBm
  382  67.673471 32:32:32:32:32:32 2dBm
  383  67.870281 32:32:32:32:32:32 5dBm
  384  67.891997 32:32:32:32:32:32 6dBm
  385  68.164390 32:32:32:32:32:32 5dBm
  386  68.317999 32:32:32:32:32:32 6dBm
  387  69.478126 32:32:32:32:32:32 6dBm
  388  69.773796 32:32:32:32:32:32 5dBm
  389  70.127851 32:32:32:32:32:32 4dBm
  390  70.311281 32:32:32:32:32:32 1dBm
  391  70.355252 32:32:32:32:32:32 6dBm
  392  70.560414 32:32:32:32:32:32 6dBm
  393  70.715818 32:32:32:32:32:32 4dBm
  394  70.985425 32:32:32:32:32:32 5dBm
  395  71.017652 32:32:32:32:32:32 6dBm
  396  71.083692 32:32:32:32:32:32 8dBm
  397  71.137962 32:32:32:32:32:32 5dBm
  398  71.368962 32:32:32:32:32:32 8dBm
  399  71.524375 32:32:32:32:32:32 6dBm
  400  71.550403 32:32:32:32:32:32 9dBm
  401  72.440844 32:32:32:32:32:32 6dBm
  402  72.535602 32:32:32:32:32:32 7dBm
  403  72.660840 32:32:32:32:32:32 3dBm
  404  73.183666 32:32:32:32:32:32 7dBm
  405  73.292396 32:32:32:32:32:32 7dBm
  406  73.356632 32:32:32:32:32:32 8dBm
  407  73.378336 32:32:32:32:32:32 7dBm
  408  73.384766 32:32:32:32:32:32 6dBm
  409  73.515281 32:32:32:32:32:32 5dBm
  410  73.825656 32:32:32:32:32:32 4dBm
  411  73.975531 32:32:32:32:32:32 8dBm
  412  74.154168 32:32:32:32:32:32 6dBm
  413  74.211019 32:32:32:32:32:32 6dBm
  414  74.284643 32:32:32:32:32:32 7dBm
  415  74.289625 32:32:32:32:32:32 8dBm
  416  74.488876 32:32:32:32:32:32 9dBm
  417  74.738466 32:32:32:32:32:32 7dBm
  418  74.766136 32:32:32:32:32:32 6dBm
  419  74.963180 32:32:32:32:32:32 9dBm
  420  74.992309 32:32:32:32:32:32 9dBm
  421  75.040888 32:32:32:32:32:32 7dBm
  422  75.147520 32:32:32:32:32:32 8dBm
  423  75.158933 32:32:32:32:32:32 8dBm
  424  75.446868 32:32:32:32:32:32 9dBm
  425  75.471606 32:32:32:32:32:32 8dBm
  426  75.507487 32:32:32:32:32:32 8dBm
  427  75.624843 32:32:32:32:32:32 8dBm
  428  75.796746 32:32:32:32:32:32 9dBm
  429  75.857433 32:32:32:32:32:32 8dBm
  430  75.866568 32:32:32:32:32:32 9dBm
  431  75.887673 32:32:32:32:32:32 7dBm
  432  76.001544 32:32:32:32:32:32 9dBm
  433  76.092575 32:32:32:32:32:32 7dBm
  434  76.117426 32:32:32:32:32:32 11dBm
  435  76.177873 32:32:32:32:32:32 9dBm
  436  76.193677 32:32:32:32:32:32 10dBm
  437  76.222193 32:32:32:32:32:32 7dBm
  438  76.236496 32:32:32:32:32:32 8dBm
  439  76.257394 32:32:32:32:32:32 8dBm
  440  76.425890 32:32:32:32:32:32 8dBm
  441  76.444704 32:32:32:32:32:32 7dBm
  442  76.505363 32:32:32:32:32:32 8dBm
  443  76.523569 32:32:32:32:32:32 8dBm
  444  76.559170 32:32:32:32:32:32 8dBm
  445  76.628409 32:32:32:32:32:32 7dBm
  446  76.657272 32:32:32:32:32:32 7dBm
  447  76.830437 32:32:32:32:32:32 7dBm
  448  76.912374 32:32:32:32:32:32 6dBm
  449  76.943443 32:32:32:32:32:32 8dBm
  450  76.967738 32:32:32:32:32:32 5dBm
  451  77.006275 32:32:32:32:32:32 6dBm
  452  77.040718 32:32:32:32:32:32 7dBm
  453  77.087959 32:32:32:32:32:32 4dBm
  454  77.139743 32:32:32:32:32:32 7dBm
  455  77.370848 32:32:32:32:32:32 7dBm
  456  77.557709 32:32:32:32:32:32 6dBm
  457  77.652706 32:32:32:32:32:32 4dBm
  458  77.718343 32:32:32:32:32:32 6dBm
  459  77.791185 32:32:32:32:32:32 7dBm
  460  77.866129 32:32:32:32:32:32 6dBm
  461  77.887610 32:32:32:32:32:32 8dBm
  462  77.911660 32:32:32:32:32:32 8dBm
  463  77.936973 32:32:32:32:32:32 6dBm
  464  77.973860 32:32:32:32:32:32 7dBm
  465  77.991714 32:32:32:32:32:32 8dBm
  466  78.012705 32:32:32:32:32:32 6dBm
  467  78.035964 32:32:32:32:32:32 6dBm
  468  78.091957 32:32:32:32:32:32 8dBm
  469  78.120461 32:32:32:32:32:32 7dBm
  470  78.770482 32:32:32:32:32:32 5dBm
  471  78.895984 32:32:32:32:32:32 7dBm
  472  78.915676 32:32:32:32:32:32 8dBm
  473  78.942361 32:32:32:32:32:32 7dBm
  474  78.972546 32:32:32:32:32:32 6dBm
  475  79.106263 32:32:32:32:32:32 5dBm
  476  79.897253 32:32:32:32:32:32 2dBm
  477  80.214967 32:32:32:32:32:32 6dBm
  478  82.085525 32:32:32:32:32:32 6dBm
  479  82.237268 32:32:32:32:32:32 7dBm
  480  82.266910 32:32:32:32:32:32 7dBm
  481  82.737850 32:32:32:32:32:32 6dBm
  482  83.413745 32:32:32:32:32:32 6dBm
  483  83.617484 32:32:32:32:32:32 6dBm
  484  83.663085 32:32:32:32:32:32 4dBm
  485  84.371044 32:32:32:32:32:32 6dBm
  486  84.804639 32:32:32:32:32:32 4dBm
  487  85.699268 32:32:32:32:32:32 5dBm
  488  85.875361 32:32:32:32:32:32 5dBm
  489  86.695356 32:32:32:32:32:32 3dBm
  490  86.800473 32:32:32:32:32:32 5dBm
  491  86.826234 32:32:32:32:32:32 6dBm
  492  87.157970 32:32:32:32:32:32 4dBm
  493  87.256448 32:32:32:32:32:32 5dBm
  494  87.330872 32:32:32:32:32:32 6dBm
  495  87.350611 32:32:32:32:32:32 7dBm
  496  88.157903 32:32:32:32:32:32 5dBm
  497  88.210547 32:32:32:32:32:32 6dBm
  498  88.337463 32:32:32:32:32:32 5dBm
  499  88.809770 32:32:32:32:32:32 5dBm
  500  89.106118 32:32:32:32:32:32 5dBm
  501  89.612570 32:32:32:32:32:32 6dBm
  502  90.227807 32:32:32:32:32:32 5dBm
  503  90.520819 32:32:32:32:32:32 7dBm
  504  90.694748 32:32:32:32:32:32 5dBm
  505  90.979822 32:32:32:32:32:32 3dBm
  506  91.386163 32:32:32:32:32:32 3dBm
  507  91.562707 32:32:32:32:32:32 5dBm
  508  91.760518 32:32:32:32:32:32 6dBm
  509  92.552245 32:32:32:32:32:32 7dBm
  510  92.617148 32:32:32:32:32:32 6dBm
  511  92.713436 32:32:32:32:32:32 5dBm
  512  92.730873 32:32:32:32:32:32 5dBm
  513  92.750977 32:32:32:32:32:32 6dBm
  514  92.806110 32:32:32:32:32:32 5dBm
  515  92.841383 32:32:32:32:32:32 6dBm
  516  92.884645 32:32:32:32:32:32 5dBm
  517  92.913932 32:32:32:32:32:32 6dBm
  518  92.941069 32:32:32:32:32:32 4dBm
  519  92.968119 32:32:32:32:32:32 8dBm
  520  93.061285 32:32:32:32:32:32 5dBm
  521  93.246385 32:32:32:32:32:32 7dBm
  522  93.280250 32:32:32:32:32:32 7dBm
  523  93.552499 32:32:32:32:32:32 7dBm
  524  93.665907 32:32:32:32:32:32 7dBm
  525  93.722797 32:32:32:32:32:32 6dBm
  526  93.806346 32:32:32:32:32:32 8dBm
  527  93.818926 32:32:32:32:32:32 6dBm
  528  93.875772 32:32:32:32:32:32 5dBm
  529  93.942846 32:32:32:32:32:32 6dBm
  530  94.128811 32:32:32:32:32:32 7dBm
  531  94.135721 32:32:32:32:32:32 8dBm
  532  94.211767 32:32:32:32:32:32 6dBm
  533  94.280125 32:32:32:32:32:32 8dBm
  534  94.288026 32:32:32:32:32:32 5dBm
  535  94.309094 32:32:32:32:32:32 7dBm
  536  94.361191 32:32:32:32:32:32 5dBm
  537  94.377878 32:32:32:32:32:32 6dBm
  538  94.392516 32:32:32:32:32:32 5dBm
  539  94.571717 32:32:32:32:32:32 7dBm
  540  94.659723 32:32:32:32:32:32 7dBm
  541  94.706445 32:32:32:32:32:32 8dBm
  542  94.740321 32:32:32:32:32:32 5dBm
  543  94.813683 32:32:32:32:32:32 6dBm
  544  94.853029 32:32:32:32:32:32 7dBm
  545  94.934878 32:32:32:32:32:32 8dBm
  546  95.060253 32:32:32:32:32:32 6dBm
  547  95.102378 32:32:32:32:32:32 6dBm
  548  95.279634 32:32:32:32:32:32 8dBm
  549  95.396821 32:32:32:32:32:32 5dBm
  550  95.456539 32:32:32:32:32:32 7dBm
  551  95.571840 32:32:32:32:32:32 7dBm
  552  95.621232 32:32:32:32:32:32 7dBm
  553  95.640102 32:32:32:32:32:32 8dBm
  554  95.691808 32:32:32:32:32:32 6dBm
  555  95.710236 32:32:32:32:32:32 7dBm
  556  95.731440 32:32:32:32:32:32 8dBm
  557  95.752605 32:32:32:32:32:32 8dBm
  558  95.781290 32:32:32:32:32:32 7dBm
  559  95.858708 32:32:32:32:32:32 7dBm
  560  95.933424 32:32:32:32:32:32 9dBm
  561  95.968080 32:32:32:32:32:32 7dBm
  562  96.067845 32:32:32:32:32:32 5dBm
  563  96.128624 32:32:32:32:32:32 8dBm
  564  96.149926 32:32:32:32:32:32 9dBm
  565  96.179863 32:32:32:32:32:32 7dBm
  566  96.206018 32:32:32:32:32:32 8dBm
  567  96.303085 32:32:32:32:32:32 6dBm
  568  96.437841 32:32:32:32:32:32 7dBm
  569  96.458309 32:32:32:32:32:32 7dBm
  570  96.512715 32:32:32:32:32:32 7dBm
  571  96.554740 32:32:32:32:32:32 7dBm
  572  96.574422 32:32:32:32:32:32 7dBm
  573  96.595622 32:32:32:32:32:32 7dBm
  574  96.614782 32:32:32:32:32:32 7dBm
  575  96.619956 32:32:32:32:32:32 7dBm
  576  96.655280 32:32:32:32:32:32 6dBm
  577  96.742161 32:32:32:32:32:32 5dBm
  578  96.760929 32:32:32:32:32:32 6dBm
  579  96.802053 32:32:32:32:32:32 7dBm
  580  96.849370 32:32:32:32:32:32 4dBm
  581  96.901876 32:32:32:32:32:32 6dBm
  582  96.939372 32:32:32:32:32:32 7dBm
  583  97.015296 32:32:32:32:32:32 7dBm
  584  97.059441 32:32:32:32:32:32 7dBm
  585  97.081109 32:32:32:32:32:32 4dBm
  586  97.172608 32:32:32:32:32:32 9dBm
  587  97.232010 32:32:32:32:32:32 7dBm
  588  97.269624 32:32:32:32:32:32 9dBm
  589  97.321610 32:32:32:32:32:32 8dBm
  590  97.378528 32:32:32:32:32:32 6dBm
  591  97.393094 32:32:32:32:32:32 7dBm
  592  97.508591 32:32:32:32:32:32 7dBm
  593  97.572001 32:32:32:32:32:32 6dBm
  594  97.597375 32:32:32:32:32:32 7dBm
  595  97.615605 32:32:32:32:32:32 6dBm
  596  97.636874 32:32:32:32:32:32 5dBm
  597  97.655894 32:32:32:32:32:32 7dBm
  598  97.673263 32:32:32:32:32:32 7dBm
  599  97.702501 32:32:32:32:32:32 7dBm
  600  97.822166 32:32:32:32:32:32 6dBm
  601  97.989937 32:32:32:32:32:32 6dBm
  602  97.995525 32:32:32:32:32:32 7dBm
  603  98.020908 32:32:32:32:32:32 6dBm
  604  98.043113 32:32:32:32:32:32 6dBm
  605  98.205768 32:32:32:32:32:32 6dBm
  606  98.223658 32:32:32:32:32:32 6dBm
  607  98.435338 32:32:32:32:32:32 4dBm
  608  98.778547 32:32:32:32:32:32 8dBm
  609  98.918684 32:32:32:32:32:32 7dBm
  610  98.939183 32:32:32:32:32:32 7dBm
  611  98.958578 32:32:32:32:32:32 6dBm
  612  99.057617 32:32:32:32:32:32 7dBm
  613  99.242893 32:32:32:32:32:32 7dBm
  614  99.371097 32:32:32:32:32:32 6dBm
  615  99.391139 32:32:32:32:32:32 8dBm
  616  99.594605 32:32:32:32:32:32 6dBm
  617  99.635310 32:32:32:32:32:32 7dBm
  618  99.682624 32:32:32:32:32:32 5dBm
  619  99.744386 32:32:32:32:32:32 6dBm
  620  99.833722 32:32:32:32:32:32 5dBm
  621  99.924595 32:32:32:32:32:32 7dBm
  622  99.940615 32:32:32:32:32:32 6dBm
  623 100.049550 32:32:32:32:32:32 4dBm
  624 100.087527 32:32:32:32:32:32 6dBm
  625 100.092922 32:32:32:32:32:32 8dBm
  626 100.121052 32:32:32:32:32:32 7dBm
  627 100.288690 32:32:32:32:32:32 6dBm
  628 100.310085 32:32:32:32:32:32 6dBm
  629 100.331882 32:32:32:32:32:32 3dBm
  630 100.351650 32:32:32:32:32:32 7dBm
  631 100.369594 32:32:32:32:32:32 7dBm
  632 100.445384 32:32:32:32:32:32 6dBm
  633 100.497201 32:32:32:32:32:32 7dBm
  634 100.560347 32:32:32:32:32:32 6dBm
  635 100.640641 32:32:32:32:32:32 5dBm
  636 101.098626 32:32:32:32:32:32 5dBm
  637 101.196206 32:32:32:32:32:32 6dBm
  638 101.215638 32:32:32:32:32:32 6dBm
  639 101.252702 32:32:32:32:32:32 7dBm
  640 101.408879 32:32:32:32:32:32 6dBm
  641 101.447338 32:32:32:32:32:32 6dBm
  642 101.513811 32:32:32:32:32:32 3dBm
  643 101.582204 32:32:32:32:32:32 8dBm
  644 101.593290 32:32:32:32:32:32 6dBm
  645 101.659724 32:32:32:32:32:32 7dBm
  646 101.743066 32:32:32:32:32:32 6dBm
  647 101.887734 32:32:32:32:32:32 6dBm
  648 101.891006 32:32:32:32:32:32 4dBm
  649 101.988865 32:32:32:32:32:32 6dBm
  650 102.210915 32:32:32:32:32:32 6dBm
  651 102.272773 32:32:32:32:32:32 6dBm
  652 102.337625 32:32:32:32:32:32 6dBm
  653 102.363369 32:32:32:32:32:32 6dBm
  654 102.891060 32:32:32:32:32:32 5dBm
  655 103.361343 32:32:32:32:32:32 5dBm
  656 103.507721 32:32:32:32:32:32 6dBm
  657 103.699436 32:32:32:32:32:32 4dBm
  658 103.794470 32:32:32:32:32:32 8dBm
  659 103.822662 32:32:32:32:32:32 5dBm
  660 103.865763 32:32:32:32:32:32 6dBm
  661 103.992280 32:32:32:32:32:32 7dBm
  662 104.016808 32:32:32:32:32:32 7dBm
  663 104.195619 32:32:32:32:32:32 6dBm
  664 104.937229 32:32:32:32:32:32 2dBm
  665 105.066178 32:32:32:32:32:32 5dBm
  666 105.300590 32:32:32:32:32:32 6dBm
  667 105.331534 32:32:32:32:32:32 7dBm
  668 105.424919 32:32:32:32:32:32 7dBm
  669 105.445990 32:32:32:32:32:32 7dBm
  670 105.527996 32:32:32:32:32:32 6dBm
  671 106.167992 32:32:32:32:32:32 5dBm
  672 106.382814 32:32:32:32:32:32 6dBm
  673 106.410561 32:32:32:32:32:32 6dBm
  674 106.481892 32:32:32:32:32:32 6dBm
  675 106.517958 32:32:32:32:32:32 7dBm
  676 106.556560 32:32:32:32:32:32 7dBm
  677 106.582885 32:32:32:32:32:32 7dBm
  678 106.606674 32:32:32:32:32:32 4dBm
  679 106.741165 32:32:32:32:32:32 7dBm
  680 106.846237 32:32:32:32:32:32 5dBm
  681 106.864124 32:32:32:32:32:32 7dBm
  682 106.909781 32:32:32:32:32:32 6dBm
  683 106.934818 32:32:32:32:32:32 6dBm
  684 107.026485 32:32:32:32:32:32 6dBm
  685 107.073797 32:32:32:32:32:32 5dBm
  686 107.133527 32:32:32:32:32:32 5dBm
  687 107.234600 32:32:32:32:32:32 6dBm
  688 107.253130 32:32:32:32:32:32 6dBm
  689 107.874064 32:32:32:32:32:32 5dBm
  690 108.019855 32:32:32:32:32:32 5dBm
  691 108.324564 32:32:32:32:32:32 3dBm
  692 108.585108 32:32:32:32:32:32 5dBm
  693 109.429797 32:32:32:32:32:32 4dBm
  694 109.645084 32:32:32:32:32:32 3dBm
  695 109.904262 32:32:32:32:32:32 4dBm
  696 112.913282 32:32:32:32:32:32 5dBm
  697 113.318673 32:32:32:32:32:32 5dBm
  698 113.375414 32:32:32:32:32:32 7dBm
  699 113.443964 32:32:32:32:32:32 5dBm
  700 113.652400 32:32:32:32:32:32 5dBm
  701 113.783103 32:32:32:32:32:32 5dBm
  702 114.251841 32:32:32:32:32:32 6dBm
  703 114.310371 32:32:32:32:32:32 7dBm
  704 114.373531 32:32:32:32:32:32 4dBm
  705 114.392576 32:32:32:32:32:32 6dBm
  706 114.430010 32:32:32:32:32:32 5dBm
  707 114.472373 32:32:32:32:32:32 5dBm
  708 114.490849 32:32:32:32:32:32 6dBm
  709 115.375018 32:32:32:32:32:32 6dBm
  710 115.435300 32:32:32:32:32:32 5dBm
  711 115.745842 32:32:32:32:32:32 4dBm
  712 115.887608 32:32:32:32:32:32 6dBm
  713 115.919046 32:32:32:32:32:32 7dBm
  714 116.545871 32:32:32:32:32:32 4dBm
  715 116.831698 32:32:32:32:32:32 5dBm
  716 117.510192 32:32:32:32:32:32 5dBm
  717 117.671968 32:32:32:32:32:32 6dBm
  718 117.681305 32:32:32:32:32:32 6dBm
  719 117.717208 32:32:32:32:32:32 6dBm
  720 117.811906 32:32:32:32:32:32 6dBm
  721 117.863327 32:32:32:32:32:32 5dBm
  722 118.081689 32:32:32:32:32:32 6dBm
  723 118.158318 32:32:32:32:32:32 4dBm
  724 118.174345 32:32:32:32:32:32 5dBm
  725 118.186680 32:32:32:32:32:32 7dBm
  726 118.251854 32:32:32:32:32:32 6dBm
  727 118.322881 32:32:32:32:32:32 7dBm
  728 118.592876 32:32:32:32:32:32 4dBm
  729 119.687756 32:32:32:32:32:32 5dBm
  730 120.326754 32:32:32:32:32:32 4dBm
  731 120.437244 32:32:32:32:32:32 4dBm
  732 121.040884 32:32:32:32:32:32 4dBm
  733 121.084548 32:32:32:32:32:32 6dBm
  734 121.123894 32:32:32:32:32:32 4dBm
  735 121.166721 32:32:32:32:32:32 8dBm
  736 121.265054 32:32:32:32:32:32 4dBm
  737 121.335906 32:32:32:32:32:32 3dBm
  738 121.363913 32:32:32:32:32:32 6dBm
  739 121.382590 32:32:32:32:32:32 3dBm
  740 121.482338 32:32:32:32:32:32 7dBm
  741 121.572131 32:32:32:32:32:32 5dBm
  742 121.716339 32:32:32:32:32:32 6dBm
  743 121.755540 32:32:32:32:32:32 5dBm
  744 121.815952 32:32:32:32:32:32 7dBm
  745 122.044893 32:32:32:32:32:32 6dBm
  746 122.063121 32:32:32:32:32:32 5dBm
  747 122.330659 32:32:32:32:32:32 4dBm
  748 122.392104 32:32:32:32:32:32 6dBm
  749 122.452260 32:32:32:32:32:32 6dBm
  750 122.779600 32:32:32:32:32:32 6dBm
  751 122.829723 32:32:32:32:32:32 6dBm
  752 122.856324 32:32:32:32:32:32 6dBm
  753 122.998989 32:32:32:32:32:32 3dBm
  754 123.040645 32:32:32:32:32:32 6dBm
  755 123.062418 32:32:32:32:32:32 6dBm
