    1   0.000000 32:32:32:32:32:32 6dBm
    2   0.034370 32:32:32:32:32:32 8dBm
    3   0.061438 32:32:32:32:32:32 8dBm
    4   0.083102 32:32:32:32:32:32 7dBm
    5   0.122682 32:32:32:32:32:32 6dBm
    6   0.142450 32:32:32:32:32:32 6dBm
    7   0.260907 32:32:32:32:32:32 7dBm
    8   0.313458 32:32:32:32:32:32 7dBm
    9   0.392667 32:32:32:32:32:32 8dBm
   10   0.411008 32:32:32:32:32:32 6dBm
   11   0.573846 32:32:32:32:32:32 8dBm
   12   0.660689 32:32:32:32:32:32 6dBm
   13   0.727649 32:32:32:32:32:32 7dBm
   14   0.751632 32:32:32:32:32:32 5dBm
   15   1.027148 32:32:32:32:32:32 6dBm
   16   1.272106 32:32:32:32:32:32 8dBm
   17   1.292873 32:32:32:32:32:32 8dBm
   18   1.347065 32:32:32:32:32:32 6dBm
   19   1.587057 32:32:32:32:32:32 5dBm
   20   1.631735 32:32:32:32:32:32 7dBm
   21   1.679138 32:32:32:32:32:32 7dBm
   22   1.745222 32:32:32:32:32:32 7dBm
   23   1.783625 32:32:32:32:32:32 7dBm
   24   1.846234 32:32:32:32:32:32 6dBm
   25   1.903085 32:32:32:32:32:32 7dBm
   26   1.963716 32:32:32:32:32:32 8dBm
   27   2.057922 32:32:32:32:32:32 8dBm
   28   2.097496 32:32:32:32:32:32 8dBm
   29   2.212791 32:32:32:32:32:32 7dBm
   30   2.338325 32:32:32:32:32:32 9dBm
   31   2.395666 32:32:32:32:32:32 7dBm
   32   2.458625 32:32:32:32:32:32 7dBm
   33   2.488173 32:32:32:32:32:32 7dBm
   34   2.649139 32:32:32:32:32:32 7dBm
   35   2.673360 32:32:32:32:32:32 9dBm
   36   2.714788 32:32:32:32:32:32 7dBm
   37   2.731487 32:32:32:32:32:32 8dBm
   38   2.776013 32:32:32:32:32:32 6dBm
   39   2.925600 32:32:32:32:32:32 7dBm
   40   2.955397 32:32:32:32:32:32 8dBm
   41   2.974432 32:32:32:32:32:32 7dBm
   42   3.023202 32:32:32:32:32:32 6dBm
   43   3.045200 32:32:32:32:32:32 5dBm
   44   3.235950 32:32:32:32:32:32 8dBm
   45   3.252963 32:32:32:32:32:32 8dBm
   46   3.287496 32:32:32:32:32:32 5dBm
   47   3.314421 32:32:32:32:32:32 8dBm
   48   3.366858 32:32:32:32:32:32 8dBm
   49   3.400472 32:32:32:32:32:32 8dBm
   50   3.420400 32:32:32:32:32:32 8dBm
   51   3.757907 32:32:32:32:32:32 8dBm
   52   3.791400 32:32:32:32:32:32 5dBm
   53   3.810882 32:32:32:32:32:32 5dBm
   54   3.823667 32:32:32:32:32:32 7dBm
   55   3.944066 32:32:32:32:32:32 4dBm
   56   3.945718 32:32:32:32:32:32 8dBm
   57   3.962945 32:32:32:32:32:32 7dBm
   58   4.052651 32:32:32:32:32:32 7dBm
   59   4.097885 32:32:32:32:32:32 7dBm
   60   4.159552 32:32:32:32:32:32 8dBm
   61   4.165457 32:32:32:32:32:32 6dBm
   62   4.217317 32:32:32:32:32:32 6dBm
   63   4.416479 32:32:32:32:32:32 7dBm
   64   4.523863 32:32:32:32:32:32 6dBm
   65   4.549295 32:32:32:32:32:32 6dBm
   66   4.610696 32:32:32:32:32:32 8dBm
   67   4.648774 32:32:32:32:32:32 7dBm
   68   4.811424 32:32:32:32:32:32 7dBm
   69   4.855835 32:32:32:32:32:32 6dBm
   70   4.950798 32:32:32:32:32:32 3dBm
   71   5.318899 32:32:32:32:32:32 5dBm
   72   5.367204 32:32:32:32:32:32 6dBm
   73   5.441188 32:32:32:32:32:32 5dBm
   74   5.487682 32:32:32:32:32:32 6dBm
   75   5.546538 32:32:32:32:32:32 4dBm
   76   5.563001 32:32:32:32:32:32 6dBm
   77   5.625784 32:32:32:32:32:32 6dBm
   78   5.645324 32:32:32:32:32:32 6dBm
   79   5.703256 32:32:32:32:32:32 4dBm
   80   5.788142 32:32:32:32:32:32 4dBm
   81   5.854420 32:32:32:32:32:32 5dBm
   82   5.920485 32:32:32:32:32:32 8dBm
   83   5.942382 32:32:32:32:32:32 7dBm
   84   6.006668 32:32:32:32:32:32 7dBm
   85   6.206103 32:32:32:32:32:32 5dBm
   86   6.211914 32:32:32:32:32:32 7dBm
   87   6.238631 32:32:32:32:32:32 3dBm
   88   6.255224 32:32:32:32:32:32 6dBm
   89   6.339607 32:32:32:32:32:32 6dBm
   90   6.743618 32:32:32:32:32:32 5dBm
   91   6.912435 32:32:32:32:32:32 7dBm
   92   6.948738 32:32:32:32:32:32 6dBm
   93   7.015589 32:32:32:32:32:32 5dBm
   94   7.125500 32:32:32:32:32:32 5dBm
   95   7.143648 32:32:32:32:32:32 6dBm
   96   7.171706 32:32:32:32:32:32 7dBm
   97   7.222918 32:32:32:32:32:32 6dBm
   98   7.382218 32:32:32:32:32:32 7dBm
   99   7.560728 32:32:32:32:32:32 7dBm
  100   7.589758 32:32:32:32:32:32 7dBm
  101   7.620050 32:32:32:32:32:32 7dBm
  102   7.654524 32:32:32:32:32:32 7dBm
  103   7.829397 32:32:32:32:32:32 9dBm
  104   7.858613 32:32:32:32:32:32 9dBm
  105   7.899967 32:32:32:32:32:32 8dBm
  106   7.948880 32:32:32:32:32:32 9dBm
  107   8.021542 32:32:32:32:32:32 5dBm
  108   8.029245 32:32:32:32:32:32 8dBm
  109   8.116763 32:32:32:32:32:32 7dBm
  110   8.237937 32:32:32:32:32:32 4dBm
  111   8.269498 32:32:32:32:32:32 6dBm
  112   8.301465 32:32:32:32:32:32 6dBm
  113   8.340678 32:32:32:32:32:32 8dBm
  114   8.381840 32:32:32:32:32:32 8dBm
  115   8.485891 32:32:32:32:32:32 7dBm
  116   8.520162 32:32:32:32:32:32 5dBm
  117   8.568442 32:32:32:32:32:32 5dBm
  118   8.586736 32:32:32:32:32:32 5dBm
  119   8.629976 32:32:32:32:32:32 7dBm
  120   8.690537 32:32:32:32:32:32 8dBm
  121   8.710507 32:32:32:32:32:32 9dBm
  122   8.826824 32:32:32:32:32:32 4dBm
  123   8.923573 32:32:32:32:32:32 8dBm
  124   8.970599 32:32:32:32:32:32 7dBm
  125   8.980123 32:32:32:32:32:32 6dBm
  126   9.153849 32:32:32:32:32:32 7dBm
  127   9.194764 32:32:32:32:32:32 7dBm
  128   9.211615 32:32:32:32:32:32 8dBm
  129   9.234802 32:32:32:32:32:32 7dBm
  130   9.252318 32:32:32:32:32:32 7dBm
  131   9.318426 32:32:32:32:32:32 6dBm
  132   9.415166 32:32:32:32:32:32 8dBm
  133   9.446632 32:32:32:32:32:32 3dBm
  134   9.502653 32:32:32:32:32:32 7dBm
  135   9.520793 32:32:32:32:32:32 4dBm
  136   9.573386 32:32:32:32:32:32 6dBm
  137   9.757232 32:32:32:32:32:32 6dBm
  138   9.825840 32:32:32:32:32:32 7dBm
  139   9.926558 32:32:32:32:32:32 8dBm
  140  10.017115 32:32:32:32:32:32 6dBm
  141  10.046405 32:32:32:32:32:32 4dBm
  142  10.089819 32:32:32:32:32:32 6dBm
  143  10.093933 32:32:32:32:32:32 6dBm
  144  10.115710 32:32:32:32:32:32 7dBm
  145  10.192282 32:32:32:32:32:32 6dBm
  146  10.268752 32:32:32:32:32:32 6dBm
  147  10.346184 32:32:32:32:32:32 7dBm
  148  10.376640 32:32:32:32:32:32 4dBm
  149  10.458345 32:32:32:32:32:32 6dBm
  150  10.485470 32:32:32:32:32:32 7dBm
  151  10.618896 32:32:32:32:32:32 4dBm
  152  11.029516 32:32:32:32:32:32 7dBm
  153  11.211311 32:32:32:32:32:32 3dBm
  154  12.371719 32:32:32:32:32:32 4dBm
  155  12.435971 32:32:32:32:32:32 4dBm
  156  12.791897 32:32:32:32:32:32 5dBm
  157  12.926985 32:32:32:32:32:32 4dBm
  158  13.447100 32:32:32:32:32:32 4dBm
  159  13.538820 32:32:32:32:32:32 4dBm
  160  14.858043 32:32:32:32:32:32 7dBm
  161  14.914767 32:32:32:32:32:32 6dBm
  162  15.053554 32:32:32:32:32:32 6dBm
  163  15.097523 32:32:32:32:32:32 6dBm
  164  15.170408 32:32:32:32:32:32 7dBm
  165  15.195268 32:32:32:32:32:32 6dBm
  166  15.309614 32:32:32:32:32:32 8dBm
  167  15.334774 32:32:32:32:32:32 7dBm
  168  15.337010 32:32:32:32:32:32 7dBm
  169  15.362863 32:32:32:32:32:32 6dBm
  170  15.424844 32:32:32:32:32:32 8dBm
  171  15.460040 32:32:32:32:32:32 7dBm
  172  15.564021 32:32:32:32:32:32 7dBm
  173  15.789252 32:32:32:32:32:32 7dBm
  174  15.811164 32:32:32:32:32:32 8dBm
  175  15.902237 32:32:32:32:32:32 7dBm
  176  15.964593 32:32:32:32:32:32 4dBm
  177  16.035130 32:32:32:32:32:32 8dBm
  178  16.131712 32:32:32:32:32:32 7dBm
  179  16.353994 32:32:32:32:32:32 7dBm
  180  16.448021 32:32:32:32:32:32 9dBm
  181  16.482583 32:32:32:32:32:32 8dBm
  182  16.575179 32:32:32:32:32:32 7dBm
  183  16.615329 32:32:32:32:32:32 6dBm
  184  16.634494 32:32:32:32:32:32 6dBm
  185  16.814194 32:32:32:32:32:32 7dBm
  186  16.836423 32:32:32:32:32:32 6dBm
  187  16.909099 32:32:32:32:32:32 7dBm
  188  16.936697 32:32:32:32:32:32 7dBm
  189  16.980250 32:32:32:32:32:32 7dBm
  190  17.090110 32:32:32:32:32:32 6dBm
  191  17.117687 32:32:32:32:32:32 8dBm
  192  17.383837 32:32:32:32:32:32 5dBm
  193  17.423558 32:32:32:32:32:32 3dBm
  194  17.529273 32:32:32:32:32:32 7dBm
  195  17.599230 32:32:32:32:32:32 6dBm
  196  17.611819 32:32:32:32:32:32 5dBm
  197  17.700722 32:32:32:32:32:32 6dBm
  198  17.716060 32:32:32:32:32:32 6dBm
  199  17.733219 32:32:32:32:32:32 8dBm
  200  17.954706 32:32:32:32:32:32 8dBm
  201  18.195237 32:32:32:32:32:32 8dBm
  202  18.281620 32:32:32:32:32:32 7dBm
  203  18.298863 32:32:32:32:32:32 7dBm
  204  18.333634 32:32:32:32:32:32 9dBm
  205  18.355922 32:32:32:32:32:32 6dBm
  206  18.433849 32:32:32:32:32:32 8dBm
  207  18.541956 32:32:32:32:32:32 6dBm
  208  18.619872 32:32:32:32:32:32 6dBm
  209  18.699923 32:32:32:32:32:32 7dBm
  210  18.741065 32:32:32:32:32:32 8dBm
  211  18.770876 32:32:32:32:32:32 7dBm
  212  18.837578 32:32:32:32:32:32 8dBm
  213  18.875430 32:32:32:32:32:32 7dBm
  214  18.913701 32:32:32:32:32:32 6dBm
  215  19.024491 32:32:32:32:32:32 8dBm
  216  19.176165 32:32:32:32:32:32 6dBm
  217  19.238891 32:32:32:32:32:32 6dBm
  218  19.339184 32:32:32:32:32:32 5dBm
  219  19.626453 32:32:32:32:32:32 7dBm
  220  19.679036 32:32:32:32:32:32 7dBm
  221  19.708066 32:32:32:32:32:32 7dBm
  222  19.850995 32:32:32:32:32:32 7dBm
  223  19.946297 32:32:32:32:32:32 6dBm
  224  19.988759 32:32:32:32:32:32 8dBm
  225  20.008094 32:32:32:32:32:32 7dBm
  226  20.288462 32:32:32:32:32:32 7dBm
  227  20.317148 32:32:32:32:32:32 7dBm
  228  20.397962 32:32:32:32:32:32 7dBm
  229  20.433621 32:32:32:32:32:32 7dBm
  230  20.699733 32:32:32:32:32:32 8dBm
  231  20.867573 32:32:32:32:32:32 6dBm
  232  20.894363 32:32:32:32:32:32 7dBm
  233  20.917604 32:32:32:32:32:32 9dBm
  234  21.048979 32:32:32:32:32:32 7dBm
  235  21.095689 32:32:32:32:32:32 6dBm
  236  21.272765 32:32:32:32:32:32 7dBm
  237  21.307894 32:32:32:32:32:32 6dBm
  238  21.412666 32:32:32:32:32:32 9dBm
  239  21.433614 32:32:32:32:32:32 6dBm
  240  21.473638 32:32:32:32:32:32 9dBm
  241  21.488170 32:32:32:32:32:32 7dBm
  242  21.631469 32:32:32:32:32:32 5dBm
  243  21.646645 32:32:32:32:32:32 8dBm
  244  21.658285 32:32:32:32:32:32 8dBm
  245  21.796410 32:32:32:32:32:32 7dBm
  246  21.863906 32:32:32:32:32:32 8dBm
  247  21.991042 32:32:32:32:32:32 7dBm
  248  22.025998 32:32:32:32:32:32 9dBm
  249  22.061516 32:32:32:32:32:32 8dBm
  250  22.084560 32:32:32:32:32:32 6dBm
  251  22.107572 32:32:32:32:32:32 7dBm
  252  22.206733 32:32:32:32:32:32 6dBm
  253  22.288638 32:32:32:32:32:32 7dBm
  254  22.398925 32:32:32:32:32:32 9dBm
  255  22.523266 32:32:32:32:32:32 9dBm
  256  22.611432 32:32:32:32:32:32 8dBm
  257  22.642350 32:32:32:32:32:32 8dBm
  258  22.675052 32:32:32:32:32:32 8dBm
  259  22.806795 32:32:32:32:32:32 7dBm
  260  22.860668 32:32:32:32:32:32 9dBm
  261  22.915248 32:32:32:32:32:32 6dBm
  262  22.974026 32:32:32:32:32:32 6dBm
  263  23.093954 32:32:32:32:32:32 4dBm
  264  23.188628 32:32:32:32:32:32 5dBm
  265  23.219192 32:32:32:32:32:32 5dBm
  266  23.270082 32:32:32:32:32:32 6dBm
  267  23.348245 32:32:32:32:32:32 8dBm
  268  23.366883 32:32:32:32:32:32 6dBm
  269  23.448562 32:32:32:32:32:32 8dBm
  270  23.482224 32:32:32:32:32:32 8dBm
  271  23.529734 32:32:32:32:32:32 6dBm
  272  23.549674 32:32:32:32:32:32 6dBm
  273  23.599796 32:32:32:32:32:32 6dBm
  274  23.621475 32:32:32:32:32:32 7dBm
  275  23.809437 32:32:32:32:32:32 6dBm
  276  23.829913 32:32:32:32:32:32 8dBm
  277  23.855236 32:32:32:32:32:32 7dBm
  278  23.901085 32:32:32:32:32:32 5dBm
  279  23.929992 32:32:32:32:32:32 6dBm
  280  24.039858 32:32:32:32:32:32 8dBm
  281  24.223967 32:32:32:32:32:32 6dBm
  282  24.304256 32:32:32:32:32:32 9dBm
  283  24.343209 32:32:32:32:32:32 8dBm
  284  24.359669 32:32:32:32:32:32 5dBm
  285  24.383102 32:32:32:32:32:32 6dBm
  286  24.462787 32:32:32:32:32:32 8dBm
  287  24.576023 32:32:32:32:32:32 9dBm
  288  24.690635 32:32:32:32:32:32 6dBm
  289  24.805075 32:32:32:32:32:32 7dBm
  290  24.861062 32:32:32:32:32:32 7dBm
  291  24.908521 32:32:32:32:32:32 6dBm
  292  24.957097 32:32:32:32:32:32 6dBm
  293  24.988248 32:32:32:32:32:32 5dBm
  294  25.094367 32:32:32:32:32:32 7dBm
  295  25.185423 32:32:32:32:32:32 6dBm
  296  25.347904 32:32:32:32:32:32 7dBm
  297  25.470619 32:32:32:32:32:32 8dBm
  298  25.573081 32:32:32:32:32:32 9dBm
  299  25.669734 32:32:32:32:32:32 8dBm
  300  25.734239 32:32:32:32:32:32 7dBm
  301  25.761647 32:32:32:32:32:32 7dBm
  302  25.788187 32:32:32:32:32:32 7dBm
  303  25.822176 32:32:32:32:32:32 8dBm
  304  25.832838 32:32:32:32:32:32 6dBm
  305  25.879480 32:32:32:32:32:32 7dBm
  306  25.930658 32:32:32:32:32:32 7dBm
  307  25.949288 32:32:32:32:32:32 8dBm
  308  25.959935 32:32:32:32:32:32 8dBm
  309  26.007030 32:32:32:32:32:32 8dBm
  310  26.059195 32:32:32:32:32:32 6dBm
  311  26.126886 32:32:32:32:32:32 7dBm
  312  26.250084 32:32:32:32:32:32 8dBm
  313  26.307014 32:32:32:32:32:32 8dBm
  314  26.339571 32:32:32:32:32:32 7dBm
  315  26.361095 32:32:32:32:32:32 8dBm
  316  26.471556 32:32:32:32:32:32 8dBm
  317  26.532067 32:32:32:32:32:32 8dBm
  318  26.536708 32:32:32:32:32:32 7dBm
  319  26.696581 32:32:32:32:32:32 8dBm
  320  26.904280 32:32:32:32:32:32 8dBm
  321  27.115081 32:32:32:32:32:32 6dBm
  322  27.175392 32:32:32:32:32:32 8dBm
  323  27.198279 32:32:32:32:32:32 7dBm
  324  27.226643 32:32:32:32:32:32 8dBm
  325  27.252334 32:32:32:32:32:32 6dBm
  326  27.384974 32:32:32:32:32:32 7dBm
  327  27.406166 32:32:32:32:32:32 8dBm
  328  27.416946 32:32:32:32:32:32 6dBm
  329  27.426283 32:32:32:32:32:32 6dBm
  330  27.506195 32:32:32:32:32:32 7dBm
  331  27.555079 32:32:32:32:32:32 8dBm
  332  27.637721 32:32:32:32:32:32 8dBm
  333  27.655655 32:32:32:32:32:32 7dBm
  334  27.693196 32:32:32:32:32:32 8dBm
  335  27.844994 32:32:32:32:32:32 7dBm
  336  27.937969 32:32:32:32:32:32 8dBm
  337  28.001744 32:32:32:32:32:32 8dBm
  338  28.175014 32:32:32:32:32:32 8dBm
  339  28.292948 32:32:32:32:32:32 6dBm
  340  28.420074 32:32:32:32:32:32 6dBm
  341  28.461681 32:32:32:32:32:32 6dBm
  342  28.571140 32:32:32:32:32:32 6dBm
  343  28.600772 32:32:32:32:32:32 7dBm
  344  28.657918 32:32:32:32:32:32 7dBm
  345  28.692476 32:32:32:32:32:32 7dBm
  346  28.715443 32:32:32:32:32:32 6dBm
  347  28.779100 32:32:32:32:32:32 8dBm
  348  28.802729 32:32:32:32:32:32 5dBm
  349  28.833625 32:32:32:32:32:32 5dBm
  350  28.885402 32:32:32:32:32:32 7dBm
  351  29.033475 32:32:32:32:32:32 5dBm
  352  29.104161 32:32:32:32:32:32 8dBm
  353  29.151881 32:32:32:32:32:32 7dBm
  354  29.163579 32:32:32:32:32:32 7dBm
  355  29.285284 32:32:32:32:32:32 7dBm
  356  29.811450 32:32:32:32:32:32 8dBm
  357  29.841228 32:32:32:32:32:32 7dBm
  358  29.916504 32:32:32:32:32:32 4dBm
  359  29.942536 32:32:32:32:32:32 8dBm
  360  29.988709 32:32:32:32:32:32 7dBm
  361  30.006639 32:32:32:32:32:32 8dBm
  362  30.027545 32:32:32:32:32:32 6dBm
  363  30.142994 32:32:32:32:32:32 7dBm
  364  30.214206 32:32:32:32:32:32 8dBm
  365  30.347566 32:32:32:32:32:32 6dBm
  366  30.367264 32:32:32:32:32:32 7dBm
  367  30.485394 32:32:32:32:32:32 8dBm
  368  30.530514 32:32:32:32:32:32 7dBm
  369  30.621338 32:32:32:32:32:32 7dBm
  370  30.676897 32:32:32:32:32:32 6dBm
  371  30.737123 32:32:32:32:32:32 8dBm
  372  30.784015 32:32:32:32:32:32 7dBm
  373  30.819218 32:32:32:32:32:32 7dBm
  374  30.839987 32:32:32:32:32:32 7dBm
  375  30.870335 32:32:32:32:32:32 6dBm
  376  30.890145 32:32:32:32:32:32 8dBm
  377  30.936070 32:32:32:32:32:32 6dBm
  378  31.013433 32:32:32:32:32:32 8dBm
  379  31.034946 32:32:32:32:32:32 5dBm
  380  31.140218 32:32:32:32:32:32 8dBm
  381  31.200814 32:32:32:32:32:32 8dBm
  382  31.285076 32:32:32:32:32:32 9dBm
  383  31.311792 32:32:32:32:32:32 8dBm
  384  31.380527 32:32:32:32:32:32 7dBm
  385  31.395227 32:32:32:32:32:32 9dBm
  386  31.433779 32:32:32:32:32:32 8dBm
  387  31.505820 32:32:32:32:32:32 8dBm
  388  31.522464 32:32:32:32:32:32 8dBm
  389  31.566494 32:32:32:32:32:32 8dBm
  390  31.734985 32:32:32:32:32:32 8dBm
  391  31.800200 32:32:32:32:32:32 9dBm
  392  31.852464 32:32:32:32:32:32 8dBm
  393  31.865842 32:32:32:32:32:32 6dBm
  394  31.916507 32:32:32:32:32:32 7dBm
  395  31.957753 32:32:32:32:32:32 6dBm
  396  32.016222 32:32:32:32:32:32 6dBm
  397  32.106330 32:32:32:32:32:32 5dBm
  398  32.168512 32:32:32:32:32:32 7dBm
  399  32.300070 32:32:32:32:32:32 7dBm
  400  32.324307 32:32:32:32:32:32 7dBm
  401  32.364131 32:32:32:32:32:32 8dBm
  402  32.382581 32:32:32:32:32:32 7dBm
  403  32.401769 32:32:32:32:32:32 7dBm
  404  32.476938 32:32:32:32:32:32 8dBm
  405  32.533219 32:32:32:32:32:32 6dBm
  406  32.573597 32:32:32:32:32:32 7dBm
  407  32.743862 32:32:32:32:32:32 8dBm
  408  32.783855 32:32:32:32:32:32 7dBm
  409  32.879842 32:32:32:32:32:32 8dBm
  410  33.002371 32:32:32:32:32:32 8dBm
  411  33.175065 32:32:32:32:32:32 7dBm
  412  33.207795 32:32:32:32:32:32 8dBm
  413  33.279062 32:32:32:32:32:32 7dBm
  414  33.333170 32:32:32:32:32:32 6dBm
  415  33.381027 32:32:32:32:32:32 7dBm
  416  33.556489 32:32:32:32:32:32 8dBm
  417  33.778913 32:32:32:32:32:32 7dBm
  418  33.810569 32:32:32:32:32:32 5dBm
  419  33.842399 32:32:32:32:32:32 6dBm
  420  33.866146 32:32:32:32:32:32 7dBm
  421  33.943249 32:32:32:32:32:32 7dBm
  422  33.990594 32:32:32:32:32:32 7dBm
  423  34.014892 32:32:32:32:32:32 8dBm
  424  34.053208 32:32:32:32:32:32 8dBm
  425  34.087261 32:32:32:32:32:32 7dBm
  426  34.134677 32:32:32:32:32:32 7dBm
  427  34.232517 32:32:32:32:32:32 8dBm
  428  34.272684 32:32:32:32:32:32 6dBm
  429  34.306164 32:32:32:32:32:32 7dBm
  430  34.404677 32:32:32:32:32:32 6dBm
  431  34.530197 32:32:32:32:32:32 8dBm
  432  34.555343 32:32:32:32:32:32 7dBm
  433  34.585532 32:32:32:32:32:32 8dBm
  434  34.651089 32:32:32:32:32:32 10dBm
  435  34.752348 32:32:32:32:32:32 5dBm
  436  34.801821 32:32:32:32:32:32 7dBm
  437  34.877728 32:32:32:32:32:32 6dBm
  438  35.135254 32:32:32:32:32:32 9dBm
  439  35.190905 32:32:32:32:32:32 6dBm
  440  35.255835 32:32:32:32:32:32 6dBm
  441  35.278123 32:32:32:32:32:32 8dBm
  442  35.313137 32:32:32:32:32:32 7dBm
  443  35.337423 32:32:32:32:32:32 8dBm
  444  35.441784 32:32:32:32:32:32 7dBm
  445  35.537038 32:32:32:32:32:32 6dBm
  446  35.707115 32:32:32:32:32:32 6dBm
  447  35.755124 32:32:32:32:32:32 6dBm
  448  35.836764 32:32:32:32:32:32 6dBm
  449  35.860381 32:32:32:32:32:32 7dBm
  450  35.907142 32:32:32:32:32:32 6dBm
  451  36.079139 32:32:32:32:32:32 8dBm
  452  36.100268 32:32:32:32:32:32 7dBm
  453  36.171743 32:32:32:32:32:32 8dBm
  454  36.189001 32:32:32:32:32:32 6dBm
  455  36.222745 32:32:32:32:32:32 7dBm
  456  36.243061 32:32:32:32:32:32 3dBm
  457  36.318062 32:32:32:32:32:32 7dBm
  458  36.407586 32:32:32:32:32:32 7dBm
  459  36.474121 32:32:32:32:32:32 8dBm
  460  36.553782 32:32:32:32:32:32 8dBm
  461  36.585466 32:32:32:32:32:32 8dBm
  462  36.604464 32:32:32:32:32:32 7dBm
  463  36.688069 32:32:32:32:32:32 9dBm
  464  36.735882 32:32:32:32:32:32 6dBm
  465  36.786647 32:32:32:32:32:32 8dBm
  466  36.910791 32:32:32:32:32:32 6dBm
  467  37.129491 32:32:32:32:32:32 9dBm
  468  37.184593 32:32:32:32:32:32 4dBm
  469  37.232475 32:32:32:32:32:32 5dBm
  470  37.256956 32:32:32:32:32:32 6dBm
  471  37.277927 32:32:32:32:32:32 9dBm
  472  37.316040 32:32:32:32:32:32 8dBm
  473  37.376450 32:32:32:32:32:32 7dBm
  474  37.402695 32:32:32:32:32:32 7dBm
  475  37.567344 32:32:32:32:32:32 7dBm
  476  37.612458 32:32:32:32:32:32 9dBm
  477  37.727184 32:32:32:32:32:32 10dBm
  478  37.803237 32:32:32:32:32:32 7dBm
  479  37.900642 32:32:32:32:32:32 7dBm
  480  37.933887 32:32:32:32:32:32 7dBm
  481  37.969814 32:32:32:32:32:32 6dBm
  482  38.050013 32:32:32:32:32:32 7dBm
  483  38.096432 32:32:32:32:32:32 8dBm
  484  38.147591 32:32:32:32:32:32 9dBm
  485  38.300289 32:32:32:32:32:32 8dBm
  486  38.366463 32:32:32:32:32:32 6dBm
  487  38.399180 32:32:32:32:32:32 4dBm
  488  38.418801 32:32:32:32:32:32 6dBm
  489  38.429823 32:32:32:32:32:32 7dBm
  490  38.474038 32:32:32:32:32:32 6dBm
  491  38.502336 32:32:32:32:32:32 5dBm
  492  38.561214 32:32:32:32:32:32 9dBm
  493  38.623572 32:32:32:32:32:32 7dBm
  494  38.628480 32:32:32:32:32:32 7dBm
  495  38.767718 32:32:32:32:32:32 5dBm
  496  38.790285 32:32:32:32:32:32 7dBm
  497  38.859530 32:32:32:32:32:32 7dBm
  498  38.882544 32:32:32:32:32:32 9dBm
  499  38.901130 32:32:32:32:32:32 6dBm
  500  38.963070 32:32:32:32:32:32 7dBm
  501  39.030516 32:32:32:32:32:32 8dBm
  502  39.186557 32:32:32:32:32:32 8dBm
  503  39.267948 32:32:32:32:32:32 9dBm
  504  39.290082 32:32:32:32:32:32 7dBm
  505  39.323548 32:32:32:32:32:32 7dBm
  506  39.382172 32:32:32:32:32:32 8dBm
  507  39.449777 32:32:32:32:32:32 9dBm
  508  39.579002 32:32:32:32:32:32 9dBm
  509  39.591768 32:32:32:32:32:32 8dBm
  510  39.642843 32:32:32:32:32:32 7dBm
  511  39.660052 32:32:32:32:32:32 8dBm
  512  39.679886 32:32:32:32:32:32 8dBm
  513  39.750892 32:32:32:32:32:32 9dBm
  514  39.800810 32:32:32:32:32:32 6dBm
  515  39.853209 32:32:32:32:32:32 6dBm
  516  39.912681 32:32:32:32:32:32 6dBm
  517  40.120224 32:32:32:32:32:32 7dBm
  518  40.783197 32:32:32:32:32:32 7dBm
  519  40.880486 32:32:32:32:32:32 7dBm
  520  40.930425 32:32:32:32:32:32 7dBm
  521  40.993959 32:32:32:32:32:32 4dBm
  522  41.070322 32:32:32:32:32:32 7dBm
  523  41.175773 32:32:32:32:32:32 7dBm
  524  41.272994 32:32:32:32:32:32 6dBm
  525  41.294578 32:32:32:32:32:32 8dBm
  526  41.473629 32:32:32:32:32:32 7dBm
  527  41.494898 32:32:32:32:32:32 7dBm
  528  41.533532 32:32:32:32:32:32 6dBm
  529  41.552873 32:32:32:32:32:32 7dBm
  530  41.568271 32:32:32:32:32:32 7dBm
  531  41.606202 32:32:32:32:32:32 7dBm
  532  41.610551 32:32:32:32:32:32 7dBm
  533  41.654971 32:32:32:32:32:32 9dBm
  534  41.680790 32:32:32:32:32:32 8dBm
  535  41.757006 32:32:32:32:32:32 8dBm
  536  41.850451 32:32:32:32:32:32 7dBm
  537  42.032179 32:32:32:32:32:32 4dBm
  538  42.035654 32:32:32:32:32:32 8dBm
  539  42.222061 32:32:32:32:32:32 8dBm
  540  42.297530 32:32:32:32:32:32 7dBm
  541  42.560551 32:32:32:32:32:32 6dBm
  542  42.623024 32:32:32:32:32:32 7dBm
  543  42.760869 32:32:32:32:32:32 8dBm
  544  42.808537 32:32:32:32:32:32 6dBm
  545  42.816903 32:32:32:32:32:32 8dBm
  546  42.942233 32:32:32:32:32:32 5dBm
  547  42.983779 32:32:32:32:32:32 9dBm
  548  43.164639 32:32:32:32:32:32 7dBm
  549  43.195954 32:32:32:32:32:32 7dBm
  550  43.315864 32:32:32:32:32:32 7dBm
  551  43.337456 32:32:32:32:32:32 7dBm
  552  43.395714 32:32:32:32:32:32 5dBm
  553  43.428415 32:32:32:32:32:32 4dBm
  554  43.450950 32:32:32:32:32:32 5dBm
  555  43.471158 32:32:32:32:32:32 7dBm
  556  43.525768 32:32:32:32:32:32 7dBm
  557  43.657605 32:32:32:32:32:32 6dBm
  558  43.771262 32:32:32:32:32:32 8dBm
  559  43.801414 32:32:32:32:32:32 6dBm
  560  43.889869 32:32:32:32:32:32 8dBm
  561  44.112409 32:32:32:32:32:32 7dBm
  562  44.157919 32:32:32:32:32:32 6dBm
  563  44.285240 32:32:32:32:32:32 7dBm
  564  44.427116 32:32:32:32:32:32 6dBm
  565  44.510558 32:32:32:32:32:32 8dBm
  566  44.611540 32:32:32:32:32:32 7dBm
  567  44.677578 32:32:32:32:32:32 6dBm
  568  44.703588 32:32:32:32:32:32 8dBm
  569  44.748585 32:32:32:32:32:32 8dBm
  570  44.770465 32:32:32:32:32:32 8dBm
  571  44.777934 32:32:32:32:32:32 8dBm
  572  44.900199 32:32:32:32:32:32 7dBm
  573  44.970369 32:32:32:32:32:32 6dBm
  574  45.004956 32:32:32:32:32:32 7dBm
  575  45.070509 32:32:32:32:32:32 7dBm
  576  45.126462 32:32:32:32:32:32 8dBm
  577  45.272006 32:32:32:32:32:32 7dBm
  578  45.274810 32:32:32:32:32:32 8dBm
  579  45.333185 32:32:32:32:32:32 6dBm
  580  45.505956 32:32:32:32:32:32 5dBm
  581  45.574727 32:32:32:32:32:32 8dBm
  582  45.624273 32:32:32:32:32:32 6dBm
  583  45.640679 32:32:32:32:32:32 7dBm
  584  45.662728 32:32:32:32:32:32 8dBm
  585  45.807200 32:32:32:32:32:32 7dBm
  586  45.981538 32:32:32:32:32:32 6dBm
  587  46.038914 32:32:32:32:32:32 6dBm
  588  46.058206 32:32:32:32:32:32 4dBm
  589  46.093606 32:32:32:32:32:32 8dBm
  590  46.144387 32:32:32:32:32:32 9dBm
  591  46.176631 32:32:32:32:32:32 6dBm
  592  46.180039 32:32:32:32:32:32 6dBm
  593  46.195224 32:32:32:32:32:32 8dBm
  594  46.424446 32:32:32:32:32:32 7dBm
  595  46.506930 32:32:32:32:32:32 7dBm
  596  46.599731 32:32:32:32:32:32 7dBm
  597  46.690846 32:32:32:32:32:32 6dBm
  598  47.030926 32:32:32:32:32:32 7dBm
  599  47.062594 32:32:32:32:32:32 7dBm
  600  47.104262 32:32:32:32:32:32 6dBm
  601  47.118409 32:32:32:32:32:32 7dBm
  602  47.152134 32:32:32:32:32:32 8dBm
  603  47.229673 32:32:32:32:32:32 8dBm
  604  47.282211 32:32:32:32:32:32 6dBm
  605  47.343816 32:32:32:32:32:32 10dBm
  606  47.455258 32:32:32:32:32:32 7dBm
  607  47.653777 32:32:32:32:32:32 7dBm
  608  47.709619 32:32:32:32:32:32 8dBm
  609  47.771957 32:32:32:32:32:32 7dBm
  610  47.866081 32:32:32:32:32:32 8dBm
  611  47.979851 32:32:32:32:32:32 8dBm
  612  47.999761 32:32:32:32:32:32 7dBm
  613  48.184078 32:32:32:32:32:32 8dBm
  614  48.217976 32:32:32:32:32:32 7dBm
  615  48.300777 32:32:32:32:32:32 10dBm
  616  48.336210 32:32:32:32:32:32 6dBm
  617  48.393096 32:32:32:32:32:32 10dBm
  618  48.409153 32:32:32:32:32:32 9dBm
  619  48.444603 32:32:32:32:32:32 8dBm
  620  48.563994 32:32:32:32:32:32 8dBm
  621  48.582307 32:32:32:32:32:32 6dBm
  622  48.692654 32:32:32:32:32:32 6dBm
  623  48.787711 32:32:32:32:32:32 6dBm
  624  48.917769 32:32:32:32:32:32 9dBm
  625  48.946006 32:32:32:32:32:32 6dBm
  626  49.126383 32:32:32:32:32:32 8dBm
  627  49.291130 32:32:32:32:32:32 7dBm
  628  49.475051 32:32:32:32:32:32 6dBm
  629  49.585566 32:32:32:32:32:32 6dBm
  630  49.608573 32:32:32:32:32:32 6dBm
  631  49.841361 32:32:32:32:32:32 7dBm
  632  49.913631 32:32:32:32:32:32 7dBm
  633  49.924223 32:32:32:32:32:32 6dBm
  634  49.969434 32:32:32:32:32:32 8dBm
  635  50.044060 32:32:32:32:32:32 7dBm
  636  50.097253 32:32:32:32:32:32 10dBm
  637  50.109526 32:32:32:32:32:32 9dBm
  638  50.185901 32:32:32:32:32:32 7dBm
  639  50.253963 32:32:32:32:32:32 7dBm
  640  50.281046 32:32:32:32:32:32 8dBm
  641  50.323370 32:32:32:32:32:32 7dBm
  642  50.337492 32:32:32:32:32:32 7dBm
  643  50.476805 32:32:32:32:32:32 7dBm
  644  50.530491 32:32:32:32:32:32 6dBm
  645  50.596413 32:32:32:32:32:32 7dBm
  646  50.627192 32:32:32:32:32:32 8dBm
  647  50.641852 32:32:32:32:32:32 9dBm
  648  50.655710 32:32:32:32:32:32 7dBm
  649  50.919015 32:32:32:32:32:32 7dBm
  650  51.023276 32:32:32:32:32:32 7dBm
  651  51.082451 32:32:32:32:32:32 6dBm
  652  51.102052 32:32:32:32:32:32 7dBm
  653  51.150884 32:32:32:32:32:32 6dBm
  654  51.184268 32:32:32:32:32:32 7dBm
  655  51.234200 32:32:32:32:32:32 8dBm
  656  51.260904 32:32:32:32:32:32 8dBm
  657  51.344569 32:32:32:32:32:32 7dBm
  658  51.366476 32:32:32:32:32:32 7dBm
  659  51.388560 32:32:32:32:32:32 7dBm
  660  51.473515 32:32:32:32:32:32 4dBm
  661  51.500924 32:32:32:32:32:32 7dBm
  662  51.594631 32:32:32:32:32:32 7dBm
  663  51.614393 32:32:32:32:32:32 7dBm
  664  51.643167 32:32:32:32:32:32 6dBm
  665  51.677593 32:32:32:32:32:32 7dBm
  666  51.768270 32:32:32:32:32:32 7dBm
  667  51.873521 32:32:32:32:32:32 8dBm
  668  51.992506 32:32:32:32:32:32 8dBm
  669  52.199047 32:32:32:32:32:32 9dBm
  670  52.323180 32:32:32:32:32:32 7dBm
  671  52.355354 32:32:32:32:32:32 7dBm
  672  52.393038 32:32:32:32:32:32 7dBm
  673  52.434408 32:32:32:32:32:32 7dBm
  674  52.459483 32:32:32:32:32:32 6dBm
  675  52.504031 32:32:32:32:32:32 9dBm
  676  52.560182 32:32:32:32:32:32 4dBm
  677  52.589467 32:32:32:32:32:32 9dBm
  678  52.608886 32:32:32:32:32:32 6dBm
  679  52.670108 32:32:32:32:32:32 6dBm
  680  52.703067 32:32:32:32:32:32 7dBm
  681  52.714802 32:32:32:32:32:32 8dBm
  682  52.762076 32:32:32:32:32:32 7dBm
  683  52.784806 32:32:32:32:32:32 8dBm
  684  52.837062 32:32:32:32:32:32 8dBm
  685  52.849884 32:32:32:32:32:32 8dBm
  686  52.984542 32:32:32:32:32:32 6dBm
  687  53.054378 32:32:32:32:32:32 5dBm
  688  53.272592 32:32:32:32:32:32 7dBm
  689  53.318724 32:32:32:32:32:32 10dBm
  690  53.482867 32:32:32:32:32:32 10dBm
  691  53.537686 32:32:32:32:32:32 9dBm
  692  53.636813 32:32:32:32:32:32 7dBm
  693  53.690628 32:32:32:32:32:32 8dBm
  694  53.772702 32:32:32:32:32:32 7dBm
  695  53.833826 32:32:32:32:32:32 8dBm
  696  53.873952 32:32:32:32:32:32 5dBm
  697  53.899615 32:32:32:32:32:32 8dBm
  698  53.931761 32:32:32:32:32:32 9dBm
  699  53.982794 32:32:32:32:32:32 7dBm
  700  54.007030 32:32:32:32:32:32 7dBm
  701  54.031143 32:32:32:32:32:32 8dBm
  702  54.059410 32:32:32:32:32:32 9dBm
  703  54.140632 32:32:32:32:32:32 7dBm
  704  54.177557 32:32:32:32:32:32 8dBm
  705  54.272389 32:32:32:32:32:32 6dBm
  706  54.403154 32:32:32:32:32:32 9dBm
  707  54.411935 32:32:32:32:32:32 9dBm
  708  54.471226 32:32:32:32:32:32 7dBm
  709  54.501030 32:32:32:32:32:32 8dBm
  710  54.568671 32:32:32:32:32:32 7dBm
  711  54.597340 32:32:32:32:32:32 7dBm
  712  54.689473 32:32:32:32:32:32 7dBm
  713  54.705859 32:32:32:32:32:32 8dBm
  714  54.742385 32:32:32:32:32:32 8dBm
  715  54.759447 32:32:32:32:32:32 8dBm
  716  54.777317 32:32:32:32:32:32 6dBm
  717  54.800717 32:32:32:32:32:32 8dBm
  718  54.839695 32:32:32:32:32:32 8dBm
  719  54.854624 32:32:32:32:32:32 7dBm
  720  54.891121 32:32:32:32:32:32 7dBm
  721  54.907038 32:32:32:32:32:32 8dBm
  722  55.009128 32:32:32:32:32:32 8dBm
  723  55.031914 32:32:32:32:32:32 8dBm
  724  55.151753 32:32:32:32:32:32 7dBm
  725  55.224991 32:32:32:32:32:32 8dBm
  726  55.295595 32:32:32:32:32:32 8dBm
  727  55.299327 32:32:32:32:32:32 8dBm
  728  55.319590 32:32:32:32:32:32 8dBm
  729  55.336262 32:32:32:32:32:32 8dBm
  730  55.418284 32:32:32:32:32:32 8dBm
  731  55.509525 32:32:32:32:32:32 7dBm
  732  55.636320 32:32:32:32:32:32 7dBm
  733  55.869624 32:32:32:32:32:32 9dBm
  734  55.963086 32:32:32:32:32:32 7dBm
  735  55.974696 32:32:32:32:32:32 6dBm
  736  55.983118 32:32:32:32:32:32 7dBm
  737  55.996004 32:32:32:32:32:32 6dBm
  738  56.022607 32:32:32:32:32:32 8dBm
  739  56.061842 32:32:32:32:32:32 6dBm
  740  56.130233 32:32:32:32:32:32 7dBm
  741  56.151950 32:32:32:32:32:32 7dBm
  742  56.220312 32:32:32:32:32:32 6dBm
  743  56.318668 32:32:32:32:32:32 8dBm
  744  56.341411 32:32:32:32:32:32 7dBm
  745  56.378868 32:32:32:32:32:32 7dBm
  746  56.429078 32:32:32:32:32:32 5dBm
  747  56.546382 32:32:32:32:32:32 8dBm
  748  56.650397 32:32:32:32:32:32 5dBm
  749  56.725897 32:32:32:32:32:32 5dBm
  750  56.755263 32:32:32:32:32:32 7dBm
  751  56.790657 32:32:32:32:32:32 8dBm
  752  56.916582 32:32:32:32:32:32 6dBm
  753  56.983414 32:32:32:32:32:32 5dBm
  754  57.009042 32:32:32:32:32:32 5dBm
  755  57.095319 32:32:32:32:32:32 6dBm
  756  57.173578 32:32:32:32:32:32 9dBm
  757  57.205037 32:32:32:32:32:32 7dBm
  758  57.557036 32:32:32:32:32:32 10dBm
  759  57.572286 32:32:32:32:32:32 8dBm
  760  57.647282 32:32:32:32:32:32 6dBm
  761  57.690734 32:32:32:32:32:32 5dBm
  762  57.746707 32:32:32:32:32:32 8dBm
  763  57.843501 32:32:32:32:32:32 5dBm
  764  57.986648 32:32:32:32:32:32 7dBm
  765  58.003212 32:32:32:32:32:32 9dBm
  766  58.029045 32:32:32:32:32:32 8dBm
  767  58.130514 32:32:32:32:32:32 7dBm
  768  58.151400 32:32:32:32:32:32 6dBm
  769  58.341725 32:32:32:32:32:32 8dBm
  770  58.370550 32:32:32:32:32:32 9dBm
  771  58.422243 32:32:32:32:32:32 7dBm
  772  58.442379 32:32:32:32:32:32 6dBm
  773  58.474393 32:32:32:32:32:32 8dBm
  774  58.692763 32:32:32:32:32:32 7dBm
  775  58.785038 32:32:32:32:32:32 6dBm
  776  58.905134 32:32:32:32:32:32 7dBm
  777  58.949102 32:32:32:32:32:32 9dBm
  778  59.012408 32:32:32:32:32:32 8dBm
  779  59.162678 32:32:32:32:32:32 9dBm
  780  59.341154 32:32:32:32:32:32 6dBm
  781  59.403516 32:32:32:32:32:32 8dBm
  782  59.585022 32:32:32:32:32:32 7dBm
  783  59.653634 32:32:32:32:32:32 7dBm
  784  59.654759 32:32:32:32:32:32 8dBm
  785  59.666880 32:32:32:32:32:32 8dBm
  786  59.695171 32:32:32:32:32:32 8dBm
  787  59.712697 32:32:32:32:32:32 8dBm
  788  59.809263 32:32:32:32:32:32 7dBm
  789  59.882560 32:32:32:32:32:32 5dBm
  790  60.108472 32:32:32:32:32:32 6dBm
  791  60.444997 32:32:32:32:32:32 7dBm
  792  60.475636 32:32:32:32:32:32 8dBm
  793  60.502459 32:32:32:32:32:32 8dBm
  794  60.597001 32:32:32:32:32:32 6dBm
  795  60.641330 32:32:32:32:32:32 8dBm
  796  60.678442 32:32:32:32:32:32 6dBm
  797  60.702880 32:32:32:32:32:32 9dBm
  798  60.716658 32:32:32:32:32:32 6dBm
  799  60.750166 32:32:32:32:32:32 8dBm
  800  60.794369 32:32:32:32:32:32 7dBm
  801  60.843368 32:32:32:32:32:32 8dBm
  802  60.863162 32:32:32:32:32:32 7dBm
  803  61.008577 32:32:32:32:32:32 9dBm
  804  61.038460 32:32:32:32:32:32 8dBm
  805  61.139065 32:32:32:32:32:32 6dBm
  806  61.162697 32:32:32:32:32:32 5dBm
  807  61.211917 32:32:32:32:32:32 8dBm
  808  61.334240 32:32:32:32:32:32 7dBm
  809  61.435901 32:32:32:32:32:32 4dBm
  810  61.490825 32:32:32:32:32:32 7dBm
  811  61.589592 32:32:32:32:32:32 7dBm
  812  61.648144 32:32:32:32:32:32 7dBm
  813  61.716870 32:32:32:32:32:32 8dBm
  814  61.918535 32:32:32:32:32:32 7dBm
  815  61.940281 32:32:32:32:32:32 8dBm
  816  62.045495 32:32:32:32:32:32 9dBm
  817  62.137844 32:32:32:32:32:32 7dBm
  818  62.167872 32:32:32:32:32:32 8dBm
  819  62.188742 32:32:32:32:32:32 8dBm
  820  62.201899 32:32:32:32:32:32 8dBm
  821  62.238967 32:32:32:32:32:32 5dBm
  822  62.258132 32:32:32:32:32:32 5dBm
  823  62.324246 32:32:32:32:32:32 7dBm
  824  62.341467 32:32:32:32:32:32 7dBm
  825  62.377369 32:32:32:32:32:32 7dBm
  826  62.381491 32:32:32:32:32:32 8dBm
  827  62.396573 32:32:32:32:32:32 8dBm
  828  62.412781 32:32:32:32:32:32 8dBm
  829  62.550423 32:32:32:32:32:32 9dBm
  830  62.616274 32:32:32:32:32:32 8dBm
  831  62.667180 32:32:32:32:32:32 8dBm
  832  62.719144 32:32:32:32:32:32 8dBm
  833  62.771315 32:32:32:32:32:32 9dBm
  834  62.793226 32:32:32:32:32:32 7dBm
  835  62.829411 32:32:32:32:32:32 7dBm
  836  62.852206 32:32:32:32:32:32 5dBm
  837  62.858074 32:32:32:32:32:32 6dBm
  838  62.875823 32:32:32:32:32:32 9dBm
  839  62.938844 32:32:32:32:32:32 9dBm
  840  63.013941 32:32:32:32:32:32 9dBm
  841  63.044480 32:32:32:32:32:32 8dBm
  842  63.284003 32:32:32:32:32:32 9dBm
  843  63.299629 32:32:32:32:32:32 8dBm
  844  63.354940 32:32:32:32:32:32 7dBm
  845  63.437054 32:32:32:32:32:32 8dBm
  846  63.460908 32:32:32:32:32:32 8dBm
  847  63.510998 32:32:32:32:32:32 8dBm
  848  63.589755 32:32:32:32:32:32 6dBm
  849  63.628794 32:32:32:32:32:32 8dBm
  850  63.865665 32:32:32:32:32:32 7dBm
  851  63.924301 32:32:32:32:32:32 7dBm
  852  63.948588 32:32:32:32:32:32 8dBm
  853  63.971529 32:32:32:32:32:32 7dBm
  854  64.031902 32:32:32:32:32:32 5dBm
  855  64.098467 32:32:32:32:32:32 7dBm
  856  64.258099 32:32:32:32:32:32 8dBm
  857  64.580973 32:32:32:32:32:32 7dBm
  858  64.614279 32:32:32:32:32:32 6dBm
  859  64.710993 32:32:32:32:32:32 6dBm
  860  64.731163 32:32:32:32:32:32 6dBm
  861  64.774230 32:32:32:32:32:32 8dBm
  862  64.794923 32:32:32:32:32:32 7dBm
  863  65.082649 32:32:32:32:32:32 8dBm
  864  65.291020 32:32:32:32:32:32 7dBm
  865  65.381902 32:32:32:32:32:32 6dBm
  866  65.508176 32:32:32:32:32:32 5dBm
  867  65.531533 32:32:32:32:32:32 5dBm
  868  65.612109 32:32:32:32:32:32 7dBm
  869  65.631970 32:32:32:32:32:32 7dBm
  870  65.651492 32:32:32:32:32:32 8dBm
  871  65.681387 32:32:32:32:32:32 6dBm
  872  65.692546 32:32:32:32:32:32 7dBm
  873  65.848954 32:32:32:32:32:32 6dBm
  874  65.914167 32:32:32:32:32:32 6dBm
  875  65.984950 32:32:32:32:32:32 5dBm
  876  66.000747 32:32:32:32:32:32 7dBm
  877  66.102912 32:32:32:32:32:32 4dBm
  878  66.155650 32:32:32:32:32:32 8dBm
  879  66.173204 32:32:32:32:32:32 7dBm
  880  66.185581 32:32:32:32:32:32 6dBm
  881  66.266674 32:32:32:32:32:32 5dBm
  882  66.294769 32:32:32:32:32:32 6dBm
  883  66.318633 32:32:32:32:32:32 6dBm
  884  66.334439 32:32:32:32:32:32 6dBm
  885  66.510459 32:32:32:32:32:32 7dBm
  886  66.721388 32:32:32:32:32:32 7dBm
  887  66.754128 32:32:32:32:32:32 7dBm
  888  66.809792 32:32:32:32:32:32 7dBm
  889  66.839736 32:32:32:32:32:32 7dBm
  890  66.862230 32:32:32:32:32:32 7dBm
  891  66.896787 32:32:32:32:32:32 9dBm
  892  67.043754 32:32:32:32:32:32 8dBm
  893  67.085825 32:32:32:32:32:32 8dBm
  894  67.157576 32:32:32:32:32:32 8dBm
  895  67.185266 32:32:32:32:32:32 10dBm
  896  67.291680 32:32:32:32:32:32 7dBm
  897  67.326857 32:32:32:32:32:32 7dBm
  898  67.393923 32:32:32:32:32:32 6dBm
  899  67.412974 32:32:32:32:32:32 8dBm
  900  67.454363 32:32:32:32:32:32 7dBm
  901  67.499132 32:32:32:32:32:32 6dBm
  902  67.650290 32:32:32:32:32:32 4dBm
  903  67.725345 32:32:32:32:32:32 7dBm
  904  67.828051 32:32:32:32:32:32 6dBm
  905  67.863868 32:32:32:32:32:32 7dBm
  906  68.027537 32:32:32:32:32:32 7dBm
  907  68.073353 32:32:32:32:32:32 7dBm
  908  68.091197 32:32:32:32:32:32 6dBm
  909  68.108221 32:32:32:32:32:32 7dBm
  910  68.171103 32:32:32:32:32:32 6dBm
  911  68.185768 32:32:32:32:32:32 7dBm
  912  68.222886 32:32:32:32:32:32 7dBm
  913  68.457135 32:32:32:32:32:32 5dBm
  914  68.525247 32:32:32:32:32:32 7dBm
  915  68.644488 32:32:32:32:32:32 5dBm
  916  68.662757 32:32:32:32:32:32 6dBm
  917  68.707624 32:32:32:32:32:32 6dBm
  918  68.723560 32:32:32:32:32:32 8dBm
  919  68.759806 32:32:32:32:32:32 6dBm
  920  68.837577 32:32:32:32:32:32 8dBm
  921  68.874366 32:32:32:32:32:32 7dBm
  922  68.957613 32:32:32:32:32:32 5dBm
  923  68.991753 32:32:32:32:32:32 8dBm
  924  69.055141 32:32:32:32:32:32 6dBm
  925  69.133647 32:32:32:32:32:32 6dBm
  926  69.199521 32:32:32:32:32:32 6dBm
  927  69.267695 32:32:32:32:32:32 6dBm
  928  69.300364 32:32:32:32:32:32 7dBm
  929  69.351553 32:32:32:32:32:32 7dBm
  930  69.438616 32:32:32:32:32:32 8dBm
  931  69.466084 32:32:32:32:32:32 8dBm
  932  69.597403 32:32:32:32:32:32 7dBm
  933  69.623786 32:32:32:32:32:32 7dBm
  934  69.653238 32:32:32:32:32:32 8dBm
  935  69.676779 32:32:32:32:32:32 8dBm
  936  69.730600 32:32:32:32:32:32 8dBm
  937  69.783589 32:32:32:32:32:32 8dBm
  938  69.802493 32:32:32:32:32:32 8dBm
  939  69.956994 32:32:32:32:32:32 9dBm
  940  70.019613 32:32:32:32:32:32 7dBm
  941  70.093958 32:32:32:32:32:32 9dBm
  942  70.126192 32:32:32:32:32:32 7dBm
  943  70.214573 32:32:32:32:32:32 4dBm
  944  70.356801 32:32:32:32:32:32 7dBm
  945  70.514224 32:32:32:32:32:32 8dBm
  946  70.817396 32:32:32:32:32:32 7dBm
  947  70.916197 32:32:32:32:32:32 7dBm
  948  70.933481 32:32:32:32:32:32 7dBm
  949  70.983319 32:32:32:32:32:32 8dBm
  950  71.070925 32:32:32:32:32:32 7dBm
  951  71.172857 32:32:32:32:32:32 7dBm
  952  71.239614 32:32:32:32:32:32 7dBm
  953  71.269206 32:32:32:32:32:32 7dBm
  954  71.362452 32:32:32:32:32:32 7dBm
  955  71.463818 32:32:32:32:32:32 5dBm
  956  71.495640 32:32:32:32:32:32 7dBm
  957  71.618703 32:32:32:32:32:32 10dBm
  958  71.653646 32:32:32:32:32:32 8dBm
  959  71.723695 32:32:32:32:32:32 8dBm
  960  71.768114 32:32:32:32:32:32 8dBm
  961  71.785873 32:32:32:32:32:32 7dBm
  962  71.868447 32:32:32:32:32:32 8dBm
  963  71.930966 32:32:32:32:32:32 8dBm
  964  71.960535 32:32:32:32:32:32 5dBm
  965  72.001410 32:32:32:32:32:32 7dBm
  966  72.062504 32:32:32:32:32:32 7dBm
  967  72.167485 32:32:32:32:32:32 8dBm
  968  72.200099 32:32:32:32:32:32 7dBm
  969  72.283761 32:32:32:32:32:32 9dBm
  970  72.333400 32:32:32:32:32:32 8dBm
  971  72.380155 32:32:32:32:32:32 5dBm
  972  72.398725 32:32:32:32:32:32 7dBm
  973  72.423194 32:32:32:32:32:32 6dBm
  974  72.464684 32:32:32:32:32:32 6dBm
  975  72.520096 32:32:32:32:32:32 8dBm
  976  72.603453 32:32:32:32:32:32 8dBm
  977  72.672215 32:32:32:32:32:32 7dBm
  978  73.104849 32:32:32:32:32:32 1dBm
  979  73.156589 32:32:32:32:32:32 7dBm
  980  73.225702 32:32:32:32:32:32 7dBm
  981  73.358733 32:32:32:32:32:32 8dBm
  982  73.441660 32:32:32:32:32:32 5dBm
  983  73.507809 32:32:32:32:32:32 7dBm
  984  73.544091 32:32:32:32:32:32 6dBm
  985  73.563007 32:32:32:32:32:32 7dBm
  986  73.600424 32:32:32:32:32:32 7dBm
  987  73.699916 32:32:32:32:32:32 8dBm
  988  73.744748 32:32:32:32:32:32 8dBm
  989  73.773792 32:32:32:32:32:32 8dBm
  990  73.797444 32:32:32:32:32:32 9dBm
  991  73.815259 32:32:32:32:32:32 8dBm
  992  73.916449 32:32:32:32:32:32 7dBm
  993  73.932778 32:32:32:32:32:32 7dBm
  994  73.979755 32:32:32:32:32:32 9dBm
  995  74.244632 32:32:32:32:32:32 7dBm
  996  74.401896 32:32:32:32:32:32 7dBm
  997  74.483973 32:32:32:32:32:32 9dBm
  998  74.721494 32:32:32:32:32:32 7dBm
  999  74.757649 32:32:32:32:32:32 7dBm
 1000  74.841687 32:32:32:32:32:32 8dBm
 1001  74.859098 32:32:32:32:32:32 9dBm
 1002  74.953300 32:32:32:32:32:32 8dBm
 1003  75.034857 32:32:32:32:32:32 8dBm
 1004  75.076096 32:32:32:32:32:32 7dBm
 1005  75.119296 32:32:32:32:32:32 8dBm
 1006  75.206350 32:32:32:32:32:32 6dBm
 1007  75.263903 32:32:32:32:32:32 8dBm
 1008  75.281584 32:32:32:32:32:32 7dBm
 1009  75.301220 32:32:32:32:32:32 9dBm
 1010  75.541849 32:32:32:32:32:32 8dBm
 1011  75.569034 32:32:32:32:32:32 8dBm
 1012  75.618992 32:32:32:32:32:32 7dBm
 1013  75.643437 32:32:32:32:32:32 9dBm
 1014  75.669791 32:32:32:32:32:32 8dBm
 1015  75.723660 32:32:32:32:32:32 7dBm
 1016  75.802091 32:32:32:32:32:32 9dBm
 1017  75.836158 32:32:32:32:32:32 9dBm
 1018  76.188177 32:32:32:32:32:32 9dBm
 1019  76.221220 32:32:32:32:32:32 9dBm
 1020  76.238120 32:32:32:32:32:32 9dBm
 1021  76.298723 32:32:32:32:32:32 8dBm
 1022  76.321140 32:32:32:32:32:32 8dBm
 1023  76.340214 32:32:32:32:32:32 8dBm
 1024  76.359087 32:32:32:32:32:32 7dBm
 1025  76.456975 32:32:32:32:32:32 8dBm
 1026  76.531486 32:32:32:32:32:32 8dBm
 1027  76.552989 32:32:32:32:32:32 8dBm
 1028  76.574659 32:32:32:32:32:32 9dBm
 1029  76.694794 32:32:32:32:32:32 6dBm
 1030  76.716580 32:32:32:32:32:32 7dBm
 1031  76.895255 32:32:32:32:32:32 7dBm
 1032  76.906756 32:32:32:32:32:32 9dBm
 1033  76.923104 32:32:32:32:32:32 9dBm
 1034  77.036593 32:32:32:32:32:32 8dBm
 1035  77.095557 32:32:32:32:32:32 8dBm
 1036  77.185792 32:32:32:32:32:32 5dBm
 1037  77.205847 32:32:32:32:32:32 7dBm
 1038  77.246654 32:32:32:32:32:32 7dBm
 1039  77.351864 32:32:32:32:32:32 7dBm
 1040  77.407068 32:32:32:32:32:32 9dBm
 1041  77.430413 32:32:32:32:32:32 9dBm
 1042  77.471800 32:32:32:32:32:32 7dBm
 1043  77.546620 32:32:32:32:32:32 6dBm
 1044  77.609484 32:32:32:32:32:32 9dBm
 1045  77.694816 32:32:32:32:32:32 9dBm
 1046  77.718201 32:32:32:32:32:32 9dBm
 1047  77.733657 32:32:32:32:32:32 11dBm
 1048  77.750374 32:32:32:32:32:32 8dBm
 1049  77.770610 32:32:32:32:32:32 5dBm
 1050  78.018600 32:32:32:32:32:32 9dBm
 1051  78.080720 32:32:32:32:32:32 9dBm
 1052  78.093939 32:32:32:32:32:32 7dBm
 1053  78.309924 32:32:32:32:32:32 7dBm
 1054  78.360198 32:32:32:32:32:32 8dBm
 1055  78.387799 32:32:32:32:32:32 7dBm
 1056  78.421609 32:32:32:32:32:32 7dBm
 1057  78.517284 32:32:32:32:32:32 8dBm
 1058  78.598610 32:32:32:32:32:32 6dBm
 1059  78.617565 32:32:32:32:32:32 7dBm
 1060  78.687462 32:32:32:32:32:32 8dBm
 1061  78.745300 32:32:32:32:32:32 8dBm
 1062  78.818722 32:32:32:32:32:32 9dBm
 1063  78.913528 32:32:32:32:32:32 7dBm
 1064  79.061580 32:32:32:32:32:32 7dBm
 1065  79.251502 32:32:32:32:32:32 7dBm
 1066  79.302003 32:32:32:32:32:32 7dBm
 1067  79.327388 32:32:32:32:32:32 9dBm
 1068  79.415216 32:32:32:32:32:32 6dBm
 1069  79.494987 32:32:32:32:32:32 6dBm
 1070  79.536803 32:32:32:32:32:32 7dBm
 1071  79.629235 32:32:32:32:32:32 7dBm
 1072  79.648834 32:32:32:32:32:32 7dBm
 1073  79.845330 32:32:32:32:32:32 9dBm
 1074  79.922850 32:32:32:32:32:32 7dBm
 1075  79.960277 32:32:32:32:32:32 7dBm
 1076  80.148435 32:32:32:32:32:32 8dBm
 1077  80.178229 32:32:32:32:32:32 9dBm
 1078  80.198749 32:32:32:32:32:32 7dBm
 1079  80.255800 32:32:32:32:32:32 7dBm
 1080  80.399204 32:32:32:32:32:32 7dBm
 1081  80.430649 32:32:32:32:32:32 7dBm
 1082  80.495725 32:32:32:32:32:32 7dBm
 1083  80.644047 32:32:32:32:32:32 9dBm
 1084  80.665209 32:32:32:32:32:32 8dBm
 1085  80.727334 32:32:32:32:32:32 8dBm
 1086  80.743960 32:32:32:32:32:32 3dBm
 1087  80.760505 32:32:32:32:32:32 7dBm
 1088  80.782965 32:32:32:32:32:32 9dBm
 1089  80.852646 32:32:32:32:32:32 8dBm
 1090  80.880256 32:32:32:32:32:32 9dBm
 1091  80.939139 32:32:32:32:32:32 9dBm
 1092  81.080198 32:32:32:32:32:32 7dBm
 1093  81.128348 32:32:32:32:32:32 8dBm
 1094  81.152378 32:32:32:32:32:32 6dBm
 1095  81.310673 32:32:32:32:32:32 8dBm
 1096  81.350128 32:32:32:32:32:32 6dBm
 1097  81.358331 32:32:32:32:32:32 6dBm
 1098  81.396232 32:32:32:32:32:32 7dBm
 1099  81.439509 32:32:32:32:32:32 8dBm
 1100  81.496941 32:32:32:32:32:32 8dBm
 1101  81.526438 32:32:32:32:32:32 6dBm
 1102  81.595352 32:32:32:32:32:32 8dBm
 1103  81.626277 32:32:32:32:32:32 7dBm
 1104  81.706587 32:32:32:32:32:32 6dBm
 1105  81.816404 32:32:32:32:32:32 9dBm
 1106  81.862683 32:32:32:32:32:32 9dBm
 1107  81.944210 32:32:32:32:32:32 8dBm
 1108  81.991096 32:32:32:32:32:32 7dBm
 1109  82.018281 32:32:32:32:32:32 7dBm
 1110  82.131954 32:32:32:32:32:32 8dBm
 1111  82.225446 32:32:32:32:32:32 7dBm
 1112  82.258129 32:32:32:32:32:32 6dBm
 1113  82.442899 32:32:32:32:32:32 7dBm
 1114  82.463198 32:32:32:32:32:32 9dBm
 1115  82.503045 32:32:32:32:32:32 7dBm
 1116  82.522350 32:32:32:32:32:32 7dBm
 1117  82.544374 32:32:32:32:32:32 5dBm
 1118  82.622293 32:32:32:32:32:32 9dBm
 1119  82.643622 32:32:32:32:32:32 9dBm
 1120  82.669323 32:32:32:32:32:32 9dBm
 1121  82.714947 32:32:32:32:32:32 9dBm
 1122  82.736445 32:32:32:32:32:32 6dBm
 1123  82.818164 32:32:32:32:32:32 7dBm
 1124  82.872898 32:32:32:32:32:32 7dBm
 1125  82.895856 32:32:32:32:32:32 7dBm
 1126  82.996186 32:32:32:32:32:32 5dBm
 1127  83.063725 32:32:32:32:32:32 8dBm
 1128  83.084655 32:32:32:32:32:32 8dBm
 1129  83.125959 32:32:32:32:32:32 3dBm
 1130  83.155459 32:32:32:32:32:32 8dBm
 1131  83.174020 32:32:32:32:32:32 9dBm
 1132  83.340943 32:32:32:32:32:32 7dBm
 1133  83.392292 32:32:32:32:32:32 5dBm
 1134  83.663462 32:32:32:32:32:32 9dBm
 1135  83.785336 32:32:32:32:32:32 7dBm
 1136  83.804161 32:32:32:32:32:32 8dBm
 1137  83.817756 32:32:32:32:32:32 7dBm
 1138  84.006551 32:32:32:32:32:32 7dBm
 1139  84.027046 32:32:32:32:32:32 8dBm
 1140  84.081988 32:32:32:32:32:32 8dBm
 1141  84.177678 32:32:32:32:32:32 9dBm
 1142  84.219313 32:32:32:32:32:32 8dBm
 1143  84.259154 32:32:32:32:32:32 8dBm
 1144  84.291217 32:32:32:32:32:32 7dBm
 1145  84.388778 32:32:32:32:32:32 8dBm
 1146  84.466003 32:32:32:32:32:32 4dBm
 1147  84.581679 32:32:32:32:32:32 8dBm
 1148  84.607162 32:32:32:32:32:32 9dBm
 1149  84.817543 32:32:32:32:32:32 8dBm
 1150  85.116445 32:32:32:32:32:32 7dBm
 1151  85.156867 32:32:32:32:32:32 7dBm
 1152  85.181092 32:32:32:32:32:32 9dBm
 1153  85.196457 32:32:32:32:32:32 9dBm
 1154  85.270402 32:32:32:32:32:32 10dBm
 1155  85.285597 32:32:32:32:32:32 10dBm
 1156  85.311862 32:32:32:32:32:32 5dBm
 1157  85.339447 32:32:32:32:32:32 6dBm
 1158  85.409411 32:32:32:32:32:32 6dBm
 1159  85.449019 32:32:32:32:32:32 5dBm
 1160  85.577052 32:32:32:32:32:32 4dBm
 1161  85.707282 32:32:32:32:32:32 8dBm
 1162  85.719490 32:32:32:32:32:32 7dBm
 1163  85.740900 32:32:32:32:32:32 7dBm
 1164  85.853000 32:32:32:32:32:32 6dBm
 1165  85.874841 32:32:32:32:32:32 8dBm
 1166  85.879645 32:32:32:32:32:32 7dBm
 1167  85.904970 32:32:32:32:32:32 7dBm
 1168  85.939834 32:32:32:32:32:32 6dBm
 1169  85.971992 32:32:32:32:32:32 6dBm
 1170  86.068364 32:32:32:32:32:32 6dBm
 1171  86.175386 32:32:32:32:32:32 8dBm
 1172  86.199799 32:32:32:32:32:32 9dBm
 1173  86.293773 32:32:32:32:32:32 5dBm
 1174  86.319573 32:32:32:32:32:32 8dBm
 1175  86.374631 32:32:32:32:32:32 8dBm
 1176  86.413516 32:32:32:32:32:32 9dBm
 1177  86.552171 32:32:32:32:32:32 8dBm
 1178  86.598689 32:32:32:32:32:32 7dBm
 1179  86.670457 32:32:32:32:32:32 6dBm
 1180  86.701473 32:32:32:32:32:32 7dBm
 1181  86.812226 32:32:32:32:32:32 7dBm
 1182  86.836495 32:32:32:32:32:32 7dBm
 1183  87.051250 32:32:32:32:32:32 8dBm
 1184  87.110608 32:32:32:32:32:32 8dBm
 1185  87.156337 32:32:32:32:32:32 6dBm
 1186  87.324703 32:32:32:32:32:32 6dBm
 1187  87.408826 32:32:32:32:32:32 7dBm
 1188  87.555817 32:32:32:32:32:32 7dBm
 1189  87.622273 32:32:32:32:32:32 8dBm
 1190  87.683739 32:32:32:32:32:32 9dBm
 1191  87.869642 32:32:32:32:32:32 9dBm
 1192  87.917931 32:32:32:32:32:32 8dBm
 1193  88.230180 32:32:32:32:32:32 9dBm
 1194  88.263610 32:32:32:32:32:32 8dBm
 1195  88.311771 32:32:32:32:32:32 6dBm
 1196  88.370096 32:32:32:32:32:32 8dBm
 1197  88.409127 32:32:32:32:32:32 8dBm
 1198  88.430650 32:32:32:32:32:32 7dBm
 1199  88.444944 32:32:32:32:32:32 7dBm
 1200  88.476394 32:32:32:32:32:32 6dBm
 1201  88.541858 32:32:32:32:32:32 6dBm
 1202  88.838871 32:32:32:32:32:32 7dBm
 1203  88.890620 32:32:32:32:32:32 8dBm
 1204  89.042379 32:32:32:32:32:32 6dBm
 1205  89.467005 32:32:32:32:32:32 8dBm
 1206  89.494445 32:32:32:32:32:32 7dBm
 1207  89.525018 32:32:32:32:32:32 7dBm
 1208  89.558516 32:32:32:32:32:32 6dBm
 1209  89.634856 32:32:32:32:32:32 7dBm
 1210  89.679452 32:32:32:32:32:32 7dBm
 1211  89.700127 32:32:32:32:32:32 7dBm
 1212  89.720730 32:32:32:32:32:32 5dBm
 1213  89.783565 32:32:32:32:32:32 6dBm
 1214  89.847560 32:32:32:32:32:32 7dBm
 1215  90.075800 32:32:32:32:32:32 8dBm
 1216  90.194946 32:32:32:32:32:32 7dBm
 1217  90.232168 32:32:32:32:32:32 8dBm
 1218  90.285876 32:32:32:32:32:32 9dBm
 1219  90.412917 32:32:32:32:32:32 8dBm
 1220  90.442179 32:32:32:32:32:32 8dBm
 1221  90.446657 32:32:32:32:32:32 7dBm
 1222  90.467512 32:32:32:32:32:32 8dBm
 1223  90.601997 32:32:32:32:32:32 5dBm
 1224  90.692408 32:32:32:32:32:32 7dBm
 1225  90.806836 32:32:32:32:32:32 8dBm
 1226  91.130480 32:32:32:32:32:32 8dBm
 1227  91.154604 32:32:32:32:32:32 7dBm
 1228  91.182370 32:32:32:32:32:32 7dBm
 1229  91.236834 32:32:32:32:32:32 8dBm
 1230  91.261521 32:32:32:32:32:32 8dBm
 1231  91.479507 32:32:32:32:32:32 7dBm
 1232  91.513680 32:32:32:32:32:32 7dBm
 1233  91.551262 32:32:32:32:32:32 7dBm
 1234  91.600618 32:32:32:32:32:32 5dBm
 1235  91.792914 32:32:32:32:32:32 8dBm
 1236  91.840583 32:32:32:32:32:32 8dBm
 1237  91.872383 32:32:32:32:32:32 9dBm
 1238  91.955571 32:32:32:32:32:32 8dBm
 1239  92.023653 32:32:32:32:32:32 8dBm
 1240  92.053899 32:32:32:32:32:32 8dBm
 1241  92.096885 32:32:32:32:32:32 5dBm
 1242  92.203806 32:32:32:32:32:32 7dBm
 1243  92.223067 32:32:32:32:32:32 8dBm
 1244  92.272401 32:32:32:32:32:32 9dBm
 1245  92.334890 32:32:32:32:32:32 7dBm
 1246  92.448522 32:32:32:32:32:32 6dBm
 1247  92.468111 32:32:32:32:32:32 7dBm
 1248  92.485908 32:32:32:32:32:32 7dBm
 1249  92.669116 32:32:32:32:32:32 6dBm
 1250  92.718183 32:32:32:32:32:32 7dBm
 1251  92.741387 32:32:32:32:32:32 8dBm
 1252  92.983493 32:32:32:32:32:32 8dBm
 1253  93.141879 32:32:32:32:32:32 7dBm
 1254  93.222861 32:32:32:32:32:32 9dBm
 1255  93.305802 32:32:32:32:32:32 7dBm
 1256  93.346414 32:32:32:32:32:32 7dBm
 1257  93.383750 32:32:32:32:32:32 9dBm
 1258  93.500077 32:32:32:32:32:32 9dBm
 1259  93.558711 32:32:32:32:32:32 6dBm
 1260  93.571649 32:32:32:32:32:32 9dBm
 1261  93.596236 32:32:32:32:32:32 7dBm
 1262  93.655559 32:32:32:32:32:32 9dBm
 1263  93.681885 32:32:32:32:32:32 9dBm
 1264  93.713336 32:32:32:32:32:32 9dBm
 1265  93.781254 32:32:32:32:32:32 8dBm
 1266  93.936823 32:32:32:32:32:32 7dBm
 1267  94.026553 32:32:32:32:32:32 8dBm
 1268  94.086432 32:32:32:32:32:32 7dBm
 1269  94.148485 32:32:32:32:32:32 8dBm
 1270  94.229060 32:32:32:32:32:32 8dBm
 1271  94.251407 32:32:32:32:32:32 8dBm
 1272  94.289333 32:32:32:32:32:32 7dBm
 1273  94.363310 32:32:32:32:32:32 8dBm
 1274  94.479928 32:32:32:32:32:32 8dBm
 1275  94.550843 32:32:32:32:32:32 8dBm
 1276  94.575940 32:32:32:32:32:32 8dBm
 1277  94.596801 32:32:32:32:32:32 8dBm
 1278  94.722120 32:32:32:32:32:32 9dBm
 1279  94.758724 32:32:32:32:32:32 6dBm
 1280  94.904302 32:32:32:32:32:32 7dBm
 1281  95.007400 32:32:32:32:32:32 7dBm
 1282  95.195489 32:32:32:32:32:32 8dBm
 1283  95.237753 32:32:32:32:32:32 9dBm
 1284  95.249309 32:32:32:32:32:32 8dBm
 1285  95.272352 32:32:32:32:32:32 8dBm
 1286  95.295931 32:32:32:32:32:32 7dBm
 1287  95.336832 32:32:32:32:32:32 8dBm
 1288  95.366715 32:32:32:32:32:32 9dBm
 1289  95.476580 32:32:32:32:32:32 9dBm
 1290  95.626799 32:32:32:32:32:32 5dBm
 1291  95.793089 32:32:32:32:32:32 8dBm
 1292  95.845483 32:32:32:32:32:32 6dBm
 1293  95.931961 32:32:32:32:32:32 8dBm
 1294  95.947950 32:32:32:32:32:32 7dBm
 1295  96.027730 32:32:32:32:32:32 7dBm
 1296  96.084025 32:32:32:32:32:32 8dBm
 1297  96.109545 32:32:32:32:32:32 7dBm
 1298  96.158322 32:32:32:32:32:32 8dBm
 1299  96.241227 32:32:32:32:32:32 7dBm
 1300  96.282418 32:32:32:32:32:32 7dBm
 1301  96.314758 32:32:32:32:32:32 7dBm
 1302  96.335807 32:32:32:32:32:32 6dBm
 1303  96.366100 32:32:32:32:32:32 6dBm
 1304  96.647014 32:32:32:32:32:32 8dBm
 1305  96.675341 32:32:32:32:32:32 7dBm
 1306  96.757155 32:32:32:32:32:32 9dBm
 1307  96.780144 32:32:32:32:32:32 7dBm
 1308  96.842480 32:32:32:32:32:32 8dBm
 1309  96.858888 32:32:32:32:32:32 8dBm
 1310  96.947713 32:32:32:32:32:32 8dBm
 1311  97.066244 32:32:32:32:32:32 9dBm
 1312  97.124912 32:32:32:32:32:32 7dBm
 1313  97.214693 32:32:32:32:32:32 7dBm
 1314  97.230292 32:32:32:32:32:32 7dBm
 1315  97.277852 32:32:32:32:32:32 8dBm
 1316  97.390538 32:32:32:32:32:32 5dBm
 1317  97.453243 32:32:32:32:32:32 7dBm
 1318  97.495679 32:32:32:32:32:32 7dBm
 1319  97.616291 32:32:32:32:32:32 7dBm
 1320  97.649229 32:32:32:32:32:32 8dBm
 1321  97.782366 32:32:32:32:32:32 7dBm
 1322  97.800695 32:32:32:32:32:32 7dBm
 1323  97.920327 32:32:32:32:32:32 8dBm
 1324  97.941839 32:32:32:32:32:32 8dBm
 1325  98.018781 32:32:32:32:32:32 6dBm
 1326  98.112221 32:32:32:32:32:32 7dBm
 1327  98.140061 32:32:32:32:32:32 7dBm
 1328  98.213413 32:32:32:32:32:32 7dBm
 1329  98.278629 32:32:32:32:32:32 8dBm
 1330  98.309441 32:32:32:32:32:32 7dBm
 1331  98.403550 32:32:32:32:32:32 7dBm
 1332  98.430512 32:32:32:32:32:32 7dBm
 1333  98.569299 32:32:32:32:32:32 8dBm
 1334  98.634047 32:32:32:32:32:32 9dBm
 1335  98.661922 32:32:32:32:32:32 8dBm
 1336  98.702395 32:32:32:32:32:32 7dBm
 1337  98.725707 32:32:32:32:32:32 4dBm
 1338  98.764296 32:32:32:32:32:32 7dBm
 1339  98.953249 32:32:32:32:32:32 9dBm
 1340  99.017462 32:32:32:32:32:32 7dBm
 1341  99.078090 32:32:32:32:32:32 6dBm
 1342  99.097313 32:32:32:32:32:32 9dBm
 1343  99.145407 32:32:32:32:32:32 5dBm
 1344  99.172924 32:32:32:32:32:32 7dBm
 1345  99.210985 32:32:32:32:32:32 6dBm
 1346  99.296797 32:32:32:32:32:32 8dBm
 1347  99.355857 32:32:32:32:32:32 8dBm
 1348  99.360851 32:32:32:32:32:32 9dBm
 1349  99.418003 32:32:32:32:32:32 9dBm
 1350  99.505327 32:32:32:32:32:32 7dBm
 1351  99.521091 32:32:32:32:32:32 7dBm
 1352  99.540170 32:32:32:32:32:32 8dBm
 1353  99.567712 32:32:32:32:32:32 9dBm
 1354  99.636637 32:32:32:32:32:32 8dBm
 1355  99.802819 32:32:32:32:32:32 8dBm
 1356  99.833811 32:32:32:32:32:32 8dBm
 1357  99.890109 32:32:32:32:32:32 8dBm
 1358  99.914872 32:32:32:32:32:32 8dBm
 1359  99.947182 32:32:32:32:32:32 7dBm
 1360  99.999957 32:32:32:32:32:32 7dBm
 1361 100.115325 32:32:32:32:32:32 6dBm
 1362 100.140219 32:32:32:32:32:32 8dBm
 1363 100.165182 32:32:32:32:32:32 6dBm
 1364 100.381899 32:32:32:32:32:32 9dBm
 1365 100.419006 32:32:32:32:32:32 6dBm
 1366 100.728806 32:32:32:32:32:32 7dBm
 1367 100.735163 32:32:32:32:32:32 9dBm
 1368 100.811226 32:32:32:32:32:32 5dBm
 1369 100.920059 32:32:32:32:32:32 8dBm
 1370 100.957035 32:32:32:32:32:32 8dBm
 1371 101.013772 32:32:32:32:32:32 7dBm
 1372 101.056248 32:32:32:32:32:32 8dBm
 1373 101.124386 32:32:32:32:32:32 8dBm
 1374 101.230966 32:32:32:32:32:32 8dBm
 1375 101.259408 32:32:32:32:32:32 7dBm
 1376 101.273928 32:32:32:32:32:32 6dBm
 1377 101.331419 32:32:32:32:32:32 8dBm
 1378 101.421406 32:32:32:32:32:32 4dBm
 1379 101.490217 32:32:32:32:32:32 7dBm
 1380 101.512777 32:32:32:32:32:32 8dBm
 1381 101.601408 32:32:32:32:32:32 7dBm
 1382 101.706531 32:32:32:32:32:32 8dBm
 1383 101.761551 32:32:32:32:32:32 7dBm
 1384 101.783777 32:32:32:32:32:32 6dBm
 1385 101.856114 32:32:32:32:32:32 8dBm
 1386 101.874094 32:32:32:32:32:32 9dBm
 1387 101.908902 32:32:32:32:32:32 8dBm
 1388 102.075915 32:32:32:32:32:32 7dBm
 1389 102.140702 32:32:32:32:32:32 7dBm
 1390 102.306686 32:32:32:32:32:32 7dBm
 1391 102.350702 32:32:32:32:32:32 8dBm
 1392 102.390475 32:32:32:32:32:32 7dBm
 1393 102.488246 32:32:32:32:32:32 5dBm
 1394 102.562443 32:32:32:32:32:32 8dBm
 1395 102.600439 32:32:32:32:32:32 8dBm
 1396 102.677982 32:32:32:32:32:32 8dBm
 1397 102.744350 32:32:32:32:32:32 6dBm
 1398 102.829224 32:32:32:32:32:32 6dBm
 1399 102.894276 32:32:32:32:32:32 7dBm
 1400 102.936373 32:32:32:32:32:32 8dBm
 1401 102.959608 32:32:32:32:32:32 8dBm
 1402 103.089956 32:32:32:32:32:32 9dBm
 1403 103.125660 32:32:32:32:32:32 9dBm
 1404 103.212222 32:32:32:32:32:32 8dBm
 1405 103.229208 32:32:32:32:32:32 8dBm
 1406 103.334515 32:32:32:32:32:32 5dBm
 1407 103.444431 32:32:32:32:32:32 10dBm
 1408 103.544832 32:32:32:32:32:32 8dBm
 1409 103.650160 32:32:32:32:32:32 8dBm
 1410 103.655416 32:32:32:32:32:32 7dBm
 1411 103.679954 32:32:32:32:32:32 8dBm
 1412 103.761780 32:32:32:32:32:32 6dBm
 1413 103.817845 32:32:32:32:32:32 10dBm
 1414 103.877226 32:32:32:32:32:32 9dBm
 1415 103.907601 32:32:32:32:32:32 6dBm
 1416 103.949276 32:32:32:32:32:32 8dBm
 1417 103.988249 32:32:32:32:32:32 8dBm
 1418 104.136193 32:32:32:32:32:32 7dBm
 1419 104.344955 32:32:32:32:32:32 7dBm
 1420 104.446586 32:32:32:32:32:32 6dBm
 1421 104.490152 32:32:32:32:32:32 8dBm
 1422 104.589665 32:32:32:32:32:32 7dBm
 1423 104.606458 32:32:32:32:32:32 8dBm
 1424 104.608018 32:32:32:32:32:32 8dBm
 1425 104.631862 32:32:32:32:32:32 8dBm
 1426 104.690391 32:32:32:32:32:32 9dBm
 1427 104.704679 32:32:32:32:32:32 7dBm
 1428 104.725671 32:32:32:32:32:32 8dBm
 1429 104.748903 32:32:32:32:32:32 8dBm
 1430 104.769415 32:32:32:32:32:32 6dBm
 1431 104.786964 32:32:32:32:32:32 7dBm
 1432 105.039627 32:32:32:32:32:32 7dBm
 1433 105.134790 32:32:32:32:32:32 7dBm
 1434 105.144670 32:32:32:32:32:32 6dBm
 1435 105.302804 32:32:32:32:32:32 8dBm
 1436 105.361821 32:32:32:32:32:32 6dBm
 1437 105.398945 32:32:32:32:32:32 5dBm
 1438 105.413746 32:32:32:32:32:32 7dBm
 1439 105.479146 32:32:32:32:32:32 7dBm
 1440 105.669750 32:32:32:32:32:32 8dBm
 1441 105.712965 32:32:32:32:32:32 7dBm
 1442 105.761349 32:32:32:32:32:32 7dBm
 1443 105.785825 32:32:32:32:32:32 5dBm
 1444 105.809255 32:32:32:32:32:32 8dBm
 1445 105.822500 32:32:32:32:32:32 8dBm
 1446 105.863310 32:32:32:32:32:32 8dBm
 1447 105.978569 32:32:32:32:32:32 8dBm
 1448 106.015026 32:32:32:32:32:32 9dBm
 1449 106.055678 32:32:32:32:32:32 6dBm
 1450 106.245683 32:32:32:32:32:32 10dBm
 1451 106.386056 32:32:32:32:32:32 8dBm
 1452 106.508131 32:32:32:32:32:32 9dBm
 1453 106.535605 32:32:32:32:32:32 7dBm
 1454 106.632048 32:32:32:32:32:32 9dBm
 1455 106.701508 32:32:32:32:32:32 7dBm
 1456 106.790474 32:32:32:32:32:32 6dBm
 1457 106.841240 32:32:32:32:32:32 8dBm
 1458 106.905338 32:32:32:32:32:32 6dBm
 1459 107.116531 32:32:32:32:32:32 8dBm
 1460 107.143330 32:32:32:32:32:32 8dBm
 1461 107.174677 32:32:32:32:32:32 6dBm
 1462 107.240543 32:32:32:32:32:32 8dBm
 1463 107.297464 32:32:32:32:32:32 8dBm
 1464 107.349946 32:32:32:32:32:32 6dBm
 1465 107.371526 32:32:32:32:32:32 8dBm
 1466 107.387709 32:32:32:32:32:32 6dBm
 1467 107.552370 32:32:32:32:32:32 4dBm
 1468 107.617517 32:32:32:32:32:32 8dBm
 1469 107.942900 32:32:32:32:32:32 9dBm
 1470 108.234289 32:32:32:32:32:32 8dBm
 1471 108.405988 32:32:32:32:32:32 9dBm
 1472 108.460375 32:32:32:32:32:32 8dBm
 1473 108.477908 32:32:32:32:32:32 7dBm
 1474 108.529466 32:32:32:32:32:32 5dBm
 1475 108.545842 32:32:32:32:32:32 7dBm
 1476 108.590238 32:32:32:32:32:32 7dBm
 1477 108.690863 32:32:32:32:32:32 7dBm
 1478 108.905433 32:32:32:32:32:32 8dBm
 1479 109.114058 32:32:32:32:32:32 9dBm
 1480 109.162533 32:32:32:32:32:32 7dBm
 1481 109.199947 32:32:32:32:32:32 7dBm
 1482 109.217973 32:32:32:32:32:32 7dBm
 1483 109.313013 32:32:32:32:32:32 8dBm
 1484 109.353437 32:32:32:32:32:32 9dBm
 1485 109.393974 32:32:32:32:32:32 7dBm
 1486 109.566992 32:32:32:32:32:32 9dBm
 1487 109.825832 32:32:32:32:32:32 7dBm
 1488 109.862936 32:32:32:32:32:32 7dBm
 1489 109.896120 32:32:32:32:32:32 7dBm
 1490 109.931062 32:32:32:32:32:32 8dBm
 1491 109.989451 32:32:32:32:32:32 5dBm
 1492 110.006771 32:32:32:32:32:32 7dBm
 1493 110.022548 32:32:32:32:32:32 8dBm
 1494 110.055776 32:32:32:32:32:32 8dBm
 1495 110.072642 32:32:32:32:32:32 9dBm
 1496 110.221821 32:32:32:32:32:32 6dBm
 1497 110.274781 32:32:32:32:32:32 6dBm
 1498 110.298664 32:32:32:32:32:32 7dBm
 1499 110.319152 32:32:32:32:32:32 8dBm
 1500 110.340553 32:32:32:32:32:32 6dBm
 1501 110.438805 32:32:32:32:32:32 9dBm
 1502 110.614595 32:32:32:32:32:32 9dBm
 1503 110.691597 32:32:32:32:32:32 9dBm
 1504 110.709807 32:32:32:32:32:32 7dBm
 1505 110.735831 32:32:32:32:32:32 10dBm
 1506 110.816588 32:32:32:32:32:32 8dBm
 1507 111.032720 32:32:32:32:32:32 7dBm
 1508 111.154442 32:32:32:32:32:32 8dBm
 1509 111.199203 32:32:32:32:32:32 8dBm
 1510 111.219077 32:32:32:32:32:32 8dBm
 1511 111.530695 32:32:32:32:32:32 6dBm
 1512 111.640113 32:32:32:32:32:32 7dBm
 1513 111.669894 32:32:32:32:32:32 7dBm
 1514 111.916734 32:32:32:32:32:32 7dBm
 1515 112.079965 32:32:32:32:32:32 8dBm
 1516 112.280459 32:32:32:32:32:32 8dBm
 1517 112.362902 32:32:32:32:32:32 5dBm
 1518 112.411237 32:32:32:32:32:32 7dBm
 1519 112.575078 32:32:32:32:32:32 8dBm
 1520 112.603826 32:32:32:32:32:32 8dBm
 1521 112.625867 32:32:32:32:32:32 7dBm
 1522 112.676433 32:32:32:32:32:32 7dBm
 1523 112.703822 32:32:32:32:32:32 4dBm
 1524 112.808125 32:32:32:32:32:32 8dBm
 1525 112.881072 32:32:32:32:32:32 5dBm
 1526 112.909777 32:32:32:32:32:32 4dBm
 1527 112.955555 32:32:32:32:32:32 7dBm
 1528 113.020055 32:32:32:32:32:32 7dBm
 1529 113.119637 32:32:32:32:32:32 6dBm
 1530 113.192040 32:32:32:32:32:32 7dBm
 1531 113.235959 32:32:32:32:32:32 8dBm
 1532 113.285299 32:32:32:32:32:32 7dBm
 1533 113.363087 32:32:32:32:32:32 7dBm
 1534 113.450799 32:32:32:32:32:32 8dBm
 1535 113.557436 32:32:32:32:32:32 5dBm
 1536 113.641186 32:32:32:32:32:32 8dBm
 1537 113.699931 32:32:32:32:32:32 9dBm
 1538 113.758997 32:32:32:32:32:32 6dBm
 1539 113.778145 32:32:32:32:32:32 8dBm
 1540 113.808820 32:32:32:32:32:32 7dBm
 1541 113.831688 32:32:32:32:32:32 6dBm
 1542 113.929309 32:32:32:32:32:32 5dBm
 1543 113.982117 32:32:32:32:32:32 5dBm
 1544 114.233179 32:32:32:32:32:32 5dBm
 1545 114.312745 32:32:32:32:32:32 6dBm
 1546 114.426885 32:32:32:32:32:32 8dBm
 1547 114.681989 32:32:32:32:32:32 5dBm
 1548 114.718124 32:32:32:32:32:32 7dBm
 1549 114.746214 32:32:32:32:32:32 7dBm
 1550 114.895128 32:32:32:32:32:32 8dBm
 1551 114.918134 32:32:32:32:32:32 8dBm
 1552 114.969570 32:32:32:32:32:32 7dBm
 1553 115.028439 32:32:32:32:32:32 6dBm
 1554 115.048553 32:32:32:32:32:32 8dBm
 1555 115.067491 32:32:32:32:32:32 8dBm
 1556 115.116803 32:32:32:32:32:32 9dBm
 1557 115.179731 32:32:32:32:32:32 7dBm
 1558 115.270471 32:32:32:32:32:32 8dBm
 1559 115.342950 32:32:32:32:32:32 9dBm
 1560 115.410099 32:32:32:32:32:32 7dBm
 1561 115.434811 32:32:32:32:32:32 7dBm
 1562 115.514880 32:32:32:32:32:32 7dBm
 1563 115.647609 32:32:32:32:32:32 9dBm
 1564 115.719336 32:32:32:32:32:32 7dBm
 1565 116.006131 32:32:32:32:32:32 9dBm
 1566 116.234230 32:32:32:32:32:32 7dBm
 1567 116.427345 32:32:32:32:32:32 7dBm
 1568 116.622369 32:32:32:32:32:32 4dBm
 1569 116.647304 32:32:32:32:32:32 7dBm
 1570 116.737440 32:32:32:32:32:32 8dBm
 1571 116.883945 32:32:32:32:32:32 8dBm
 1572 116.951092 32:32:32:32:32:32 8dBm
 1573 117.147690 32:32:32:32:32:32 8dBm
 1574 117.243675 32:32:32:32:32:32 9dBm
 1575 117.291375 32:32:32:32:32:32 8dBm
 1576 117.395088 32:32:32:32:32:32 5dBm
 1577 117.635786 32:32:32:32:32:32 7dBm
 1578 117.664840 32:32:32:32:32:32 8dBm
 1579 117.738143 32:32:32:32:32:32 4dBm
 1580 117.817402 32:32:32:32:32:32 8dBm
 1581 117.838916 32:32:32:32:32:32 8dBm
 1582 117.875985 32:32:32:32:32:32 8dBm
 1583 118.017710 32:32:32:32:32:32 7dBm
 1584 118.053326 32:32:32:32:32:32 5dBm
 1585 118.067898 32:32:32:32:32:32 5dBm
 1586 118.157990 32:32:32:32:32:32 9dBm
 1587 118.224969 32:32:32:32:32:32 10dBm
 1588 118.258660 32:32:32:32:32:32 8dBm
 1589 118.286941 32:32:32:32:32:32 7dBm
 1590 118.377440 32:32:32:32:32:32 8dBm
 1591 118.416283 32:32:32:32:32:32 8dBm
 1592 118.426774 32:32:32:32:32:32 9dBm
 1593 118.442591 32:32:32:32:32:32 7dBm
 1594 118.482675 32:32:32:32:32:32 8dBm
 1595 118.616587 32:32:32:32:32:32 8dBm
 1596 118.677891 32:32:32:32:32:32 8dBm
 1597 118.747485 32:32:32:32:32:32 8dBm
 1598 118.827246 32:32:32:32:32:32 8dBm
 1599 118.885857 32:32:32:32:32:32 7dBm
 1600 118.902225 32:32:32:32:32:32 6dBm
 1601 118.976332 32:32:32:32:32:32 7dBm
 1602 119.029304 32:32:32:32:32:32 8dBm
 1603 119.101003 32:32:32:32:32:32 7dBm
 1604 119.329594 32:32:32:32:32:32 7dBm
 1605 119.425486 32:32:32:32:32:32 7dBm
 1606 119.456187 32:32:32:32:32:32 7dBm
 1607 119.486826 32:32:32:32:32:32 7dBm
 1608 119.595591 32:32:32:32:32:32 6dBm
 1609 119.710960 32:32:32:32:32:32 5dBm
 1610 120.012252 32:32:32:32:32:32 8dBm
 1611 120.149281 32:32:32:32:32:32 9dBm
 1612 120.171110 32:32:32:32:32:32 7dBm
 1613 120.246844 32:32:32:32:32:32 7dBm
 1614 120.268629 32:32:32:32:32:32 7dBm
 1615 120.315290 32:32:32:32:32:32 7dBm
 1616 120.344342 32:32:32:32:32:32 6dBm
 1617 120.462930 32:32:32:32:32:32 8dBm
 1618 120.502903 32:32:32:32:32:32 9dBm
 1619 120.522226 32:32:32:32:32:32 4dBm
 1620 120.568651 32:32:32:32:32:32 8dBm
 1621 120.676263 32:32:32:32:32:32 7dBm
 1622 120.755538 32:32:32:32:32:32 8dBm
 1623 120.813075 32:32:32:32:32:32 8dBm
 1624 120.871034 32:32:32:32:32:32 8dBm
 1625 120.957354 32:32:32:32:32:32 7dBm
 1626 121.032965 32:32:32:32:32:32 7dBm
 1627 121.081106 32:32:32:32:32:32 8dBm
 1628 121.094825 32:32:32:32:32:32 7dBm
 1629 121.160970 32:32:32:32:32:32 5dBm
 1630 121.251736 32:32:32:32:32:32 8dBm
 1631 121.254071 32:32:32:32:32:32 8dBm
 1632 121.295421 32:32:32:32:32:32 9dBm
 1633 121.311203 32:32:32:32:32:32 6dBm
 1634 121.331443 32:32:32:32:32:32 6dBm
 1635 121.395206 32:32:32:32:32:32 8dBm
 1636 121.458389 32:32:32:32:32:32 8dBm
 1637 121.524161 32:32:32:32:32:32 8dBm
 1638 121.582919 32:32:32:32:32:32 7dBm
 1639 121.700443 32:32:32:32:32:32 7dBm
 1640 121.733528 32:32:32:32:32:32 7dBm
 1641 121.736294 32:32:32:32:32:32 7dBm
 1642 121.873723 32:32:32:32:32:32 6dBm
 1643 122.008925 32:32:32:32:32:32 8dBm
 1644 122.065962 32:32:32:32:32:32 5dBm
 1645 122.182361 32:32:32:32:32:32 6dBm
 1646 122.231250 32:32:32:32:32:32 6dBm
 1647 122.273643 32:32:32:32:32:32 9dBm
 1648 122.300825 32:32:32:32:32:32 6dBm
 1649 122.321798 32:32:32:32:32:32 7dBm
 1650 122.388959 32:32:32:32:32:32 8dBm
 1651 122.450287 32:32:32:32:32:32 8dBm
 1652 122.506947 32:32:32:32:32:32 7dBm
 1653 122.609362 32:32:32:32:32:32 9dBm
 1654 122.628988 32:32:32:32:32:32 8dBm
 1655 122.664037 32:32:32:32:32:32 9dBm
 1656 122.706216 32:32:32:32:32:32 6dBm
 1657 122.725196 32:32:32:32:32:32 8dBm
 1658 122.833801 32:32:32:32:32:32 7dBm
 1659 122.875012 32:32:32:32:32:32 6dBm
 1660 122.913031 32:32:32:32:32:32 9dBm
 1661 122.935179 32:32:32:32:32:32 7dBm
 1662 122.993352 32:32:32:32:32:32 10dBm
 1663 123.014476 32:32:32:32:32:32 9dBm
 1664 123.052861 32:32:32:32:32:32 7dBm
 1665 123.087653 32:32:32:32:32:32 7dBm
 1666 123.107709 32:32:32:32:32:32 8dBm
 1667 123.146774 32:32:32:32:32:32 7dBm
 1668 123.165037 32:32:32:32:32:32 7dBm
 1669 123.188704 32:32:32:32:32:32 7dBm
 1670 123.228095 32:32:32:32:32:32 8dBm
 1671 123.265286 32:32:32:32:32:32 6dBm
 1672 123.285884 32:32:32:32:32:32 7dBm
 1673 123.375197 32:32:32:32:32:32 7dBm
 1674 123.395551 32:32:32:32:32:32 6dBm
 1675 123.547313 32:32:32:32:32:32 7dBm
 1676 123.552900 32:32:32:32:32:32 7dBm
 1677 123.594207 32:32:32:32:32:32 8dBm
 1678 123.636405 32:32:32:32:32:32 8dBm
 1679 123.664356 32:32:32:32:32:32 6dBm
 1680 123.728468 32:32:32:32:32:32 8dBm
 1681 123.760809 32:32:32:32:32:32 7dBm
 1682 123.804010 32:32:32:32:32:32 8dBm
 1683 123.822224 32:32:32:32:32:32 6dBm
 1684 123.891790 32:32:32:32:32:32 6dBm
 1685 123.939697 32:32:32:32:32:32 9dBm
 1686 123.958865 32:32:32:32:32:32 7dBm
 1687 124.013043 32:32:32:32:32:32 8dBm
 1688 124.124652 32:32:32:32:32:32 8dBm
 1689 124.142810 32:32:32:32:32:32 8dBm
 1690 124.181813 32:32:32:32:32:32 7dBm
 1691 124.200358 32:32:32:32:32:32 6dBm
 1692 124.327278 32:32:32:32:32:32 7dBm
 1693 124.407001 32:32:32:32:32:32 8dBm
 1694 124.479473 32:32:32:32:32:32 8dBm
 1695 124.491766 32:32:32:32:32:32 7dBm
 1696 124.520885 32:32:32:32:32:32 7dBm
 1697 124.632627 32:32:32:32:32:32 7dBm
 1698 124.663744 32:32:32:32:32:32 7dBm
 1699 124.727238 32:32:32:32:32:32 8dBm
 1700 124.897366 32:32:32:32:32:32 7dBm
 1701 125.110954 32:32:32:32:32:32 6dBm
 1702 125.201400 32:32:32:32:32:32 7dBm
 1703 125.242301 32:32:32:32:32:32 8dBm
 1704 125.262690 32:32:32:32:32:32 8dBm
 1705 125.398668 32:32:32:32:32:32 6dBm
 1706 125.444326 32:32:32:32:32:32 8dBm
 1707 125.472239 32:32:32:32:32:32 7dBm
 1708 125.529762 32:32:32:32:32:32 7dBm
 1709 125.603138 32:32:32:32:32:32 7dBm
 1710 125.638415 32:32:32:32:32:32 8dBm
 1711 125.666445 32:32:32:32:32:32 8dBm
 1712 125.741787 32:32:32:32:32:32 8dBm
 1713 125.802983 32:32:32:32:32:32 8dBm
 1714 125.831775 32:32:32:32:32:32 7dBm
 1715 125.998028 32:32:32:32:32:32 5dBm
 1716 126.145232 32:32:32:32:32:32 6dBm
 1717 126.210029 32:32:32:32:32:32 8dBm
 1718 126.238657 32:32:32:32:32:32 7dBm
 1719 126.258063 32:32:32:32:32:32 6dBm
 1720 126.308720 32:32:32:32:32:32 7dBm
 1721 126.356228 32:32:32:32:32:32 8dBm
 1722 126.389955 32:32:32:32:32:32 6dBm
 1723 126.426370 32:32:32:32:32:32 8dBm
 1724 126.459316 32:32:32:32:32:32 9dBm
 1725 126.502872 32:32:32:32:32:32 7dBm
 1726 126.521398 32:32:32:32:32:32 7dBm
 1727 126.600272 32:32:32:32:32:32 9dBm
 1728 126.655793 32:32:32:32:32:32 7dBm
 1729 126.833617 32:32:32:32:32:32 5dBm
 1730 126.865946 32:32:32:32:32:32 8dBm
 1731 126.905298 32:32:32:32:32:32 9dBm
 1732 126.942001 32:32:32:32:32:32 7dBm
 1733 126.966516 32:32:32:32:32:32 8dBm
 1734 127.005658 32:32:32:32:32:32 5dBm
 1735 127.172551 32:32:32:32:32:32 5dBm
 1736 127.232186 32:32:32:32:32:32 7dBm
 1737 127.285540 32:32:32:32:32:32 8dBm
 1738 127.398698 32:32:32:32:32:32 8dBm
 1739 127.439532 32:32:32:32:32:32 7dBm
 1740 127.524029 32:32:32:32:32:32 7dBm
 1741 127.541637 32:32:32:32:32:32 7dBm
 1742 127.586674 32:32:32:32:32:32 8dBm
 1743 127.726096 32:32:32:32:32:32 7dBm
 1744 127.746900 32:32:32:32:32:32 7dBm
 1745 127.798683 32:32:32:32:32:32 5dBm
 1746 127.821505 32:32:32:32:32:32 8dBm
 1747 127.872799 32:32:32:32:32:32 6dBm
 1748 127.896112 32:32:32:32:32:32 8dBm
 1749 127.931127 32:32:32:32:32:32 7dBm
 1750 127.976067 32:32:32:32:32:32 7dBm
 1751 128.008613 32:32:32:32:32:32 8dBm
 1752 128.030774 32:32:32:32:32:32 7dBm
 1753 128.095441 32:32:32:32:32:32 8dBm
 1754 128.288422 32:32:32:32:32:32 9dBm
