    1   0.000000 03:03:03:03:03:03 4dBm
    2   0.048780 03:03:03:03:03:03 6dBm
    3   0.073237 03:03:03:03:03:03 6dBm
    4   0.110703 03:03:03:03:03:03 6dBm
    5   0.158680 03:03:03:03:03:03 5dBm
    6   0.414559 03:03:03:03:03:03 7dBm
    7   0.452854 03:03:03:03:03:03 5dBm
    8   0.542814 03:03:03:03:03:03 5dBm
    9   0.560290 03:03:03:03:03:03 7dBm
   10   0.601409 03:03:03:03:03:03 6dBm
   11   0.625666 03:03:03:03:03:03 4dBm
   12   0.658326 03:03:03:03:03:03 5dBm
   13   0.724810 03:03:03:03:03:03 5dBm
   14   0.790015 03:03:03:03:03:03 6dBm
   15   1.065222 03:03:03:03:03:03 5dBm
   16   1.170080 03:03:03:03:03:03 6dBm
   17   1.194270 03:03:03:03:03:03 5dBm
   18   1.245676 03:03:03:03:03:03 6dBm
   19   1.296186 03:03:03:03:03:03 7dBm
   20   1.357622 03:03:03:03:03:03 7dBm
   21   1.473189 03:03:03:03:03:03 5dBm
   22   1.506459 03:03:03:03:03:03 8dBm
   23   1.531302 03:03:03:03:03:03 5dBm
   24   1.566653 03:03:03:03:03:03 5dBm
   25   1.625757 03:03:03:03:03:03 5dBm
   26   1.643425 03:03:03:03:03:03 6dBm
   27   1.829823 03:03:03:03:03:03 7dBm
   28   2.101062 03:03:03:03:03:03 6dBm
   29   2.122686 03:03:03:03:03:03 6dBm
   30   2.206055 03:03:03:03:03:03 6dBm
   31   2.375533 03:03:03:03:03:03 5dBm
   32   2.853611 03:03:03:03:03:03 8dBm
   33   2.915786 03:03:03:03:03:03 7dBm
   34   2.961866 03:03:03:03:03:03 7dBm
   35   3.125878 03:03:03:03:03:03 6dBm
   36   3.197683 03:03:03:03:03:03 3dBm
   37   3.210731 03:03:03:03:03:03 5dBm
   38   3.302590 03:03:03:03:03:03 6dBm
   39   3.361852 03:03:03:03:03:03 8dBm
   40   3.379814 03:03:03:03:03:03 7dBm
   41   3.422081 03:03:03:03:03:03 7dBm
   42   3.462668 03:03:03:03:03:03 7dBm
   43   3.511024 03:03:03:03:03:03 5dBm
   44   3.576510 03:03:03:03:03:03 6dBm
   45   3.633390 03:03:03:03:03:03 5dBm
   46   3.696682 03:03:03:03:03:03 6dBm
   47   3.804049 03:03:03:03:03:03 4dBm
   48   3.884955 03:03:03:03:03:03 6dBm
   49   3.904478 03:03:03:03:03:03 5dBm
   50   3.957340 03:03:03:03:03:03 7dBm
   51   3.982365 03:03:03:03:03:03 4dBm
   52   4.021902 03:03:03:03:03:03 4dBm
   53   4.037701 03:03:03:03:03:03 6dBm
   54   4.057013 03:03:03:03:03:03 8dBm
   55   4.082715 03:03:03:03:03:03 6dBm
   56   4.102739 03:03:03:03:03:03 8dBm
   57   4.142649 03:03:03:03:03:03 7dBm
   58   4.312486 03:03:03:03:03:03 6dBm
   59   4.333178 03:03:03:03:03:03 8dBm
   60   4.351403 03:03:03:03:03:03 7dBm
   61   4.374028 03:03:03:03:03:03 6dBm
   62   4.392581 03:03:03:03:03:03 7dBm
   63   4.521077 03:03:03:03:03:03 9dBm
   64   4.539191 03:03:03:03:03:03 8dBm
   65   4.815841 03:03:03:03:03:03 7dBm
   66 1170562610.762671              
    1   0.000000 03:03:03:03:03:03 4dBm
    2   0.048780 03:03:03:03:03:03 6dBm
    3   0.073237 03:03:03:03:03:03 6dBm
    4   0.110703 03:03:03:03:03:03 6dBm
    5   0.158680 03:03:03:03:03:03 5dBm
    6   0.414559 03:03:03:03:03:03 7dBm
    7   0.452854 03:03:03:03:03:03 5dBm
    8   0.542814 03:03:03:03:03:03 5dBm
    9   0.560290 03:03:03:03:03:03 7dBm
   10   0.601409 03:03:03:03:03:03 6dBm
   11   0.625666 03:03:03:03:03:03 4dBm
   12   0.658326 03:03:03:03:03:03 5dBm
   13   0.724810 03:03:03:03:03:03 5dBm
   14   0.790015 03:03:03:03:03:03 6dBm
   15   1.065222 03:03:03:03:03:03 5dBm
   16   1.170080 03:03:03:03:03:03 6dBm
   17   1.194270 03:03:03:03:03:03 5dBm
   18   1.245676 03:03:03:03:03:03 6dBm
   19   1.296186 03:03:03:03:03:03 7dBm
   20   1.357622 03:03:03:03:03:03 7dBm
   21   1.473189 03:03:03:03:03:03 5dBm
   22   1.506459 03:03:03:03:03:03 8dBm
   23   1.531302 03:03:03:03:03:03 5dBm
   24   1.566653 03:03:03:03:03:03 5dBm
   25   1.625757 03:03:03:03:03:03 5dBm
   26   1.643425 03:03:03:03:03:03 6dBm
   27   1.829823 03:03:03:03:03:03 7dBm
   28   2.101062 03:03:03:03:03:03 6dBm
   29   2.122686 03:03:03:03:03:03 6dBm
   30   2.206055 03:03:03:03:03:03 6dBm
   31   2.375533 03:03:03:03:03:03 5dBm
   32   2.853611 03:03:03:03:03:03 8dBm
   33   2.915786 03:03:03:03:03:03 7dBm
   34   2.961866 03:03:03:03:03:03 7dBm
   35   3.125878 03:03:03:03:03:03 6dBm
   36   3.197683 03:03:03:03:03:03 3dBm
   37   3.210731 03:03:03:03:03:03 5dBm
   38   3.302590 03:03:03:03:03:03 6dBm
   39   3.361852 03:03:03:03:03:03 8dBm
   40   3.379814 03:03:03:03:03:03 7dBm
   41   3.422081 03:03:03:03:03:03 7dBm
   42   3.462668 03:03:03:03:03:03 7dBm
   43   3.511024 03:03:03:03:03:03 5dBm
   44   3.576510 03:03:03:03:03:03 6dBm
   45   3.633390 03:03:03:03:03:03 5dBm
   46   3.696682 03:03:03:03:03:03 6dBm
   47   3.804049 03:03:03:03:03:03 4dBm
   48   3.884955 03:03:03:03:03:03 6dBm
   49   3.904478 03:03:03:03:03:03 5dBm
   50   3.957340 03:03:03:03:03:03 7dBm
   51   3.982365 03:03:03:03:03:03 4dBm
   52   4.021902 03:03:03:03:03:03 4dBm
   53   4.037701 03:03:03:03:03:03 6dBm
   54   4.057013 03:03:03:03:03:03 8dBm
   55   4.082715 03:03:03:03:03:03 6dBm
   56   4.102739 03:03:03:03:03:03 8dBm
   57   4.142649 03:03:03:03:03:03 7dBm
   58   4.312486 03:03:03:03:03:03 6dBm
   59   4.333178 03:03:03:03:03:03 8dBm
   60   4.351403 03:03:03:03:03:03 7dBm
   61   4.374028 03:03:03:03:03:03 6dBm
   62   4.392581 03:03:03:03:03:03 7dBm
   63   4.521077 03:03:03:03:03:03 9dBm
   64   4.539191 03:03:03:03:03:03 8dBm
   65   4.815841 03:03:03:03:03:03 7dBm
   66 1170562610.762671              
    1   0.000000 03:03:03:03:03:03 4dBm
    2   0.048780 03:03:03:03:03:03 6dBm
    3   0.073237 03:03:03:03:03:03 6dBm
    4   0.110703 03:03:03:03:03:03 6dBm
    5   0.158680 03:03:03:03:03:03 5dBm
    6   0.414559 03:03:03:03:03:03 7dBm
    7   0.452854 03:03:03:03:03:03 5dBm
    8   0.542814 03:03:03:03:03:03 5dBm
    9   0.560290 03:03:03:03:03:03 7dBm
   10   0.601409 03:03:03:03:03:03 6dBm
   11   0.625666 03:03:03:03:03:03 4dBm
   12   0.658326 03:03:03:03:03:03 5dBm
   13   0.724810 03:03:03:03:03:03 5dBm
   14   0.790015 03:03:03:03:03:03 6dBm
   15   1.065222 03:03:03:03:03:03 5dBm
   16   1.170080 03:03:03:03:03:03 6dBm
   17   1.194270 03:03:03:03:03:03 5dBm
   18   1.245676 03:03:03:03:03:03 6dBm
   19   1.296186 03:03:03:03:03:03 7dBm
   20   1.357622 03:03:03:03:03:03 7dBm
   21   1.473189 03:03:03:03:03:03 5dBm
   22   1.506459 03:03:03:03:03:03 8dBm
   23   1.531302 03:03:03:03:03:03 5dBm
   24   1.566653 03:03:03:03:03:03 5dBm
   25   1.625757 03:03:03:03:03:03 5dBm
   26   1.643425 03:03:03:03:03:03 6dBm
   27   1.829823 03:03:03:03:03:03 7dBm
   28   2.101062 03:03:03:03:03:03 6dBm
   29   2.122686 03:03:03:03:03:03 6dBm
   30   2.206055 03:03:03:03:03:03 6dBm
   31   2.375533 03:03:03:03:03:03 5dBm
   32   2.853611 03:03:03:03:03:03 8dBm
   33   2.915786 03:03:03:03:03:03 7dBm
   34   2.961866 03:03:03:03:03:03 7dBm
   35   3.125878 03:03:03:03:03:03 6dBm
   36   3.197683 03:03:03:03:03:03 3dBm
   37   3.210731 03:03:03:03:03:03 5dBm
   38   3.302590 03:03:03:03:03:03 6dBm
   39   3.361852 03:03:03:03:03:03 8dBm
   40   3.379814 03:03:03:03:03:03 7dBm
   41   3.422081 03:03:03:03:03:03 7dBm
   42   3.462668 03:03:03:03:03:03 7dBm
   43   3.511024 03:03:03:03:03:03 5dBm
   44   3.576510 03:03:03:03:03:03 6dBm
   45   3.633390 03:03:03:03:03:03 5dBm
   46   3.696682 03:03:03:03:03:03 6dBm
   47   3.804049 03:03:03:03:03:03 4dBm
   48   3.884955 03:03:03:03:03:03 6dBm
   49   3.904478 03:03:03:03:03:03 5dBm
   50   3.957340 03:03:03:03:03:03 7dBm
   51   3.982365 03:03:03:03:03:03 4dBm
   52   4.021902 03:03:03:03:03:03 4dBm
   53   4.037701 03:03:03:03:03:03 6dBm
   54   4.057013 03:03:03:03:03:03 8dBm
   55   4.082715 03:03:03:03:03:03 6dBm
   56   4.102739 03:03:03:03:03:03 8dBm
   57   4.142649 03:03:03:03:03:03 7dBm
   58   4.312486 03:03:03:03:03:03 6dBm
   59   4.333178 03:03:03:03:03:03 8dBm
   60   4.351403 03:03:03:03:03:03 7dBm
   61   4.374028 03:03:03:03:03:03 6dBm
   62   4.392581 03:03:03:03:03:03 7dBm
   63   4.521077 03:03:03:03:03:03 9dBm
   64   4.539191 03:03:03:03:03:03 8dBm
   65   4.815841 03:03:03:03:03:03 7dBm
   66 1170562610.762671              
