                1       032:32:32:32:32:3  9Bm N  ov 18, 2018 0 2:29:04.922502000  7          0
                20.10544232:32:32:32:32:3 13dBm   Nov 18,   201802:29:05.027944000 7         13
                30.13324532:32:32:32:32:3 10dBm   Nov 18,   201802:29:05.055747000 7        ###
                40.17352432:32:32:32:32:3  6Bm N  ov 18, 2018 0 2:29:05.096026000  7        ###
                50.23788732:32:32:32:32:3 11dBm   Nov 18,   201802:29:05.160389000 7        ###
                60.31851332:32:32:32:32:3 11dBm   Nov 18,   201802:29:05.241015000 7
                70.35763532:32:32:32:32:3 13dBm   Nov 18,   201802:29:05.280137000 7
                80.40967232:32:32:32:32:3 13dBm   Nov 18,   201802:29:05.332174000 7
                90.42941432:32:32:32:32:3 11dBm   Nov 18,   201802:29:05.351916000 7
               100.44807332:32:32:32:32:3 10dBm   Nov 18,   201802:29:05.370575000 7
               110.47326432:32:32:32:32:3 10dBm   Nov 18,   201802:29:05.395766000 7
               12 0.8189432:32:32:32:32:3  6Bm N  ov 18, 2018 0 2:29:05.741442000  7
               130.93622432:32:32:32:32:3  9Bm N  ov 18, 2018 0 2:29:05.858726000  7
               141.01035332:32:32:32:32:3  6Bm N  ov 18, 2018 0 2:29:05.932855000  7
               151.18843432:32:32:32:32:3  5Bm N  ov 18, 2018 0 2:29:06.110936000  7
               16 1.2488132:32:32:32:32:3  5Bm N  ov 18, 2018 0 2:29:06.171312000  7
               171.26809932:32:32:32:32:3  6Bm N  ov 18, 2018 0 2:29:06.190601000  7
               18 1.3351132:32:32:32:32:3  4Bm N  ov 18, 2018 0 2:29:06.257612000  7
               191.60411132:32:32:32:32:3  5Bm N  ov 18, 2018 0 2:29:06.526613000  7
               201.63181632:32:32:32:32:3  4Bm N  ov 18, 2018 0 2:29:06.554318000  7
               211.71782632:32:32:32:32:3  5Bm N  ov 18, 2018 0 2:29:06.640328000  7
               221.74357432:32:32:32:32:3  5Bm N  ov 18, 2018 0 2:29:06.666076000  7
               23 1.8047832:32:32:32:32:3  7Bm N  ov 18, 2018 0 2:29:06.727282000  7
               241.81452632:32:32:32:32:3  6Bm N  ov 18, 2018 0 2:29:06.737028000  7
               251.82130432:32:32:32:32:3  6Bm N  ov 18, 2018 0 2:29:06.743806000  7
               261.83481832:32:32:32:32:3  5Bm N  ov 18, 2018 0 2:29:06.757320000  7
               271.84461932:32:32:32:32:3  5Bm N  ov 18, 2018 0 2:29:06.767121000  7
               282.11568632:32:32:32:32:3  8Bm N  ov 18, 2018 0 2:29:07.038188000  7
               292.17703132:32:32:32:32:3  7Bm N  ov 18, 2018 0 2:29:07.099533000  7
               302.21112532:32:32:32:32:3  7Bm N  ov 18, 2018 0 2:29:07.133627000  7
               31  4.188932:32:32:32:32:3  4Bm N  ov 18, 2018 0 2:29:09.111402000  7
               324.28850532:32:32:32:32:3  6Bm N  ov 18, 2018 0 2:29:09.211007000  7
               33 4.3139332:32:32:32:32:3  6Bm N  ov 18, 2018 0 2:29:09.236432000  7
               344.36753232:32:32:32:32:3  6Bm N  ov 18, 2018 0 2:29:09.290034000  7
               354.63576332:32:32:32:32:3  4Bm N  ov 18, 2018 0 2:29:09.558265000  7
               364.82761732:32:32:32:32:3  5Bm N  ov 18, 2018 0 2:29:09.750119000  7
               374.99167732:32:32:32:32:3  5Bm N  ov 18, 2018 0 2:29:09.914179000  7
               385.01992632:32:32:32:32:3  5Bm N  ov 18, 2018 0 2:29:09.942428000  7
               395.22727632:32:32:32:32:3  5Bm N  ov 18, 2018 0 2:29:10.149778000  7
               405.32080432:32:32:32:32:3  6Bm N  ov 18, 2018 0 2:29:10.243306000  7
               415.35197732:32:32:32:32:3  2Bm N  ov 18, 2018 0 2:29:10.274479000  7
               425.37352632:32:32:32:32:3  6Bm N  ov 18, 2018 0 2:29:10.296028000  7
               43 5.5315832:32:32:32:32:3  8Bm N  ov 18, 2018 0 2:29:10.454082000  7
               445.58143632:32:32:32:32:3  7Bm N  ov 18, 2018 0 2:29:10.503938000  7
               45 5.6682932:32:32:32:32:3  7Bm N  ov 18, 2018 0 2:29:10.590792000  7
               465.75161232:32:32:32:32:3  6Bm N  ov 18, 2018 0 2:29:10.674114000  7
               475.86022532:32:32:32:32:3  5Bm N  ov 18, 2018 0 2:29:10.782727000  7
               48 5.9336432:32:32:32:32:3  4Bm N  ov 18, 2018 0 2:29:10.856142000  7
               496.87088432:32:32:32:32:3  6Bm N  ov 18, 2018 0 2:29:11.793386000  7
               508.02646232:32:32:32:32:3  4Bm N  ov 18, 2018 0 2:29:12.948964000  7
               519.29481432:32:32:32:32:3  5Bm N  ov 18, 2018 0 2:29:14.217316000  7
               529.34519132:32:32:32:32:3  7Bm N  ov 18, 2018 0 2:29:14.267693000  7
               539.36826832:32:32:32:32:3  6Bm N  ov 18, 2018 0 2:29:14.290770000  7
               549.60132332:32:32:32:32:3  5Bm N  ov 18, 2018 0 2:29:14.523825000  7
               559.81554932:32:32:32:32:3  6Bm N  ov 18, 2018 0 2:29:14.738051000  7
               569.94935532:32:32:32:32:3  5Bm N  ov 18, 2018 0 2:29:14.871857000  7
            57  10.05529132:32:32:32:32:3  6Bm N  ov 18, 2018 0 2:29:14.977793000  7
            58  10.07356732:32:32:32:32:3  6Bm N  ov 18, 2018 0 2:29:14.996069000  7
            59  10.09397432:32:32:32:32:3  5Bm N  ov 18, 2018 0 2:29:15.016476000  7
            60  10.17624232:32:32:32:32:3  8Bm N  ov 18, 2018 0 2:29:15.098744000  7
            61  10.40555332:32:32:32:32:3  5Bm N  ov 18, 2018 0 2:29:15.328055000  7
            62  11.46649132:32:32:32:32:3  5Bm N  ov 18, 2018 0 2:29:16.388993000  7
            63  11.56612532:32:32:32:32:3  4Bm N  ov 18, 2018 0 2:29:16.488627000  7
            64  11.96821532:32:32:32:32:3  4Bm N  ov 18, 2018 0 2:29:16.890717000  7
            65  1 2.2448632:32:32:32:32:3  6Bm N  ov 18, 2018 0 2:29:17.167362000  7
            66  12.26874832:32:32:32:32:3  4Bm N  ov 18, 2018 0 2:29:17.191250000  7
            67  12.47548932:32:32:32:32:3  5Bm N  ov 18, 2018 0 2:29:17.397991000  7
            68  14.61622432:32:32:32:32:3  3Bm N  ov 18, 2018 0 2:29:19.538726000  7
            69  14.69907532:32:32:32:32:3  5Bm N  ov 18, 2018 0 2:29:19.621577000  7
            70  16.63503932:32:32:32:32:3  5Bm N  ov 18, 2018 0 2:29:21.557541000  7
            71  16.84833732:32:32:32:32:3  4Bm N  ov 18, 2018 0 2:29:21.770839000  7
            72  16.94653232:32:32:32:32:3  5Bm N  ov 18, 2018 0 2:29:21.869034000  7
            73  17.38552432:32:32:32:32:3  5Bm N  ov 18, 2018 0 2:29:22.308026000  7
            74  17.69314632:32:32:32:32:3  7Bm N  ov 18, 2018 0 2:29:22.615648000  7
            75  17.70301532:32:32:32:32:3  3Bm N  ov 18, 2018 0 2:29:22.625517000  7
            76  1 7.7890532:32:32:32:32:3  5Bm N  ov 18, 2018 0 2:29:22.711552000  7
            77  17.80628432:32:32:32:32:3  4Bm N  ov 18, 2018 0 2:29:22.728786000  7
            78  17.83177532:32:32:32:32:3  6Bm N  ov 18, 2018 0 2:29:22.754277000  7
            79  17.99084332:32:32:32:32:3  6Bm N  ov 18, 2018 0 2:29:22.913345000  7
            80  17.99743232:32:32:32:32:3  6Bm N  ov 18, 2018 0 2:29:22.919934000  7
            81  18.03567332:32:32:32:32:3  4Bm N  ov 18, 2018 0 2:29:22.958175000  7
            82  18.27678332:32:32:32:32:3  4Bm N  ov 18, 2018 0 2:29:23.199285000  7
            83  18.59216932:32:32:32:32:3  6Bm N  ov 18, 2018 0 2:29:23.514671000  7
            84  18.92989832:32:32:32:32:3  5Bm N  ov 18, 2018 0 2:29:23.852400000  7
            85  18.98870132:32:32:32:32:3  5Bm N  ov 18, 2018 0 2:29:23.911203000  7
            86  19.08814432:32:32:32:32:3  4Bm N  ov 18, 2018 0 2:29:24.010646000  7
            87  19.38269632:32:32:32:32:3  6Bm N  ov 18, 2018 0 2:29:24.305198000  7
            88  19.46470732:32:32:32:32:3  6Bm N  ov 18, 2018 0 2:29:24.387209000  7
            89  19.80488932:32:32:32:32:3  4Bm N  ov 18, 2018 0 2:29:24.727391000  7
            90  19.97934732:32:32:32:32:3  3Bm N  ov 18, 2018 0 2:29:24.901849000  7
            91  20.47234832:32:32:32:32:3  0Bm N  ov 18, 2018 0 2:29:25.394850000  7
            92  21.67067232:32:32:32:32:3  5Bm N  ov 18, 2018 0 2:29:26.593174000  7
            93  21.69534832:32:32:32:32:3  5Bm N  ov 18, 2018 0 2:29:26.617850000  7
            94  21.74961232:32:32:32:32:3  4Bm N  ov 18, 2018 0 2:29:26.672114000  7
            95  22.26077532:32:32:32:32:3  4Bm N  ov 18, 2018 0 2:29:27.183277000  7
            96  22.42217432:32:32:32:32:3  7Bm N  ov 18, 2018 0 2:29:27.344676000  7
            97  22.45018832:32:32:32:32:3  5Bm N  ov 18, 2018 0 2:29:27.372690000  7
            98  22.47399632:32:32:32:32:3  6Bm N  ov 18, 2018 0 2:29:27.396498000  7
            99  2 2.5217232:32:32:32:32:3  6Bm N  ov 18, 2018 0 2:29:27.444222000  7
           100  2  2.526132:32:32:32:32:3  5Bm N  ov 18, 2018 0 2:29:27.448602000  7
           101  22.57667732:32:32:32:32:3  5Bm N  ov 18, 2018 0 2:29:27.499179000  7
           102  22.59478432:32:32:32:32:3  8Bm N  ov 18, 2018 0 2:29:27.517286000  7
           103  22.69145932:32:32:32:32:3  5Bm N  ov 18, 2018 0 2:29:27.613961000  7
           104  22.75939432:32:32:32:32:3  5Bm N  ov 18, 2018 0 2:29:27.681896000  7
           105  22.78234932:32:32:32:32:3  4Bm N  ov 18, 2018 0 2:29:27.704851000  7
           106  22.84397832:32:32:32:32:3  5Bm N  ov 18, 2018 0 2:29:27.766480000  7
           107  23.03116832:32:32:32:32:3  5Bm N  ov 18, 2018 0 2:29:27.953670000  7
           108  2 3.0431832:32:32:32:32:3  3Bm N  ov 18, 2018 0 2:29:27.965682000  7
           109  23.09334832:32:32:32:32:3  6Bm N  ov 18, 2018 0 2:29:28.015850000  7
           110  23.30870232:32:32:32:32:3  5Bm N  ov 18, 2018 0 2:29:28.231204000  7
           111  23.48737232:32:32:32:32:3  4Bm N  ov 18, 2018 0 2:29:28.409874000  7
           112  23.74979232:32:32:32:32:3  4Bm N  ov 18, 2018 0 2:29:28.672294000  7
           113  25.71300832:32:32:32:32:3  3Bm N  ov 18, 2018 0 2:29:30.635510000  7
           114  26.15768932:32:32:32:32:3  4Bm N  ov 18, 2018 0 2:29:31.080191000  7
           115  26.51237132:32:32:32:32:3  2Bm N  ov 18, 2018 0 2:29:31.434873000  7
           116  26.67576532:32:32:32:32:3  4Bm N  ov 18, 2018 0 2:29:31.598267000  7
           117  26.73780332:32:32:32:32:3  6Bm N  ov 18, 2018 0 2:29:31.660305000  7
           118  26.80054532:32:32:32:32:3  6Bm N  ov 18, 2018 0 2:29:31.723047000  7
           119  26.87333532:32:32:32:32:3  7Bm N  ov 18, 2018 0 2:29:31.795837000  7
           120  26.87901232:32:32:32:32:3  5Bm N  ov 18, 2018 0 2:29:31.801514000  7
           121  26.94448832:32:32:32:32:3  6Bm N  ov 18, 2018 0 2:29:31.866990000  7
           122  27.15720332:32:32:32:32:3  6Bm N  ov 18, 2018 0 2:29:32.079705000  7
           123  27.22537732:32:32:32:32:3  5Bm N  ov 18, 2018 0 2:29:32.147879000  7
           124  27.33777832:32:32:32:32:3  6Bm N  ov 18, 2018 0 2:29:32.260280000  7
           125  27.65293132:32:32:32:32:3  7Bm N  ov 18, 2018 0 2:29:32.575433000  7
           126  28.08084132:32:32:32:32:3  6Bm N  ov 18, 2018 0 2:29:33.003343000  7
           127  28.11659432:32:32:32:32:3  6Bm N  ov 18, 2018 0 2:29:33.039096000  7
           128  28.23972332:32:32:32:32:3  6Bm N  ov 18, 2018 0 2:29:33.162225000  7
           129  2 8.3698132:32:32:32:32:3  7Bm N  ov 18, 2018 0 2:29:33.292312000  7
           130  28.47480432:32:32:32:32:3  6Bm N  ov 18, 2018 0 2:29:33.397306000  7
           131  28.53620232:32:32:32:32:3  6Bm N  ov 18, 2018 0 2:29:33.458704000  7
           132  2 8.6405232:32:32:32:32:3  4Bm N  ov 18, 2018 0 2:29:33.563022000  7
           133  28.67548532:32:32:32:32:3  6Bm N  ov 18, 2018 0 2:29:33.597987000  7
           134  2 8.7374932:32:32:32:32:3  4Bm N  ov 18, 2018 0 2:29:33.659992000  7
           135  28.75772332:32:32:32:32:3  6Bm N  ov 18, 2018 0 2:29:33.680225000  7
           136  28.82712632:32:32:32:32:3  6Bm N  ov 18, 2018 0 2:29:33.749628000  7
           137  28.85711632:32:32:32:32:3  4Bm N  ov 18, 2018 0 2:29:33.779618000  7
           138  28.86530332:32:32:32:32:3  3Bm N  ov 18, 2018 0 2:29:33.787805000  7
           139  28.95791432:32:32:32:32:3  5Bm N  ov 18, 2018 0 2:29:33.880416000  7
           140  29.03079832:32:32:32:32:3  5Bm N  ov 18, 2018 0 2:29:33.953300000  7
           141  29.13882332:32:32:32:32:3  7Bm N  ov 18, 2018 0 2:29:34.061325000  7
           142  29.18246632:32:32:32:32:3  4Bm N  ov 18, 2018 0 2:29:34.104968000  7
           143  29.23869932:32:32:32:32:3  8Bm N  ov 18, 2018 0 2:29:34.161201000  7
           144  29.25870932:32:32:32:32:3  7Bm N  ov 18, 2018 0 2:29:34.181211000  7
           145  29.28863732:32:32:32:32:3  6Bm N  ov 18, 2018 0 2:29:34.211139000  7
           146  29.35819232:32:32:32:32:3  4Bm N  ov 18, 2018 0 2:29:34.280694000  7
           147  29.37297632:32:32:32:32:3  5Bm N  ov 18, 2018 0 2:29:34.295478000  7
           148  29.46350332:32:32:32:32:3  3Bm N  ov 18, 2018 0 2:29:34.386005000  7
           149  29.61480932:32:32:32:32:3  6Bm N  ov 18, 2018 0 2:29:34.537311000  7
           150  29.66793832:32:32:32:32:3  7Bm N  ov 18, 2018 0 2:29:34.590440000  7
           151  2 9.7156532:32:32:32:32:3  6Bm N  ov 18, 2018 0 2:29:34.638152000  7
           152  29.77061632:32:32:32:32:3  6Bm N  ov 18, 2018 0 2:29:34.693118000  7
           153  29.84736932:32:32:32:32:3  5Bm N  ov 18, 2018 0 2:29:34.769871000  7
           154  29.90497732:32:32:32:32:3  6Bm N  ov 18, 2018 0 2:29:34.827479000  7
           155  29.96675532:32:32:32:32:3  6Bm N  ov 18, 2018 0 2:29:34.889257000  7
           156  29.98727532:32:32:32:32:3  6Bm N  ov 18, 2018 0 2:29:34.909777000  7
           157  30.05065532:32:32:32:32:3  4Bm N  ov 18, 2018 0 2:29:34.973157000  7
           158  3 0.1197732:32:32:32:32:3  5Bm N  ov 18, 2018 0 2:29:35.042272000  7
           159  30.14441932:32:32:32:32:3  5Bm N  ov 18, 2018 0 2:29:35.066921000  7
           160  30.16146832:32:32:32:32:3  6Bm N  ov 18, 2018 0 2:29:35.083970000  7
           161  30.18391532:32:32:32:32:3  7Bm N  ov 18, 2018 0 2:29:35.106417000  7
           162  30.20497432:32:32:32:32:3  6Bm N  ov 18, 2018 0 2:29:35.127476000  7
           163  3 0.2355332:32:32:32:32:3  5Bm N  ov 18, 2018 0 2:29:35.158032000  7
           164  30.27373932:32:32:32:32:3  6Bm N  ov 18, 2018 0 2:29:35.196241000  7
           165  30.34868432:32:32:32:32:3  6Bm N  ov 18, 2018 0 2:29:35.271186000  7
           166  30.40616632:32:32:32:32:3  5Bm N  ov 18, 2018 0 2:29:35.328668000  7
           167  30.51662232:32:32:32:32:3  6Bm N  ov 18, 2018 0 2:29:35.439124000  7
           168  30.56380132:32:32:32:32:3  4Bm N  ov 18, 2018 0 2:29:35.486303000  7
           169  30.62097832:32:32:32:32:3  6Bm N  ov 18, 2018 0 2:29:35.543480000  7
           170  30.67869432:32:32:32:32:3  5Bm N  ov 18, 2018 0 2:29:35.601196000  7
           171  30.69720132:32:32:32:32:3  6Bm N  ov 18, 2018 0 2:29:35.619703000  7
           172  30.72338532:32:32:32:32:3  5Bm N  ov 18, 2018 0 2:29:35.645887000  7
           173  30.73855632:32:32:32:32:3  7Bm N  ov 18, 2018 0 2:29:35.661058000  7
           174  31.16609232:32:32:32:32:3  4Bm N  ov 18, 2018 0 2:29:36.088594000  7
           175  31.61438232:32:32:32:32:3  4Bm N  ov 18, 2018 0 2:29:36.536884000  7
           176  32.18626432:32:32:32:32:3  6Bm N  ov 18, 2018 0 2:29:37.108766000  7
           177  3 2.6501432:32:32:32:32:3  5Bm N  ov 18, 2018 0 2:29:37.572642000  7
           178  32.71176532:32:32:32:32:3  5Bm N  ov 18, 2018 0 2:29:37.634267000  7
           179  32.84261532:32:32:32:32:3  5Bm N  ov 18, 2018 0 2:29:37.765117000  7
           180  32.86868232:32:32:32:32:3  3Bm N  ov 18, 2018 0 2:29:37.791184000  7
           181  33.40315432:32:32:32:32:3  6Bm N  ov 18, 2018 0 2:29:38.325656000  7
           182  34.01794732:32:32:32:32:3  3Bm N  ov 18, 2018 0 2:29:38.940449000  7
           183  34.03485832:32:32:32:32:3  4Bm N  ov 18, 2018 0 2:29:38.957360000  7
           184  34.18673132:32:32:32:32:3  6Bm N  ov 18, 2018 0 2:29:39.109233000  7
           185  34.40714732:32:32:32:32:3  7Bm N  ov 18, 2018 0 2:29:39.329649000  7
           186  34.49801632:32:32:32:32:3  6Bm N  ov 18, 2018 0 2:29:39.420518000  7
           187  34.59703132:32:32:32:32:3  6Bm N  ov 18, 2018 0 2:29:39.519533000  7
           188  34.69416832:32:32:32:32:3  6Bm N  ov 18, 2018 0 2:29:39.616670000  7
           189  34.72399832:32:32:32:32:3  7Bm N  ov 18, 2018 0 2:29:39.646500000  7
           190  34.76773932:32:32:32:32:3  7Bm N  ov 18, 2018 0 2:29:39.690241000  7
           191  34.84944632:32:32:32:32:3  4Bm N  ov 18, 2018 0 2:29:39.771948000  7
           192  34.94444732:32:32:32:32:3  6Bm N  ov 18, 2018 0 2:29:39.866949000  7
           193  34.98441132:32:32:32:32:3  4Bm N  ov 18, 2018 0 2:29:39.906913000  7
           194  35.00784432:32:32:32:32:3  6Bm N  ov 18, 2018 0 2:29:39.930346000  7
           195  35.13812732:32:32:32:32:3  4Bm N  ov 18, 2018 0 2:29:40.060629000  7
           196  35.20391832:32:32:32:32:3  6Bm N  ov 18, 2018 0 2:29:40.126420000  7
           197  35.23535932:32:32:32:32:3  4Bm N  ov 18, 2018 0 2:29:40.157861000  7
           198  35.49144932:32:32:32:32:3  4Bm N  ov 18, 2018 0 2:29:40.413951000  7
           199  35.56071932:32:32:32:32:3  7Bm N  ov 18, 2018 0 2:29:40.483221000  7
           200  3 5.5798632:32:32:32:32:3  6Bm N  ov 18, 2018 0 2:29:40.502362000  7
           201  35.62000532:32:32:32:32:3  6Bm N  ov 18, 2018 0 2:29:40.542507000  7
           202  35.73579132:32:32:32:32:3  7Bm N  ov 18, 2018 0 2:29:40.658293000  7
           203  35.76335532:32:32:32:32:3  6Bm N  ov 18, 2018 0 2:29:40.685857000  7
           204  36.60915732:32:32:32:32:3  6Bm N  ov 18, 2018 0 2:29:41.531659000  7
           205  36.73732132:32:32:32:32:3  6Bm N  ov 18, 2018 0 2:29:41.659823000  7
           206  37.16618232:32:32:32:32:3  4Bm N  ov 18, 2018 0 2:29:42.088684000  7
           207  37.42235332:32:32:32:32:3  6Bm N  ov 18, 2018 0 2:29:42.344855000  7
           208  37.58101832:32:32:32:32:3  7Bm N  ov 18, 2018 0 2:29:42.503520000  7
           209  37.60793732:32:32:32:32:3  4Bm N  ov 18, 2018 0 2:29:42.530439000  7
           210  37.71919632:32:32:32:32:3  5Bm N  ov 18, 2018 0 2:29:42.641698000  7
           211  38.06832932:32:32:32:32:3  6Bm N  ov 18, 2018 0 2:29:42.990831000  7
           212  38.69208632:32:32:32:32:3  5Bm N  ov 18, 2018 0 2:29:43.614588000  7
           213  38.89534932:32:32:32:32:3  6Bm N  ov 18, 2018 0 2:29:43.817851000  7
           214  39.02563732:32:32:32:32:3  3Bm N  ov 18, 2018 0 2:29:43.948139000  7
           215  3 9.0797932:32:32:32:32:3  8Bm N  ov 18, 2018 0 2:29:44.002292000  7
           216  39.11025532:32:32:32:32:3  5Bm N  ov 18, 2018 0 2:29:44.032757000  7
           217  39.19451632:32:32:32:32:3  6Bm N  ov 18, 2018 0 2:29:44.117018000  7
           218  39.89962532:32:32:32:32:3  5Bm N  ov 18, 2018 0 2:29:44.822127000  7
           219  39.93589832:32:32:32:32:3  6Bm N  ov 18, 2018 0 2:29:44.858400000  7
           220  39.96138832:32:32:32:32:3  4Bm N  ov 18, 2018 0 2:29:44.883890000  7
           221  40.07307432:32:32:32:32:3  6Bm N  ov 18, 2018 0 2:29:44.995576000  7
           222  40.14897332:32:32:32:32:3  5Bm N  ov 18, 2018 0 2:29:45.071475000  7
           223  40.24858632:32:32:32:32:3  6Bm N  ov 18, 2018 0 2:29:45.171088000  7
           224  40.34259132:32:32:32:32:3  5Bm N  ov 18, 2018 0 2:29:45.265093000  7
           225  40.36928332:32:32:32:32:3  4Bm N  ov 18, 2018 0 2:29:45.291785000  7
           226  40.38596832:32:32:32:32:3  6Bm N  ov 18, 2018 0 2:29:45.308470000  7
           227  4 0.3968132:32:32:32:32:3  6Bm N  ov 18, 2018 0 2:29:45.319312000  7
           228  40.46072632:32:32:32:32:3  6Bm N  ov 18, 2018 0 2:29:45.383228000  7
           229  40.53503732:32:32:32:32:3  6Bm N  ov 18, 2018 0 2:29:45.457539000  7
           230  4 0.9712832:32:32:32:32:3  6Bm N  ov 18, 2018 0 2:29:45.893782000  7
           231  41.10899432:32:32:32:32:3  5Bm N  ov 18, 2018 0 2:29:46.031496000  7
           232  41.15196332:32:32:32:32:3  6Bm N  ov 18, 2018 0 2:29:46.074465000  7
           233  41.24471632:32:32:32:32:3  7Bm N  ov 18, 2018 0 2:29:46.167218000  7
           234  41.33743832:32:32:32:32:3  5Bm N  ov 18, 2018 0 2:29:46.259940000  7
           235  42.08966932:32:32:32:32:3  3Bm N  ov 18, 2018 0 2:29:47.012171000  7
           236  42.11017432:32:32:32:32:3  4Bm N  ov 18, 2018 0 2:29:47.032676000  7
           237  69.40400632:32:32:32:32:3  4Bm N  ov 18, 2018 0 2:30:14.326508000  7
           238  69.49438532:32:32:32:32:3  7Bm N  ov 18, 2018 0 2:30:14.416887000  7
           239  6 9.5373832:32:32:32:32:3  6Bm N  ov 18, 2018 0 2:30:14.459882000  7
           240  70.55776532:32:32:32:32:3  6Bm N  ov 18, 2018 0 2:30:15.480267000  7
           241  70.62138832:32:32:32:32:3  5Bm N  ov 18, 2018 0 2:30:15.543890000  7
           242  7 0.7777732:32:32:32:32:3  4Bm N  ov 18, 2018 0 2:30:15.700272000  7
           243  70.90842132:32:32:32:32:3  5Bm N  ov 18, 2018 0 2:30:15.830923000  7
           244  71.32670232:32:32:32:32:3  8Bm N  ov 18, 2018 0 2:30:16.249204000  7
           245  71.64315832:32:32:32:32:3  6Bm N  ov 18, 2018 0 2:30:16.565660000  7
           246  71.68570532:32:32:32:32:3  6Bm N  ov 18, 2018 0 2:30:16.608207000  7
           247  71.69487632:32:32:32:32:3  4Bm N  ov 18, 2018 0 2:30:16.617378000  7
           248  71.71300332:32:32:32:32:3  4Bm N  ov 18, 2018 0 2:30:16.635505000  7
           249  71.92818632:32:32:32:32:3  6Bm N  ov 18, 2018 0 2:30:16.850688000  7
           250  71.98386132:32:32:32:32:3  5Bm N  ov 18, 2018 0 2:30:16.906363000  7
           251  72.03045132:32:32:32:32:3  7Bm N  ov 18, 2018 0 2:30:16.952953000  7
           252  72.05993832:32:32:32:32:3  6Bm N  ov 18, 2018 0 2:30:16.982440000  7
           253  72.24373232:32:32:32:32:3  5Bm N  ov 18, 2018 0 2:30:17.166234000  7
           254  72.29711732:32:32:32:32:3  5Bm N  ov 18, 2018 0 2:30:17.219619000  7
           255  72.33503432:32:32:32:32:3  6Bm N  ov 18, 2018 0 2:30:17.257536000  7
           256  72.41562432:32:32:32:32:3  7Bm N  ov 18, 2018 0 2:30:17.338126000  7
           257  72.78157232:32:32:32:32:3  5Bm N  ov 18, 2018 0 2:30:17.704074000  7
           258  73.84387432:32:32:32:32:3  6Bm N  ov 18, 2018 0 2:30:18.766376000  7
           259  7  3.910132:32:32:32:32:3  5Bm N  ov 18, 2018 0 2:30:18.832602000  7
           260  74.52975232:32:32:32:32:3  6Bm N  ov 18, 2018 0 2:30:19.452254000  7
           261  74.61589832:32:32:32:32:3  5Bm N  ov 18, 2018 0 2:30:19.538400000  7
           262  7  5.009532:32:32:32:32:3  6Bm N  ov 18, 2018 0 2:30:19.932002000  7
           263  75.03990332:32:32:32:32:3  5Bm N  ov 18, 2018 0 2:30:19.962405000  7
           264  75.34844732:32:32:32:32:3  4Bm N  ov 18, 2018 0 2:30:20.270949000  7
           265  75.52013732:32:32:32:32:3  4Bm N  ov 18, 2018 0 2:30:20.442639000  7
           266  7 5.7933532:32:32:32:32:3  6Bm N  ov 18, 2018 0 2:30:20.715852000  7
           267  75.89522932:32:32:32:32:3  5Bm N  ov 18, 2018 0 2:30:20.817731000  7
           268  75.91735532:32:32:32:32:3  7Bm N  ov 18, 2018 0 2:30:20.839857000  7
           269  83.40806232:32:32:32:32:3  4Bm N  ov 18, 2018 0 2:30:28.330564000  7
           270  84.07352532:32:32:32:32:3  5Bm N  ov 18, 2018 0 2:30:28.996027000  7
           271  8 5.1220332:32:32:32:32:3  3Bm N  ov 18, 2018 0 2:30:30.044532000  7
           272  8 5.6823232:32:32:32:32:3  5Bm N  ov 18, 2018 0 2:30:30.604822000  7
           273  9 3.1328232:32:32:32:32:3  4Bm N  ov 18, 2018 0 2:30:38.055322000  7
           274  93.30807232:32:32:32:32:3  5Bm N  ov 18, 2018 0 2:30:38.230574000  7
           275  9 3.7815432:32:32:32:32:3  5Bm N  ov 18, 2018 0 2:30:38.704042000  7
           276  94.23167432:32:32:32:32:3  6Bm N  ov 18, 2018 0 2:30:39.154176000  7
           277  94.31916432:32:32:32:32:3  6Bm N  ov 18, 2018 0 2:30:39.241666000  7
           278  94.38057232:32:32:32:32:3  4Bm N  ov 18, 2018 0 2:30:39.303074000  7
           279  94.44184332:32:32:32:32:3  4Bm N  ov 18, 2018 0 2:30:39.364345000  7
           280  94.63731532:32:32:32:32:3  6Bm N  ov 18, 2018 0 2:30:39.559817000  7
           281  9 5.0480232:32:32:32:32:3  6Bm N  ov 18, 2018 0 2:30:39.970522000  7
           282  95.12394732:32:32:32:32:3  4Bm N  ov 18, 2018 0 2:30:40.046449000  7
           283  95.18703432:32:32:32:32:3  4Bm N  ov 18, 2018 0 2:30:40.109536000  7
           284  95.20504632:32:32:32:32:3  6Bm N  ov 18, 2018 0 2:30:40.127548000  7
           285  95.79797532:32:32:32:32:3  4Bm N  ov 18, 2018 0 2:30:40.720477000  7
           286  95.82734632:32:32:32:32:3  5Bm N  ov 18, 2018 0 2:30:40.749848000  7
           287  95.83921532:32:32:32:32:3  5Bm N  ov 18, 2018 0 2:30:40.761717000  7
           288  9 5.8605832:32:32:32:32:3  5Bm N  ov 18, 2018 0 2:30:40.783082000  7
           289  96.21533632:32:32:32:32:3  5Bm N  ov 18, 2018 0 2:30:41.137838000  7
           290  96.29986532:32:32:32:32:3  7Bm N  ov 18, 2018 0 2:30:41.222367000  7
           291  96.37320432:32:32:32:32:3  5Bm N  ov 18, 2018 0 2:30:41.295706000  7
           292  96.46909832:32:32:32:32:3  6Bm N  ov 18, 2018 0 2:30:41.391600000  7
           293  96.58694632:32:32:32:32:3  4Bm N  ov 18, 2018 0 2:30:41.509448000  7
           294  9 6.6260632:32:32:32:32:3  7Bm N  ov 18, 2018 0 2:30:41.548562000  7
           295  96.79489632:32:32:32:32:3  6Bm N  ov 18, 2018 0 2:30:41.717398000  7
           296  9  6.873832:32:32:32:32:3  6Bm N  ov 18, 2018 0 2:30:41.796302000  7
           297  97.29047232:32:32:32:32:3  4Bm N  ov 18, 2018 0 2:30:42.212974000  7
           298  97.32681432:32:32:32:32:3  4Bm N  ov 18, 2018 0 2:30:42.249316000  7
           299  98.28622632:32:32:32:32:3  2Bm N  ov 18, 2018 0 2:30:43.208728000  7
           300 103.89762332:32:32:32:32:3  4Bm N  ov 18, 2018 0 2:30:48.820125000  7
           301 105.65854332:32:32:32:32:3  5Bm N  ov 18, 2018 0 2:30:50.581045000  7
           302 108.16202432:32:32:32:32:3  4Bm N  ov 18, 2018 0 2:30:53.084526000  7
           303 109.30554232:32:32:32:32:3  5Bm N  ov 18, 2018 0 2:30:54.228044000  7
           304 110.13635532:32:32:32:32:3  3Bm N  ov 18, 2018 0 2:30:55.058857000  7
           305 110.34052732:32:32:32:32:3  4Bm N  ov 18, 2018 0 2:30:55.263029000  7
           306 111.18453532:32:32:32:32:3  5Bm N  ov 18, 2018 0 2:30:56.107037000  7
           307 112.11036332:32:32:32:32:3  5Bm N  ov 18, 2018 0 2:30:57.032865000  7
           308 112.18158432:32:32:32:32:3  6Bm N  ov 18, 2018 0 2:30:57.104086000  7
           309 112.60289232:32:32:32:32:3  5Bm N  ov 18, 2018 0 2:30:57.525394000  7
           310 112.68274132:32:32:32:32:3  5Bm N  ov 18, 2018 0 2:30:57.605243000  7
           311 114.88765432:32:32:32:32:3  4Bm N  ov 18, 2018 0 2:30:59.810156000  7
           312 115.68229732:32:32:32:32:3  3Bm N  ov 18, 2018 0 2:31:00.604799000  7
           313 118.70899232:32:32:32:32:3  4Bm N  ov 18, 2018 0 2:31:03.631494000  7
           314 119.29962632:32:32:32:32:3  4Bm N  ov 18, 2018 0 2:31:04.222128000  7
           315 119.37044532:32:32:32:32:3  5Bm N  ov 18, 2018 0 2:31:04.292947000  7
           316 119.45143132:32:32:32:32:3  4Bm N  ov 18, 2018 0 2:31:04.373933000  7
           317 119.87985632:32:32:32:32:3  5Bm N  ov 18, 2018 0 2:31:04.802358000  7
           318 120.45213932:32:32:32:32:3  5Bm N  ov 18, 2018 0 2:31:05.374641000  7
           319 121.21835732:32:32:32:32:3  4Bm N  ov 18, 2018 0 2:31:06.140859000  7
           320 121.53402732:32:32:32:32:3  6Bm N  ov 18, 2018 0 2:31:06.456529000  7
           321 123.45311132:32:32:32:32:3  4Bm N  ov 18, 2018 0 2:31:08.375613000  7
           322 123.52303232:32:32:32:32:3  4Bm N  ov 18, 2018 0 2:31:08.445534000  7
           323 124.97107932:32:32:32:32:3  4Bm N  ov 18, 2018 0 2:31:09.893581000  7
           324 126.44677232:32:32:32:32:3  5Bm N  ov 18, 2018 0 2:31:11.369274000  7
           325 126.78367832:32:32:32:32:3  6Bm N  ov 18, 2018 0 2:31:11.706180000  7
           326 162.27260532:32:32:32:32:3  5Bm N  ov 18, 2018 0 2:31:47.195107000  7
           327 162.49895132:32:32:32:32:3  7Bm N  ov 18, 2018 0 2:31:47.421453000  7
           328 162.99742132:32:32:32:32:3  5Bm N  ov 18, 2018 0 2:31:47.919923000  7
           329 16 3.0460532:32:32:32:32:3  6Bm N  ov 18, 2018 0 2:31:47.968552000  7
           330 163.48381532:32:32:32:32:3  6Bm N  ov 18, 2018 0 2:31:48.406317000  7
           331 163.53741732:32:32:32:32:3  4Bm N  ov 18, 2018 0 2:31:48.459919000  7
           332 163.73018532:32:32:32:32:3  6Bm N  ov 18, 2018 0 2:31:48.652687000  7
           333 163.74926132:32:32:32:32:3  4Bm N  ov 18, 2018 0 2:31:48.671763000  7
           334 164.03447232:32:32:32:32:3  7Bm N  ov 18, 2018 0 2:31:48.956974000  7
           335 164.08319632:32:32:32:32:3  7Bm N  ov 18, 2018 0 2:31:49.005698000  7
           336 164.33402232:32:32:32:32:3  6Bm N  ov 18, 2018 0 2:31:49.256524000  7
           337 16 4.3535732:32:32:32:32:3  5Bm N  ov 18, 2018 0 2:31:49.276072000  7
           338 164.53211232:32:32:32:32:3  5Bm N  ov 18, 2018 0 2:31:49.454614000  7
           339 166.16999232:32:32:32:32:3  6Bm N  ov 18, 2018 0 2:31:51.092494000  7
           340 166.19698232:32:32:32:32:3  6Bm N  ov 18, 2018 0 2:31:51.119484000  7
           341 166.22068332:32:32:32:32:3  5Bm N  ov 18, 2018 0 2:31:51.143185000  7
           342 166.24937632:32:32:32:32:3  5Bm N  ov 18, 2018 0 2:31:51.171878000  7
           343 166.73215632:32:32:32:32:3  6Bm N  ov 18, 2018 0 2:31:51.654658000  7
           344 166.81985132:32:32:32:32:3  6Bm N  ov 18, 2018 0 2:31:51.742353000  7
           345 167.07950932:32:32:32:32:3  5Bm N  ov 18, 2018 0 2:31:52.002011000  7
           346 167.16024232:32:32:32:32:3  4Bm N  ov 18, 2018 0 2:31:52.082744000  7
           347 167.55253532:32:32:32:32:3  2Bm N  ov 18, 2018 0 2:31:52.475037000  7
           348 16 7.9103232:32:32:32:32:3  6Bm N  ov 18, 2018 0 2:31:52.832822000  7
           349 167.94534732:32:32:32:32:3  5Bm N  ov 18, 2018 0 2:31:52.867849000  7
           350 167.94680632:32:32:32:32:3  8Bm N  ov 18, 2018 0 2:31:52.869308000  7
           351 167.96230332:32:32:32:32:3  4Bm N  ov 18, 2018 0 2:31:52.884805000  7
           352 168.48700232:32:32:32:32:3  5Bm N  ov 18, 2018 0 2:31:53.409504000  7
           353 169.18251132:32:32:32:32:3  6Bm N  ov 18, 2018 0 2:31:54.105013000  7
           354 169.60796332:32:32:32:32:3  2Bm N  ov 18, 2018 0 2:31:54.530465000  7
           355 169.69198732:32:32:32:32:3  6Bm N  ov 18, 2018 0 2:31:54.614489000  7
           356 169.71018132:32:32:32:32:3  4Bm N  ov 18, 2018 0 2:31:54.632683000  7
           357 169.74028132:32:32:32:32:3  8Bm N  ov 18, 2018 0 2:31:54.662783000  7
           358 169.76340532:32:32:32:32:3  6Bm N  ov 18, 2018 0 2:31:54.685907000  7
           359 169.79154332:32:32:32:32:3  6Bm N  ov 18, 2018 0 2:31:54.714045000  7
           360 169.92152532:32:32:32:32:3  5Bm N  ov 18, 2018 0 2:31:54.844027000  7
           361 171.14321332:32:32:32:32:3  5Bm N  ov 18, 2018 0 2:31:56.065715000  7
           362 171.40425232:32:32:32:32:3  6Bm N  ov 18, 2018 0 2:31:56.326754000  7
           363 171.43883632:32:32:32:32:3  7Bm N  ov 18, 2018 0 2:31:56.361338000  7
           364 171.47668632:32:32:32:32:3  6Bm N  ov 18, 2018 0 2:31:56.399188000  7
           365 171.52899132:32:32:32:32:3  8Bm N  ov 18, 2018 0 2:31:56.451493000  7
           366 171.64242732:32:32:32:32:3  6Bm N  ov 18, 2018 0 2:31:56.564929000  7
           367 172.18068432:32:32:32:32:3  5Bm N  ov 18, 2018 0 2:31:57.103186000  7
           368 172.48680732:32:32:32:32:3  7Bm N  ov 18, 2018 0 2:31:57.409309000  7
           369 173.76880632:32:32:32:32:3  5Bm N  ov 18, 2018 0 2:31:58.691308000  7
           370 173.90527632:32:32:32:32:3  6Bm N  ov 18, 2018 0 2:31:58.827778000  7
           371 173.93020832:32:32:32:32:3  4Bm N  ov 18, 2018 0 2:31:58.852710000  7
           372 174.09345232:32:32:32:32:3  6Bm N  ov 18, 2018 0 2:31:59.015954000  7
           373 174.35090332:32:32:32:32:3  6Bm N  ov 18, 2018 0 2:31:59.273405000  7
           374 175.79044332:32:32:32:32:3  6Bm N  ov 18, 2018 0 2:32:00.712945000  7
           375 179.01206732:32:32:32:32:3  4Bm N  ov 18, 2018 0 2:32:03.934569000  7
           376 181.31431732:32:32:32:32:3  4Bm N  ov 18, 2018 0 2:32:06.236819000  7
           377 187.67442632:32:32:32:32:3  6Bm N  ov 18, 2018 0 2:32:12.596928000  7
