                1       032:32:32:32:32:3 5dBm N  ov 18, 2018 0 2:45:48.590797000  7          1
                20.12243632:32:32:32:32:3 6dBm N  ov 18, 2018 0 2:45:48.713233000  7          9
                30.21952632:32:32:32:32:3 5dBm N  ov 18, 2018 0 2:45:48.810323000  7        ###
                40.24549932:32:32:32:32:3 4dBm N  ov 18, 2018 0 2:45:48.836296000  7        ###
                50.46136932:32:32:32:32:3 4dBm N  ov 18, 2018 0 2:45:49.052166000  7        ###
                60.74509532:32:32:32:32:3 4dBm N  ov 18, 2018 0 2:45:49.335892000  7
                70.81447432:32:32:32:32:3 4dBm N  ov 18, 2018 0 2:45:49.405271000  7
                8 0.9642632:32:32:32:32:3 6dBm N  ov 18, 2018 0 2:45:49.555057000  7
                91.02005932:32:32:32:32:3 4dBm N  ov 18, 2018 0 2:45:49.610856000  7
               10 1.2033232:32:32:32:32:3 7dBm N  ov 18, 2018 0 2:45:49.794117000  7
               111.31678432:32:32:32:32:3 5dBm N  ov 18, 2018 0 2:45:49.907581000  7
               122.58992432:32:32:32:32:3 7dBm N  ov 18, 2018 0 2:45:51.180721000  7
               133.04084232:32:32:32:32:3 5dBm N  ov 18, 2018 0 2:45:51.631639000  7
               14 4.1675132:32:32:32:32:3 8dBm N  ov 18, 2018 0 2:45:52.758307000  7
               154.67646932:32:32:32:32:3 6dBm N  ov 18, 2018 0 2:45:53.267266000  7
               164.80688432:32:32:32:32:3 5dBm N  ov 18, 2018 0 2:45:53.397681000  7
               17 5.3854732:32:32:32:32:3 7dBm N  ov 18, 2018 0 2:45:53.976267000  7
               185.64314732:32:32:32:32:3 5dBm N  ov 18, 2018 0 2:45:54.233944000  7
               19 6.3162132:32:32:32:32:3 4dBm N  ov 18, 2018 0 2:45:54.907007000  7
               206.79564232:32:32:32:32:3 6dBm N  ov 18, 2018 0 2:45:55.386439000  7
               21 7.0254332:32:32:32:32:3 6dBm N  ov 18, 2018 0 2:45:55.616227000  7
               227.14517432:32:32:32:32:3 6dBm N  ov 18, 2018 0 2:45:55.735971000  7
               237.24422132:32:32:32:32:3 7dBm N  ov 18, 2018 0 2:45:55.835018000  7
               247.56624632:32:32:32:32:3 6dBm N  ov 18, 2018 0 2:45:56.157043000  7
               257.60392832:32:32:32:32:3 6dBm N  ov 18, 2018 0 2:45:56.194725000  7
               267.67246232:32:32:32:32:3 7dBm N  ov 18, 2018 0 2:45:56.263259000  7
               277.77902432:32:32:32:32:3 5dBm N  ov 18, 2018 0 2:45:56.369821000  7
               287.80422432:32:32:32:32:3 5dBm N  ov 18, 2018 0 2:45:56.395021000  7
               298.08817632:32:32:32:32:3 6dBm N  ov 18, 2018 0 2:45:56.678973000  7
               308.15047932:32:32:32:32:3 6dBm N  ov 18, 2018 0 2:45:56.741276000  7
               31 8.1853232:32:32:32:32:3 6dBm N  ov 18, 2018 0 2:45:56.776117000  7
               328.30322532:32:32:32:32:3 5dBm N  ov 18, 2018 0 2:45:56.894022000  7
               338.32411832:32:32:32:32:3 6dBm N  ov 18, 2018 0 2:45:56.914915000  7
               348.37653732:32:32:32:32:3 7dBm N  ov 18, 2018 0 2:45:56.967334000  7
               358.56472332:32:32:32:32:3 6dBm N  ov 18, 2018 0 2:45:57.155520000  7
               368.66805832:32:32:32:32:3 7dBm N  ov 18, 2018 0 2:45:57.258855000  7
               378.73674632:32:32:32:32:3 6dBm N  ov 18, 2018 0 2:45:57.327543000  7
               388.84004732:32:32:32:32:3 5dBm N  ov 18, 2018 0 2:45:57.430844000  7
               398.95355532:32:32:32:32:3 4dBm N  ov 18, 2018 0 2:45:57.544352000  7
               408.98744132:32:32:32:32:3 6dBm N  ov 18, 2018 0 2:45:57.578238000  7
               419.01867132:32:32:32:32:3 5dBm N  ov 18, 2018 0 2:45:57.609468000  7
               429.07169132:32:32:32:32:3 6dBm N  ov 18, 2018 0 2:45:57.662488000  7
               439.42276832:32:32:32:32:3 6dBm N  ov 18, 2018 0 2:45:58.013565000  7
               449.52770632:32:32:32:32:3 6dBm N  ov 18, 2018 0 2:45:58.118503000  7
               459.65289132:32:32:32:32:3 7dBm N  ov 18, 2018 0 2:45:58.243688000  7
               469.68303432:32:32:32:32:3 7dBm N  ov 18, 2018 0 2:45:58.273831000  7
               479.87573732:32:32:32:32:3 5dBm N  ov 18, 2018 0 2:45:58.466534000  7
               489.93590132:32:32:32:32:3 5dBm N  ov 18, 2018 0 2:45:58.526698000  7
               499.97194932:32:32:32:32:3 6dBm N  ov 18, 2018 0 2:45:58.562746000  7
            50  10.06397832:32:32:32:32:3 3dBm N  ov 18, 2018 0 2:45:58.654775000  7
            51  10.10207132:32:32:32:32:3 6dBm N  ov 18, 2018 0 2:45:58.692868000  7
            52  10.18017132:32:32:32:32:3 6dBm N  ov 18, 2018 0 2:45:58.770968000  7
            53  10.27390632:32:32:32:32:3 7dBm N  ov 18, 2018 0 2:45:58.864703000  7
            54  10.33688332:32:32:32:32:3 6dBm N  ov 18, 2018 0 2:45:58.927680000  7
            55  10.55117432:32:32:32:32:3 6dBm N  ov 18, 2018 0 2:45:59.141971000  7
            56  10.59719332:32:32:32:32:3 5dBm N  ov 18, 2018 0 2:45:59.187990000  7
            57  10.65393932:32:32:32:32:3 6dBm N  ov 18, 2018 0 2:45:59.244736000  7
            58  10.69928432:32:32:32:32:3 5dBm N  ov 18, 2018 0 2:45:59.290081000  7
            59  10.79150632:32:32:32:32:3 5dBm N  ov 18, 2018 0 2:45:59.382303000  7
            60  10.99417732:32:32:32:32:3 6dBm N  ov 18, 2018 0 2:45:59.584974000  7
            61  11.02867532:32:32:32:32:3 5dBm N  ov 18, 2018 0 2:45:59.619472000  7
            62  11.05749832:32:32:32:32:3 6dBm N  ov 18, 2018 0 2:45:59.648295000  7
            63  11.10570832:32:32:32:32:3 6dBm N  ov 18, 2018 0 2:45:59.696505000  7
            64  11.16240632:32:32:32:32:3 5dBm N  ov 18, 2018 0 2:45:59.753203000  7
            65  11.27679332:32:32:32:32:3 5dBm N  ov 18, 2018 0 2:45:59.867590000  7
            66  11.30988432:32:32:32:32:3 5dBm N  ov 18, 2018 0 2:45:59.900681000  7
            67  11.33442132:32:32:32:32:3 5dBm N  ov 18, 2018 0 2:45:59.925218000  7
            68  11.40171732:32:32:32:32:3 1dBm N  ov 18, 2018 0 2:45:59.992514000  7
            69  11.43405132:32:32:32:32:3 6dBm N  ov 18, 2018 0 2:46:00.024848000  7
            70  11.47911832:32:32:32:32:3 6dBm N  ov 18, 2018 0 2:46:00.069915000  7
            71  11.52676832:32:32:32:32:3 5dBm N  ov 18, 2018 0 2:46:00.117565000  7
            72  11.64714732:32:32:32:32:3 3dBm N  ov 18, 2018 0 2:46:00.237944000  7
            73  11.67536232:32:32:32:32:3 5dBm N  ov 18, 2018 0 2:46:00.266159000  7
            74  11.72702932:32:32:32:32:3 5dBm N  ov 18, 2018 0 2:46:00.317826000  7
            75  11.75140632:32:32:32:32:3 3dBm N  ov 18, 2018 0 2:46:00.342203000  7
            76  11.97456432:32:32:32:32:3 7dBm N  ov 18, 2018 0 2:46:00.565361000  7
            77  12.10896532:32:32:32:32:3 3dBm N  ov 18, 2018 0 2:46:00.699762000  7
            78  12.25437732:32:32:32:32:3 5dBm N  ov 18, 2018 0 2:46:00.845174000  7
            79  12.38121832:32:32:32:32:3 6dBm N  ov 18, 2018 0 2:46:00.972015000  7
            80  12.44230532:32:32:32:32:3 5dBm N  ov 18, 2018 0 2:46:01.033102000  7
            81  12.46853932:32:32:32:32:3 6dBm N  ov 18, 2018 0 2:46:01.059336000  7
            82  12.49763932:32:32:32:32:3 6dBm N  ov 18, 2018 0 2:46:01.088436000  7
            83  1 2.5438232:32:32:32:32:3 6dBm N  ov 18, 2018 0 2:46:01.134617000  7
            84  12.55700732:32:32:32:32:3 7dBm N  ov 18, 2018 0 2:46:01.147804000  7
            85  12.60980832:32:32:32:32:3 7dBm N  ov 18, 2018 0 2:46:01.200605000  7
            86  12.63264932:32:32:32:32:3 6dBm N  ov 18, 2018 0 2:46:01.223446000  7
            87  12.69562432:32:32:32:32:3 3dBm N  ov 18, 2018 0 2:46:01.286421000  7
            88  12.72927332:32:32:32:32:3 7dBm N  ov 18, 2018 0 2:46:01.320070000  7
            89  12.79228732:32:32:32:32:3 4dBm N  ov 18, 2018 0 2:46:01.383084000  7
            90  12.94733432:32:32:32:32:3 5dBm N  ov 18, 2018 0 2:46:01.538131000  7
            91  13.00517632:32:32:32:32:3 4dBm N  ov 18, 2018 0 2:46:01.595973000  7
            92  13.05009832:32:32:32:32:3 6dBm N  ov 18, 2018 0 2:46:01.640895000  7
            93  13.13964632:32:32:32:32:3 5dBm N  ov 18, 2018 0 2:46:01.730443000  7
            94  13.15713332:32:32:32:32:3 6dBm N  ov 18, 2018 0 2:46:01.747930000  7
            95  13.23664232:32:32:32:32:3 5dBm N  ov 18, 2018 0 2:46:01.827439000  7
            96  13.40761232:32:32:32:32:3 5dBm N  ov 18, 2018 0 2:46:01.998409000  7
            97  13.44553932:32:32:32:32:3 6dBm N  ov 18, 2018 0 2:46:02.036336000  7
            98  13.47362732:32:32:32:32:3 6dBm N  ov 18, 2018 0 2:46:02.064424000  7
            99  13.48798932:32:32:32:32:3 5dBm N  ov 18, 2018 0 2:46:02.078786000  7
           100  13.50785332:32:32:32:32:3 5dBm N  ov 18, 2018 0 2:46:02.098650000  7
           101  13.69355532:32:32:32:32:3 7dBm N  ov 18, 2018 0 2:46:02.284352000  7
           102  13.79236232:32:32:32:32:3 5dBm N  ov 18, 2018 0 2:46:02.383159000  7
           103  13.95382532:32:32:32:32:3 6dBm N  ov 18, 2018 0 2:46:02.544622000  7
           104  14.20055132:32:32:32:32:3 7dBm N  ov 18, 2018 0 2:46:02.791348000  7
           105  14.24021232:32:32:32:32:3 6dBm N  ov 18, 2018 0 2:46:02.831009000  7
           106  14.33707332:32:32:32:32:3 6dBm N  ov 18, 2018 0 2:46:02.927870000  7
           107  14.37349332:32:32:32:32:3 7dBm N  ov 18, 2018 0 2:46:02.964290000  7
           108  14.40508132:32:32:32:32:3 5dBm N  ov 18, 2018 0 2:46:02.995878000  7
           109  14.44622832:32:32:32:32:3 5dBm N  ov 18, 2018 0 2:46:03.037025000  7
           110  14.47087632:32:32:32:32:3 5dBm N  ov 18, 2018 0 2:46:03.061673000  7
           111  14.49096532:32:32:32:32:3 2dBm N  ov 18, 2018 0 2:46:03.081762000  7
           112  14.54304632:32:32:32:32:3 6dBm N  ov 18, 2018 0 2:46:03.133843000  7
           113  14.82866932:32:32:32:32:3 6dBm N  ov 18, 2018 0 2:46:03.419466000  7
           114  14.87043832:32:32:32:32:3 6dBm N  ov 18, 2018 0 2:46:03.461235000  7
           115  14.88243632:32:32:32:32:3 5dBm N  ov 18, 2018 0 2:46:03.473233000  7
           116  15.00543532:32:32:32:32:3 5dBm N  ov 18, 2018 0 2:46:03.596232000  7
           117  16.02029632:32:32:32:32:3 7dBm N  ov 18, 2018 0 2:46:04.611093000  7
           118  17.60929532:32:32:32:32:3 5dBm N  ov 18, 2018 0 2:46:06.200092000  7
           119  1 7.6270532:32:32:32:32:3 6dBm N  ov 18, 2018 0 2:46:06.217847000  7
           120  1 7.8146232:32:32:32:32:3 7dBm N  ov 18, 2018 0 2:46:06.405417000  7
           121  18.03521732:32:32:32:32:3 6dBm N  ov 18, 2018 0 2:46:06.626014000  7
           122  18.39142832:32:32:32:32:3 5dBm N  ov 18, 2018 0 2:46:06.982225000  7
           123  18.63775932:32:32:32:32:3 5dBm N  ov 18, 2018 0 2:46:07.228556000  7
           124  18.70791632:32:32:32:32:3 6dBm N  ov 18, 2018 0 2:46:07.298713000  7
           125  20.31619432:32:32:32:32:3 7dBm N  ov 18, 2018 0 2:46:08.906991000  7
           126  2 0.3555532:32:32:32:32:3 7dBm N  ov 18, 2018 0 2:46:08.946347000  7
           127  21.68720732:32:32:32:32:3 5dBm N  ov 18, 2018 0 2:46:10.278004000  7
           128  22.00267932:32:32:32:32:3 5dBm N  ov 18, 2018 0 2:46:10.593476000  7
           129  22.11331132:32:32:32:32:3 6dBm N  ov 18, 2018 0 2:46:10.704108000  7
           130  23.85044332:32:32:32:32:3 5dBm N  ov 18, 2018 0 2:46:12.441240000  7
           131  23.92575832:32:32:32:32:3 5dBm N  ov 18, 2018 0 2:46:12.516555000  7
           132  24.06177932:32:32:32:32:3 4dBm N  ov 18, 2018 0 2:46:12.652576000  7
           133  24.11349932:32:32:32:32:3 4dBm N  ov 18, 2018 0 2:46:12.704296000  7
           134  24.15949232:32:32:32:32:3 6dBm N  ov 18, 2018 0 2:46:12.750289000  7
           135  24.18503732:32:32:32:32:3 4dBm N  ov 18, 2018 0 2:46:12.775834000  7
           136  24.20007832:32:32:32:32:3 5dBm N  ov 18, 2018 0 2:46:12.790875000  7
           137  24.49285932:32:32:32:32:3 5dBm N  ov 18, 2018 0 2:46:13.083656000  7
           138  26.50595332:32:32:32:32:3 4dBm N  ov 18, 2018 0 2:46:15.096750000  7
           139  26.58369932:32:32:32:32:3 3dBm N  ov 18, 2018 0 2:46:15.174496000  7
           140  26.81083332:32:32:32:32:3 6dBm N  ov 18, 2018 0 2:46:15.401630000  7
           141  2 6.8885632:32:32:32:32:3 6dBm N  ov 18, 2018 0 2:46:15.479357000  7
           142  27.30600532:32:32:32:32:3 4dBm N  ov 18, 2018 0 2:46:15.896802000  7
           143  27.58947532:32:32:32:32:3 5dBm N  ov 18, 2018 0 2:46:16.180272000  7
           144  27.70769832:32:32:32:32:3 6dBm N  ov 18, 2018 0 2:46:16.298495000  7
           145  27.87215732:32:32:32:32:3 7dBm N  ov 18, 2018 0 2:46:16.462954000  7
           146  27.89539232:32:32:32:32:3 5dBm N  ov 18, 2018 0 2:46:16.486189000  7
           147  2  7.990532:32:32:32:32:3 6dBm N  ov 18, 2018 0 2:46:16.581297000  7
           148  28.04966232:32:32:32:32:3 7dBm N  ov 18, 2018 0 2:46:16.640459000  7
           149  28.07219532:32:32:32:32:3 5dBm N  ov 18, 2018 0 2:46:16.662992000  7
           150  28.10830432:32:32:32:32:3 5dBm N  ov 18, 2018 0 2:46:16.699101000  7
           151  2 8.1428832:32:32:32:32:3 8dBm N  ov 18, 2018 0 2:46:16.733677000  7
           152  28.14364832:32:32:32:32:3 6dBm N  ov 18, 2018 0 2:46:16.734445000  7
           153  28.24231432:32:32:32:32:3 6dBm N  ov 18, 2018 0 2:46:16.833111000  7
           154  28.27853132:32:32:32:32:3 7dBm N  ov 18, 2018 0 2:46:16.869328000  7
           155  28.34237432:32:32:32:32:3 6dBm N  ov 18, 2018 0 2:46:16.933171000  7
           156  28.36996332:32:32:32:32:3 4dBm N  ov 18, 2018 0 2:46:16.960760000  7
           157  2 8.9184832:32:32:32:32:3 5dBm N  ov 18, 2018 0 2:46:17.509277000  7
           158  28.96328132:32:32:32:32:3 7dBm N  ov 18, 2018 0 2:46:17.554078000  7
           159  29.26188532:32:32:32:32:3 6dBm N  ov 18, 2018 0 2:46:17.852682000  7
           160  29.36079632:32:32:32:32:3 6dBm N  ov 18, 2018 0 2:46:17.951593000  7
           161  29.41659432:32:32:32:32:3 6dBm N  ov 18, 2018 0 2:46:18.007391000  7
           162  29.46203532:32:32:32:32:3 6dBm N  ov 18, 2018 0 2:46:18.052832000  7
           163  29.48170432:32:32:32:32:3 5dBm N  ov 18, 2018 0 2:46:18.072501000  7
           164  29.70127332:32:32:32:32:3 4dBm N  ov 18, 2018 0 2:46:18.292070000  7
           165  29.75950532:32:32:32:32:3 4dBm N  ov 18, 2018 0 2:46:18.350302000  7
           166  29.78397732:32:32:32:32:3 1dBm N  ov 18, 2018 0 2:46:18.374774000  7
           167  29.81880832:32:32:32:32:3 6dBm N  ov 18, 2018 0 2:46:18.409605000  7
           168  29.83559632:32:32:32:32:3 7dBm N  ov 18, 2018 0 2:46:18.426393000  7
           169  30.13140432:32:32:32:32:3 3dBm N  ov 18, 2018 0 2:46:18.722201000  7
           170  30.19621232:32:32:32:32:3 6dBm N  ov 18, 2018 0 2:46:18.787009000  7
           171  30.30721632:32:32:32:32:3 6dBm N  ov 18, 2018 0 2:46:18.898013000  7
           172  30.48808632:32:32:32:32:3 7dBm N  ov 18, 2018 0 2:46:19.078883000  7
           173  30.50109632:32:32:32:32:3 6dBm N  ov 18, 2018 0 2:46:19.091893000  7
           174  30.55192532:32:32:32:32:3 6dBm N  ov 18, 2018 0 2:46:19.142722000  7
           175  30.56546632:32:32:32:32:3 5dBm N  ov 18, 2018 0 2:46:19.156263000  7
           176  3 0.5927632:32:32:32:32:3 6dBm N  ov 18, 2018 0 2:46:19.183557000  7
           177  30.61859532:32:32:32:32:3 6dBm N  ov 18, 2018 0 2:46:19.209392000  7
           178  31.03455732:32:32:32:32:3 4dBm N  ov 18, 2018 0 2:46:19.625354000  7
           179  31.12068732:32:32:32:32:3 5dBm N  ov 18, 2018 0 2:46:19.711484000  7
           180  31.27534632:32:32:32:32:3 5dBm N  ov 18, 2018 0 2:46:19.866143000  7
           181  32.79171532:32:32:32:32:3 7dBm N  ov 18, 2018 0 2:46:21.382512000  7
           182  33.35900832:32:32:32:32:3 8dBm N  ov 18, 2018 0 2:46:21.949805000  7
           183  33.93878332:32:32:32:32:3 4dBm N  ov 18, 2018 0 2:46:22.529580000  7
           184  34.25248132:32:32:32:32:3 2dBm N  ov 18, 2018 0 2:46:22.843278000  7
           185  34.39714132:32:32:32:32:3 6dBm N  ov 18, 2018 0 2:46:22.987938000  7
           186  34.53093432:32:32:32:32:3 7dBm N  ov 18, 2018 0 2:46:23.121731000  7
           187  35.52332432:32:32:32:32:3 6dBm N  ov 18, 2018 0 2:46:24.114121000  7
           188  35.58479432:32:32:32:32:3 6dBm N  ov 18, 2018 0 2:46:24.175591000  7
           189  36.11104532:32:32:32:32:3 6dBm N  ov 18, 2018 0 2:46:24.701842000  7
           190  36.23819532:32:32:32:32:3 4dBm N  ov 18, 2018 0 2:46:24.828992000  7
           191  36.26924632:32:32:32:32:3 8dBm N  ov 18, 2018 0 2:46:24.860043000  7
           192  36.30369732:32:32:32:32:3 6dBm N  ov 18, 2018 0 2:46:24.894494000  7
           193  36.36015932:32:32:32:32:3 8dBm N  ov 18, 2018 0 2:46:24.950956000  7
           194  3 6.3824432:32:32:32:32:3 7dBm N  ov 18, 2018 0 2:46:24.973237000  7
           195  36.46297932:32:32:32:32:3 5dBm N  ov 18, 2018 0 2:46:25.053776000  7
           196  36.77558332:32:32:32:32:3 3dBm N  ov 18, 2018 0 2:46:25.366380000  7
           197  37.63902632:32:32:32:32:3 4dBm N  ov 18, 2018 0 2:46:26.229823000  7
           198  37.96790932:32:32:32:32:3 7dBm N  ov 18, 2018 0 2:46:26.558706000  7
           199  38.78676632:32:32:32:32:3 6dBm N  ov 18, 2018 0 2:46:27.377563000  7
           200  38.83397632:32:32:32:32:3 6dBm N  ov 18, 2018 0 2:46:27.424773000  7
           201  38.85748632:32:32:32:32:3 5dBm N  ov 18, 2018 0 2:46:27.448283000  7
           202  39.11763932:32:32:32:32:3 4dBm N  ov 18, 2018 0 2:46:27.708436000  7
           203  39.16746232:32:32:32:32:3 5dBm N  ov 18, 2018 0 2:46:27.758259000  7
           204  39.84583432:32:32:32:32:3 4dBm N  ov 18, 2018 0 2:46:28.436631000  7
           205  39.93481532:32:32:32:32:3 9dBm N  ov 18, 2018 0 2:46:28.525612000  7
           206  39.97526732:32:32:32:32:3 4dBm N  ov 18, 2018 0 2:46:28.566064000  7
           207  39.99976332:32:32:32:32:3 7dBm N  ov 18, 2018 0 2:46:28.590560000  7
           208  40.31664332:32:32:32:32:3 4dBm N  ov 18, 2018 0 2:46:28.907440000  7
           209  40.52302432:32:32:32:32:3 6dBm N  ov 18, 2018 0 2:46:29.113821000  7
           210  40.55186432:32:32:32:32:3 6dBm N  ov 18, 2018 0 2:46:29.142661000  7
           211  40.63440732:32:32:32:32:3 5dBm N  ov 18, 2018 0 2:46:29.225204000  7
           212  41.90333432:32:32:32:32:3 7dBm N  ov 18, 2018 0 2:46:30.494131000  7
           213  41.99289532:32:32:32:32:3 8dBm N  ov 18, 2018 0 2:46:30.583692000  7
           214  42.05395232:32:32:32:32:3 8dBm N  ov 18, 2018 0 2:46:30.644749000  7
           215  4 2.0920832:32:32:32:32:3 9dBm N  ov 18, 2018 0 2:46:30.682877000  7
           216  42.17569532:32:32:32:32:3 9dBm N  ov 18, 2018 0 2:46:30.766492000  7
           217  42.22954932:32:32:32:32:3 7dBm N  ov 18, 2018 0 2:46:30.820346000  7
           218  42.29243332:32:32:32:32:3 6dBm N  ov 18, 2018 0 2:46:30.883230000  7
           219  42.32760732:32:32:32:32:3 6dBm N  ov 18, 2018 0 2:46:30.918404000  7
           220  42.34770132:32:32:32:32:3 6dBm N  ov 18, 2018 0 2:46:30.938498000  7
           221  42.47855732:32:32:32:32:3 5dBm N  ov 18, 2018 0 2:46:31.069354000  7
           222  42.51079332:32:32:32:32:3 6dBm N  ov 18, 2018 0 2:46:31.101590000  7
           223  42.55435532:32:32:32:32:3 3dBm N  ov 18, 2018 0 2:46:31.145152000  7
           224  42.73779432:32:32:32:32:3 5dBm N  ov 18, 2018 0 2:46:31.328591000  7
           225  42.82266732:32:32:32:32:3 3dBm N  ov 18, 2018 0 2:46:31.413464000  7
           226  42.95084332:32:32:32:32:3 6dBm N  ov 18, 2018 0 2:46:31.541640000  7
           227  42.98429832:32:32:32:32:3 5dBm N  ov 18, 2018 0 2:46:31.575095000  7
           228  43.00322332:32:32:32:32:3 6dBm N  ov 18, 2018 0 2:46:31.594020000  7
           229  43.02303732:32:32:32:32:3 6dBm N  ov 18, 2018 0 2:46:31.613834000  7
           230  43.07842732:32:32:32:32:3 6dBm N  ov 18, 2018 0 2:46:31.669224000  7
           231  43.09651332:32:32:32:32:3 5dBm N  ov 18, 2018 0 2:46:31.687310000  7
           232  43.11783132:32:32:32:32:3 6dBm N  ov 18, 2018 0 2:46:31.708628000  7
           233  43.18315932:32:32:32:32:3 6dBm N  ov 18, 2018 0 2:46:31.773956000  7
           234  43.21243232:32:32:32:32:3 5dBm N  ov 18, 2018 0 2:46:31.803229000  7
           235  43.30983732:32:32:32:32:3 4dBm N  ov 18, 2018 0 2:46:31.900634000  7
           236  43.38682432:32:32:32:32:3 5dBm N  ov 18, 2018 0 2:46:31.977621000  7
           237  43.44423732:32:32:32:32:3 5dBm N  ov 18, 2018 0 2:46:32.035034000  7
           238  43.52221432:32:32:32:32:3 5dBm N  ov 18, 2018 0 2:46:32.113011000  7
           239  43.56755332:32:32:32:32:3 4dBm N  ov 18, 2018 0 2:46:32.158350000  7
           240  43.78537732:32:32:32:32:3 7dBm N  ov 18, 2018 0 2:46:32.376174000  7
           241  43.82170832:32:32:32:32:3 7dBm N  ov 18, 2018 0 2:46:32.412505000  7
           242  43.94819232:32:32:32:32:3 4dBm N  ov 18, 2018 0 2:46:32.538989000  7
           243  43.98706832:32:32:32:32:3 6dBm N  ov 18, 2018 0 2:46:32.577865000  7
           244  44.11070132:32:32:32:32:3 5dBm N  ov 18, 2018 0 2:46:32.701498000  7
           245  44.14514632:32:32:32:32:3 5dBm N  ov 18, 2018 0 2:46:32.735943000  7
           246  44.27658832:32:32:32:32:3 5dBm N  ov 18, 2018 0 2:46:32.867385000  7
           247  44.36213332:32:32:32:32:3 6dBm N  ov 18, 2018 0 2:46:32.952930000  7
           248  44.45559632:32:32:32:32:3 7dBm N  ov 18, 2018 0 2:46:33.046393000  7
           249  44.52582632:32:32:32:32:3 7dBm N  ov 18, 2018 0 2:46:33.116623000  7
           250  44.57700532:32:32:32:32:3 3dBm N  ov 18, 2018 0 2:46:33.167802000  7
           251  4 4.8255532:32:32:32:32:3 6dBm N  ov 18, 2018 0 2:46:33.416347000  7
           252  45.94243732:32:32:32:32:3 5dBm N  ov 18, 2018 0 2:46:34.533234000  7
           253  45.99149732:32:32:32:32:3 6dBm N  ov 18, 2018 0 2:46:34.582294000  7
           254  4 6.0113532:32:32:32:32:3 6dBm N  ov 18, 2018 0 2:46:34.602147000  7
           255  46.05815532:32:32:32:32:3 4dBm N  ov 18, 2018 0 2:46:34.648952000  7
           256  46.25650332:32:32:32:32:3 4dBm N  ov 18, 2018 0 2:46:34.847300000  7
           257  46.36878832:32:32:32:32:3 6dBm N  ov 18, 2018 0 2:46:34.959585000  7
           258  46.39235332:32:32:32:32:3 5dBm N  ov 18, 2018 0 2:46:34.983150000  7
           259  46.59193732:32:32:32:32:3 9dBm N  ov 18, 2018 0 2:46:35.182734000  7
           260  46.62788632:32:32:32:32:3 7dBm N  ov 18, 2018 0 2:46:35.218683000  7
           261  46.75480132:32:32:32:32:3 6dBm N  ov 18, 2018 0 2:46:35.345598000  7
           262  46.83445132:32:32:32:32:3 6dBm N  ov 18, 2018 0 2:46:35.425248000  7
           263  46.85788832:32:32:32:32:3 6dBm N  ov 18, 2018 0 2:46:35.448685000  7
           264  46.95829232:32:32:32:32:3 7dBm N  ov 18, 2018 0 2:46:35.549089000  7
           265  4 6.9736732:32:32:32:32:3 7dBm N  ov 18, 2018 0 2:46:35.564467000  7
           266  46.99836332:32:32:32:32:3 7dBm N  ov 18, 2018 0 2:46:35.589160000  7
           267  4 7.0893432:32:32:32:32:3 6dBm N  ov 18, 2018 0 2:46:35.680137000  7
           268  47.17073232:32:32:32:32:3 7dBm N  ov 18, 2018 0 2:46:35.761529000  7
           269  47.20962332:32:32:32:32:3 6dBm N  ov 18, 2018 0 2:46:35.800420000  7
           270  47.29424932:32:32:32:32:3 6dBm N  ov 18, 2018 0 2:46:35.885046000  7
           271  47.34538832:32:32:32:32:3 5dBm N  ov 18, 2018 0 2:46:35.936185000  7
           272  47.38912232:32:32:32:32:3 7dBm N  ov 18, 2018 0 2:46:35.979919000  7
           273  47.43797732:32:32:32:32:3 4dBm N  ov 18, 2018 0 2:46:36.028774000  7
           274  4 7.5140232:32:32:32:32:3 7dBm N  ov 18, 2018 0 2:46:36.104817000  7
           275  47.59369132:32:32:32:32:3 6dBm N  ov 18, 2018 0 2:46:36.184488000  7
           276  47.66929632:32:32:32:32:3 7dBm N  ov 18, 2018 0 2:46:36.260093000  7
           277  47.76949932:32:32:32:32:3 6dBm N  ov 18, 2018 0 2:46:36.360296000  7
           278  48.09528932:32:32:32:32:3 2dBm N  ov 18, 2018 0 2:46:36.686086000  7
           279  49.34292632:32:32:32:32:3 7dBm N  ov 18, 2018 0 2:46:37.933723000  7
           280  49.37781132:32:32:32:32:3 7dBm N  ov 18, 2018 0 2:46:37.968608000  7
           281  4 9.3861732:32:32:32:32:3 7dBm N  ov 18, 2018 0 2:46:37.976967000  7
           282  49.43784432:32:32:32:32:3 4dBm N  ov 18, 2018 0 2:46:38.028641000  7
           283  49.46289432:32:32:32:32:3 8dBm N  ov 18, 2018 0 2:46:38.053691000  7
           284  49.48237632:32:32:32:32:3 6dBm N  ov 18, 2018 0 2:46:38.073173000  7
           285  49.54286932:32:32:32:32:3 7dBm N  ov 18, 2018 0 2:46:38.133666000  7
           286  49.59858532:32:32:32:32:3 7dBm N  ov 18, 2018 0 2:46:38.189382000  7
           287  49.75518532:32:32:32:32:3 6dBm N  ov 18, 2018 0 2:46:38.345982000  7
           288  49.79491932:32:32:32:32:3 8dBm N  ov 18, 2018 0 2:46:38.385716000  7
           289  49.82749732:32:32:32:32:3 8dBm N  ov 18, 2018 0 2:46:38.418294000  7
           290  49.83360832:32:32:32:32:3 7dBm N  ov 18, 2018 0 2:46:38.424405000  7
           291  50.00731532:32:32:32:32:3 5dBm N  ov 18, 2018 0 2:46:38.598112000  7
           292  5 0.6394132:32:32:32:32:3 6dBm N  ov 18, 2018 0 2:46:39.230207000  7
           293  50.74694832:32:32:32:32:3 5dBm N  ov 18, 2018 0 2:46:39.337745000  7
           294  50.78630732:32:32:32:32:3 7dBm N  ov 18, 2018 0 2:46:39.377104000  7
           295  50.90554632:32:32:32:32:3 9dBm N  ov 18, 2018 0 2:46:39.496343000  7
           296  51.18837132:32:32:32:32:3 6dBm N  ov 18, 2018 0 2:46:39.779168000  7
           297  51.40868132:32:32:32:32:3 7dBm N  ov 18, 2018 0 2:46:39.999478000  7
           298  51.43816632:32:32:32:32:3 7dBm N  ov 18, 2018 0 2:46:40.028963000  7
           299  51.47095732:32:32:32:32:3 8dBm N  ov 18, 2018 0 2:46:40.061754000  7
           300  51.48860932:32:32:32:32:3 6dBm N  ov 18, 2018 0 2:46:40.079406000  7
           301  51.62085632:32:32:32:32:3 7dBm N  ov 18, 2018 0 2:46:40.211653000  7
           302  51.65709532:32:32:32:32:3 7dBm N  ov 18, 2018 0 2:46:40.247892000  7
           303  51.69545432:32:32:32:32:3 7dBm N  ov 18, 2018 0 2:46:40.286251000  7
           304  51.72538632:32:32:32:32:3 6dBm N  ov 18, 2018 0 2:46:40.316183000  7
           305  5 1.7724532:32:32:32:32:3 8dBm N  ov 18, 2018 0 2:46:40.363247000  7
           306  51.84231432:32:32:32:32:3 6dBm N  ov 18, 2018 0 2:46:40.433111000  7
           307  51.90591332:32:32:32:32:3 7dBm N  ov 18, 2018 0 2:46:40.496710000  7
           308  52.03949432:32:32:32:32:3 7dBm N  ov 18, 2018 0 2:46:40.630291000  7
           309  52.12263932:32:32:32:32:3 5dBm N  ov 18, 2018 0 2:46:40.713436000  7
           310  52.18687132:32:32:32:32:3 5dBm N  ov 18, 2018 0 2:46:40.777668000  7
           311  52.22913632:32:32:32:32:3 7dBm N  ov 18, 2018 0 2:46:40.819933000  7
           312  52.47350432:32:32:32:32:3 4dBm N  ov 18, 2018 0 2:46:41.064301000  7
           313  52.58681232:32:32:32:32:3 4dBm N  ov 18, 2018 0 2:46:41.177609000  7
           314  53.94311932:32:32:32:32:3 6dBm N  ov 18, 2018 0 2:46:42.533916000  7
           315  5 3.9849132:32:32:32:32:3 5dBm N  ov 18, 2018 0 2:46:42.575707000  7
           316  54.15526432:32:32:32:32:3 5dBm N  ov 18, 2018 0 2:46:42.746061000  7
           317  54.18222432:32:32:32:32:3 6dBm N  ov 18, 2018 0 2:46:42.773021000  7
           318  54.23967632:32:32:32:32:3 6dBm N  ov 18, 2018 0 2:46:42.830473000  7
           319  54.33602132:32:32:32:32:3 6dBm N  ov 18, 2018 0 2:46:42.926818000  7
           320  54.54453832:32:32:32:32:3 8dBm N  ov 18, 2018 0 2:46:43.135335000  7
           321  54.60801732:32:32:32:32:3 7dBm N  ov 18, 2018 0 2:46:43.198814000  7
           322  5 4.7016332:32:32:32:32:3 7dBm N  ov 18, 2018 0 2:46:43.292427000  7
           323  54.81178232:32:32:32:32:3 6dBm N  ov 18, 2018 0 2:46:43.402579000  7
           324  5 4.8885432:32:32:32:32:3 5dBm N  ov 18, 2018 0 2:46:43.479337000  7
           325  5 4.9541532:32:32:32:32:3 4dBm N  ov 18, 2018 0 2:46:43.544947000  7
           326  55.31174732:32:32:32:32:3 5dBm N  ov 18, 2018 0 2:46:43.902544000  7
           327  55.35757332:32:32:32:32:3 7dBm N  ov 18, 2018 0 2:46:43.948370000  7
           328  55.36360832:32:32:32:32:3 5dBm N  ov 18, 2018 0 2:46:43.954405000  7
           329  55.49214232:32:32:32:32:3 6dBm N  ov 18, 2018 0 2:46:44.082939000  7
           330  5 5.5659832:32:32:32:32:3 7dBm N  ov 18, 2018 0 2:46:44.156777000  7
           331  55.75818832:32:32:32:32:3 6dBm N  ov 18, 2018 0 2:46:44.348985000  7
           332  56.12626632:32:32:32:32:3 8dBm N  ov 18, 2018 0 2:46:44.717063000  7
           333  56.31990332:32:32:32:32:3 6dBm N  ov 18, 2018 0 2:46:44.910700000  7
           334  56.33950732:32:32:32:32:3 7dBm N  ov 18, 2018 0 2:46:44.930304000  7
           335  56.44203832:32:32:32:32:3 7dBm N  ov 18, 2018 0 2:46:45.032835000  7
           336  56.70253832:32:32:32:32:3 6dBm N  ov 18, 2018 0 2:46:45.293335000  7
           337  56.73359832:32:32:32:32:3 3dBm N  ov 18, 2018 0 2:46:45.324395000  7
           338  5 6.7423932:32:32:32:32:3 6dBm N  ov 18, 2018 0 2:46:45.333187000  7
           339  5 6.8452632:32:32:32:32:3 8dBm N  ov 18, 2018 0 2:46:45.436057000  7
           340  5 6.9003432:32:32:32:32:3 7dBm N  ov 18, 2018 0 2:46:45.491137000  7
           341  56.95182832:32:32:32:32:3 8dBm N  ov 18, 2018 0 2:46:45.542625000  7
           342  56.96870832:32:32:32:32:3 7dBm N  ov 18, 2018 0 2:46:45.559505000  7
           343  57.06640432:32:32:32:32:3 5dBm N  ov 18, 2018 0 2:46:45.657201000  7
           344  57.62369732:32:32:32:32:3 3dBm N  ov 18, 2018 0 2:46:46.214494000  7
           345  57.86856132:32:32:32:32:3 5dBm N  ov 18, 2018 0 2:46:46.459358000  7
           346  5 8.0382332:32:32:32:32:3 7dBm N  ov 18, 2018 0 2:46:46.629027000  7
           347  58.08860532:32:32:32:32:3 3dBm N  ov 18, 2018 0 2:46:46.679402000  7
           348  58.15157432:32:32:32:32:3 7dBm N  ov 18, 2018 0 2:46:46.742371000  7
           349  58.17562532:32:32:32:32:3 8dBm N  ov 18, 2018 0 2:46:46.766422000  7
           350  58.19116232:32:32:32:32:3 8dBm N  ov 18, 2018 0 2:46:46.781959000  7
           351  58.26671432:32:32:32:32:3 9dBm N  ov 18, 2018 0 2:46:46.857511000  7
           352  58.37507432:32:32:32:32:3 7dBm N  ov 18, 2018 0 2:46:46.965871000  7
           353  58.48094732:32:32:32:32:3 4dBm N  ov 18, 2018 0 2:46:47.071744000  7
           354  58.54890432:32:32:32:32:3 4dBm N  ov 18, 2018 0 2:46:47.139701000  7
           355  58.70221332:32:32:32:32:3 6dBm N  ov 18, 2018 0 2:46:47.293010000  7
           356  58.76576832:32:32:32:32:3 8dBm N  ov 18, 2018 0 2:46:47.356565000  7
           357  59.29207332:32:32:32:32:3 7dBm N  ov 18, 2018 0 2:46:47.882870000  7
           358  59.57620132:32:32:32:32:3 6dBm N  ov 18, 2018 0 2:46:48.166998000  7
           359  59.62946732:32:32:32:32:3 5dBm N  ov 18, 2018 0 2:46:48.220264000  7
           360  5 9.7063532:32:32:32:32:3 4dBm N  ov 18, 2018 0 2:46:48.297147000  7
           361  60.38993332:32:32:32:32:3 5dBm N  ov 18, 2018 0 2:46:48.980730000  7
           362  60.57359432:32:32:32:32:3 4dBm N  ov 18, 2018 0 2:46:49.164391000  7
           363  62.19457732:32:32:32:32:3 3dBm N  ov 18, 2018 0 2:46:50.785374000  7
           364  62.80424332:32:32:32:32:3 5dBm N  ov 18, 2018 0 2:46:51.395040000  7
           365  63.10159832:32:32:32:32:3 4dBm N  ov 18, 2018 0 2:46:51.692395000  7
           366  63.32603832:32:32:32:32:3 4dBm N  ov 18, 2018 0 2:46:51.916835000  7
           367  63.35082832:32:32:32:32:3 5dBm N  ov 18, 2018 0 2:46:51.941625000  7
           368  63.42257332:32:32:32:32:3 6dBm N  ov 18, 2018 0 2:46:52.013370000  7
           369  63.91897632:32:32:32:32:3 6dBm N  ov 18, 2018 0 2:46:52.509773000  7
           370  64.45522532:32:32:32:32:3 5dBm N  ov 18, 2018 0 2:46:53.046022000  7
           371  6  4.545332:32:32:32:32:3 5dBm N  ov 18, 2018 0 2:46:53.136097000  7
           372  64.87743232:32:32:32:32:3 5dBm N  ov 18, 2018 0 2:46:53.468229000  7
           373  64.94358832:32:32:32:32:3 2dBm N  ov 18, 2018 0 2:46:53.534385000  7
           374  65.65585832:32:32:32:32:3 5dBm N  ov 18, 2018 0 2:46:54.246655000  7
           375  65.95018632:32:32:32:32:3 4dBm N  ov 18, 2018 0 2:46:54.540983000  7
           376  65.99239232:32:32:32:32:3 5dBm N  ov 18, 2018 0 2:46:54.583189000  7
           377  66.89968632:32:32:32:32:3 4dBm N  ov 18, 2018 0 2:46:55.490483000  7
           378  6 6.9731832:32:32:32:32:3 2dBm N  ov 18, 2018 0 2:46:55.563977000  7
           379  67.39923832:32:32:32:32:3 6dBm N  ov 18, 2018 0 2:46:55.990035000  7
           380  67.50243132:32:32:32:32:3 4dBm N  ov 18, 2018 0 2:46:56.093228000  7
           381  67.60841932:32:32:32:32:3 4dBm N  ov 18, 2018 0 2:46:56.199216000  7
           382  67.67347132:32:32:32:32:3 2dBm N  ov 18, 2018 0 2:46:56.264268000  7
           383  67.87028132:32:32:32:32:3 5dBm N  ov 18, 2018 0 2:46:56.461078000  7
           384  67.89199732:32:32:32:32:3 6dBm N  ov 18, 2018 0 2:46:56.482794000  7
           385  6 8.1643932:32:32:32:32:3 5dBm N  ov 18, 2018 0 2:46:56.755187000  7
           386  68.31799932:32:32:32:32:3 6dBm N  ov 18, 2018 0 2:46:56.908796000  7
           387  69.47812632:32:32:32:32:3 6dBm N  ov 18, 2018 0 2:46:58.068923000  7
           388  69.77379632:32:32:32:32:3 5dBm N  ov 18, 2018 0 2:46:58.364593000  7
           389  70.12785132:32:32:32:32:3 4dBm N  ov 18, 2018 0 2:46:58.718648000  7
           390  70.31128132:32:32:32:32:3 1dBm N  ov 18, 2018 0 2:46:58.902078000  7
           391  70.35525232:32:32:32:32:3 6dBm N  ov 18, 2018 0 2:46:58.946049000  7
           392  70.56041432:32:32:32:32:3 6dBm N  ov 18, 2018 0 2:46:59.151211000  7
           393  70.71581832:32:32:32:32:3 4dBm N  ov 18, 2018 0 2:46:59.306615000  7
           394  70.98542532:32:32:32:32:3 5dBm N  ov 18, 2018 0 2:46:59.576222000  7
           395  71.01765232:32:32:32:32:3 6dBm N  ov 18, 2018 0 2:46:59.608449000  7
           396  71.08369232:32:32:32:32:3 8dBm N  ov 18, 2018 0 2:46:59.674489000  7
           397  71.13796232:32:32:32:32:3 5dBm N  ov 18, 2018 0 2:46:59.728759000  7
           398  71.36896232:32:32:32:32:3 8dBm N  ov 18, 2018 0 2:46:59.959759000  7
           399  71.52437532:32:32:32:32:3 6dBm N  ov 18, 2018 0 2:47:00.115172000  7
           400  71.55040332:32:32:32:32:3 9dBm N  ov 18, 2018 0 2:47:00.141200000  7
           401  72.44084432:32:32:32:32:3 6dBm N  ov 18, 2018 0 2:47:01.031641000  7
           402  72.53560232:32:32:32:32:3 7dBm N  ov 18, 2018 0 2:47:01.126399000  7
           403  7 2.6608432:32:32:32:32:3 3dBm N  ov 18, 2018 0 2:47:01.251637000  7
           404  73.18366632:32:32:32:32:3 7dBm N  ov 18, 2018 0 2:47:01.774463000  7
           405  73.29239632:32:32:32:32:3 7dBm N  ov 18, 2018 0 2:47:01.883193000  7
           406  73.35663232:32:32:32:32:3 8dBm N  ov 18, 2018 0 2:47:01.947429000  7
           407  73.37833632:32:32:32:32:3 7dBm N  ov 18, 2018 0 2:47:01.969133000  7
           408  73.38476632:32:32:32:32:3 6dBm N  ov 18, 2018 0 2:47:01.975563000  7
           409  73.51528132:32:32:32:32:3 5dBm N  ov 18, 2018 0 2:47:02.106078000  7
           410  73.82565632:32:32:32:32:3 4dBm N  ov 18, 2018 0 2:47:02.416453000  7
           411  73.97553132:32:32:32:32:3 8dBm N  ov 18, 2018 0 2:47:02.566328000  7
           412  74.15416832:32:32:32:32:3 6dBm N  ov 18, 2018 0 2:47:02.744965000  7
           413  74.21101932:32:32:32:32:3 6dBm N  ov 18, 2018 0 2:47:02.801816000  7
           414  74.28464332:32:32:32:32:3 7dBm N  ov 18, 2018 0 2:47:02.875440000  7
           415  74.28962532:32:32:32:32:3 8dBm N  ov 18, 2018 0 2:47:02.880422000  7
           416  74.48887632:32:32:32:32:3 9dBm N  ov 18, 2018 0 2:47:03.079673000  7
           417  74.73846632:32:32:32:32:3 7dBm N  ov 18, 2018 0 2:47:03.329263000  7
           418  74.76613632:32:32:32:32:3 6dBm N  ov 18, 2018 0 2:47:03.356933000  7
           419  7 4.9631832:32:32:32:32:3 9dBm N  ov 18, 2018 0 2:47:03.553977000  7
           420  74.99230932:32:32:32:32:3 9dBm N  ov 18, 2018 0 2:47:03.583106000  7
           421  75.04088832:32:32:32:32:3 7dBm N  ov 18, 2018 0 2:47:03.631685000  7
           422  7 5.1475232:32:32:32:32:3 8dBm N  ov 18, 2018 0 2:47:03.738317000  7
           423  75.15893332:32:32:32:32:3 8dBm N  ov 18, 2018 0 2:47:03.749730000  7
           424  75.44686832:32:32:32:32:3 9dBm N  ov 18, 2018 0 2:47:04.037665000  7
           425  75.47160632:32:32:32:32:3 8dBm N  ov 18, 2018 0 2:47:04.062403000  7
           426  75.50748732:32:32:32:32:3 8dBm N  ov 18, 2018 0 2:47:04.098284000  7
           427  75.62484332:32:32:32:32:3 8dBm N  ov 18, 2018 0 2:47:04.215640000  7
           428  75.79674632:32:32:32:32:3 9dBm N  ov 18, 2018 0 2:47:04.387543000  7
           429  75.85743332:32:32:32:32:3 8dBm N  ov 18, 2018 0 2:47:04.448230000  7
           430  75.86656832:32:32:32:32:3 9dBm N  ov 18, 2018 0 2:47:04.457365000  7
           431  75.88767332:32:32:32:32:3 7dBm N  ov 18, 2018 0 2:47:04.478470000  7
           432  76.00154432:32:32:32:32:3 9dBm N  ov 18, 2018 0 2:47:04.592341000  7
           433  76.09257532:32:32:32:32:3 7dBm N  ov 18, 2018 0 2:47:04.683372000  7
           434  76.11742632:32:32:32:32:3 11dBm   Nov 18,   201802:47:04.708223000 7
           435  76.17787332:32:32:32:32:3 9dBm N  ov 18, 2018 0 2:47:04.768670000  7
           436  76.19367732:32:32:32:32:3 10dBm   Nov 18,   201802:47:04.784474000 7
           437  76.22219332:32:32:32:32:3 7dBm N  ov 18, 2018 0 2:47:04.812990000  7
           438  76.23649632:32:32:32:32:3 8dBm N  ov 18, 2018 0 2:47:04.827293000  7
           439  76.25739432:32:32:32:32:3 8dBm N  ov 18, 2018 0 2:47:04.848191000  7
           440  7 6.4258932:32:32:32:32:3 8dBm N  ov 18, 2018 0 2:47:05.016687000  7
           441  76.44470432:32:32:32:32:3 7dBm N  ov 18, 2018 0 2:47:05.035501000  7
           442  76.50536332:32:32:32:32:3 8dBm N  ov 18, 2018 0 2:47:05.096160000  7
           443  76.52356932:32:32:32:32:3 8dBm N  ov 18, 2018 0 2:47:05.114366000  7
           444  7 6.5591732:32:32:32:32:3 8dBm N  ov 18, 2018 0 2:47:05.149967000  7
           445  76.62840932:32:32:32:32:3 7dBm N  ov 18, 2018 0 2:47:05.219206000  7
           446  76.65727232:32:32:32:32:3 7dBm N  ov 18, 2018 0 2:47:05.248069000  7
           447  76.83043732:32:32:32:32:3 7dBm N  ov 18, 2018 0 2:47:05.421234000  7
           448  76.91237432:32:32:32:32:3 6dBm N  ov 18, 2018 0 2:47:05.503171000  7
           449  76.94344332:32:32:32:32:3 8dBm N  ov 18, 2018 0 2:47:05.534240000  7
           450  76.96773832:32:32:32:32:3 5dBm N  ov 18, 2018 0 2:47:05.558535000  7
           451  77.00627532:32:32:32:32:3 6dBm N  ov 18, 2018 0 2:47:05.597072000  7
           452  77.04071832:32:32:32:32:3 7dBm N  ov 18, 2018 0 2:47:05.631515000  7
           453  77.08795932:32:32:32:32:3 4dBm N  ov 18, 2018 0 2:47:05.678756000  7
           454  77.13974332:32:32:32:32:3 7dBm N  ov 18, 2018 0 2:47:05.730540000  7
           455  77.37084832:32:32:32:32:3 7dBm N  ov 18, 2018 0 2:47:05.961645000  7
           456  77.55770932:32:32:32:32:3 6dBm N  ov 18, 2018 0 2:47:06.148506000  7
           457  77.65270632:32:32:32:32:3 4dBm N  ov 18, 2018 0 2:47:06.243503000  7
           458  77.71834332:32:32:32:32:3 6dBm N  ov 18, 2018 0 2:47:06.309140000  7
           459  77.79118532:32:32:32:32:3 7dBm N  ov 18, 2018 0 2:47:06.381982000  7
           460  77.86612932:32:32:32:32:3 6dBm N  ov 18, 2018 0 2:47:06.456926000  7
           461  7 7.8876132:32:32:32:32:3 8dBm N  ov 18, 2018 0 2:47:06.478407000  7
           462  7 7.9116632:32:32:32:32:3 8dBm N  ov 18, 2018 0 2:47:06.502457000  7
           463  77.93697332:32:32:32:32:3 6dBm N  ov 18, 2018 0 2:47:06.527770000  7
           464  7 7.9738632:32:32:32:32:3 7dBm N  ov 18, 2018 0 2:47:06.564657000  7
           465  77.99171432:32:32:32:32:3 8dBm N  ov 18, 2018 0 2:47:06.582511000  7
           466  78.01270532:32:32:32:32:3 6dBm N  ov 18, 2018 0 2:47:06.603502000  7
           467  78.03596432:32:32:32:32:3 6dBm N  ov 18, 2018 0 2:47:06.626761000  7
           468  78.09195732:32:32:32:32:3 8dBm N  ov 18, 2018 0 2:47:06.682754000  7
           469  78.12046132:32:32:32:32:3 7dBm N  ov 18, 2018 0 2:47:06.711258000  7
           470  78.77048232:32:32:32:32:3 5dBm N  ov 18, 2018 0 2:47:07.361279000  7
           471  78.89598432:32:32:32:32:3 7dBm N  ov 18, 2018 0 2:47:07.486781000  7
           472  78.91567632:32:32:32:32:3 8dBm N  ov 18, 2018 0 2:47:07.506473000  7
           473  78.94236132:32:32:32:32:3 7dBm N  ov 18, 2018 0 2:47:07.533158000  7
           474  78.97254632:32:32:32:32:3 6dBm N  ov 18, 2018 0 2:47:07.563343000  7
           475  79.10626332:32:32:32:32:3 5dBm N  ov 18, 2018 0 2:47:07.697060000  7
           476  79.89725332:32:32:32:32:3 2dBm N  ov 18, 2018 0 2:47:08.488050000  7
           477  80.21496732:32:32:32:32:3 6dBm N  ov 18, 2018 0 2:47:08.805764000  7
           478  82.08552532:32:32:32:32:3 6dBm N  ov 18, 2018 0 2:47:10.676322000  7
           479  82.23726832:32:32:32:32:3 7dBm N  ov 18, 2018 0 2:47:10.828065000  7
           480  8 2.2669132:32:32:32:32:3 7dBm N  ov 18, 2018 0 2:47:10.857707000  7
           481  8 2.7378532:32:32:32:32:3 6dBm N  ov 18, 2018 0 2:47:11.328647000  7
           482  83.41374532:32:32:32:32:3 6dBm N  ov 18, 2018 0 2:47:12.004542000  7
           483  83.61748432:32:32:32:32:3 6dBm N  ov 18, 2018 0 2:47:12.208281000  7
           484  83.66308532:32:32:32:32:3 4dBm N  ov 18, 2018 0 2:47:12.253882000  7
           485  84.37104432:32:32:32:32:3 6dBm N  ov 18, 2018 0 2:47:12.961841000  7
           486  84.80463932:32:32:32:32:3 4dBm N  ov 18, 2018 0 2:47:13.395436000  7
           487  85.69926832:32:32:32:32:3 5dBm N  ov 18, 2018 0 2:47:14.290065000  7
           488  85.87536132:32:32:32:32:3 5dBm N  ov 18, 2018 0 2:47:14.466158000  7
           489  86.69535632:32:32:32:32:3 3dBm N  ov 18, 2018 0 2:47:15.286153000  7
           490  86.80047332:32:32:32:32:3 5dBm N  ov 18, 2018 0 2:47:15.391270000  7
           491  86.82623432:32:32:32:32:3 6dBm N  ov 18, 2018 0 2:47:15.417031000  7
           492  8 7.1579732:32:32:32:32:3 4dBm N  ov 18, 2018 0 2:47:15.748767000  7
           493  87.25644832:32:32:32:32:3 5dBm N  ov 18, 2018 0 2:47:15.847245000  7
           494  87.33087232:32:32:32:32:3 6dBm N  ov 18, 2018 0 2:47:15.921669000  7
           495  87.35061132:32:32:32:32:3 7dBm N  ov 18, 2018 0 2:47:15.941408000  7
           496  88.15790332:32:32:32:32:3 5dBm N  ov 18, 2018 0 2:47:16.748700000  7
           497  88.21054732:32:32:32:32:3 6dBm N  ov 18, 2018 0 2:47:16.801344000  7
           498  88.33746332:32:32:32:32:3 5dBm N  ov 18, 2018 0 2:47:16.928260000  7
           499  8 8.8097732:32:32:32:32:3 5dBm N  ov 18, 2018 0 2:47:17.400567000  7
           500  89.10611832:32:32:32:32:3 5dBm N  ov 18, 2018 0 2:47:17.696915000  7
           501  8 9.6125732:32:32:32:32:3 6dBm N  ov 18, 2018 0 2:47:18.203367000  7
           502  90.22780732:32:32:32:32:3 5dBm N  ov 18, 2018 0 2:47:18.818604000  7
           503  90.52081932:32:32:32:32:3 7dBm N  ov 18, 2018 0 2:47:19.111616000  7
           504  90.69474832:32:32:32:32:3 5dBm N  ov 18, 2018 0 2:47:19.285545000  7
           505  90.97982232:32:32:32:32:3 3dBm N  ov 18, 2018 0 2:47:19.570619000  7
           506  91.38616332:32:32:32:32:3 3dBm N  ov 18, 2018 0 2:47:19.976960000  7
           507  91.56270732:32:32:32:32:3 5dBm N  ov 18, 2018 0 2:47:20.153504000  7
           508  91.76051832:32:32:32:32:3 6dBm N  ov 18, 2018 0 2:47:20.351315000  7
           509  92.55224532:32:32:32:32:3 7dBm N  ov 18, 2018 0 2:47:21.143042000  7
           510  92.61714832:32:32:32:32:3 6dBm N  ov 18, 2018 0 2:47:21.207945000  7
           511  92.71343632:32:32:32:32:3 5dBm N  ov 18, 2018 0 2:47:21.304233000  7
           512  92.73087332:32:32:32:32:3 5dBm N  ov 18, 2018 0 2:47:21.321670000  7
           513  92.75097732:32:32:32:32:3 6dBm N  ov 18, 2018 0 2:47:21.341774000  7
           514  9 2.8061132:32:32:32:32:3 5dBm N  ov 18, 2018 0 2:47:21.396907000  7
           515  92.84138332:32:32:32:32:3 6dBm N  ov 18, 2018 0 2:47:21.432180000  7
           516  92.88464532:32:32:32:32:3 5dBm N  ov 18, 2018 0 2:47:21.475442000  7
           517  92.91393232:32:32:32:32:3 6dBm N  ov 18, 2018 0 2:47:21.504729000  7
           518  92.94106932:32:32:32:32:3 4dBm N  ov 18, 2018 0 2:47:21.531866000  7
           519  92.96811932:32:32:32:32:3 8dBm N  ov 18, 2018 0 2:47:21.558916000  7
           520  93.06128532:32:32:32:32:3 5dBm N  ov 18, 2018 0 2:47:21.652082000  7
           521  93.24638532:32:32:32:32:3 7dBm N  ov 18, 2018 0 2:47:21.837182000  7
           522  9 3.2802532:32:32:32:32:3 7dBm N  ov 18, 2018 0 2:47:21.871047000  7
           523  93.55249932:32:32:32:32:3 7dBm N  ov 18, 2018 0 2:47:22.143296000  7
           524  93.66590732:32:32:32:32:3 7dBm N  ov 18, 2018 0 2:47:22.256704000  7
           525  93.72279732:32:32:32:32:3 6dBm N  ov 18, 2018 0 2:47:22.313594000  7
           526  93.80634632:32:32:32:32:3 8dBm N  ov 18, 2018 0 2:47:22.397143000  7
           527  93.81892632:32:32:32:32:3 6dBm N  ov 18, 2018 0 2:47:22.409723000  7
           528  93.87577232:32:32:32:32:3 5dBm N  ov 18, 2018 0 2:47:22.466569000  7
           529  93.94284632:32:32:32:32:3 6dBm N  ov 18, 2018 0 2:47:22.533643000  7
           530  94.12881132:32:32:32:32:3 7dBm N  ov 18, 2018 0 2:47:22.719608000  7
           531  94.13572132:32:32:32:32:3 8dBm N  ov 18, 2018 0 2:47:22.726518000  7
           532  94.21176732:32:32:32:32:3 6dBm N  ov 18, 2018 0 2:47:22.802564000  7
           533  94.28012532:32:32:32:32:3 8dBm N  ov 18, 2018 0 2:47:22.870922000  7
           534  94.28802632:32:32:32:32:3 5dBm N  ov 18, 2018 0 2:47:22.878823000  7
           535  94.30909432:32:32:32:32:3 7dBm N  ov 18, 2018 0 2:47:22.899891000  7
           536  94.36119132:32:32:32:32:3 5dBm N  ov 18, 2018 0 2:47:22.951988000  7
           537  94.37787832:32:32:32:32:3 6dBm N  ov 18, 2018 0 2:47:22.968675000  7
           538  94.39251632:32:32:32:32:3 5dBm N  ov 18, 2018 0 2:47:22.983313000  7
           539  94.57171732:32:32:32:32:3 7dBm N  ov 18, 2018 0 2:47:23.162514000  7
           540  94.65972332:32:32:32:32:3 7dBm N  ov 18, 2018 0 2:47:23.250520000  7
           541  94.70644532:32:32:32:32:3 8dBm N  ov 18, 2018 0 2:47:23.297242000  7
           542  94.74032132:32:32:32:32:3 5dBm N  ov 18, 2018 0 2:47:23.331118000  7
           543  94.81368332:32:32:32:32:3 6dBm N  ov 18, 2018 0 2:47:23.404480000  7
           544  94.85302932:32:32:32:32:3 7dBm N  ov 18, 2018 0 2:47:23.443826000  7
           545  94.93487832:32:32:32:32:3 8dBm N  ov 18, 2018 0 2:47:23.525675000  7
           546  95.06025332:32:32:32:32:3 6dBm N  ov 18, 2018 0 2:47:23.651050000  7
           547  95.10237832:32:32:32:32:3 6dBm N  ov 18, 2018 0 2:47:23.693175000  7
           548  95.27963432:32:32:32:32:3 8dBm N  ov 18, 2018 0 2:47:23.870431000  7
           549  95.39682132:32:32:32:32:3 5dBm N  ov 18, 2018 0 2:47:23.987618000  7
           550  95.45653932:32:32:32:32:3 7dBm N  ov 18, 2018 0 2:47:24.047336000  7
           551  9 5.5718432:32:32:32:32:3 7dBm N  ov 18, 2018 0 2:47:24.162637000  7
           552  95.62123232:32:32:32:32:3 7dBm N  ov 18, 2018 0 2:47:24.212029000  7
           553  95.64010232:32:32:32:32:3 8dBm N  ov 18, 2018 0 2:47:24.230899000  7
           554  95.69180832:32:32:32:32:3 6dBm N  ov 18, 2018 0 2:47:24.282605000  7
           555  95.71023632:32:32:32:32:3 7dBm N  ov 18, 2018 0 2:47:24.301033000  7
           556  9 5.7314432:32:32:32:32:3 8dBm N  ov 18, 2018 0 2:47:24.322237000  7
           557  95.75260532:32:32:32:32:3 8dBm N  ov 18, 2018 0 2:47:24.343402000  7
           558  9 5.7812932:32:32:32:32:3 7dBm N  ov 18, 2018 0 2:47:24.372087000  7
           559  95.85870832:32:32:32:32:3 7dBm N  ov 18, 2018 0 2:47:24.449505000  7
           560  95.93342432:32:32:32:32:3 9dBm N  ov 18, 2018 0 2:47:24.524221000  7
           561  9 5.9680832:32:32:32:32:3 7dBm N  ov 18, 2018 0 2:47:24.558877000  7
           562  96.06784532:32:32:32:32:3 5dBm N  ov 18, 2018 0 2:47:24.658642000  7
           563  96.12862432:32:32:32:32:3 8dBm N  ov 18, 2018 0 2:47:24.719421000  7
           564  96.14992632:32:32:32:32:3 9dBm N  ov 18, 2018 0 2:47:24.740723000  7
           565  96.17986332:32:32:32:32:3 7dBm N  ov 18, 2018 0 2:47:24.770660000  7
           566  96.20601832:32:32:32:32:3 8dBm N  ov 18, 2018 0 2:47:24.796815000  7
           567  96.30308532:32:32:32:32:3 6dBm N  ov 18, 2018 0 2:47:24.893882000  7
           568  96.43784132:32:32:32:32:3 7dBm N  ov 18, 2018 0 2:47:25.028638000  7
           569  96.45830932:32:32:32:32:3 7dBm N  ov 18, 2018 0 2:47:25.049106000  7
           570  96.51271532:32:32:32:32:3 7dBm N  ov 18, 2018 0 2:47:25.103512000  7
           571  9 6.5547432:32:32:32:32:3 7dBm N  ov 18, 2018 0 2:47:25.145537000  7
           572  96.57442232:32:32:32:32:3 7dBm N  ov 18, 2018 0 2:47:25.165219000  7
           573  96.59562232:32:32:32:32:3 7dBm N  ov 18, 2018 0 2:47:25.186419000  7
           574  96.61478232:32:32:32:32:3 7dBm N  ov 18, 2018 0 2:47:25.205579000  7
           575  96.61995632:32:32:32:32:3 7dBm N  ov 18, 2018 0 2:47:25.210753000  7
           576  9 6.6552832:32:32:32:32:3 6dBm N  ov 18, 2018 0 2:47:25.246077000  7
           577  96.74216132:32:32:32:32:3 5dBm N  ov 18, 2018 0 2:47:25.332958000  7
           578  96.76092932:32:32:32:32:3 6dBm N  ov 18, 2018 0 2:47:25.351726000  7
           579  96.80205332:32:32:32:32:3 7dBm N  ov 18, 2018 0 2:47:25.392850000  7
           580  9 6.8493732:32:32:32:32:3 4dBm N  ov 18, 2018 0 2:47:25.440167000  7
           581  96.90187632:32:32:32:32:3 6dBm N  ov 18, 2018 0 2:47:25.492673000  7
           582  96.93937232:32:32:32:32:3 7dBm N  ov 18, 2018 0 2:47:25.530169000  7
           583  97.01529632:32:32:32:32:3 7dBm N  ov 18, 2018 0 2:47:25.606093000  7
           584  97.05944132:32:32:32:32:3 7dBm N  ov 18, 2018 0 2:47:25.650238000  7
           585  97.08110932:32:32:32:32:3 4dBm N  ov 18, 2018 0 2:47:25.671906000  7
           586  97.17260832:32:32:32:32:3 9dBm N  ov 18, 2018 0 2:47:25.763405000  7
           587  9 7.2320132:32:32:32:32:3 7dBm N  ov 18, 2018 0 2:47:25.822807000  7
           588  97.26962432:32:32:32:32:3 9dBm N  ov 18, 2018 0 2:47:25.860421000  7
           589  9 7.3216132:32:32:32:32:3 8dBm N  ov 18, 2018 0 2:47:25.912407000  7
           590  97.37852832:32:32:32:32:3 6dBm N  ov 18, 2018 0 2:47:25.969325000  7
           591  97.39309432:32:32:32:32:3 7dBm N  ov 18, 2018 0 2:47:25.983891000  7
           592  97.50859132:32:32:32:32:3 7dBm N  ov 18, 2018 0 2:47:26.099388000  7
           593  97.57200132:32:32:32:32:3 6dBm N  ov 18, 2018 0 2:47:26.162798000  7
           594  97.59737532:32:32:32:32:3 7dBm N  ov 18, 2018 0 2:47:26.188172000  7
           595  97.61560532:32:32:32:32:3 6dBm N  ov 18, 2018 0 2:47:26.206402000  7
           596  97.63687432:32:32:32:32:3 5dBm N  ov 18, 2018 0 2:47:26.227671000  7
           597  97.65589432:32:32:32:32:3 7dBm N  ov 18, 2018 0 2:47:26.246691000  7
           598  97.67326332:32:32:32:32:3 7dBm N  ov 18, 2018 0 2:47:26.264060000  7
           599  97.70250132:32:32:32:32:3 7dBm N  ov 18, 2018 0 2:47:26.293298000  7
           600  97.82216632:32:32:32:32:3 6dBm N  ov 18, 2018 0 2:47:26.412963000  7
           601  97.98993732:32:32:32:32:3 6dBm N  ov 18, 2018 0 2:47:26.580734000  7
           602  97.99552532:32:32:32:32:3 7dBm N  ov 18, 2018 0 2:47:26.586322000  7
           603  98.02090832:32:32:32:32:3 6dBm N  ov 18, 2018 0 2:47:26.611705000  7
           604  98.04311332:32:32:32:32:3 6dBm N  ov 18, 2018 0 2:47:26.633910000  7
           605  98.20576832:32:32:32:32:3 6dBm N  ov 18, 2018 0 2:47:26.796565000  7
           606  98.22365832:32:32:32:32:3 6dBm N  ov 18, 2018 0 2:47:26.814455000  7
           607  98.43533832:32:32:32:32:3 4dBm N  ov 18, 2018 0 2:47:27.026135000  7
           608  98.77854732:32:32:32:32:3 8dBm N  ov 18, 2018 0 2:47:27.369344000  7
           609  98.91868432:32:32:32:32:3 7dBm N  ov 18, 2018 0 2:47:27.509481000  7
           610  98.93918332:32:32:32:32:3 7dBm N  ov 18, 2018 0 2:47:27.529980000  7
           611  98.95857832:32:32:32:32:3 6dBm N  ov 18, 2018 0 2:47:27.549375000  7
           612  99.05761732:32:32:32:32:3 7dBm N  ov 18, 2018 0 2:47:27.648414000  7
           613  99.24289332:32:32:32:32:3 7dBm N  ov 18, 2018 0 2:47:27.833690000  7
           614  99.37109732:32:32:32:32:3 6dBm N  ov 18, 2018 0 2:47:27.961894000  7
           615  99.39113932:32:32:32:32:3 8dBm N  ov 18, 2018 0 2:47:27.981936000  7
           616  99.59460532:32:32:32:32:3 6dBm N  ov 18, 2018 0 2:47:28.185402000  7
           617  9 9.6353132:32:32:32:32:3 7dBm N  ov 18, 2018 0 2:47:28.226107000  7
           618  99.68262432:32:32:32:32:3 5dBm N  ov 18, 2018 0 2:47:28.273421000  7
           619  99.74438632:32:32:32:32:3 6dBm N  ov 18, 2018 0 2:47:28.335183000  7
           620  99.83372232:32:32:32:32:3 5dBm N  ov 18, 2018 0 2:47:28.424519000  7
           621  99.92459532:32:32:32:32:3 7dBm N  ov 18, 2018 0 2:47:28.515392000  7
           622  99.94061532:32:32:32:32:3 6dBm N  ov 18, 2018 0 2:47:28.531412000  7
           623 10 0.0495532:32:32:32:32:3 4dBm N  ov 18, 2018 0 2:47:28.640347000  7
           624 100.08752732:32:32:32:32:3 6dBm N  ov 18, 2018 0 2:47:28.678324000  7
           625 100.09292232:32:32:32:32:3 8dBm N  ov 18, 2018 0 2:47:28.683719000  7
           626 100.12105232:32:32:32:32:3 7dBm N  ov 18, 2018 0 2:47:28.711849000  7
           627 10 0.2886932:32:32:32:32:3 6dBm N  ov 18, 2018 0 2:47:28.879487000  7
           628 100.31008532:32:32:32:32:3 6dBm N  ov 18, 2018 0 2:47:28.900882000  7
           629 100.33188232:32:32:32:32:3 3dBm N  ov 18, 2018 0 2:47:28.922679000  7
           630 10 0.3516532:32:32:32:32:3 7dBm N  ov 18, 2018 0 2:47:28.942447000  7
           631 100.36959432:32:32:32:32:3 7dBm N  ov 18, 2018 0 2:47:28.960391000  7
           632 100.44538432:32:32:32:32:3 6dBm N  ov 18, 2018 0 2:47:29.036181000  7
           633 100.49720132:32:32:32:32:3 7dBm N  ov 18, 2018 0 2:47:29.087998000  7
           634 100.56034732:32:32:32:32:3 6dBm N  ov 18, 2018 0 2:47:29.151144000  7
           635 100.64064132:32:32:32:32:3 5dBm N  ov 18, 2018 0 2:47:29.231438000  7
           636 101.09862632:32:32:32:32:3 5dBm N  ov 18, 2018 0 2:47:29.689423000  7
           637 101.19620632:32:32:32:32:3 6dBm N  ov 18, 2018 0 2:47:29.787003000  7
           638 101.21563832:32:32:32:32:3 6dBm N  ov 18, 2018 0 2:47:29.806435000  7
           639 101.25270232:32:32:32:32:3 7dBm N  ov 18, 2018 0 2:47:29.843499000  7
           640 101.40887932:32:32:32:32:3 6dBm N  ov 18, 2018 0 2:47:29.999676000  7
           641 101.44733832:32:32:32:32:3 6dBm N  ov 18, 2018 0 2:47:30.038135000  7
           642 101.51381132:32:32:32:32:3 3dBm N  ov 18, 2018 0 2:47:30.104608000  7
           643 101.58220432:32:32:32:32:3 8dBm N  ov 18, 2018 0 2:47:30.173001000  7
           644 10 1.5932932:32:32:32:32:3 6dBm N  ov 18, 2018 0 2:47:30.184087000  7
           645 101.65972432:32:32:32:32:3 7dBm N  ov 18, 2018 0 2:47:30.250521000  7
           646 101.74306632:32:32:32:32:3 6dBm N  ov 18, 2018 0 2:47:30.333863000  7
           647 101.88773432:32:32:32:32:3 6dBm N  ov 18, 2018 0 2:47:30.478531000  7
           648 101.89100632:32:32:32:32:3 4dBm N  ov 18, 2018 0 2:47:30.481803000  7
           649 101.98886532:32:32:32:32:3 6dBm N  ov 18, 2018 0 2:47:30.579662000  7
           650 102.21091532:32:32:32:32:3 6dBm N  ov 18, 2018 0 2:47:30.801712000  7
           651 102.27277332:32:32:32:32:3 6dBm N  ov 18, 2018 0 2:47:30.863570000  7
           652 102.33762532:32:32:32:32:3 6dBm N  ov 18, 2018 0 2:47:30.928422000  7
           653 102.36336932:32:32:32:32:3 6dBm N  ov 18, 2018 0 2:47:30.954166000  7
           654 10 2.8910632:32:32:32:32:3 5dBm N  ov 18, 2018 0 2:47:31.481857000  7
           655 103.36134332:32:32:32:32:3 5dBm N  ov 18, 2018 0 2:47:31.952140000  7
           656 103.50772132:32:32:32:32:3 6dBm N  ov 18, 2018 0 2:47:32.098518000  7
           657 103.69943632:32:32:32:32:3 4dBm N  ov 18, 2018 0 2:47:32.290233000  7
           658 10 3.7944732:32:32:32:32:3 8dBm N  ov 18, 2018 0 2:47:32.385267000  7
           659 103.82266232:32:32:32:32:3 5dBm N  ov 18, 2018 0 2:47:32.413459000  7
           660 103.86576332:32:32:32:32:3 6dBm N  ov 18, 2018 0 2:47:32.456560000  7
           661 10 3.9922832:32:32:32:32:3 7dBm N  ov 18, 2018 0 2:47:32.583077000  7
           662 104.01680832:32:32:32:32:3 7dBm N  ov 18, 2018 0 2:47:32.607605000  7
           663 104.19561932:32:32:32:32:3 6dBm N  ov 18, 2018 0 2:47:32.786416000  7
           664 104.93722932:32:32:32:32:3 2dBm N  ov 18, 2018 0 2:47:33.528026000  7
           665 105.06617832:32:32:32:32:3 5dBm N  ov 18, 2018 0 2:47:33.656975000  7
           666 10 5.3005932:32:32:32:32:3 6dBm N  ov 18, 2018 0 2:47:33.891387000  7
           667 105.33153432:32:32:32:32:3 7dBm N  ov 18, 2018 0 2:47:33.922331000  7
           668 105.42491932:32:32:32:32:3 7dBm N  ov 18, 2018 0 2:47:34.015716000  7
           669 10 5.4459932:32:32:32:32:3 7dBm N  ov 18, 2018 0 2:47:34.036787000  7
           670 105.52799632:32:32:32:32:3 6dBm N  ov 18, 2018 0 2:47:34.118793000  7
           671 106.16799232:32:32:32:32:3 5dBm N  ov 18, 2018 0 2:47:34.758789000  7
           672 106.38281432:32:32:32:32:3 6dBm N  ov 18, 2018 0 2:47:34.973611000  7
           673 106.41056132:32:32:32:32:3 6dBm N  ov 18, 2018 0 2:47:35.001358000  7
           674 106.48189232:32:32:32:32:3 6dBm N  ov 18, 2018 0 2:47:35.072689000  7
           675 106.51795832:32:32:32:32:3 7dBm N  ov 18, 2018 0 2:47:35.108755000  7
           676 10 6.5565632:32:32:32:32:3 7dBm N  ov 18, 2018 0 2:47:35.147357000  7
           677 106.58288532:32:32:32:32:3 7dBm N  ov 18, 2018 0 2:47:35.173682000  7
           678 106.60667432:32:32:32:32:3 4dBm N  ov 18, 2018 0 2:47:35.197471000  7
           679 106.74116532:32:32:32:32:3 7dBm N  ov 18, 2018 0 2:47:35.331962000  7
           680 106.84623732:32:32:32:32:3 5dBm N  ov 18, 2018 0 2:47:35.437034000  7
           681 106.86412432:32:32:32:32:3 7dBm N  ov 18, 2018 0 2:47:35.454921000  7
           682 106.90978132:32:32:32:32:3 6dBm N  ov 18, 2018 0 2:47:35.500578000  7
           683 106.93481832:32:32:32:32:3 6dBm N  ov 18, 2018 0 2:47:35.525615000  7
           684 107.02648532:32:32:32:32:3 6dBm N  ov 18, 2018 0 2:47:35.617282000  7
           685 107.07379732:32:32:32:32:3 5dBm N  ov 18, 2018 0 2:47:35.664594000  7
           686 107.13352732:32:32:32:32:3 5dBm N  ov 18, 2018 0 2:47:35.724324000  7
           687 10  7.234632:32:32:32:32:3 6dBm N  ov 18, 2018 0 2:47:35.825397000  7
           688 10 7.2531332:32:32:32:32:3 6dBm N  ov 18, 2018 0 2:47:35.843927000  7
           689 107.87406432:32:32:32:32:3 5dBm N  ov 18, 2018 0 2:47:36.464861000  7
           690 108.01985532:32:32:32:32:3 5dBm N  ov 18, 2018 0 2:47:36.610652000  7
           691 108.32456432:32:32:32:32:3 3dBm N  ov 18, 2018 0 2:47:36.915361000  7
           692 108.58510832:32:32:32:32:3 5dBm N  ov 18, 2018 0 2:47:37.175905000  7
           693 109.42979732:32:32:32:32:3 4dBm N  ov 18, 2018 0 2:47:38.020594000  7
           694 109.64508432:32:32:32:32:3 3dBm N  ov 18, 2018 0 2:47:38.235881000  7
           695 109.90426232:32:32:32:32:3 4dBm N  ov 18, 2018 0 2:47:38.495059000  7
           696 112.91328232:32:32:32:32:3 5dBm N  ov 18, 2018 0 2:47:41.504079000  7
           697 113.31867332:32:32:32:32:3 5dBm N  ov 18, 2018 0 2:47:41.909470000  7
           698 113.37541432:32:32:32:32:3 7dBm N  ov 18, 2018 0 2:47:41.966211000  7
           699 113.44396432:32:32:32:32:3 5dBm N  ov 18, 2018 0 2:47:42.034761000  7
           700 11  3.652432:32:32:32:32:3 5dBm N  ov 18, 2018 0 2:47:42.243197000  7
           701 113.78310332:32:32:32:32:3 5dBm N  ov 18, 2018 0 2:47:42.373900000  7
           702 114.25184132:32:32:32:32:3 6dBm N  ov 18, 2018 0 2:47:42.842638000  7
           703 114.31037132:32:32:32:32:3 7dBm N  ov 18, 2018 0 2:47:42.901168000  7
           704 114.37353132:32:32:32:32:3 4dBm N  ov 18, 2018 0 2:47:42.964328000  7
           705 114.39257632:32:32:32:32:3 6dBm N  ov 18, 2018 0 2:47:42.983373000  7
           706 11 4.4300132:32:32:32:32:3 5dBm N  ov 18, 2018 0 2:47:43.020807000  7
           707 114.47237332:32:32:32:32:3 5dBm N  ov 18, 2018 0 2:47:43.063170000  7
           708 114.49084932:32:32:32:32:3 6dBm N  ov 18, 2018 0 2:47:43.081646000  7
           709 115.37501832:32:32:32:32:3 6dBm N  ov 18, 2018 0 2:47:43.965815000  7
           710 11  5.435332:32:32:32:32:3 5dBm N  ov 18, 2018 0 2:47:44.026097000  7
           711 115.74584232:32:32:32:32:3 4dBm N  ov 18, 2018 0 2:47:44.336639000  7
           712 115.88760832:32:32:32:32:3 6dBm N  ov 18, 2018 0 2:47:44.478405000  7
           713 115.91904632:32:32:32:32:3 7dBm N  ov 18, 2018 0 2:47:44.509843000  7
           714 116.54587132:32:32:32:32:3 4dBm N  ov 18, 2018 0 2:47:45.136668000  7
           715 116.83169832:32:32:32:32:3 5dBm N  ov 18, 2018 0 2:47:45.422495000  7
           716 117.51019232:32:32:32:32:3 5dBm N  ov 18, 2018 0 2:47:46.100989000  7
           717 117.67196832:32:32:32:32:3 6dBm N  ov 18, 2018 0 2:47:46.262765000  7
           718 117.68130532:32:32:32:32:3 6dBm N  ov 18, 2018 0 2:47:46.272102000  7
           719 117.71720832:32:32:32:32:3 6dBm N  ov 18, 2018 0 2:47:46.308005000  7
           720 117.81190632:32:32:32:32:3 6dBm N  ov 18, 2018 0 2:47:46.402703000  7
           721 117.86332732:32:32:32:32:3 5dBm N  ov 18, 2018 0 2:47:46.454124000  7
           722 118.08168932:32:32:32:32:3 6dBm N  ov 18, 2018 0 2:47:46.672486000  7
           723 118.15831832:32:32:32:32:3 4dBm N  ov 18, 2018 0 2:47:46.749115000  7
           724 118.17434532:32:32:32:32:3 5dBm N  ov 18, 2018 0 2:47:46.765142000  7
           725 11 8.1866832:32:32:32:32:3 7dBm N  ov 18, 2018 0 2:47:46.777477000  7
           726 118.25185432:32:32:32:32:3 6dBm N  ov 18, 2018 0 2:47:46.842651000  7
           727 118.32288132:32:32:32:32:3 7dBm N  ov 18, 2018 0 2:47:46.913678000  7
           728 118.59287632:32:32:32:32:3 4dBm N  ov 18, 2018 0 2:47:47.183673000  7
           729 119.68775632:32:32:32:32:3 5dBm N  ov 18, 2018 0 2:47:48.278553000  7
           730 120.32675432:32:32:32:32:3 4dBm N  ov 18, 2018 0 2:47:48.917551000  7
           731 120.43724432:32:32:32:32:3 4dBm N  ov 18, 2018 0 2:47:49.028041000  7
           732 121.04088432:32:32:32:32:3 4dBm N  ov 18, 2018 0 2:47:49.631681000  7
           733 121.08454832:32:32:32:32:3 6dBm N  ov 18, 2018 0 2:47:49.675345000  7
           734 121.12389432:32:32:32:32:3 4dBm N  ov 18, 2018 0 2:47:49.714691000  7
           735 121.16672132:32:32:32:32:3 8dBm N  ov 18, 2018 0 2:47:49.757518000  7
           736 121.26505432:32:32:32:32:3 4dBm N  ov 18, 2018 0 2:47:49.855851000  7
           737 121.33590632:32:32:32:32:3 3dBm N  ov 18, 2018 0 2:47:49.926703000  7
           738 121.36391332:32:32:32:32:3 6dBm N  ov 18, 2018 0 2:47:49.954710000  7
           739 12 1.3825932:32:32:32:32:3 3dBm N  ov 18, 2018 0 2:47:49.973387000  7
           740 121.48233832:32:32:32:32:3 7dBm N  ov 18, 2018 0 2:47:50.073135000  7
           741 121.57213132:32:32:32:32:3 5dBm N  ov 18, 2018 0 2:47:50.162928000  7
           742 121.71633932:32:32:32:32:3 6dBm N  ov 18, 2018 0 2:47:50.307136000  7
           743 12 1.7555432:32:32:32:32:3 5dBm N  ov 18, 2018 0 2:47:50.346337000  7
           744 121.81595232:32:32:32:32:3 7dBm N  ov 18, 2018 0 2:47:50.406749000  7
           745 122.04489332:32:32:32:32:3 6dBm N  ov 18, 2018 0 2:47:50.635690000  7
           746 122.06312132:32:32:32:32:3 5dBm N  ov 18, 2018 0 2:47:50.653918000  7
           747 122.33065932:32:32:32:32:3 4dBm N  ov 18, 2018 0 2:47:50.921456000  7
           748 122.39210432:32:32:32:32:3 6dBm N  ov 18, 2018 0 2:47:50.982901000  7
           749 12 2.4522632:32:32:32:32:3 6dBm N  ov 18, 2018 0 2:47:51.043057000  7
           750 12  2.779632:32:32:32:32:3 6dBm N  ov 18, 2018 0 2:47:51.370397000  7
           751 122.82972332:32:32:32:32:3 6dBm N  ov 18, 2018 0 2:47:51.420520000  7
           752 122.85632432:32:32:32:32:3 6dBm N  ov 18, 2018 0 2:47:51.447121000  7
           753 122.99898932:32:32:32:32:3 3dBm N  ov 18, 2018 0 2:47:51.589786000  7
           754 123.04064532:32:32:32:32:3 6dBm N  ov 18, 2018 0 2:47:51.631442000  7
           755 123.06241832:32:32:32:32:3 6dBm N  ov 18, 2018 0 2:47:51.653215000  7
