    1   0.000000 32:32:32:32:32:32 9dBm Nov 18, 2018 02:21:28.179640000 +07
    2   0.762846 32:32:32:32:32:32 5dBm Nov 18, 2018 02:21:28.942486000 +07
    3   0.888340 32:32:32:32:32:32 3dBm Nov 18, 2018 02:21:29.067980000 +07
    4   0.936220 32:32:32:32:32:32 7dBm Nov 18, 2018 02:21:29.115860000 +07
    5   1.260399 32:32:32:32:32:32 7dBm Nov 18, 2018 02:21:29.440039000 +07
    6   1.326019 32:32:32:32:32:32 7dBm Nov 18, 2018 02:21:29.505659000 +07
    7   1.371273 32:32:32:32:32:32 7dBm Nov 18, 2018 02:21:29.550913000 +07
    8   1.653071 32:32:32:32:32:32 7dBm Nov 18, 2018 02:21:29.832711000 +07
    9   1.773627 32:32:32:32:32:32 9dBm Nov 18, 2018 02:21:29.953267000 +07
   10   1.849267 32:32:32:32:32:32 7dBm Nov 18, 2018 02:21:30.028907000 +07
   11   2.018991 32:32:32:32:32:32 7dBm Nov 18, 2018 02:21:30.198631000 +07
   12   2.073734 32:32:32:32:32:32 8dBm Nov 18, 2018 02:21:30.253374000 +07
   13   2.092466 32:32:32:32:32:32 6dBm Nov 18, 2018 02:21:30.272106000 +07
   14   2.110270 32:32:32:32:32:32 9dBm Nov 18, 2018 02:21:30.289910000 +07
   15   2.144562 32:32:32:32:32:32 7dBm Nov 18, 2018 02:21:30.324202000 +07
   16   2.187148 32:32:32:32:32:32 6dBm Nov 18, 2018 02:21:30.366788000 +07
   17   2.346633 32:32:32:32:32:32 6dBm Nov 18, 2018 02:21:30.526273000 +07
   18   2.428224 32:32:32:32:32:32 5dBm Nov 18, 2018 02:21:30.607864000 +07
   19   2.441448 32:32:32:32:32:32 6dBm Nov 18, 2018 02:21:30.621088000 +07
   20   2.468519 32:32:32:32:32:32 7dBm Nov 18, 2018 02:21:30.648159000 +07
   21   2.551304 32:32:32:32:32:32 7dBm Nov 18, 2018 02:21:30.730944000 +07
   22   2.756185 32:32:32:32:32:32 5dBm Nov 18, 2018 02:21:30.935825000 +07
   23   2.832439 32:32:32:32:32:32 6dBm Nov 18, 2018 02:21:31.012079000 +07
   24   2.849459 32:32:32:32:32:32 7dBm Nov 18, 2018 02:21:31.029099000 +07
   25   2.915159 32:32:32:32:32:32 6dBm Nov 18, 2018 02:21:31.094799000 +07
   26   2.933680 32:32:32:32:32:32 4dBm Nov 18, 2018 02:21:31.113320000 +07
   27   2.970526 32:32:32:32:32:32 6dBm Nov 18, 2018 02:21:31.150166000 +07
   28   3.125273 32:32:32:32:32:32 8dBm Nov 18, 2018 02:21:31.304913000 +07
   29   3.152746 32:32:32:32:32:32 8dBm Nov 18, 2018 02:21:31.332386000 +07
   30   3.180734 32:32:32:32:32:32 7dBm Nov 18, 2018 02:21:31.360374000 +07
   31   3.196198 32:32:32:32:32:32 5dBm Nov 18, 2018 02:21:31.375838000 +07
   32   3.224928 32:32:32:32:32:32 8dBm Nov 18, 2018 02:21:31.404568000 +07
   33   3.307216 32:32:32:32:32:32 8dBm Nov 18, 2018 02:21:31.486856000 +07
   34   3.355277 32:32:32:32:32:32 7dBm Nov 18, 2018 02:21:31.534917000 +07
   35   3.380699 32:32:32:32:32:32 7dBm Nov 18, 2018 02:21:31.560339000 +07
   36   3.607474 32:32:32:32:32:32 8dBm Nov 18, 2018 02:21:31.787114000 +07
   37   3.748779 32:32:32:32:32:32 7dBm Nov 18, 2018 02:21:31.928419000 +07
   38   3.831572 32:32:32:32:32:32 7dBm Nov 18, 2018 02:21:32.011212000 +07
   39   3.869555 32:32:32:32:32:32 6dBm Nov 18, 2018 02:21:32.049195000 +07
   40   3.906375 32:32:32:32:32:32 8dBm Nov 18, 2018 02:21:32.086015000 +07
   41   3.957056 32:32:32:32:32:32 8dBm Nov 18, 2018 02:21:32.136696000 +07
   42   4.068769 32:32:32:32:32:32 6dBm Nov 18, 2018 02:21:32.248409000 +07
   43   4.209575 32:32:32:32:32:32 6dBm Nov 18, 2018 02:21:32.389215000 +07
   44   4.237938 32:32:32:32:32:32 5dBm Nov 18, 2018 02:21:32.417578000 +07
   45   4.294861 32:32:32:32:32:32 6dBm Nov 18, 2018 02:21:32.474501000 +07
   46   4.426391 32:32:32:32:32:32 5dBm Nov 18, 2018 02:21:32.606031000 +07
   47   4.976181 32:32:32:32:32:32 6dBm Nov 18, 2018 02:21:33.155821000 +07
   48   4.993935 32:32:32:32:32:32 7dBm Nov 18, 2018 02:21:33.173575000 +07
   49   5.201585 32:32:32:32:32:32 5dBm Nov 18, 2018 02:21:33.381225000 +07
   50   5.347541 32:32:32:32:32:32 5dBm Nov 18, 2018 02:21:33.527181000 +07
   51   5.362589 32:32:32:32:32:32 6dBm Nov 18, 2018 02:21:33.542229000 +07
   52   5.420013 32:32:32:32:32:32 6dBm Nov 18, 2018 02:21:33.599653000 +07
   53   5.524275 32:32:32:32:32:32 7dBm Nov 18, 2018 02:21:33.703915000 +07
   54   5.586543 32:32:32:32:32:32 6dBm Nov 18, 2018 02:21:33.766183000 +07
   55   5.615718 32:32:32:32:32:32 7dBm Nov 18, 2018 02:21:33.795358000 +07
   56   5.887220 32:32:32:32:32:32 6dBm Nov 18, 2018 02:21:34.066860000 +07
   57   5.920452 32:32:32:32:32:32 5dBm Nov 18, 2018 02:21:34.100092000 +07
   58   5.958086 32:32:32:32:32:32 7dBm Nov 18, 2018 02:21:34.137726000 +07
   59   5.976059 32:32:32:32:32:32 5dBm Nov 18, 2018 02:21:34.155699000 +07
   60   5.989945 32:32:32:32:32:32 6dBm Nov 18, 2018 02:21:34.169585000 +07
   61   6.061065 32:32:32:32:32:32 6dBm Nov 18, 2018 02:21:34.240705000 +07
   62   6.091946 32:32:32:32:32:32 4dBm Nov 18, 2018 02:21:34.271586000 +07
   63   6.126205 32:32:32:32:32:32 5dBm Nov 18, 2018 02:21:34.305845000 +07
   64   6.139658 32:32:32:32:32:32 7dBm Nov 18, 2018 02:21:34.319298000 +07
   65   6.220848 32:32:32:32:32:32 4dBm Nov 18, 2018 02:21:34.400488000 +07
   66   6.595260 32:32:32:32:32:32 5dBm Nov 18, 2018 02:21:34.774900000 +07
   67   6.764009 32:32:32:32:32:32 6dBm Nov 18, 2018 02:21:34.943649000 +07
   68   6.830924 32:32:32:32:32:32 5dBm Nov 18, 2018 02:21:35.010564000 +07
   69   6.976136 32:32:32:32:32:32 6dBm Nov 18, 2018 02:21:35.155776000 +07
   70   6.997960 32:32:32:32:32:32 6dBm Nov 18, 2018 02:21:35.177600000 +07
   71   7.167232 32:32:32:32:32:32 8dBm Nov 18, 2018 02:21:35.346872000 +07
   72   7.207843 32:32:32:32:32:32 5dBm Nov 18, 2018 02:21:35.387483000 +07
   73   7.251368 32:32:32:32:32:32 5dBm Nov 18, 2018 02:21:35.431008000 +07
   74   7.354683 32:32:32:32:32:32 7dBm Nov 18, 2018 02:21:35.534323000 +07
   75   7.719833 32:32:32:32:32:32 6dBm Nov 18, 2018 02:21:35.899473000 +07
   76   7.780329 32:32:32:32:32:32 6dBm Nov 18, 2018 02:21:35.959969000 +07
   77   7.949988 32:32:32:32:32:32 5dBm Nov 18, 2018 02:21:36.129628000 +07
   78   8.010455 32:32:32:32:32:32 4dBm Nov 18, 2018 02:21:36.190095000 +07
   79   8.131441 32:32:32:32:32:32 4dBm Nov 18, 2018 02:21:36.311081000 +07
   80   8.855599 32:32:32:32:32:32 5dBm Nov 18, 2018 02:21:37.035239000 +07
   81   9.428359 32:32:32:32:32:32 6dBm Nov 18, 2018 02:21:37.607999000 +07
   82   9.446998 32:32:32:32:32:32 6dBm Nov 18, 2018 02:21:37.626638000 +07
   83   9.770249 32:32:32:32:32:32 5dBm Nov 18, 2018 02:21:37.949889000 +07
   84  10.182885 32:32:32:32:32:32 3dBm Nov 18, 2018 02:21:38.362525000 +07
   85  10.234753 32:32:32:32:32:32 6dBm Nov 18, 2018 02:21:38.414393000 +07
   86  10.484053 32:32:32:32:32:32 3dBm Nov 18, 2018 02:21:38.663693000 +07
   87  10.562475 32:32:32:32:32:32 2dBm Nov 18, 2018 02:21:38.742115000 +07
   88  11.341771 32:32:32:32:32:32 2dBm Nov 18, 2018 02:21:39.521411000 +07
   89  11.583183 32:32:32:32:32:32 4dBm Nov 18, 2018 02:21:39.762823000 +07
   90  11.778944 32:32:32:32:32:32 4dBm Nov 18, 2018 02:21:39.958584000 +07
   91  11.836026 32:32:32:32:32:32 5dBm Nov 18, 2018 02:21:40.015666000 +07
   92  11.877984 32:32:32:32:32:32 5dBm Nov 18, 2018 02:21:40.057624000 +07
   93  12.024189 32:32:32:32:32:32 7dBm Nov 18, 2018 02:21:40.203829000 +07
   94  12.085741 32:32:32:32:32:32 5dBm Nov 18, 2018 02:21:40.265381000 +07
   95  12.235151 32:32:32:32:32:32 7dBm Nov 18, 2018 02:21:40.414791000 +07
   96  12.266971 32:32:32:32:32:32 4dBm Nov 18, 2018 02:21:40.446611000 +07
   97  12.393154 32:32:32:32:32:32 6dBm Nov 18, 2018 02:21:40.572794000 +07
   98  12.514838 32:32:32:32:32:32 3dBm Nov 18, 2018 02:21:40.694478000 +07
   99  12.583987 32:32:32:32:32:32 6dBm Nov 18, 2018 02:21:40.763627000 +07
  100  12.743515 32:32:32:32:32:32 6dBm Nov 18, 2018 02:21:40.923155000 +07
  101  13.414859 32:32:32:32:32:32 4dBm Nov 18, 2018 02:21:41.594499000 +07
  102  13.477253 32:32:32:32:32:32 4dBm Nov 18, 2018 02:21:41.656893000 +07
  103  13.548173 32:32:32:32:32:32 6dBm Nov 18, 2018 02:21:41.727813000 +07
  104  13.609229 32:32:32:32:32:32 5dBm Nov 18, 2018 02:21:41.788869000 +07
  105  13.641242 32:32:32:32:32:32 4dBm Nov 18, 2018 02:21:41.820882000 +07
  106  13.695219 32:32:32:32:32:32 5dBm Nov 18, 2018 02:21:41.874859000 +07
  107  13.990271 32:32:32:32:32:32 5dBm Nov 18, 2018 02:21:42.169911000 +07
  108  14.104219 32:32:32:32:32:32 5dBm Nov 18, 2018 02:21:42.283859000 +07
  109  14.185260 32:32:32:32:32:32 5dBm Nov 18, 2018 02:21:42.364900000 +07
  110  14.508867 32:32:32:32:32:32 5dBm Nov 18, 2018 02:21:42.688507000 +07
  111  14.637605 32:32:32:32:32:32 6dBm Nov 18, 2018 02:21:42.817245000 +07
  112  14.743300 32:32:32:32:32:32 4dBm Nov 18, 2018 02:21:42.922940000 +07
  113  14.824067 32:32:32:32:32:32 3dBm Nov 18, 2018 02:21:43.003707000 +07
  114  15.166139 32:32:32:32:32:32 5dBm Nov 18, 2018 02:21:43.345779000 +07
  115  15.689708 32:32:32:32:32:32 6dBm Nov 18, 2018 02:21:43.869348000 +07
  116  15.962717 32:32:32:32:32:32 5dBm Nov 18, 2018 02:21:44.142357000 +07
  117  16.004312 32:32:32:32:32:32 7dBm Nov 18, 2018 02:21:44.183952000 +07
  118  16.058118 32:32:32:32:32:32 5dBm Nov 18, 2018 02:21:44.237758000 +07
  119  16.080961 32:32:32:32:32:32 6dBm Nov 18, 2018 02:21:44.260601000 +07
  120  16.093993 32:32:32:32:32:32 7dBm Nov 18, 2018 02:21:44.273633000 +07
  121  16.111655 32:32:32:32:32:32 6dBm Nov 18, 2018 02:21:44.291295000 +07
  122  16.141200 32:32:32:32:32:32 6dBm Nov 18, 2018 02:21:44.320840000 +07
  123  16.169137 32:32:32:32:32:32 5dBm Nov 18, 2018 02:21:44.348777000 +07
  124  16.247688 32:32:32:32:32:32 5dBm Nov 18, 2018 02:21:44.427328000 +07
  125  16.341505 32:32:32:32:32:32 5dBm Nov 18, 2018 02:21:44.521145000 +07
  126  16.575962 32:32:32:32:32:32 3dBm Nov 18, 2018 02:21:44.755602000 +07
  127  16.609744 32:32:32:32:32:32 4dBm Nov 18, 2018 02:21:44.789384000 +07
  128  16.668862 32:32:32:32:32:32 6dBm Nov 18, 2018 02:21:44.848502000 +07
  129  16.687375 32:32:32:32:32:32 6dBm Nov 18, 2018 02:21:44.867015000 +07
  130  16.827294 32:32:32:32:32:32 6dBm Nov 18, 2018 02:21:45.006934000 +07
  131  16.945861 32:32:32:32:32:32 4dBm Nov 18, 2018 02:21:45.125501000 +07
  132  17.091358 32:32:32:32:32:32 6dBm Nov 18, 2018 02:21:45.270998000 +07
  133  17.131435 32:32:32:32:32:32 3dBm Nov 18, 2018 02:21:45.311075000 +07
  134  17.236652 32:32:32:32:32:32 2dBm Nov 18, 2018 02:21:45.416292000 +07
  135  17.304333 32:32:32:32:32:32 7dBm Nov 18, 2018 02:21:45.483973000 +07
  136  17.579773 32:32:32:32:32:32 6dBm Nov 18, 2018 02:21:45.759413000 +07
  137  18.060346 32:32:32:32:32:32 4dBm Nov 18, 2018 02:21:46.239986000 +07
  138  19.135865 32:32:32:32:32:32 5dBm Nov 18, 2018 02:21:47.315505000 +07
  139  19.196760 32:32:32:32:32:32 4dBm Nov 18, 2018 02:21:47.376400000 +07
  140  19.510346 32:32:32:32:32:32 4dBm Nov 18, 2018 02:21:47.689986000 +07
  141  19.525869 32:32:32:32:32:32 5dBm Nov 18, 2018 02:21:47.705509000 +07
  142  19.569340 32:32:32:32:32:32 6dBm Nov 18, 2018 02:21:47.748980000 +07
  143  19.590417 32:32:32:32:32:32 7dBm Nov 18, 2018 02:21:47.770057000 +07
  144  19.901729 32:32:32:32:32:32 6dBm Nov 18, 2018 02:21:48.081369000 +07
  145  19.990763 32:32:32:32:32:32 8dBm Nov 18, 2018 02:21:48.170403000 +07
  146  20.230601 32:32:32:32:32:32 6dBm Nov 18, 2018 02:21:48.410241000 +07
  147  20.424871 32:32:32:32:32:32 3dBm Nov 18, 2018 02:21:48.604511000 +07
  148  20.511110 32:32:32:32:32:32 4dBm Nov 18, 2018 02:21:48.690750000 +07
  149  20.740719 32:32:32:32:32:32 5dBm Nov 18, 2018 02:21:48.920359000 +07
  150  20.839792 32:32:32:32:32:32 6dBm Nov 18, 2018 02:21:49.019432000 +07
  151  21.553686 32:32:32:32:32:32 5dBm Nov 18, 2018 02:21:49.733326000 +07
  152  21.748745 32:32:32:32:32:32 5dBm Nov 18, 2018 02:21:49.928385000 +07
  153  21.979444 32:32:32:32:32:32 5dBm Nov 18, 2018 02:21:50.159084000 +07
  154  22.074726 32:32:32:32:32:32 6dBm Nov 18, 2018 02:21:50.254366000 +07
  155  22.762823 32:32:32:32:32:32 5dBm Nov 18, 2018 02:21:50.942463000 +07
  156  22.858189 32:32:32:32:32:32 6dBm Nov 18, 2018 02:21:51.037829000 +07
  157  22.968367 32:32:32:32:32:32 5dBm Nov 18, 2018 02:21:51.148007000 +07
  158  23.436228 32:32:32:32:32:32 6dBm Nov 18, 2018 02:21:51.615868000 +07
  159  23.460758 32:32:32:32:32:32 5dBm Nov 18, 2018 02:21:51.640398000 +07
  160  23.488011 32:32:32:32:32:32 5dBm Nov 18, 2018 02:21:51.667651000 +07
  161  23.535863 32:32:32:32:32:32 6dBm Nov 18, 2018 02:21:51.715503000 +07
  162  24.030843 32:32:32:32:32:32 7dBm Nov 18, 2018 02:21:52.210483000 +07
  163  24.280216 32:32:32:32:32:32 7dBm Nov 18, 2018 02:21:52.459856000 +07
  164  24.366657 32:32:32:32:32:32 5dBm Nov 18, 2018 02:21:52.546297000 +07
  165  24.665556 32:32:32:32:32:32 5dBm Nov 18, 2018 02:21:52.845196000 +07
  166  24.923938 32:32:32:32:32:32 3dBm Nov 18, 2018 02:21:53.103578000 +07
  167  25.613529 32:32:32:32:32:32 5dBm Nov 18, 2018 02:21:53.793169000 +07
  168  25.719496 32:32:32:32:32:32 4dBm Nov 18, 2018 02:21:53.899136000 +07
  169  25.763058 32:32:32:32:32:32 6dBm Nov 18, 2018 02:21:53.942698000 +07
  170  25.909964 32:32:32:32:32:32 5dBm Nov 18, 2018 02:21:54.089604000 +07
  171  26.002891 32:32:32:32:32:32 7dBm Nov 18, 2018 02:21:54.182531000 +07
  172  26.040976 32:32:32:32:32:32 6dBm Nov 18, 2018 02:21:54.220616000 +07
  173  26.142677 32:32:32:32:32:32 5dBm Nov 18, 2018 02:21:54.322317000 +07
  174  26.230312 32:32:32:32:32:32 5dBm Nov 18, 2018 02:21:54.409952000 +07
  175  26.378823 32:32:32:32:32:32 7dBm Nov 18, 2018 02:21:54.558463000 +07
  176  26.637366 32:32:32:32:32:32 6dBm Nov 18, 2018 02:21:54.817006000 +07
  177  27.185540 32:32:32:32:32:32 6dBm Nov 18, 2018 02:21:55.365180000 +07
  178  27.706499 32:32:32:32:32:32 7dBm Nov 18, 2018 02:21:55.886139000 +07
  179  27.781053 32:32:32:32:32:32 6dBm Nov 18, 2018 02:21:55.960693000 +07
  180  27.906997 32:32:32:32:32:32 5dBm Nov 18, 2018 02:21:56.086637000 +07
  181  27.968208 32:32:32:32:32:32 7dBm Nov 18, 2018 02:21:56.147848000 +07
  182  28.548853 32:32:32:32:32:32 5dBm Nov 18, 2018 02:21:56.728493000 +07
  183  29.565537 32:32:32:32:32:32 6dBm Nov 18, 2018 02:21:57.745177000 +07
  184  29.582453 32:32:32:32:32:32 6dBm Nov 18, 2018 02:21:57.762093000 +07
  185  29.679965 32:32:32:32:32:32 7dBm Nov 18, 2018 02:21:57.859605000 +07
  186  29.844514 32:32:32:32:32:32 5dBm Nov 18, 2018 02:21:58.024154000 +07
  187  30.216372 32:32:32:32:32:32 5dBm Nov 18, 2018 02:21:58.396012000 +07
  188  30.853463 32:32:32:32:32:32 6dBm Nov 18, 2018 02:21:59.033103000 +07
  189  30.903721 32:32:32:32:32:32 6dBm Nov 18, 2018 02:21:59.083361000 +07
  190  31.183694 32:32:32:32:32:32 5dBm Nov 18, 2018 02:21:59.363334000 +07
  191  32.163911 32:32:32:32:32:32 5dBm Nov 18, 2018 02:22:00.343551000 +07
  192  32.214251 32:32:32:32:32:32 5dBm Nov 18, 2018 02:22:00.393891000 +07
  193  33.046089 32:32:32:32:32:32 5dBm Nov 18, 2018 02:22:01.225729000 +07
  194  33.183249 32:32:32:32:32:32 6dBm Nov 18, 2018 02:22:01.362889000 +07
  195  33.272203 32:32:32:32:32:32 4dBm Nov 18, 2018 02:22:01.451843000 +07
  196  33.423605 32:32:32:32:32:32 6dBm Nov 18, 2018 02:22:01.603245000 +07
  197  33.573383 32:32:32:32:32:32 6dBm Nov 18, 2018 02:22:01.753023000 +07
  198  33.730441 32:32:32:32:32:32 6dBm Nov 18, 2018 02:22:01.910081000 +07
  199  33.863391 32:32:32:32:32:32 2dBm Nov 18, 2018 02:22:02.043031000 +07
  200  33.952420 32:32:32:32:32:32 6dBm Nov 18, 2018 02:22:02.132060000 +07
  201  33.980984 32:32:32:32:32:32 5dBm Nov 18, 2018 02:22:02.160624000 +07
  202  34.056020 32:32:32:32:32:32 5dBm Nov 18, 2018 02:22:02.235660000 +07
  203  34.114358 32:32:32:32:32:32 5dBm Nov 18, 2018 02:22:02.293998000 +07
  204  34.134807 32:32:32:32:32:32 4dBm Nov 18, 2018 02:22:02.314447000 +07
  205  34.619821 32:32:32:32:32:32 6dBm Nov 18, 2018 02:22:02.799461000 +07
  206  34.985158 32:32:32:32:32:32 5dBm Nov 18, 2018 02:22:03.164798000 +07
  207  35.010378 32:32:32:32:32:32 6dBm Nov 18, 2018 02:22:03.190018000 +07
  208  35.041008 32:32:32:32:32:32 2dBm Nov 18, 2018 02:22:03.220648000 +07
  209  35.119882 32:32:32:32:32:32 5dBm Nov 18, 2018 02:22:03.299522000 +07
  210  35.332498 32:32:32:32:32:32 3dBm Nov 18, 2018 02:22:03.512138000 +07
  211  35.595906 32:32:32:32:32:32 6dBm Nov 18, 2018 02:22:03.775546000 +07
  212  35.997485 32:32:32:32:32:32 5dBm Nov 18, 2018 02:22:04.177125000 +07
  213  36.128693 32:32:32:32:32:32 6dBm Nov 18, 2018 02:22:04.308333000 +07
  214  36.310582 32:32:32:32:32:32 5dBm Nov 18, 2018 02:22:04.490222000 +07
  215  36.924578 32:32:32:32:32:32 6dBm Nov 18, 2018 02:22:05.104218000 +07
  216  37.301607 32:32:32:32:32:32 7dBm Nov 18, 2018 02:22:05.481247000 +07
  217  37.354798 32:32:32:32:32:32 6dBm Nov 18, 2018 02:22:05.534438000 +07
  218  37.381315 32:32:32:32:32:32 5dBm Nov 18, 2018 02:22:05.560955000 +07
  219  37.457512 32:32:32:32:32:32 5dBm Nov 18, 2018 02:22:05.637152000 +07
  220  37.560656 32:32:32:32:32:32 4dBm Nov 18, 2018 02:22:05.740296000 +07
  221  37.610225 32:32:32:32:32:32 5dBm Nov 18, 2018 02:22:05.789865000 +07
  222  37.777429 32:32:32:32:32:32 0dBm Nov 18, 2018 02:22:05.957069000 +07
  223  37.875109 32:32:32:32:32:32 6dBm Nov 18, 2018 02:22:06.054749000 +07
  224  37.938357 32:32:32:32:32:32 5dBm Nov 18, 2018 02:22:06.117997000 +07
  225  38.048559 32:32:32:32:32:32 5dBm Nov 18, 2018 02:22:06.228199000 +07
  226  38.119371 32:32:32:32:32:32 5dBm Nov 18, 2018 02:22:06.299011000 +07
  227  38.137012 32:32:32:32:32:32 6dBm Nov 18, 2018 02:22:06.316652000 +07
  228  38.454751 32:32:32:32:32:32 5dBm Nov 18, 2018 02:22:06.634391000 +07
  229  38.503497 32:32:32:32:32:32 6dBm Nov 18, 2018 02:22:06.683137000 +07
  230  38.517268 32:32:32:32:32:32 6dBm Nov 18, 2018 02:22:06.696908000 +07
  231  38.831115 32:32:32:32:32:32 4dBm Nov 18, 2018 02:22:07.010755000 +07
  232  38.917390 32:32:32:32:32:32 5dBm Nov 18, 2018 02:22:07.097030000 +07
  233  39.220430 32:32:32:32:32:32 6dBm Nov 18, 2018 02:22:07.400070000 +07
  234  39.234531 32:32:32:32:32:32 4dBm Nov 18, 2018 02:22:07.414171000 +07
  235  39.655881 32:32:32:32:32:32 5dBm Nov 18, 2018 02:22:07.835521000 +07
  236  39.691320 32:32:32:32:32:32 5dBm Nov 18, 2018 02:22:07.870960000 +07
  237  40.320885 32:32:32:32:32:32 6dBm Nov 18, 2018 02:22:08.500525000 +07
  238  40.476071 32:32:32:32:32:32 5dBm Nov 18, 2018 02:22:08.655711000 +07
  239  40.534382 32:32:32:32:32:32 4dBm Nov 18, 2018 02:22:08.714022000 +07
  240  40.565766 32:32:32:32:32:32 4dBm Nov 18, 2018 02:22:08.745406000 +07
  241  40.742891 32:32:32:32:32:32 6dBm Nov 18, 2018 02:22:08.922531000 +07
  242  40.787440 32:32:32:32:32:32 4dBm Nov 18, 2018 02:22:08.967080000 +07
  243  40.963054 32:32:32:32:32:32 6dBm Nov 18, 2018 02:22:09.142694000 +07
  244  41.237056 32:32:32:32:32:32 6dBm Nov 18, 2018 02:22:09.416696000 +07
  245  41.855024 32:32:32:32:32:32 6dBm Nov 18, 2018 02:22:10.034664000 +07
  246  44.101768 32:32:32:32:32:32 4dBm Nov 18, 2018 02:22:12.281408000 +07
  247  44.412573 32:32:32:32:32:32 5dBm Nov 18, 2018 02:22:12.592213000 +07
  248  44.494889 32:32:32:32:32:32 6dBm Nov 18, 2018 02:22:12.674529000 +07
  249  45.535762 32:32:32:32:32:32 5dBm Nov 18, 2018 02:22:13.715402000 +07
  250  45.770788 32:32:32:32:32:32 5dBm Nov 18, 2018 02:22:13.950428000 +07
  251  45.792283 32:32:32:32:32:32 4dBm Nov 18, 2018 02:22:13.971923000 +07
  252  45.836054 32:32:32:32:32:32 6dBm Nov 18, 2018 02:22:14.015694000 +07
  253  46.378260 32:32:32:32:32:32 4dBm Nov 18, 2018 02:22:14.557900000 +07
  254  46.865082 32:32:32:32:32:32 4dBm Nov 18, 2018 02:22:15.044722000 +07
  255  48.608660 32:32:32:32:32:32 4dBm Nov 18, 2018 02:22:16.788300000 +07
  256  50.269538 32:32:32:32:32:32 4dBm Nov 18, 2018 02:22:18.449178000 +07
  257  50.937967 32:32:32:32:32:32 6dBm Nov 18, 2018 02:22:19.117607000 +07
  258  50.989583 32:32:32:32:32:32 4dBm Nov 18, 2018 02:22:19.169223000 +07
  259  51.901045 32:32:32:32:32:32 4dBm Nov 18, 2018 02:22:20.080685000 +07
  260  52.067588 32:32:32:32:32:32 3dBm Nov 18, 2018 02:22:20.247228000 +07
  261  52.272985 32:32:32:32:32:32 7dBm Nov 18, 2018 02:22:20.452625000 +07
  262  52.542776 32:32:32:32:32:32 6dBm Nov 18, 2018 02:22:20.722416000 +07
  263  52.663782 32:32:32:32:32:32 5dBm Nov 18, 2018 02:22:20.843422000 +07
  264  52.837551 32:32:32:32:32:32 3dBm Nov 18, 2018 02:22:21.017191000 +07
  265  52.952147 32:32:32:32:32:32 5dBm Nov 18, 2018 02:22:21.131787000 +07
  266  53.138706 32:32:32:32:32:32 5dBm Nov 18, 2018 02:22:21.318346000 +07
  267  53.334327 32:32:32:32:32:32 4dBm Nov 18, 2018 02:22:21.513967000 +07
  268  53.551743 32:32:32:32:32:32 4dBm Nov 18, 2018 02:22:21.731383000 +07
  269  53.619085 32:32:32:32:32:32 5dBm Nov 18, 2018 02:22:21.798725000 +07
  270  53.691007 32:32:32:32:32:32 5dBm Nov 18, 2018 02:22:21.870647000 +07
  271  53.797163 32:32:32:32:32:32 5dBm Nov 18, 2018 02:22:21.976803000 +07
  272  53.842666 32:32:32:32:32:32 3dBm Nov 18, 2018 02:22:22.022306000 +07
  273  53.891629 32:32:32:32:32:32 6dBm Nov 18, 2018 02:22:22.071269000 +07
  274  53.919524 32:32:32:32:32:32 5dBm Nov 18, 2018 02:22:22.099164000 +07
  275  53.945527 32:32:32:32:32:32 5dBm Nov 18, 2018 02:22:22.125167000 +07
  276  54.160087 32:32:32:32:32:32 2dBm Nov 18, 2018 02:22:22.339727000 +07
  277  54.259637 32:32:32:32:32:32 0dBm Nov 18, 2018 02:22:22.439277000 +07
  278  54.392435 32:32:32:32:32:32 5dBm Nov 18, 2018 02:22:22.572075000 +07
  279  54.438580 32:32:32:32:32:32 7dBm Nov 18, 2018 02:22:22.618220000 +07
  280  54.576018 32:32:32:32:32:32 4dBm Nov 18, 2018 02:22:22.755658000 +07
  281  54.610501 32:32:32:32:32:32 6dBm Nov 18, 2018 02:22:22.790141000 +07
  282  54.817246 32:32:32:32:32:32 6dBm Nov 18, 2018 02:22:22.996886000 +07
  283  55.136061 32:32:32:32:32:32 6dBm Nov 18, 2018 02:22:23.315701000 +07
  284  55.265687 32:32:32:32:32:32 6dBm Nov 18, 2018 02:22:23.445327000 +07
  285  55.285519 32:32:32:32:32:32 4dBm Nov 18, 2018 02:22:23.465159000 +07
  286  55.340922 32:32:32:32:32:32 4dBm Nov 18, 2018 02:22:23.520562000 +07
  287  55.363294 32:32:32:32:32:32 5dBm Nov 18, 2018 02:22:23.542934000 +07
  288  55.408433 32:32:32:32:32:32 5dBm Nov 18, 2018 02:22:23.588073000 +07
  289  55.961163 32:32:32:32:32:32 5dBm Nov 18, 2018 02:22:24.140803000 +07
  290  55.999576 32:32:32:32:32:32 5dBm Nov 18, 2018 02:22:24.179216000 +07
  291  56.068639 32:32:32:32:32:32 5dBm Nov 18, 2018 02:22:24.248279000 +07
  292  56.098728 32:32:32:32:32:32 7dBm Nov 18, 2018 02:22:24.278368000 +07
  293  56.104640 32:32:32:32:32:32 6dBm Nov 18, 2018 02:22:24.284280000 +07
  294  56.221215 32:32:32:32:32:32 6dBm Nov 18, 2018 02:22:24.400855000 +07
  295  56.231540 32:32:32:32:32:32 4dBm Nov 18, 2018 02:22:24.411180000 +07
  296  56.265645 32:32:32:32:32:32 5dBm Nov 18, 2018 02:22:24.445285000 +07
  297  56.821302 32:32:32:32:32:32 5dBm Nov 18, 2018 02:22:25.000942000 +07
  298  57.202114 32:32:32:32:32:32 4dBm Nov 18, 2018 02:22:25.381754000 +07
  299  57.585530 32:32:32:32:32:32 5dBm Nov 18, 2018 02:22:25.765170000 +07
  300  57.917276 32:32:32:32:32:32 4dBm Nov 18, 2018 02:22:26.096916000 +07
  301  58.146429 32:32:32:32:32:32 6dBm Nov 18, 2018 02:22:26.326069000 +07
  302  58.454465 32:32:32:32:32:32 4dBm Nov 18, 2018 02:22:26.634105000 +07
  303  58.557331 32:32:32:32:32:32 6dBm Nov 18, 2018 02:22:26.736971000 +07
  304  58.720601 32:32:32:32:32:32 6dBm Nov 18, 2018 02:22:26.900241000 +07
  305  58.749887 32:32:32:32:32:32 6dBm Nov 18, 2018 02:22:26.929527000 +07
  306  58.829717 32:32:32:32:32:32 4dBm Nov 18, 2018 02:22:27.009357000 +07
  307  58.883065 32:32:32:32:32:32 4dBm Nov 18, 2018 02:22:27.062705000 +07
  308  59.444212 32:32:32:32:32:32 4dBm Nov 18, 2018 02:22:27.623852000 +07
  309  59.495483 32:32:32:32:32:32 5dBm Nov 18, 2018 02:22:27.675123000 +07
  310  59.580513 32:32:32:32:32:32 4dBm Nov 18, 2018 02:22:27.760153000 +07
  311  59.629182 32:32:32:32:32:32 6dBm Nov 18, 2018 02:22:27.808822000 +07
  312  59.689244 32:32:32:32:32:32 7dBm Nov 18, 2018 02:22:27.868884000 +07
  313  59.776695 32:32:32:32:32:32 5dBm Nov 18, 2018 02:22:27.956335000 +07
  314  59.851266 32:32:32:32:32:32 7dBm Nov 18, 2018 02:22:28.030906000 +07
  315  60.154552 32:32:32:32:32:32 4dBm Nov 18, 2018 02:22:28.334192000 +07
  316  60.170662 32:32:32:32:32:32 6dBm Nov 18, 2018 02:22:28.350302000 +07
  317  60.257465 32:32:32:32:32:32 3dBm Nov 18, 2018 02:22:28.437105000 +07
  318  60.354135 32:32:32:32:32:32 6dBm Nov 18, 2018 02:22:28.533775000 +07
  319  60.424865 32:32:32:32:32:32 5dBm Nov 18, 2018 02:22:28.604505000 +07
  320  60.451053 32:32:32:32:32:32 4dBm Nov 18, 2018 02:22:28.630693000 +07
  321  60.470819 32:32:32:32:32:32 6dBm Nov 18, 2018 02:22:28.650459000 +07
  322  60.586799 32:32:32:32:32:32 6dBm Nov 18, 2018 02:22:28.766439000 +07
  323  60.633867 32:32:32:32:32:32 4dBm Nov 18, 2018 02:22:28.813507000 +07
  324  60.666476 32:32:32:32:32:32 5dBm Nov 18, 2018 02:22:28.846116000 +07
  325  60.691646 32:32:32:32:32:32 3dBm Nov 18, 2018 02:22:28.871286000 +07
  326  60.762927 32:32:32:32:32:32 7dBm Nov 18, 2018 02:22:28.942567000 +07
  327  60.865384 32:32:32:32:32:32 7dBm Nov 18, 2018 02:22:29.045024000 +07
  328  60.945220 32:32:32:32:32:32 5dBm Nov 18, 2018 02:22:29.124860000 +07
  329  60.991237 32:32:32:32:32:32 7dBm Nov 18, 2018 02:22:29.170877000 +07
  330  61.116449 32:32:32:32:32:32 5dBm Nov 18, 2018 02:22:29.296089000 +07
  331  61.173169 32:32:32:32:32:32 6dBm Nov 18, 2018 02:22:29.352809000 +07
  332  61.196800 32:32:32:32:32:32 7dBm Nov 18, 2018 02:22:29.376440000 +07
  333  61.262321 32:32:32:32:32:32 7dBm Nov 18, 2018 02:22:29.441961000 +07
  334  61.271776 32:32:32:32:32:32 6dBm Nov 18, 2018 02:22:29.451416000 +07
  335  61.282614 32:32:32:32:32:32 6dBm Nov 18, 2018 02:22:29.462254000 +07
  336  61.354645 32:32:32:32:32:32 6dBm Nov 18, 2018 02:22:29.534285000 +07
  337  61.535654 32:32:32:32:32:32 5dBm Nov 18, 2018 02:22:29.715294000 +07
  338  61.541168 32:32:32:32:32:32 7dBm Nov 18, 2018 02:22:29.720808000 +07
  339  61.728688 32:32:32:32:32:32 6dBm Nov 18, 2018 02:22:29.908328000 +07
  340  61.759154 32:32:32:32:32:32 7dBm Nov 18, 2018 02:22:29.938794000 +07
  341  62.186784 32:32:32:32:32:32 7dBm Nov 18, 2018 02:22:30.366424000 +07
  342  62.480784 32:32:32:32:32:32 7dBm Nov 18, 2018 02:22:30.660424000 +07
  343  62.511804 32:32:32:32:32:32 6dBm Nov 18, 2018 02:22:30.691444000 +07
  344  62.602469 32:32:32:32:32:32 5dBm Nov 18, 2018 02:22:30.782109000 +07
  345  62.914224 32:32:32:32:32:32 5dBm Nov 18, 2018 02:22:31.093864000 +07
  346  63.129039 32:32:32:32:32:32 7dBm Nov 18, 2018 02:22:31.308679000 +07
  347  63.162662 32:32:32:32:32:32 2dBm Nov 18, 2018 02:22:31.342302000 +07
  348  63.344235 32:32:32:32:32:32 6dBm Nov 18, 2018 02:22:31.523875000 +07
  349  63.466387 32:32:32:32:32:32 3dBm Nov 18, 2018 02:22:31.646027000 +07
  350  63.629400 32:32:32:32:32:32 3dBm Nov 18, 2018 02:22:31.809040000 +07
  351  63.770069 32:32:32:32:32:32 5dBm Nov 18, 2018 02:22:31.949709000 +07
  352  64.129439 32:32:32:32:32:32 6dBm Nov 18, 2018 02:22:32.309079000 +07
  353  64.189752 32:32:32:32:32:32 5dBm Nov 18, 2018 02:22:32.369392000 +07
  354  64.346861 32:32:32:32:32:32 5dBm Nov 18, 2018 02:22:32.526501000 +07
  355  64.464704 32:32:32:32:32:32 6dBm Nov 18, 2018 02:22:32.644344000 +07
  356  65.467812 32:32:32:32:32:32 5dBm Nov 18, 2018 02:22:33.647452000 +07
  357  65.523492 32:32:32:32:32:32 5dBm Nov 18, 2018 02:22:33.703132000 +07
  358  65.542440 32:32:32:32:32:32 5dBm Nov 18, 2018 02:22:33.722080000 +07
  359  65.623758 32:32:32:32:32:32 6dBm Nov 18, 2018 02:22:33.803398000 +07
  360  65.873636 32:32:32:32:32:32 4dBm Nov 18, 2018 02:22:34.053276000 +07
  361  65.943753 32:32:32:32:32:32 7dBm Nov 18, 2018 02:22:34.123393000 +07
  362  65.972509 32:32:32:32:32:32 4dBm Nov 18, 2018 02:22:34.152149000 +07
  363  66.859398 32:32:32:32:32:32 6dBm Nov 18, 2018 02:22:35.039038000 +07
  364  66.938609 32:32:32:32:32:32 5dBm Nov 18, 2018 02:22:35.118249000 +07
  365  67.366377 32:32:32:32:32:32 4dBm Nov 18, 2018 02:22:35.546017000 +07
  366  68.185908 32:32:32:32:32:32 7dBm Nov 18, 2018 02:22:36.365548000 +07
  367  68.200426 32:32:32:32:32:32 5dBm Nov 18, 2018 02:22:36.380066000 +07
  368  68.276224 32:32:32:32:32:32 5dBm Nov 18, 2018 02:22:36.455864000 +07
  369  69.581777 32:32:32:32:32:32 4dBm Nov 18, 2018 02:22:37.761417000 +07
  370  69.715938 32:32:32:32:32:32 5dBm Nov 18, 2018 02:22:37.895578000 +07
  371  69.794898 32:32:32:32:32:32 5dBm Nov 18, 2018 02:22:37.974538000 +07
  372  69.907249 32:32:32:32:32:32 5dBm Nov 18, 2018 02:22:38.086889000 +07
  373  70.074304 32:32:32:32:32:32 5dBm Nov 18, 2018 02:22:38.253944000 +07
  374  70.094762 32:32:32:32:32:32 6dBm Nov 18, 2018 02:22:38.274402000 +07
  375  70.354641 32:32:32:32:32:32 6dBm Nov 18, 2018 02:22:38.534281000 +07
  376  70.400217 32:32:32:32:32:32 8dBm Nov 18, 2018 02:22:38.579857000 +07
  377  70.721077 32:32:32:32:32:32 4dBm Nov 18, 2018 02:22:38.900717000 +07
  378  70.788786 32:32:32:32:32:32 5dBm Nov 18, 2018 02:22:38.968426000 +07
  379  70.954787 32:32:32:32:32:32 5dBm Nov 18, 2018 02:22:39.134427000 +07
  380  71.000830 32:32:32:32:32:32 5dBm Nov 18, 2018 02:22:39.180470000 +07
  381  71.020992 32:32:32:32:32:32 6dBm Nov 18, 2018 02:22:39.200632000 +07
  382  71.085525 32:32:32:32:32:32 5dBm Nov 18, 2018 02:22:39.265165000 +07
  383  71.103086 32:32:32:32:32:32 5dBm Nov 18, 2018 02:22:39.282726000 +07
  384  71.285767 32:32:32:32:32:32 4dBm Nov 18, 2018 02:22:39.465407000 +07
  385  71.855547 32:32:32:32:32:32 5dBm Nov 18, 2018 02:22:40.035187000 +07
  386  71.888658 32:32:32:32:32:32 6dBm Nov 18, 2018 02:22:40.068298000 +07
  387  72.126921 32:32:32:32:32:32 6dBm Nov 18, 2018 02:22:40.306561000 +07
  388  72.482760 32:32:32:32:32:32 6dBm Nov 18, 2018 02:22:40.662400000 +07
  389  72.761769 32:32:32:32:32:32 6dBm Nov 18, 2018 02:22:40.941409000 +07
  390  72.832934 32:32:32:32:32:32 3dBm Nov 18, 2018 02:22:41.012574000 +07
  391  72.988525 32:32:32:32:32:32 4dBm Nov 18, 2018 02:22:41.168165000 +07
  392  73.279262 32:32:32:32:32:32 5dBm Nov 18, 2018 02:22:41.458902000 +07
  393  73.347857 32:32:32:32:32:32 6dBm Nov 18, 2018 02:22:41.527497000 +07
  394  73.374036 32:32:32:32:32:32 4dBm Nov 18, 2018 02:22:41.553676000 +07
  395  73.447139 32:32:32:32:32:32 4dBm Nov 18, 2018 02:22:41.626779000 +07
  396  73.592138 32:32:32:32:32:32 5dBm Nov 18, 2018 02:22:41.771778000 +07
  397  73.611287 32:32:32:32:32:32 6dBm Nov 18, 2018 02:22:41.790927000 +07
  398  73.674307 32:32:32:32:32:32 6dBm Nov 18, 2018 02:22:41.853947000 +07
  399  73.690020 32:32:32:32:32:32 6dBm Nov 18, 2018 02:22:41.869660000 +07
  400  73.768911 32:32:32:32:32:32 6dBm Nov 18, 2018 02:22:41.948551000 +07
  401  73.935811 32:32:32:32:32:32 6dBm Nov 18, 2018 02:22:42.115451000 +07
  402  73.979678 32:32:32:32:32:32 7dBm Nov 18, 2018 02:22:42.159318000 +07
  403  74.103811 32:32:32:32:32:32 6dBm Nov 18, 2018 02:22:42.283451000 +07
  404  74.230171 32:32:32:32:32:32 4dBm Nov 18, 2018 02:22:42.409811000 +07
  405  74.283503 32:32:32:32:32:32 4dBm Nov 18, 2018 02:22:42.463143000 +07
  406  74.448516 32:32:32:32:32:32 5dBm Nov 18, 2018 02:22:42.628156000 +07
  407  74.468985 32:32:32:32:32:32 5dBm Nov 18, 2018 02:22:42.648625000 +07
  408  74.568997 32:32:32:32:32:32 4dBm Nov 18, 2018 02:22:42.748637000 +07
  409  74.676169 32:32:32:32:32:32 6dBm Nov 18, 2018 02:22:42.855809000 +07
  410  75.322147 32:32:32:32:32:32 5dBm Nov 18, 2018 02:22:43.501787000 +07
  411  76.020760 32:32:32:32:32:32 5dBm Nov 18, 2018 02:22:44.200400000 +07
  412  76.082694 32:32:32:32:32:32 6dBm Nov 18, 2018 02:22:44.262334000 +07
  413  76.117104 32:32:32:32:32:32 1dBm Nov 18, 2018 02:22:44.296744000 +07
  414  76.141290 32:32:32:32:32:32 6dBm Nov 18, 2018 02:22:44.320930000 +07
  415  76.472676 32:32:32:32:32:32 3dBm Nov 18, 2018 02:22:44.652316000 +07
  416  76.554467 32:32:32:32:32:32 5dBm Nov 18, 2018 02:22:44.734107000 +07
  417  76.609966 32:32:32:32:32:32 5dBm Nov 18, 2018 02:22:44.789606000 +07
  418  76.631857 32:32:32:32:32:32 5dBm Nov 18, 2018 02:22:44.811497000 +07
  419  76.697578 32:32:32:32:32:32 5dBm Nov 18, 2018 02:22:44.877218000 +07
  420  76.861896 32:32:32:32:32:32 7dBm Nov 18, 2018 02:22:45.041536000 +07
  421  76.896517 32:32:32:32:32:32 6dBm Nov 18, 2018 02:22:45.076157000 +07
  422  76.947110 32:32:32:32:32:32 6dBm Nov 18, 2018 02:22:45.126750000 +07
  423  76.967615 32:32:32:32:32:32 6dBm Nov 18, 2018 02:22:45.147255000 +07
  424  77.010390 32:32:32:32:32:32 5dBm Nov 18, 2018 02:22:45.190030000 +07
  425  77.116969 32:32:32:32:32:32 5dBm Nov 18, 2018 02:22:45.296609000 +07
  426  77.144810 32:32:32:32:32:32 7dBm Nov 18, 2018 02:22:45.324450000 +07
  427  77.185216 32:32:32:32:32:32 4dBm Nov 18, 2018 02:22:45.364856000 +07
  428  77.202893 32:32:32:32:32:32 5dBm Nov 18, 2018 02:22:45.382533000 +07
  429  77.223990 32:32:32:32:32:32 5dBm Nov 18, 2018 02:22:45.403630000 +07
  430  77.311871 32:32:32:32:32:32 5dBm Nov 18, 2018 02:22:45.491511000 +07
  431  77.544226 32:32:32:32:32:32 4dBm Nov 18, 2018 02:22:45.723866000 +07
  432  77.870317 32:32:32:32:32:32 6dBm Nov 18, 2018 02:22:46.049957000 +07
  433  77.996008 32:32:32:32:32:32 6dBm Nov 18, 2018 02:22:46.175648000 +07
  434  78.034900 32:32:32:32:32:32 5dBm Nov 18, 2018 02:22:46.214540000 +07
  435  78.620032 32:32:32:32:32:32 5dBm Nov 18, 2018 02:22:46.799672000 +07
  436  78.667988 32:32:32:32:32:32 6dBm Nov 18, 2018 02:22:46.847628000 +07
  437  78.730810 32:32:32:32:32:32 5dBm Nov 18, 2018 02:22:46.910450000 +07
  438  78.910903 32:32:32:32:32:32 5dBm Nov 18, 2018 02:22:47.090543000 +07
  439  79.354655 32:32:32:32:32:32 6dBm Nov 18, 2018 02:22:47.534295000 +07
  440  79.499156 32:32:32:32:32:32 4dBm Nov 18, 2018 02:22:47.678796000 +07
  441  80.028165 32:32:32:32:32:32 3dBm Nov 18, 2018 02:22:48.207805000 +07
  442  80.055027 32:32:32:32:32:32 6dBm Nov 18, 2018 02:22:48.234667000 +07
  443  80.232624 32:32:32:32:32:32 4dBm Nov 18, 2018 02:22:48.412264000 +07
  444  80.584103 32:32:32:32:32:32 7dBm Nov 18, 2018 02:22:48.763743000 +07
  445  80.962106 32:32:32:32:32:32 5dBm Nov 18, 2018 02:22:49.141746000 +07
  446  81.004786 32:32:32:32:32:32 5dBm Nov 18, 2018 02:22:49.184426000 +07
  447  81.221705 32:32:32:32:32:32 4dBm Nov 18, 2018 02:22:49.401345000 +07
  448  81.271462 32:32:32:32:32:32 5dBm Nov 18, 2018 02:22:49.451102000 +07
  449  81.320542 32:32:32:32:32:32 4dBm Nov 18, 2018 02:22:49.500182000 +07
  450  81.341595 32:32:32:32:32:32 4dBm Nov 18, 2018 02:22:49.521235000 +07
  451  82.050490 32:32:32:32:32:32 4dBm Nov 18, 2018 02:22:50.230130000 +07
  452  82.120773 32:32:32:32:32:32 5dBm Nov 18, 2018 02:22:50.300413000 +07
  453  82.178748 32:32:32:32:32:32 2dBm Nov 18, 2018 02:22:50.358388000 +07
  454  82.207507 32:32:32:32:32:32 5dBm Nov 18, 2018 02:22:50.387147000 +07
  455  82.533117 32:32:32:32:32:32 4dBm Nov 18, 2018 02:22:50.712757000 +07
  456  82.938950 32:32:32:32:32:32 5dBm Nov 18, 2018 02:22:51.118590000 +07
  457  83.043429 32:32:32:32:32:32 6dBm Nov 18, 2018 02:22:51.223069000 +07
  458  83.077744 32:32:32:32:32:32 5dBm Nov 18, 2018 02:22:51.257384000 +07
  459  83.143059 32:32:32:32:32:32 4dBm Nov 18, 2018 02:22:51.322699000 +07
  460  83.223847 32:32:32:32:32:32 6dBm Nov 18, 2018 02:22:51.403487000 +07
  461  83.533034 32:32:32:32:32:32 5dBm Nov 18, 2018 02:22:51.712674000 +07
  462  83.551221 32:32:32:32:32:32 5dBm Nov 18, 2018 02:22:51.730861000 +07
  463  83.600626 32:32:32:32:32:32 6dBm Nov 18, 2018 02:22:51.780266000 +07
  464  83.630334 32:32:32:32:32:32 5dBm Nov 18, 2018 02:22:51.809974000 +07
  465  83.746489 32:32:32:32:32:32 6dBm Nov 18, 2018 02:22:51.926129000 +07
  466  83.944944 32:32:32:32:32:32 5dBm Nov 18, 2018 02:22:52.124584000 +07
  467  84.076962 32:32:32:32:32:32 4dBm Nov 18, 2018 02:22:52.256602000 +07
  468  84.137294 32:32:32:32:32:32 4dBm Nov 18, 2018 02:22:52.316934000 +07
  469  84.345487 32:32:32:32:32:32 5dBm Nov 18, 2018 02:22:52.525127000 +07
  470  84.399644 32:32:32:32:32:32 4dBm Nov 18, 2018 02:22:52.579284000 +07
  471  84.544162 32:32:32:32:32:32 5dBm Nov 18, 2018 02:22:52.723802000 +07
  472  84.559037 32:32:32:32:32:32 4dBm Nov 18, 2018 02:22:52.738677000 +07
  473  84.582180 32:32:32:32:32:32 6dBm Nov 18, 2018 02:22:52.761820000 +07
  474  84.644811 32:32:32:32:32:32 5dBm Nov 18, 2018 02:22:52.824451000 +07
  475  84.882023 32:32:32:32:32:32 6dBm Nov 18, 2018 02:22:53.061663000 +07
  476  85.055173 32:32:32:32:32:32 5dBm Nov 18, 2018 02:22:53.234813000 +07
  477  85.541230 32:32:32:32:32:32 6dBm Nov 18, 2018 02:22:53.720870000 +07
  478  86.671343 32:32:32:32:32:32 5dBm Nov 18, 2018 02:22:54.850983000 +07
  479  87.764612 32:32:32:32:32:32 5dBm Nov 18, 2018 02:22:55.944252000 +07
  480  87.778466 32:32:32:32:32:32 5dBm Nov 18, 2018 02:22:55.958106000 +07
  481  87.890351 32:32:32:32:32:32 5dBm Nov 18, 2018 02:22:56.069991000 +07
  482  87.906770 32:32:32:32:32:32 3dBm Nov 18, 2018 02:22:56.086410000 +07
  483  87.990575 32:32:32:32:32:32 3dBm Nov 18, 2018 02:22:56.170215000 +07
  484  88.059585 32:32:32:32:32:32 6dBm Nov 18, 2018 02:22:56.239225000 +07
  485  88.254184 32:32:32:32:32:32 6dBm Nov 18, 2018 02:22:56.433824000 +07
  486  88.537848 32:32:32:32:32:32 6dBm Nov 18, 2018 02:22:56.717488000 +07
  487  88.622316 32:32:32:32:32:32 6dBm Nov 18, 2018 02:22:56.801956000 +07
  488  88.761754 32:32:32:32:32:32 5dBm Nov 18, 2018 02:22:56.941394000 +07
  489  88.884311 32:32:32:32:32:32 7dBm Nov 18, 2018 02:22:57.063951000 +07
  490  89.059623 32:32:32:32:32:32 4dBm Nov 18, 2018 02:22:57.239263000 +07
  491  89.146996 32:32:32:32:32:32 4dBm Nov 18, 2018 02:22:57.326636000 +07
  492  89.699654 32:32:32:32:32:32 3dBm Nov 18, 2018 02:22:57.879294000 +07
  493  89.875397 32:32:32:32:32:32 7dBm Nov 18, 2018 02:22:58.055037000 +07
  494  89.910470 32:32:32:32:32:32 4dBm Nov 18, 2018 02:22:58.090110000 +07
  495  90.155524 32:32:32:32:32:32 6dBm Nov 18, 2018 02:22:58.335164000 +07
  496  90.331506 32:32:32:32:32:32 5dBm Nov 18, 2018 02:22:58.511146000 +07
  497  90.899631 32:32:32:32:32:32 4dBm Nov 18, 2018 02:22:59.079271000 +07
  498  91.037393 32:32:32:32:32:32 6dBm Nov 18, 2018 02:22:59.217033000 +07
  499  91.061154 32:32:32:32:32:32 4dBm Nov 18, 2018 02:22:59.240794000 +07
  500  91.488003 32:32:32:32:32:32 4dBm Nov 18, 2018 02:22:59.667643000 +07
  501  91.805923 32:32:32:32:32:32 5dBm Nov 18, 2018 02:22:59.985563000 +07
  502  92.065578 32:32:32:32:32:32 5dBm Nov 18, 2018 02:23:00.245218000 +07
  503  92.692675 32:32:32:32:32:32 5dBm Nov 18, 2018 02:23:00.872315000 +07
  504  92.850283 32:32:32:32:32:32 4dBm Nov 18, 2018 02:23:01.029923000 +07
  505  93.864768 32:32:32:32:32:32 4dBm Nov 18, 2018 02:23:02.044408000 +07
  506  95.162094 32:32:32:32:32:32 3dBm Nov 18, 2018 02:23:03.341734000 +07
  507  95.709692 32:32:32:32:32:32 4dBm Nov 18, 2018 02:23:03.889332000 +07
  508  96.161587 32:32:32:32:32:32 4dBm Nov 18, 2018 02:23:04.341227000 +07
  509  96.482834 32:32:32:32:32:32 4dBm Nov 18, 2018 02:23:04.662474000 +07
  510  96.533240 32:32:32:32:32:32 4dBm Nov 18, 2018 02:23:04.712880000 +07
  511  96.833466 32:32:32:32:32:32 6dBm Nov 18, 2018 02:23:05.013106000 +07
  512  96.961724 32:32:32:32:32:32 5dBm Nov 18, 2018 02:23:05.141364000 +07
  513  97.130320 32:32:32:32:32:32 5dBm Nov 18, 2018 02:23:05.309960000 +07
  514  97.847679 32:32:32:32:32:32 5dBm Nov 18, 2018 02:23:06.027319000 +07
  515  97.897603 32:32:32:32:32:32 6dBm Nov 18, 2018 02:23:06.077243000 +07
  516  98.146550 32:32:32:32:32:32 7dBm Nov 18, 2018 02:23:06.326190000 +07
  517  98.294434 32:32:32:32:32:32 5dBm Nov 18, 2018 02:23:06.474074000 +07
  518  98.410008 32:32:32:32:32:32 3dBm Nov 18, 2018 02:23:06.589648000 +07
  519  98.542354 32:32:32:32:32:32 5dBm Nov 18, 2018 02:23:06.721994000 +07
  520  98.721564 32:32:32:32:32:32 4dBm Nov 18, 2018 02:23:06.901204000 +07
  521  98.781136 32:32:32:32:32:32 6dBm Nov 18, 2018 02:23:06.960776000 +07
  522  99.247975 32:32:32:32:32:32 4dBm Nov 18, 2018 02:23:07.427615000 +07
  523  99.459103 32:32:32:32:32:32 5dBm Nov 18, 2018 02:23:07.638743000 +07
  524  99.568260 32:32:32:32:32:32 6dBm Nov 18, 2018 02:23:07.747900000 +07
  525  99.582679 32:32:32:32:32:32 4dBm Nov 18, 2018 02:23:07.762319000 +07
  526  99.599680 32:32:32:32:32:32 5dBm Nov 18, 2018 02:23:07.779320000 +07
  527  99.619645 32:32:32:32:32:32 3dBm Nov 18, 2018 02:23:07.799285000 +07
  528  99.690057 32:32:32:32:32:32 6dBm Nov 18, 2018 02:23:07.869697000 +07
  529  99.695050 32:32:32:32:32:32 6dBm Nov 18, 2018 02:23:07.874690000 +07
  530  99.791626 32:32:32:32:32:32 5dBm Nov 18, 2018 02:23:07.971266000 +07
  531  99.905422 32:32:32:32:32:32 4dBm Nov 18, 2018 02:23:08.085062000 +07
  532 100.171868 32:32:32:32:32:32 4dBm Nov 18, 2018 02:23:08.351508000 +07
  533 100.345085 32:32:32:32:32:32 7dBm Nov 18, 2018 02:23:08.524725000 +07
  534 100.458001 32:32:32:32:32:32 4dBm Nov 18, 2018 02:23:08.637641000 +07
  535 100.569266 32:32:32:32:32:32 5dBm Nov 18, 2018 02:23:08.748906000 +07
  536 100.735631 32:32:32:32:32:32 6dBm Nov 18, 2018 02:23:08.915271000 +07
  537 100.888669 32:32:32:32:32:32 8dBm Nov 18, 2018 02:23:09.068309000 +07
  538 101.062813 32:32:32:32:32:32 5dBm Nov 18, 2018 02:23:09.242453000 +07
  539 101.079681 32:32:32:32:32:32 6dBm Nov 18, 2018 02:23:09.259321000 +07
  540 101.253187 32:32:32:32:32:32 4dBm Nov 18, 2018 02:23:09.432827000 +07
  541 101.299741 32:32:32:32:32:32 5dBm Nov 18, 2018 02:23:09.479381000 +07
  542 101.567300 32:32:32:32:32:32 4dBm Nov 18, 2018 02:23:09.746940000 +07
  543 101.807443 32:32:32:32:32:32 5dBm Nov 18, 2018 02:23:09.987083000 +07
  544 102.126812 32:32:32:32:32:32 5dBm Nov 18, 2018 02:23:10.306452000 +07
  545 102.171276 32:32:32:32:32:32 6dBm Nov 18, 2018 02:23:10.350916000 +07
  546 102.389231 32:32:32:32:32:32 5dBm Nov 18, 2018 02:23:10.568871000 +07
  547 102.461914 32:32:32:32:32:32 5dBm Nov 18, 2018 02:23:10.641554000 +07
  548 102.487647 32:32:32:32:32:32 6dBm Nov 18, 2018 02:23:10.667287000 +07
  549 102.638853 32:32:32:32:32:32 5dBm Nov 18, 2018 02:23:10.818493000 +07
  550 103.079081 32:32:32:32:32:32 5dBm Nov 18, 2018 02:23:11.258721000 +07
  551 103.193924 32:32:32:32:32:32 6dBm Nov 18, 2018 02:23:11.373564000 +07
  552 103.344191 32:32:32:32:32:32 6dBm Nov 18, 2018 02:23:11.523831000 +07
  553 103.543789 32:32:32:32:32:32 4dBm Nov 18, 2018 02:23:11.723429000 +07
  554 103.671783 32:32:32:32:32:32 5dBm Nov 18, 2018 02:23:11.851423000 +07
  555 104.075039 32:32:32:32:32:32 4dBm Nov 18, 2018 02:23:12.254679000 +07
  556 105.071412 32:32:32:32:32:32 4dBm Nov 18, 2018 02:23:13.251052000 +07
  557 105.648856 32:32:32:32:32:32 6dBm Nov 18, 2018 02:23:13.828496000 +07
  558 105.707340 32:32:32:32:32:32 4dBm Nov 18, 2018 02:23:13.886980000 +07
  559 106.090296 32:32:32:32:32:32 7dBm Nov 18, 2018 02:23:14.269936000 +07
  560 106.370338 32:32:32:32:32:32 5dBm Nov 18, 2018 02:23:14.549978000 +07
  561 106.833411 32:32:32:32:32:32 4dBm Nov 18, 2018 02:23:15.013051000 +07
  562 106.950327 32:32:32:32:32:32 5dBm Nov 18, 2018 02:23:15.129967000 +07
  563 106.986559 32:32:32:32:32:32 6dBm Nov 18, 2018 02:23:15.166199000 +07
  564 107.071120 32:32:32:32:32:32 4dBm Nov 18, 2018 02:23:15.250760000 +07
  565 107.200937 32:32:32:32:32:32 3dBm Nov 18, 2018 02:23:15.380577000 +07
  566 107.227421 32:32:32:32:32:32 5dBm Nov 18, 2018 02:23:15.407061000 +07
  567 107.511347 32:32:32:32:32:32 6dBm Nov 18, 2018 02:23:15.690987000 +07
  568 107.765193 32:32:32:32:32:32 5dBm Nov 18, 2018 02:23:15.944833000 +07
  569 107.863729 32:32:32:32:32:32 6dBm Nov 18, 2018 02:23:16.043369000 +07
  570 107.900139 32:32:32:32:32:32 4dBm Nov 18, 2018 02:23:16.079779000 +07
  571 108.016953 32:32:32:32:32:32 6dBm Nov 18, 2018 02:23:16.196593000 +07
  572 108.035069 32:32:32:32:32:32 5dBm Nov 18, 2018 02:23:16.214709000 +07
  573 108.095348 32:32:32:32:32:32 6dBm Nov 18, 2018 02:23:16.274988000 +07
  574 108.118002 32:32:32:32:32:32 6dBm Nov 18, 2018 02:23:16.297642000 +07
  575 108.242170 32:32:32:32:32:32 6dBm Nov 18, 2018 02:23:16.421810000 +07
  576 108.284705 32:32:32:32:32:32 8dBm Nov 18, 2018 02:23:16.464345000 +07
  577 108.417263 32:32:32:32:32:32 7dBm Nov 18, 2018 02:23:16.596903000 +07
  578 108.473407 32:32:32:32:32:32 6dBm Nov 18, 2018 02:23:16.653047000 +07
  579 108.647505 32:32:32:32:32:32 6dBm Nov 18, 2018 02:23:16.827145000 +07
  580 108.663609 32:32:32:32:32:32 6dBm Nov 18, 2018 02:23:16.843249000 +07
  581 108.710170 32:32:32:32:32:32 6dBm Nov 18, 2018 02:23:16.889810000 +07
  582 108.731018 32:32:32:32:32:32 5dBm Nov 18, 2018 02:23:16.910658000 +07
  583 108.787589 32:32:32:32:32:32 4dBm Nov 18, 2018 02:23:16.967229000 +07
  584 108.821172 32:32:32:32:32:32 7dBm Nov 18, 2018 02:23:17.000812000 +07
  585 108.965765 32:32:32:32:32:32 5dBm Nov 18, 2018 02:23:17.145405000 +07
  586 109.022836 32:32:32:32:32:32 7dBm Nov 18, 2018 02:23:17.202476000 +07
  587 109.132392 32:32:32:32:32:32 6dBm Nov 18, 2018 02:23:17.312032000 +07
  588 109.155498 32:32:32:32:32:32 5dBm Nov 18, 2018 02:23:17.335138000 +07
  589 109.186794 32:32:32:32:32:32 5dBm Nov 18, 2018 02:23:17.366434000 +07
  590 109.255940 32:32:32:32:32:32 6dBm Nov 18, 2018 02:23:17.435580000 +07
  591 109.288969 32:32:32:32:32:32 7dBm Nov 18, 2018 02:23:17.468609000 +07
  592 109.344195 32:32:32:32:32:32 4dBm Nov 18, 2018 02:23:17.523835000 +07
  593 109.387164 32:32:32:32:32:32 7dBm Nov 18, 2018 02:23:17.566804000 +07
  594 109.405730 32:32:32:32:32:32 6dBm Nov 18, 2018 02:23:17.585370000 +07
  595 109.420387 32:32:32:32:32:32 6dBm Nov 18, 2018 02:23:17.600027000 +07
  596 109.445157 32:32:32:32:32:32 6dBm Nov 18, 2018 02:23:17.624797000 +07
  597 109.737050 32:32:32:32:32:32 6dBm Nov 18, 2018 02:23:17.916690000 +07
  598 109.798780 32:32:32:32:32:32 5dBm Nov 18, 2018 02:23:17.978420000 +07
  599 109.922524 32:32:32:32:32:32 5dBm Nov 18, 2018 02:23:18.102164000 +07
  600 109.997263 32:32:32:32:32:32 7dBm Nov 18, 2018 02:23:18.176903000 +07
  601 110.037346 32:32:32:32:32:32 6dBm Nov 18, 2018 02:23:18.216986000 +07
  602 110.063865 32:32:32:32:32:32 5dBm Nov 18, 2018 02:23:18.243505000 +07
  603 110.119637 32:32:32:32:32:32 6dBm Nov 18, 2018 02:23:18.299277000 +07
  604 110.191949 32:32:32:32:32:32 7dBm Nov 18, 2018 02:23:18.371589000 +07
  605 110.224704 32:32:32:32:32:32 7dBm Nov 18, 2018 02:23:18.404344000 +07
  606 110.307455 32:32:32:32:32:32 5dBm Nov 18, 2018 02:23:18.487095000 +07
  607 110.419689 32:32:32:32:32:32 5dBm Nov 18, 2018 02:23:18.599329000 +07
  608 110.500379 32:32:32:32:32:32 4dBm Nov 18, 2018 02:23:18.680019000 +07
  609 110.530508 32:32:32:32:32:32 5dBm Nov 18, 2018 02:23:18.710148000 +07
