    1   0.000000 32:32:32:32:32:32 4dBm Nov 18, 2018 02:17:52.616225000 +07
    2   0.120134 32:32:32:32:32:32 7dBm Nov 18, 2018 02:17:52.736359000 +07
    3   7.946795 32:32:32:32:32:32 7dBm Nov 18, 2018 02:18:00.563020000 +07
    4 1170365043.645921               Dec 19, 2055 23:41:56.262146000 +07
