    1   0.000000 32:32:32:32:32:32 4dBm Nov 19, 2018 22:10:06.507087000 +07
    2   8.874668 32:32:32:32:32:32 5dBm Nov 19, 2018 22:10:15.381755000 +07
    3   9.204924 32:32:32:32:32:32 5dBm Nov 19, 2018 22:10:15.712011000 +07
    4   9.234414 32:32:32:32:32:32 5dBm Nov 19, 2018 22:10:15.741501000 +07
    5   9.244439 32:32:32:32:32:32 5dBm Nov 19, 2018 22:10:15.751526000 +07
    6   9.351751 32:32:32:32:32:32 6dBm Nov 19, 2018 22:10:15.858838000 +07
    7   9.468369 32:32:32:32:32:32 6dBm Nov 19, 2018 22:10:15.975456000 +07
    8   9.531440 32:32:32:32:32:32 5dBm Nov 19, 2018 22:10:16.038527000 +07
    9   9.705358 32:32:32:32:32:32 5dBm Nov 19, 2018 22:10:16.212445000 +07
   10   9.971923 32:32:32:32:32:32 8dBm Nov 19, 2018 22:10:16.479010000 +07
   11  10.141423 32:32:32:32:32:32 8dBm Nov 19, 2018 22:10:16.648510000 +07
   12  10.337628 32:32:32:32:32:32 6dBm Nov 19, 2018 22:10:16.844715000 +07
   13  10.370431 32:32:32:32:32:32 7dBm Nov 19, 2018 22:10:16.877518000 +07
   14  10.396076 32:32:32:32:32:32 9dBm Nov 19, 2018 22:10:16.903163000 +07
   15  10.507323 32:32:32:32:32:32 7dBm Nov 19, 2018 22:10:17.014410000 +07
   16  10.744964 32:32:32:32:32:32 4dBm Nov 19, 2018 22:10:17.252051000 +07
   17  19.645757 32:32:32:32:32:32 8dBm Nov 19, 2018 22:10:26.152844000 +07
   18  19.750706 32:32:32:32:32:32 8dBm Nov 19, 2018 22:10:26.257793000 +07
   19  19.883790 32:32:32:32:32:32 7dBm Nov 19, 2018 22:10:26.390877000 +07
   20  19.953661 32:32:32:32:32:32 7dBm Nov 19, 2018 22:10:26.460748000 +07
   21  20.002037 32:32:32:32:32:32 7dBm Nov 19, 2018 22:10:26.509124000 +07
   22  20.028023 32:32:32:32:32:32 7dBm Nov 19, 2018 22:10:26.535110000 +07
   23  20.152503 32:32:32:32:32:32 6dBm Nov 19, 2018 22:10:26.659590000 +07
   24  20.274271 32:32:32:32:32:32 5dBm Nov 19, 2018 22:10:26.781358000 +07
   25  20.330089 32:32:32:32:32:32 5dBm Nov 19, 2018 22:10:26.837176000 +07
   26  20.759876 32:32:32:32:32:32 7dBm Nov 19, 2018 22:10:27.266963000 +07
   27  21.041719 32:32:32:32:32:32 7dBm Nov 19, 2018 22:10:27.548806000 +07
   28  21.097678 32:32:32:32:32:32 8dBm Nov 19, 2018 22:10:27.604765000 +07
   29  21.337205 32:32:32:32:32:32 9dBm Nov 19, 2018 22:10:27.844292000 +07
   30  21.549737 32:32:32:32:32:32 6dBm Nov 19, 2018 22:10:28.056824000 +07
   31  21.629196 32:32:32:32:32:32 8dBm Nov 19, 2018 22:10:28.136283000 +07
   32  21.727826 32:32:32:32:32:32 6dBm Nov 19, 2018 22:10:28.234913000 +07
   33  22.156829 32:32:32:32:32:32 7dBm Nov 19, 2018 22:10:28.663916000 +07
   34  22.544759 32:32:32:32:32:32 7dBm Nov 19, 2018 22:10:29.051846000 +07
   35  22.665262 32:32:32:32:32:32 7dBm Nov 19, 2018 22:10:29.172349000 +07
   36  22.699495 32:32:32:32:32:32 7dBm Nov 19, 2018 22:10:29.206582000 +07
   37  22.716662 32:32:32:32:32:32 7dBm Nov 19, 2018 22:10:29.223749000 +07
   38  22.741443 32:32:32:32:32:32 5dBm Nov 19, 2018 22:10:29.248530000 +07
   39  22.880236 32:32:32:32:32:32 7dBm Nov 19, 2018 22:10:29.387323000 +07
   40  22.950017 32:32:32:32:32:32 5dBm Nov 19, 2018 22:10:29.457104000 +07
   41  23.176606 32:32:32:32:32:32 6dBm Nov 19, 2018 22:10:29.683693000 +07
   42  23.213119 32:32:32:32:32:32 8dBm Nov 19, 2018 22:10:29.720206000 +07
   43  23.387634 32:32:32:32:32:32 4dBm Nov 19, 2018 22:10:29.894721000 +07
   44  23.577207 32:32:32:32:32:32 3dBm Nov 19, 2018 22:10:30.084294000 +07
   45  23.586315 32:32:32:32:32:32 8dBm Nov 19, 2018 22:10:30.093402000 +07
   46  23.712164 32:32:32:32:32:32 7dBm Nov 19, 2018 22:10:30.219251000 +07
   47  23.750540 32:32:32:32:32:32 6dBm Nov 19, 2018 22:10:30.257627000 +07
   48  23.774035 32:32:32:32:32:32 6dBm Nov 19, 2018 22:10:30.281122000 +07
   49  24.172334 32:32:32:32:32:32 8dBm Nov 19, 2018 22:10:30.679421000 +07
   50  24.239707 32:32:32:32:32:32 8dBm Nov 19, 2018 22:10:30.746794000 +07
   51  24.325708 32:32:32:32:32:32 7dBm Nov 19, 2018 22:10:30.832795000 +07
   52  24.393140 32:32:32:32:32:32 7dBm Nov 19, 2018 22:10:30.900227000 +07
   53  24.463710 32:32:32:32:32:32 8dBm Nov 19, 2018 22:10:30.970797000 +07
   54  24.494976 32:32:32:32:32:32 8dBm Nov 19, 2018 22:10:31.002063000 +07
   55  24.500201 32:32:32:32:32:32 4dBm Nov 19, 2018 22:10:31.007288000 +07
   56  24.554567 32:32:32:32:32:32 3dBm Nov 19, 2018 22:10:31.061654000 +07
   57  24.598141 32:32:32:32:32:32 8dBm Nov 19, 2018 22:10:31.105228000 +07
   58  24.716998 32:32:32:32:32:32 8dBm Nov 19, 2018 22:10:31.224085000 +07
   59  24.738283 32:32:32:32:32:32 8dBm Nov 19, 2018 22:10:31.245370000 +07
   60  24.769813 32:32:32:32:32:32 7dBm Nov 19, 2018 22:10:31.276900000 +07
   61  24.786824 32:32:32:32:32:32 8dBm Nov 19, 2018 22:10:31.293911000 +07
   62  24.820987 32:32:32:32:32:32 5dBm Nov 19, 2018 22:10:31.328074000 +07
   63  24.882107 32:32:32:32:32:32 8dBm Nov 19, 2018 22:10:31.389194000 +07
   64  24.941184 32:32:32:32:32:32 7dBm Nov 19, 2018 22:10:31.448271000 +07
   65  24.998621 32:32:32:32:32:32 8dBm Nov 19, 2018 22:10:31.505708000 +07
   66  25.088935 32:32:32:32:32:32 6dBm Nov 19, 2018 22:10:31.596022000 +07
   67  25.155923 32:32:32:32:32:32 8dBm Nov 19, 2018 22:10:31.663010000 +07
   68  25.192714 32:32:32:32:32:32 6dBm Nov 19, 2018 22:10:31.699801000 +07
   69  25.219724 32:32:32:32:32:32 6dBm Nov 19, 2018 22:10:31.726811000 +07
   70  25.252513 32:32:32:32:32:32 7dBm Nov 19, 2018 22:10:31.759600000 +07
   71  25.269271 32:32:32:32:32:32 6dBm Nov 19, 2018 22:10:31.776358000 +07
   72  25.299634 32:32:32:32:32:32 8dBm Nov 19, 2018 22:10:31.806721000 +07
   73  25.465720 32:32:32:32:32:32 7dBm Nov 19, 2018 22:10:31.972807000 +07
   74  25.507038 32:32:32:32:32:32 6dBm Nov 19, 2018 22:10:32.014125000 +07
   75  25.547743 32:32:32:32:32:32 7dBm Nov 19, 2018 22:10:32.054830000 +07
   76  25.584249 32:32:32:32:32:32 6dBm Nov 19, 2018 22:10:32.091336000 +07
   77  25.637536 32:32:32:32:32:32 8dBm Nov 19, 2018 22:10:32.144623000 +07
   78  25.798572 32:32:32:32:32:32 5dBm Nov 19, 2018 22:10:32.305659000 +07
   79  25.925634 32:32:32:32:32:32 8dBm Nov 19, 2018 22:10:32.432721000 +07
   80  26.066245 32:32:32:32:32:32 7dBm Nov 19, 2018 22:10:32.573332000 +07
   81  26.087107 32:32:32:32:32:32 7dBm Nov 19, 2018 22:10:32.594194000 +07
   82  26.116351 32:32:32:32:32:32 6dBm Nov 19, 2018 22:10:32.623438000 +07
   83  26.198862 32:32:32:32:32:32 9dBm Nov 19, 2018 22:10:32.705949000 +07
   84  26.222562 32:32:32:32:32:32 7dBm Nov 19, 2018 22:10:32.729649000 +07
   85  26.245323 32:32:32:32:32:32 8dBm Nov 19, 2018 22:10:32.752410000 +07
   86  26.250314 32:32:32:32:32:32 7dBm Nov 19, 2018 22:10:32.757401000 +07
   87  26.270826 32:32:32:32:32:32 8dBm Nov 19, 2018 22:10:32.777913000 +07
   88  26.338886 32:32:32:32:32:32 5dBm Nov 19, 2018 22:10:32.845973000 +07
   89  26.411828 32:32:32:32:32:32 8dBm Nov 19, 2018 22:10:32.918915000 +07
   90  26.428178 32:32:32:32:32:32 9dBm Nov 19, 2018 22:10:32.935265000 +07
   91  26.812381 32:32:32:32:32:32 8dBm Nov 19, 2018 22:10:33.319468000 +07
   92  26.944387 32:32:32:32:32:32 8dBm Nov 19, 2018 22:10:33.451474000 +07
   93  27.004443 32:32:32:32:32:32 6dBm Nov 19, 2018 22:10:33.511530000 +07
   94  27.168821 32:32:32:32:32:32 7dBm Nov 19, 2018 22:10:33.675908000 +07
   95  27.194005 32:32:32:32:32:32 6dBm Nov 19, 2018 22:10:33.701092000 +07
   96  27.242714 32:32:32:32:32:32 7dBm Nov 19, 2018 22:10:33.749801000 +07
   97  27.262313 32:32:32:32:32:32 8dBm Nov 19, 2018 22:10:33.769400000 +07
   98  27.279929 32:32:32:32:32:32 7dBm Nov 19, 2018 22:10:33.787016000 +07
   99  27.327047 32:32:32:32:32:32 8dBm Nov 19, 2018 22:10:33.834134000 +07
  100  27.620719 32:32:32:32:32:32 4dBm Nov 19, 2018 22:10:34.127806000 +07
  101  27.659096 32:32:32:32:32:32 7dBm Nov 19, 2018 22:10:34.166183000 +07
  102  27.755584 32:32:32:32:32:32 8dBm Nov 19, 2018 22:10:34.262671000 +07
  103  27.801397 32:32:32:32:32:32 6dBm Nov 19, 2018 22:10:34.308484000 +07
  104  27.943121 32:32:32:32:32:32 6dBm Nov 19, 2018 22:10:34.450208000 +07
  105  27.994864 32:32:32:32:32:32 7dBm Nov 19, 2018 22:10:34.501951000 +07
  106  28.123954 32:32:32:32:32:32 7dBm Nov 19, 2018 22:10:34.631041000 +07
  107  28.138798 32:32:32:32:32:32 7dBm Nov 19, 2018 22:10:34.645885000 +07
  108  30.585729 32:32:32:32:32:32 5dBm Nov 19, 2018 22:10:37.092816000 +07
  109  30.668261 32:32:32:32:32:32 4dBm Nov 19, 2018 22:10:37.175348000 +07
  110  30.875783 32:32:32:32:32:32 4dBm Nov 19, 2018 22:10:37.382870000 +07
  111  31.448920 32:32:32:32:32:32 5dBm Nov 19, 2018 22:10:37.956007000 +07
  112  31.517445 32:32:32:32:32:32 4dBm Nov 19, 2018 22:10:38.024532000 +07
  113  32.322450 32:32:32:32:32:32 6dBm Nov 19, 2018 22:10:38.829537000 +07
  114  32.404037 32:32:32:32:32:32 5dBm Nov 19, 2018 22:10:38.911124000 +07
  115  32.528439 32:32:32:32:32:32 8dBm Nov 19, 2018 22:10:39.035526000 +07
  116  32.636559 32:32:32:32:32:32 7dBm Nov 19, 2018 22:10:39.143646000 +07
  117  32.656602 32:32:32:32:32:32 6dBm Nov 19, 2018 22:10:39.163689000 +07
  118  32.759330 32:32:32:32:32:32 7dBm Nov 19, 2018 22:10:39.266417000 +07
  119  32.845301 32:32:32:32:32:32 4dBm Nov 19, 2018 22:10:39.352388000 +07
  120  33.009135 32:32:32:32:32:32 6dBm Nov 19, 2018 22:10:39.516222000 +07
  121  33.091215 32:32:32:32:32:32 6dBm Nov 19, 2018 22:10:39.598302000 +07
  122  33.116889 32:32:32:32:32:32 5dBm Nov 19, 2018 22:10:39.623976000 +07
  123  33.160750 32:32:32:32:32:32 5dBm Nov 19, 2018 22:10:39.667837000 +07
  124  33.209716 32:32:32:32:32:32 5dBm Nov 19, 2018 22:10:39.716803000 +07
  125  33.275984 32:32:32:32:32:32 6dBm Nov 19, 2018 22:10:39.783071000 +07
  126  33.461774 32:32:32:32:32:32 6dBm Nov 19, 2018 22:10:39.968861000 +07
  127  33.533344 32:32:32:32:32:32 4dBm Nov 19, 2018 22:10:40.040431000 +07
  128  33.553578 32:32:32:32:32:32 5dBm Nov 19, 2018 22:10:40.060665000 +07
  129  33.628258 32:32:32:32:32:32 6dBm Nov 19, 2018 22:10:40.135345000 +07
  130  33.639201 32:32:32:32:32:32 6dBm Nov 19, 2018 22:10:40.146288000 +07
  131  33.684158 32:32:32:32:32:32 6dBm Nov 19, 2018 22:10:40.191245000 +07
  132  33.708991 32:32:32:32:32:32 1dBm Nov 19, 2018 22:10:40.216078000 +07
  133  33.843835 32:32:32:32:32:32 6dBm Nov 19, 2018 22:10:40.350922000 +07
  134  33.878386 32:32:32:32:32:32 5dBm Nov 19, 2018 22:10:40.385473000 +07
  135  34.112645 32:32:32:32:32:32 5dBm Nov 19, 2018 22:10:40.619732000 +07
  136  34.299989 32:32:32:32:32:32 4dBm Nov 19, 2018 22:10:40.807076000 +07
  137  34.528408 32:32:32:32:32:32 6dBm Nov 19, 2018 22:10:41.035495000 +07
  138  34.685979 32:32:32:32:32:32 4dBm Nov 19, 2018 22:10:41.193066000 +07
  139  34.723337 32:32:32:32:32:32 4dBm Nov 19, 2018 22:10:41.230424000 +07
  140  34.990569 32:32:32:32:32:32 5dBm Nov 19, 2018 22:10:41.497656000 +07
  141  35.280933 32:32:32:32:32:32 5dBm Nov 19, 2018 22:10:41.788020000 +07
  142  35.292823 32:32:32:32:32:32 5dBm Nov 19, 2018 22:10:41.799910000 +07
  143  35.346332 32:32:32:32:32:32 7dBm Nov 19, 2018 22:10:41.853419000 +07
  144  35.435610 32:32:32:32:32:32 6dBm Nov 19, 2018 22:10:41.942697000 +07
  145  35.494066 32:32:32:32:32:32 5dBm Nov 19, 2018 22:10:42.001153000 +07
  146  35.708375 32:32:32:32:32:32 6dBm Nov 19, 2018 22:10:42.215462000 +07
  147  35.841729 32:32:32:32:32:32 5dBm Nov 19, 2018 22:10:42.348816000 +07
  148  35.933254 32:32:32:32:32:32 6dBm Nov 19, 2018 22:10:42.440341000 +07
  149  35.954817 32:32:32:32:32:32 7dBm Nov 19, 2018 22:10:42.461904000 +07
  150  36.134871 32:32:32:32:32:32 6dBm Nov 19, 2018 22:10:42.641958000 +07
  151  36.342110 32:32:32:32:32:32 6dBm Nov 19, 2018 22:10:42.849197000 +07
  152  36.439590 32:32:32:32:32:32 6dBm Nov 19, 2018 22:10:42.946677000 +07
  153  36.593850 32:32:32:32:32:32 5dBm Nov 19, 2018 22:10:43.100937000 +07
  154  36.660410 32:32:32:32:32:32 6dBm Nov 19, 2018 22:10:43.167497000 +07
  155  36.973397 32:32:32:32:32:32 7dBm Nov 19, 2018 22:10:43.480484000 +07
  156  37.012620 32:32:32:32:32:32 6dBm Nov 19, 2018 22:10:43.519707000 +07
  157  37.038245 32:32:32:32:32:32 6dBm Nov 19, 2018 22:10:43.545332000 +07
  158  37.293249 32:32:32:32:32:32 5dBm Nov 19, 2018 22:10:43.800336000 +07
  159  37.306573 32:32:32:32:32:32 6dBm Nov 19, 2018 22:10:43.813660000 +07
  160  37.313714 32:32:32:32:32:32 4dBm Nov 19, 2018 22:10:43.820801000 +07
  161  37.349693 32:32:32:32:32:32 5dBm Nov 19, 2018 22:10:43.856780000 +07
  162  37.508279 32:32:32:32:32:32 4dBm Nov 19, 2018 22:10:44.015366000 +07
  163  37.891661 32:32:32:32:32:32 5dBm Nov 19, 2018 22:10:44.398748000 +07
  164  37.913666 32:32:32:32:32:32 5dBm Nov 19, 2018 22:10:44.420753000 +07
  165  37.937038 32:32:32:32:32:32 5dBm Nov 19, 2018 22:10:44.444125000 +07
  166  38.184138 32:32:32:32:32:32 5dBm Nov 19, 2018 22:10:44.691225000 +07
  167  38.274327 32:32:32:32:32:32 6dBm Nov 19, 2018 22:10:44.781414000 +07
  168  38.531937 32:32:32:32:32:32 8dBm Nov 19, 2018 22:10:45.039024000 +07
  169  38.657918 32:32:32:32:32:32 8dBm Nov 19, 2018 22:10:45.165005000 +07
  170  38.961245 32:32:32:32:32:32 5dBm Nov 19, 2018 22:10:45.468332000 +07
  171  39.093932 32:32:32:32:32:32 8dBm Nov 19, 2018 22:10:45.601019000 +07
  172  39.187952 32:32:32:32:32:32 5dBm Nov 19, 2018 22:10:45.695039000 +07
  173  39.285800 32:32:32:32:32:32 9dBm Nov 19, 2018 22:10:45.792887000 +07
  174  39.428021 32:32:32:32:32:32 8dBm Nov 19, 2018 22:10:45.935108000 +07
  175  39.476933 32:32:32:32:32:32 6dBm Nov 19, 2018 22:10:45.984020000 +07
  176  39.535848 32:32:32:32:32:32 3dBm Nov 19, 2018 22:10:46.042935000 +07
  177  39.640779 32:32:32:32:32:32 3dBm Nov 19, 2018 22:10:46.147866000 +07
  178  39.702603 32:32:32:32:32:32 6dBm Nov 19, 2018 22:10:46.209690000 +07
  179  39.809220 32:32:32:32:32:32 6dBm Nov 19, 2018 22:10:46.316307000 +07
  180  39.814730 32:32:32:32:32:32 5dBm Nov 19, 2018 22:10:46.321817000 +07
  181  39.860890 32:32:32:32:32:32 5dBm Nov 19, 2018 22:10:46.367977000 +07
  182  39.952317 32:32:32:32:32:32 6dBm Nov 19, 2018 22:10:46.459404000 +07
  183  40.020553 32:32:32:32:32:32 7dBm Nov 19, 2018 22:10:46.527640000 +07
  184  40.103598 32:32:32:32:32:32 5dBm Nov 19, 2018 22:10:46.610685000 +07
  185  40.185957 32:32:32:32:32:32 4dBm Nov 19, 2018 22:10:46.693044000 +07
  186  40.228348 32:32:32:32:32:32 5dBm Nov 19, 2018 22:10:46.735435000 +07
  187  40.326946 32:32:32:32:32:32 5dBm Nov 19, 2018 22:10:46.834033000 +07
  188  40.709402 32:32:32:32:32:32 5dBm Nov 19, 2018 22:10:47.216489000 +07
  189  41.302467 32:32:32:32:32:32 5dBm Nov 19, 2018 22:10:47.809554000 +07
  190  42.075302 32:32:32:32:32:32 5dBm Nov 19, 2018 22:10:48.582389000 +07
  191  42.245087 32:32:32:32:32:32 5dBm Nov 19, 2018 22:10:48.752174000 +07
  192  42.872770 32:32:32:32:32:32 4dBm Nov 19, 2018 22:10:49.379857000 +07
  193  43.043390 32:32:32:32:32:32 7dBm Nov 19, 2018 22:10:49.550477000 +07
  194  43.060062 32:32:32:32:32:32 3dBm Nov 19, 2018 22:10:49.567149000 +07
  195  43.082885 32:32:32:32:32:32 5dBm Nov 19, 2018 22:10:49.589972000 +07
  196  43.157131 32:32:32:32:32:32 2dBm Nov 19, 2018 22:10:49.664218000 +07
  197  43.323126 32:32:32:32:32:32 4dBm Nov 19, 2018 22:10:49.830213000 +07
  198  43.416737 32:32:32:32:32:32 6dBm Nov 19, 2018 22:10:49.923824000 +07
  199  43.483479 32:32:32:32:32:32 6dBm Nov 19, 2018 22:10:49.990566000 +07
  200  43.576435 32:32:32:32:32:32 6dBm Nov 19, 2018 22:10:50.083522000 +07
  201  43.948149 32:32:32:32:32:32 6dBm Nov 19, 2018 22:10:50.455236000 +07
  202  44.270236 32:32:32:32:32:32 5dBm Nov 19, 2018 22:10:50.777323000 +07
  203  44.404388 32:32:32:32:32:32 3dBm Nov 19, 2018 22:10:50.911475000 +07
  204  44.782491 32:32:32:32:32:32 5dBm Nov 19, 2018 22:10:51.289578000 +07
  205  44.851112 32:32:32:32:32:32 4dBm Nov 19, 2018 22:10:51.358199000 +07
  206  45.130039 32:32:32:32:32:32 8dBm Nov 19, 2018 22:10:51.637126000 +07
  207  45.167688 32:32:32:32:32:32 8dBm Nov 19, 2018 22:10:51.674775000 +07
  208  45.240411 32:32:32:32:32:32 8dBm Nov 19, 2018 22:10:51.747498000 +07
  209  45.308944 32:32:32:32:32:32 8dBm Nov 19, 2018 22:10:51.816031000 +07
  210  45.454617 32:32:32:32:32:32 8dBm Nov 19, 2018 22:10:51.961704000 +07
  211  45.579730 32:32:32:32:32:32 7dBm Nov 19, 2018 22:10:52.086817000 +07
  212  45.600534 32:32:32:32:32:32 8dBm Nov 19, 2018 22:10:52.107621000 +07
  213  45.726171 32:32:32:32:32:32 7dBm Nov 19, 2018 22:10:52.233258000 +07
  214  45.819225 32:32:32:32:32:32 6dBm Nov 19, 2018 22:10:52.326312000 +07
  215  45.952040 32:32:32:32:32:32 9dBm Nov 19, 2018 22:10:52.459127000 +07
  216  45.980309 32:32:32:32:32:32 8dBm Nov 19, 2018 22:10:52.487396000 +07
  217  46.029951 32:32:32:32:32:32 7dBm Nov 19, 2018 22:10:52.537038000 +07
  218  46.100104 32:32:32:32:32:32 8dBm Nov 19, 2018 22:10:52.607191000 +07
  219  46.119752 32:32:32:32:32:32 7dBm Nov 19, 2018 22:10:52.626839000 +07
  220  46.211752 32:32:32:32:32:32 7dBm Nov 19, 2018 22:10:52.718839000 +07
  221  46.387579 32:32:32:32:32:32 5dBm Nov 19, 2018 22:10:52.894666000 +07
  222  46.445979 32:32:32:32:32:32 6dBm Nov 19, 2018 22:10:52.953066000 +07
  223  46.547903 32:32:32:32:32:32 8dBm Nov 19, 2018 22:10:53.054990000 +07
  224  46.587699 32:32:32:32:32:32 8dBm Nov 19, 2018 22:10:53.094786000 +07
  225  46.619751 32:32:32:32:32:32 8dBm Nov 19, 2018 22:10:53.126838000 +07
  226  46.661690 32:32:32:32:32:32 6dBm Nov 19, 2018 22:10:53.168777000 +07
  227  46.670565 32:32:32:32:32:32 7dBm Nov 19, 2018 22:10:53.177652000 +07
  228  46.737932 32:32:32:32:32:32 7dBm Nov 19, 2018 22:10:53.245019000 +07
  229  46.805618 32:32:32:32:32:32 8dBm Nov 19, 2018 22:10:53.312705000 +07
  230  46.899666 32:32:32:32:32:32 6dBm Nov 19, 2018 22:10:53.406753000 +07
  231  46.909041 32:32:32:32:32:32 8dBm Nov 19, 2018 22:10:53.416128000 +07
  232  47.097761 32:32:32:32:32:32 8dBm Nov 19, 2018 22:10:53.604848000 +07
  233  47.213543 32:32:32:32:32:32 6dBm Nov 19, 2018 22:10:53.720630000 +07
  234  47.233974 32:32:32:32:32:32 7dBm Nov 19, 2018 22:10:53.741061000 +07
  235  47.352014 32:32:32:32:32:32 8dBm Nov 19, 2018 22:10:53.859101000 +07
  236  47.482166 32:32:32:32:32:32 7dBm Nov 19, 2018 22:10:53.989253000 +07
  237  47.527002 32:32:32:32:32:32 7dBm Nov 19, 2018 22:10:54.034089000 +07
  238  47.637881 32:32:32:32:32:32 6dBm Nov 19, 2018 22:10:54.144968000 +07
  239  47.698822 32:32:32:32:32:32 7dBm Nov 19, 2018 22:10:54.205909000 +07
  240  48.166600 32:32:32:32:32:32 5dBm Nov 19, 2018 22:10:54.673687000 +07
  241  48.291159 32:32:32:32:32:32 6dBm Nov 19, 2018 22:10:54.798246000 +07
  242  48.524045 32:32:32:32:32:32 6dBm Nov 19, 2018 22:10:55.031132000 +07
  243  48.621689 32:32:32:32:32:32 7dBm Nov 19, 2018 22:10:55.128776000 +07
  244  48.671055 32:32:32:32:32:32 6dBm Nov 19, 2018 22:10:55.178142000 +07
  245  48.681484 32:32:32:32:32:32 4dBm Nov 19, 2018 22:10:55.188571000 +07
  246  48.696450 32:32:32:32:32:32 7dBm Nov 19, 2018 22:10:55.203537000 +07
  247  48.718266 32:32:32:32:32:32 6dBm Nov 19, 2018 22:10:55.225353000 +07
  248  48.841986 32:32:32:32:32:32 6dBm Nov 19, 2018 22:10:55.349073000 +07
  249  48.862809 32:32:32:32:32:32 8dBm Nov 19, 2018 22:10:55.369896000 +07
  250  48.918931 32:32:32:32:32:32 7dBm Nov 19, 2018 22:10:55.426018000 +07
  251  48.927418 32:32:32:32:32:32 7dBm Nov 19, 2018 22:10:55.434505000 +07
  252  49.039830 32:32:32:32:32:32 7dBm Nov 19, 2018 22:10:55.546917000 +07
  253  49.315269 32:32:32:32:32:32 7dBm Nov 19, 2018 22:10:55.822356000 +07
  254  49.326327 32:32:32:32:32:32 7dBm Nov 19, 2018 22:10:55.833414000 +07
  255  49.383808 32:32:32:32:32:32 9dBm Nov 19, 2018 22:10:55.890895000 +07
  256  49.395016 32:32:32:32:32:32 9dBm Nov 19, 2018 22:10:55.902103000 +07
  257  49.430823 32:32:32:32:32:32 6dBm Nov 19, 2018 22:10:55.937910000 +07
  258  49.554600 32:32:32:32:32:32 6dBm Nov 19, 2018 22:10:56.061687000 +07
  259  49.569469 32:32:32:32:32:32 6dBm Nov 19, 2018 22:10:56.076556000 +07
  260  49.639666 32:32:32:32:32:32 6dBm Nov 19, 2018 22:10:56.146753000 +07
  261  49.920642 32:32:32:32:32:32 7dBm Nov 19, 2018 22:10:56.427729000 +07
  262  49.944071 32:32:32:32:32:32 4dBm Nov 19, 2018 22:10:56.451158000 +07
  263  50.436360 32:32:32:32:32:32 5dBm Nov 19, 2018 22:10:56.943447000 +07
  264  51.452390 32:32:32:32:32:32 5dBm Nov 19, 2018 22:10:57.959477000 +07
  265  51.525185 32:32:32:32:32:32 5dBm Nov 19, 2018 22:10:58.032272000 +07
  266  51.977159 32:32:32:32:32:32 3dBm Nov 19, 2018 22:10:58.484246000 +07
  267  52.631210 32:32:32:32:32:32 6dBm Nov 19, 2018 22:10:59.138297000 +07
  268  52.804246 32:32:32:32:32:32 5dBm Nov 19, 2018 22:10:59.311333000 +07
  269  53.095702 32:32:32:32:32:32 8dBm Nov 19, 2018 22:10:59.602789000 +07
  270  53.213573 32:32:32:32:32:32 5dBm Nov 19, 2018 22:10:59.720660000 +07
  271  53.265547 32:32:32:32:32:32 6dBm Nov 19, 2018 22:10:59.772634000 +07
  272  53.390414 32:32:32:32:32:32 6dBm Nov 19, 2018 22:10:59.897501000 +07
  273  53.813721 32:32:32:32:32:32 5dBm Nov 19, 2018 22:11:00.320808000 +07
  274  53.848997 32:32:32:32:32:32 4dBm Nov 19, 2018 22:11:00.356084000 +07
  275  53.890257 32:32:32:32:32:32 6dBm Nov 19, 2018 22:11:00.397344000 +07
  276  54.041841 32:32:32:32:32:32 6dBm Nov 19, 2018 22:11:00.548928000 +07
  277  54.191355 32:32:32:32:32:32 6dBm Nov 19, 2018 22:11:00.698442000 +07
  278  54.375589 32:32:32:32:32:32 6dBm Nov 19, 2018 22:11:00.882676000 +07
  279  55.116315 32:32:32:32:32:32 5dBm Nov 19, 2018 22:11:01.623402000 +07
  280  55.298761 32:32:32:32:32:32 6dBm Nov 19, 2018 22:11:01.805848000 +07
  281  55.385037 32:32:32:32:32:32 5dBm Nov 19, 2018 22:11:01.892124000 +07
  282  55.417843 32:32:32:32:32:32 6dBm Nov 19, 2018 22:11:01.924930000 +07
  283  55.782068 32:32:32:32:32:32 6dBm Nov 19, 2018 22:11:02.289155000 +07
  284  56.169581 32:32:32:32:32:32 6dBm Nov 19, 2018 22:11:02.676668000 +07
  285  56.305225 32:32:32:32:32:32 3dBm Nov 19, 2018 22:11:02.812312000 +07
  286  56.386486 32:32:32:32:32:32 6dBm Nov 19, 2018 22:11:02.893573000 +07
  287  56.453717 32:32:32:32:32:32 3dBm Nov 19, 2018 22:11:02.960804000 +07
  288  56.603532 32:32:32:32:32:32 5dBm Nov 19, 2018 22:11:03.110619000 +07
  289  56.749549 32:32:32:32:32:32 4dBm Nov 19, 2018 22:11:03.256636000 +07
  290  56.781748 32:32:32:32:32:32 5dBm Nov 19, 2018 22:11:03.288835000 +07
  291  56.992939 32:32:32:32:32:32 6dBm Nov 19, 2018 22:11:03.500026000 +07
  292  57.048781 32:32:32:32:32:32 6dBm Nov 19, 2018 22:11:03.555868000 +07
  293  57.057087 32:32:32:32:32:32 5dBm Nov 19, 2018 22:11:03.564174000 +07
  294  57.115867 32:32:32:32:32:32 6dBm Nov 19, 2018 22:11:03.622954000 +07
  295  57.159949 32:32:32:32:32:32 4dBm Nov 19, 2018 22:11:03.667036000 +07
  296  57.192439 32:32:32:32:32:32 6dBm Nov 19, 2018 22:11:03.699526000 +07
  297  57.465018 32:32:32:32:32:32 5dBm Nov 19, 2018 22:11:03.972105000 +07
  298  57.492542 32:32:32:32:32:32 6dBm Nov 19, 2018 22:11:03.999629000 +07
  299  57.560190 32:32:32:32:32:32 4dBm Nov 19, 2018 22:11:04.067277000 +07
  300  57.656340 32:32:32:32:32:32 7dBm Nov 19, 2018 22:11:04.163427000 +07
  301  57.689142 32:32:32:32:32:32 7dBm Nov 19, 2018 22:11:04.196229000 +07
  302  57.743147 32:32:32:32:32:32 6dBm Nov 19, 2018 22:11:04.250234000 +07
  303  57.769405 32:32:32:32:32:32 6dBm Nov 19, 2018 22:11:04.276492000 +07
  304  57.956504 32:32:32:32:32:32 6dBm Nov 19, 2018 22:11:04.463591000 +07
  305  58.023262 32:32:32:32:32:32 6dBm Nov 19, 2018 22:11:04.530349000 +07
  306  58.071495 32:32:32:32:32:32 6dBm Nov 19, 2018 22:11:04.578582000 +07
  307  58.211864 32:32:32:32:32:32 5dBm Nov 19, 2018 22:11:04.718951000 +07
  308  58.250668 32:32:32:32:32:32 6dBm Nov 19, 2018 22:11:04.757755000 +07
  309  58.430312 32:32:32:32:32:32 5dBm Nov 19, 2018 22:11:04.937399000 +07
  310  58.826084 32:32:32:32:32:32 4dBm Nov 19, 2018 22:11:05.333171000 +07
  311  58.849509 32:32:32:32:32:32 6dBm Nov 19, 2018 22:11:05.356596000 +07
  312  58.862156 32:32:32:32:32:32 6dBm Nov 19, 2018 22:11:05.369243000 +07
  313  58.905095 32:32:32:32:32:32 4dBm Nov 19, 2018 22:11:05.412182000 +07
  314  58.926811 32:32:32:32:32:32 5dBm Nov 19, 2018 22:11:05.433898000 +07
  315  59.114179 32:32:32:32:32:32 6dBm Nov 19, 2018 22:11:05.621266000 +07
  316  59.164507 32:32:32:32:32:32 8dBm Nov 19, 2018 22:11:05.671594000 +07
  317  59.189004 32:32:32:32:32:32 7dBm Nov 19, 2018 22:11:05.696091000 +07
  318  59.237914 32:32:32:32:32:32 7dBm Nov 19, 2018 22:11:05.745001000 +07
  319  59.353106 32:32:32:32:32:32 5dBm Nov 19, 2018 22:11:05.860193000 +07
  320  59.405221 32:32:32:32:32:32 7dBm Nov 19, 2018 22:11:05.912308000 +07
  321  59.521822 32:32:32:32:32:32 6dBm Nov 19, 2018 22:11:06.028909000 +07
  322  59.600109 32:32:32:32:32:32 6dBm Nov 19, 2018 22:11:06.107196000 +07
  323  59.652906 32:32:32:32:32:32 4dBm Nov 19, 2018 22:11:06.159993000 +07
  324  59.661310 32:32:32:32:32:32 6dBm Nov 19, 2018 22:11:06.168397000 +07
  325  59.685965 32:32:32:32:32:32 5dBm Nov 19, 2018 22:11:06.193052000 +07
  326  59.755541 32:32:32:32:32:32 6dBm Nov 19, 2018 22:11:06.262628000 +07
  327  60.361946 32:32:32:32:32:32 6dBm Nov 19, 2018 22:11:06.869033000 +07
  328  60.639080 32:32:32:32:32:32 5dBm Nov 19, 2018 22:11:07.146167000 +07
  329  60.791105 32:32:32:32:32:32 6dBm Nov 19, 2018 22:11:07.298192000 +07
  330  61.003971 32:32:32:32:32:32 6dBm Nov 19, 2018 22:11:07.511058000 +07
  331  61.030084 32:32:32:32:32:32 6dBm Nov 19, 2018 22:11:07.537171000 +07
  332  61.097744 32:32:32:32:32:32 6dBm Nov 19, 2018 22:11:07.604831000 +07
  333  61.120370 32:32:32:32:32:32 7dBm Nov 19, 2018 22:11:07.627457000 +07
  334  61.257734 32:32:32:32:32:32 7dBm Nov 19, 2018 22:11:07.764821000 +07
  335  61.291627 32:32:32:32:32:32 4dBm Nov 19, 2018 22:11:07.798714000 +07
  336  61.489976 32:32:32:32:32:32 5dBm Nov 19, 2018 22:11:07.997063000 +07
  337  61.773172 32:32:32:32:32:32 6dBm Nov 19, 2018 22:11:08.280259000 +07
  338  61.913787 32:32:32:32:32:32 6dBm Nov 19, 2018 22:11:08.420874000 +07
  339  61.935623 32:32:32:32:32:32 5dBm Nov 19, 2018 22:11:08.442710000 +07
  340  61.984000 32:32:32:32:32:32 7dBm Nov 19, 2018 22:11:08.491087000 +07
  341  62.101525 32:32:32:32:32:32 5dBm Nov 19, 2018 22:11:08.608612000 +07
  342  62.136971 32:32:32:32:32:32 7dBm Nov 19, 2018 22:11:08.644058000 +07
  343  62.144797 32:32:32:32:32:32 6dBm Nov 19, 2018 22:11:08.651884000 +07
  344  62.220295 32:32:32:32:32:32 5dBm Nov 19, 2018 22:11:08.727382000 +07
  345  62.286410 32:32:32:32:32:32 4dBm Nov 19, 2018 22:11:08.793497000 +07
  346  62.307835 32:32:32:32:32:32 6dBm Nov 19, 2018 22:11:08.814922000 +07
  347  62.334853 32:32:32:32:32:32 4dBm Nov 19, 2018 22:11:08.841940000 +07
  348  62.353801 32:32:32:32:32:32 7dBm Nov 19, 2018 22:11:08.860888000 +07
  349  62.368529 32:32:32:32:32:32 5dBm Nov 19, 2018 22:11:08.875616000 +07
  350  62.447189 32:32:32:32:32:32 6dBm Nov 19, 2018 22:11:08.954276000 +07
  351  62.480921 32:32:32:32:32:32 4dBm Nov 19, 2018 22:11:08.988008000 +07
  352  62.659906 32:32:32:32:32:32 5dBm Nov 19, 2018 22:11:09.166993000 +07
  353  62.749179 32:32:32:32:32:32 7dBm Nov 19, 2018 22:11:09.256266000 +07
  354  62.848372 32:32:32:32:32:32 5dBm Nov 19, 2018 22:11:09.355459000 +07
  355  62.993117 32:32:32:32:32:32 6dBm Nov 19, 2018 22:11:09.500204000 +07
  356  63.080896 32:32:32:32:32:32 8dBm Nov 19, 2018 22:11:09.587983000 +07
  357  63.107644 32:32:32:32:32:32 5dBm Nov 19, 2018 22:11:09.614731000 +07
  358  63.354171 32:32:32:32:32:32 6dBm Nov 19, 2018 22:11:09.861258000 +07
  359  63.378615 32:32:32:32:32:32 5dBm Nov 19, 2018 22:11:09.885702000 +07
  360  63.412920 32:32:32:32:32:32 6dBm Nov 19, 2018 22:11:09.920007000 +07
  361  63.553426 32:32:32:32:32:32 4dBm Nov 19, 2018 22:11:10.060513000 +07
  362  63.559292 32:32:32:32:32:32 3dBm Nov 19, 2018 22:11:10.066379000 +07
  363  63.650315 32:32:32:32:32:32 3dBm Nov 19, 2018 22:11:10.157402000 +07
  364  63.668920 32:32:32:32:32:32 4dBm Nov 19, 2018 22:11:10.176007000 +07
  365  63.764103 32:32:32:32:32:32 5dBm Nov 19, 2018 22:11:10.271190000 +07
  366  63.891382 32:32:32:32:32:32 6dBm Nov 19, 2018 22:11:10.398469000 +07
  367  63.938243 32:32:32:32:32:32 5dBm Nov 19, 2018 22:11:10.445330000 +07
  368  64.148376 32:32:32:32:32:32 4dBm Nov 19, 2018 22:11:10.655463000 +07
  369  64.271493 32:32:32:32:32:32 6dBm Nov 19, 2018 22:11:10.778580000 +07
  370  64.640130 32:32:32:32:32:32 5dBm Nov 19, 2018 22:11:11.147217000 +07
  371  64.769673 32:32:32:32:32:32 6dBm Nov 19, 2018 22:11:11.276760000 +07
  372  64.823586 32:32:32:32:32:32 3dBm Nov 19, 2018 22:11:11.330673000 +07
  373  64.840901 32:32:32:32:32:32 6dBm Nov 19, 2018 22:11:11.347988000 +07
  374  64.908480 32:32:32:32:32:32 5dBm Nov 19, 2018 22:11:11.415567000 +07
  375  65.051971 32:32:32:32:32:32 7dBm Nov 19, 2018 22:11:11.559058000 +07
  376  65.204980 32:32:32:32:32:32 6dBm Nov 19, 2018 22:11:11.712067000 +07
  377  65.369190 32:32:32:32:32:32 5dBm Nov 19, 2018 22:11:11.876277000 +07
  378  65.402728 32:32:32:32:32:32 6dBm Nov 19, 2018 22:11:11.909815000 +07
  379  65.538218 32:32:32:32:32:32 4dBm Nov 19, 2018 22:11:12.045305000 +07
  380  65.621448 32:32:32:32:32:32 5dBm Nov 19, 2018 22:11:12.128535000 +07
  381  65.816878 32:32:32:32:32:32 3dBm Nov 19, 2018 22:11:12.323965000 +07
  382  66.058416 32:32:32:32:32:32 5dBm Nov 19, 2018 22:11:12.565503000 +07
  383  66.134783 32:32:32:32:32:32 4dBm Nov 19, 2018 22:11:12.641870000 +07
  384  66.249910 32:32:32:32:32:32 7dBm Nov 19, 2018 22:11:12.756997000 +07
  385  66.353960 32:32:32:32:32:32 6dBm Nov 19, 2018 22:11:12.861047000 +07
  386  66.493513 32:32:32:32:32:32 5dBm Nov 19, 2018 22:11:13.000600000 +07
  387  66.577620 32:32:32:32:32:32 9dBm Nov 19, 2018 22:11:13.084707000 +07
  388  66.718934 32:32:32:32:32:32 9dBm Nov 19, 2018 22:11:13.226021000 +07
  389  66.788922 32:32:32:32:32:32 7dBm Nov 19, 2018 22:11:13.296009000 +07
  390  66.927862 32:32:32:32:32:32 8dBm Nov 19, 2018 22:11:13.434949000 +07
  391  66.991393 32:32:32:32:32:32 7dBm Nov 19, 2018 22:11:13.498480000 +07
  392  67.076166 32:32:32:32:32:32 8dBm Nov 19, 2018 22:11:13.583253000 +07
  393  67.125167 32:32:32:32:32:32 7dBm Nov 19, 2018 22:11:13.632254000 +07
  394  67.646887 32:32:32:32:32:32 5dBm Nov 19, 2018 22:11:14.153974000 +07
  395  67.665940 32:32:32:32:32:32 7dBm Nov 19, 2018 22:11:14.173027000 +07
  396  67.681374 32:32:32:32:32:32 3dBm Nov 19, 2018 22:11:14.188461000 +07
  397  67.821558 32:32:32:32:32:32 5dBm Nov 19, 2018 22:11:14.328645000 +07
  398  68.697095 32:32:32:32:32:32 5dBm Nov 19, 2018 22:11:15.204182000 +07
  399  68.836939 32:32:32:32:32:32 3dBm Nov 19, 2018 22:11:15.344026000 +07
  400  68.967521 32:32:32:32:32:32 3dBm Nov 19, 2018 22:11:15.474608000 +07
  401  69.246240 32:32:32:32:32:32 4dBm Nov 19, 2018 22:11:15.753327000 +07
  402  69.316195 32:32:32:32:32:32 6dBm Nov 19, 2018 22:11:15.823282000 +07
  403  69.424028 32:32:32:32:32:32 4dBm Nov 19, 2018 22:11:15.931115000 +07
  404  69.445387 32:32:32:32:32:32 4dBm Nov 19, 2018 22:11:15.952474000 +07
  405  69.493224 32:32:32:32:32:32 7dBm Nov 19, 2018 22:11:16.000311000 +07
  406  69.763051 32:32:32:32:32:32 6dBm Nov 19, 2018 22:11:16.270138000 +07
  407  69.827460 32:32:32:32:32:32 5dBm Nov 19, 2018 22:11:16.334547000 +07
  408  69.862236 32:32:32:32:32:32 6dBm Nov 19, 2018 22:11:16.369323000 +07
  409  69.888841 32:32:32:32:32:32 7dBm Nov 19, 2018 22:11:16.395928000 +07
  410  69.934182 32:32:32:32:32:32 6dBm Nov 19, 2018 22:11:16.441269000 +07
  411  70.236798 32:32:32:32:32:32 6dBm Nov 19, 2018 22:11:16.743885000 +07
  412  70.479757 32:32:32:32:32:32 4dBm Nov 19, 2018 22:11:16.986844000 +07
  413  70.984002 32:32:32:32:32:32 5dBm Nov 19, 2018 22:11:17.491089000 +07
  414  70.999732 32:32:32:32:32:32 6dBm Nov 19, 2018 22:11:17.506819000 +07
  415  71.073727 32:32:32:32:32:32 6dBm Nov 19, 2018 22:11:17.580814000 +07
  416  71.217359 32:32:32:32:32:32 6dBm Nov 19, 2018 22:11:17.724446000 +07
  417  71.324738 32:32:32:32:32:32 4dBm Nov 19, 2018 22:11:17.831825000 +07
  418  71.787355 32:32:32:32:32:32 5dBm Nov 19, 2018 22:11:18.294442000 +07
  419  72.607989 32:32:32:32:32:32 5dBm Nov 19, 2018 22:11:19.115076000 +07
  420  72.663260 32:32:32:32:32:32 5dBm Nov 19, 2018 22:11:19.170347000 +07
  421  72.961340 32:32:32:32:32:32 3dBm Nov 19, 2018 22:11:19.468427000 +07
  422  73.159955 32:32:32:32:32:32 5dBm Nov 19, 2018 22:11:19.667042000 +07
  423  73.220586 32:32:32:32:32:32 6dBm Nov 19, 2018 22:11:19.727673000 +07
  424  73.423446 32:32:32:32:32:32 5dBm Nov 19, 2018 22:11:19.930533000 +07
  425  73.603271 32:32:32:32:32:32 5dBm Nov 19, 2018 22:11:20.110358000 +07
  426  73.801137 32:32:32:32:32:32 7dBm Nov 19, 2018 22:11:20.308224000 +07
  427  73.980119 32:32:32:32:32:32 7dBm Nov 19, 2018 22:11:20.487206000 +07
  428  74.207860 32:32:32:32:32:32 5dBm Nov 19, 2018 22:11:20.714947000 +07
  429  74.415089 32:32:32:32:32:32 4dBm Nov 19, 2018 22:11:20.922176000 +07
  430  74.620826 32:32:32:32:32:32 6dBm Nov 19, 2018 22:11:21.127913000 +07
  431  74.781896 32:32:32:32:32:32 5dBm Nov 19, 2018 22:11:21.288983000 +07
  432  74.810666 32:32:32:32:32:32 6dBm Nov 19, 2018 22:11:21.317753000 +07
  433  74.867409 32:32:32:32:32:32 3dBm Nov 19, 2018 22:11:21.374496000 +07
  434  74.881809 32:32:32:32:32:32 4dBm Nov 19, 2018 22:11:21.388896000 +07
  435  75.267888 32:32:32:32:32:32 6dBm Nov 19, 2018 22:11:21.774975000 +07
  436  75.311545 32:32:32:32:32:32 5dBm Nov 19, 2018 22:11:21.818632000 +07
  437  75.458326 32:32:32:32:32:32 6dBm Nov 19, 2018 22:11:21.965413000 +07
  438  75.634882 32:32:32:32:32:32 6dBm Nov 19, 2018 22:11:22.141969000 +07
  439  75.674688 32:32:32:32:32:32 6dBm Nov 19, 2018 22:11:22.181775000 +07
  440  75.741790 32:32:32:32:32:32 3dBm Nov 19, 2018 22:11:22.248877000 +07
  441  75.765001 32:32:32:32:32:32 6dBm Nov 19, 2018 22:11:22.272088000 +07
  442  75.873398 32:32:32:32:32:32 5dBm Nov 19, 2018 22:11:22.380485000 +07
  443  75.922489 32:32:32:32:32:32 5dBm Nov 19, 2018 22:11:22.429576000 +07
  444  75.954086 32:32:32:32:32:32 4dBm Nov 19, 2018 22:11:22.461173000 +07
  445  76.127248 32:32:32:32:32:32 5dBm Nov 19, 2018 22:11:22.634335000 +07
  446  76.235697 32:32:32:32:32:32 3dBm Nov 19, 2018 22:11:22.742784000 +07
  447  76.313702 32:32:32:32:32:32 5dBm Nov 19, 2018 22:11:22.820789000 +07
  448  76.385725 32:32:32:32:32:32 4dBm Nov 19, 2018 22:11:22.892812000 +07
  449  76.510427 32:32:32:32:32:32 7dBm Nov 19, 2018 22:11:23.017514000 +07
  450  76.599986 32:32:32:32:32:32 5dBm Nov 19, 2018 22:11:23.107073000 +07
  451  76.992500 32:32:32:32:32:32 6dBm Nov 19, 2018 22:11:23.499587000 +07
  452  77.138878 32:32:32:32:32:32 5dBm Nov 19, 2018 22:11:23.645965000 +07
  453  77.274134 32:32:32:32:32:32 7dBm Nov 19, 2018 22:11:23.781221000 +07
  454  77.317825 32:32:32:32:32:32 5dBm Nov 19, 2018 22:11:23.824912000 +07
  455  77.329416 32:32:32:32:32:32 4dBm Nov 19, 2018 22:11:23.836503000 +07
  456  77.436127 32:32:32:32:32:32 8dBm Nov 19, 2018 22:11:23.943214000 +07
  457  77.462049 32:32:32:32:32:32 4dBm Nov 19, 2018 22:11:23.969136000 +07
  458  77.819382 32:32:32:32:32:32 6dBm Nov 19, 2018 22:11:24.326469000 +07
  459  77.831101 32:32:32:32:32:32 7dBm Nov 19, 2018 22:11:24.338188000 +07
  460  78.006704 32:32:32:32:32:32 3dBm Nov 19, 2018 22:11:24.513791000 +07
  461  78.164510 32:32:32:32:32:32 6dBm Nov 19, 2018 22:11:24.671597000 +07
  462  78.385467 32:32:32:32:32:32 4dBm Nov 19, 2018 22:11:24.892554000 +07
  463  78.589446 32:32:32:32:32:32 5dBm Nov 19, 2018 22:11:25.096533000 +07
  464  78.678215 32:32:32:32:32:32 5dBm Nov 19, 2018 22:11:25.185302000 +07
  465  78.724215 32:32:32:32:32:32 5dBm Nov 19, 2018 22:11:25.231302000 +07
  466  78.849096 32:32:32:32:32:32 4dBm Nov 19, 2018 22:11:25.356183000 +07
  467  79.108597 32:32:32:32:32:32 6dBm Nov 19, 2018 22:11:25.615684000 +07
  468  79.118888 32:32:32:32:32:32 6dBm Nov 19, 2018 22:11:25.625975000 +07
  469  79.439744 32:32:32:32:32:32 5dBm Nov 19, 2018 22:11:25.946831000 +07
  470  79.489448 32:32:32:32:32:32 2dBm Nov 19, 2018 22:11:25.996535000 +07
  471  79.603683 32:32:32:32:32:32 4dBm Nov 19, 2018 22:11:26.110770000 +07
  472  79.752393 32:32:32:32:32:32 6dBm Nov 19, 2018 22:11:26.259480000 +07
  473  79.874626 32:32:32:32:32:32 4dBm Nov 19, 2018 22:11:26.381713000 +07
  474  79.904866 32:32:32:32:32:32 4dBm Nov 19, 2018 22:11:26.411953000 +07
  475  80.046071 32:32:32:32:32:32 5dBm Nov 19, 2018 22:11:26.553158000 +07
  476  80.128624 32:32:32:32:32:32 4dBm Nov 19, 2018 22:11:26.635711000 +07
  477  80.189852 32:32:32:32:32:32 6dBm Nov 19, 2018 22:11:26.696939000 +07
  478  80.206808 32:32:32:32:32:32 5dBm Nov 19, 2018 22:11:26.713895000 +07
  479  80.261789 32:32:32:32:32:32 7dBm Nov 19, 2018 22:11:26.768876000 +07
  480  80.482940 32:32:32:32:32:32 4dBm Nov 19, 2018 22:11:26.990027000 +07
  481  80.624681 32:32:32:32:32:32 4dBm Nov 19, 2018 22:11:27.131768000 +07
  482  80.700428 32:32:32:32:32:32 6dBm Nov 19, 2018 22:11:27.207515000 +07
  483  81.207109 32:32:32:32:32:32 6dBm Nov 19, 2018 22:11:27.714196000 +07
  484  81.266290 32:32:32:32:32:32 5dBm Nov 19, 2018 22:11:27.773377000 +07
  485  81.304379 32:32:32:32:32:32 6dBm Nov 19, 2018 22:11:27.811466000 +07
  486  81.355496 32:32:32:32:32:32 7dBm Nov 19, 2018 22:11:27.862583000 +07
  487  81.472944 32:32:32:32:32:32 7dBm Nov 19, 2018 22:11:27.980031000 +07
  488  81.607674 32:32:32:32:32:32 3dBm Nov 19, 2018 22:11:28.114761000 +07
  489  81.717349 32:32:32:32:32:32 4dBm Nov 19, 2018 22:11:28.224436000 +07
  490  81.747324 32:32:32:32:32:32 5dBm Nov 19, 2018 22:11:28.254411000 +07
  491  81.846144 32:32:32:32:32:32 8dBm Nov 19, 2018 22:11:28.353231000 +07
  492  81.870954 32:32:32:32:32:32 7dBm Nov 19, 2018 22:11:28.378041000 +07
  493  81.904117 32:32:32:32:32:32 6dBm Nov 19, 2018 22:11:28.411204000 +07
  494  82.009570 32:32:32:32:32:32 7dBm Nov 19, 2018 22:11:28.516657000 +07
  495  82.107975 32:32:32:32:32:32 4dBm Nov 19, 2018 22:11:28.615062000 +07
  496  82.141018 32:32:32:32:32:32 7dBm Nov 19, 2018 22:11:28.648105000 +07
  497  82.658451 32:32:32:32:32:32 5dBm Nov 19, 2018 22:11:29.165538000 +07
  498  82.821822 32:32:32:32:32:32 7dBm Nov 19, 2018 22:11:29.328909000 +07
  499  82.918803 32:32:32:32:32:32 4dBm Nov 19, 2018 22:11:29.425890000 +07
  500  82.934807 32:32:32:32:32:32 5dBm Nov 19, 2018 22:11:29.441894000 +07
  501  83.176914 32:32:32:32:32:32 7dBm Nov 19, 2018 22:11:29.684001000 +07
  502  83.223173 32:32:32:32:32:32 7dBm Nov 19, 2018 22:11:29.730260000 +07
  503  83.251469 32:32:32:32:32:32 5dBm Nov 19, 2018 22:11:29.758556000 +07
  504  83.318431 32:32:32:32:32:32 6dBm Nov 19, 2018 22:11:29.825518000 +07
  505  83.358539 32:32:32:32:32:32 7dBm Nov 19, 2018 22:11:29.865626000 +07
  506  83.553488 32:32:32:32:32:32 6dBm Nov 19, 2018 22:11:30.060575000 +07
  507  83.585540 32:32:32:32:32:32 5dBm Nov 19, 2018 22:11:30.092627000 +07
  508  83.819357 32:32:32:32:32:32 6dBm Nov 19, 2018 22:11:30.326444000 +07
  509  83.961168 32:32:32:32:32:32 6dBm Nov 19, 2018 22:11:30.468255000 +07
  510  83.986565 32:32:32:32:32:32 7dBm Nov 19, 2018 22:11:30.493652000 +07
  511  84.202782 32:32:32:32:32:32 5dBm Nov 19, 2018 22:11:30.709869000 +07
  512  84.341177 32:32:32:32:32:32 2dBm Nov 19, 2018 22:11:30.848264000 +07
  513  84.406390 32:32:32:32:32:32 5dBm Nov 19, 2018 22:11:30.913477000 +07
  514  84.521650 32:32:32:32:32:32 6dBm Nov 19, 2018 22:11:31.028737000 +07
  515  84.567444 32:32:32:32:32:32 6dBm Nov 19, 2018 22:11:31.074531000 +07
  516  84.621085 32:32:32:32:32:32 6dBm Nov 19, 2018 22:11:31.128172000 +07
  517  84.757314 32:32:32:32:32:32 4dBm Nov 19, 2018 22:11:31.264401000 +07
  518  84.802603 32:32:32:32:32:32 7dBm Nov 19, 2018 22:11:31.309690000 +07
  519  84.833065 32:32:32:32:32:32 7dBm Nov 19, 2018 22:11:31.340152000 +07
  520  84.884977 32:32:32:32:32:32 3dBm Nov 19, 2018 22:11:31.392064000 +07
  521  84.980421 32:32:32:32:32:32 6dBm Nov 19, 2018 22:11:31.487508000 +07
  522  85.215646 32:32:32:32:32:32 5dBm Nov 19, 2018 22:11:31.722733000 +07
  523  85.231389 32:32:32:32:32:32 5dBm Nov 19, 2018 22:11:31.738476000 +07
  524  85.280473 32:32:32:32:32:32 4dBm Nov 19, 2018 22:11:31.787560000 +07
  525  85.485095 32:32:32:32:32:32 6dBm Nov 19, 2018 22:11:31.992182000 +07
  526  85.512892 32:32:32:32:32:32 6dBm Nov 19, 2018 22:11:32.019979000 +07
  527  85.564909 32:32:32:32:32:32 5dBm Nov 19, 2018 22:11:32.071996000 +07
  528  85.715285 32:32:32:32:32:32 7dBm Nov 19, 2018 22:11:32.222372000 +07
  529  85.764085 32:32:32:32:32:32 6dBm Nov 19, 2018 22:11:32.271172000 +07
  530  85.868324 32:32:32:32:32:32 4dBm Nov 19, 2018 22:11:32.375411000 +07
  531  86.020819 32:32:32:32:32:32 6dBm Nov 19, 2018 22:11:32.527906000 +07
  532  86.068433 32:32:32:32:32:32 6dBm Nov 19, 2018 22:11:32.575520000 +07
  533  86.187278 32:32:32:32:32:32 6dBm Nov 19, 2018 22:11:32.694365000 +07
  534  86.285360 32:32:32:32:32:32 7dBm Nov 19, 2018 22:11:32.792447000 +07
  535  86.456335 32:32:32:32:32:32 5dBm Nov 19, 2018 22:11:32.963422000 +07
  536  86.484583 32:32:32:32:32:32 3dBm Nov 19, 2018 22:11:32.991670000 +07
  537  86.501391 32:32:32:32:32:32 6dBm Nov 19, 2018 22:11:33.008478000 +07
  538  86.734522 32:32:32:32:32:32 7dBm Nov 19, 2018 22:11:33.241609000 +07
  539  87.023055 32:32:32:32:32:32 6dBm Nov 19, 2018 22:11:33.530142000 +07
  540  87.203330 32:32:32:32:32:32 7dBm Nov 19, 2018 22:11:33.710417000 +07
  541  87.366609 32:32:32:32:32:32 4dBm Nov 19, 2018 22:11:33.873696000 +07
  542  87.451235 32:32:32:32:32:32 6dBm Nov 19, 2018 22:11:33.958322000 +07
  543  87.572772 32:32:32:32:32:32 6dBm Nov 19, 2018 22:11:34.079859000 +07
  544  87.593123 32:32:32:32:32:32 8dBm Nov 19, 2018 22:11:34.100210000 +07
  545  87.603953 32:32:32:32:32:32 6dBm Nov 19, 2018 22:11:34.111040000 +07
  546  87.611487 32:32:32:32:32:32 7dBm Nov 19, 2018 22:11:34.118574000 +07
  547  87.707376 32:32:32:32:32:32 6dBm Nov 19, 2018 22:11:34.214463000 +07
  548  87.741592 32:32:32:32:32:32 6dBm Nov 19, 2018 22:11:34.248679000 +07
  549  87.966138 32:32:32:32:32:32 7dBm Nov 19, 2018 22:11:34.473225000 +07
  550  88.001376 32:32:32:32:32:32 7dBm Nov 19, 2018 22:11:34.508463000 +07
  551  88.006705 32:32:32:32:32:32 6dBm Nov 19, 2018 22:11:34.513792000 +07
  552  88.672372 32:32:32:32:32:32 6dBm Nov 19, 2018 22:11:35.179459000 +07
  553  88.703562 32:32:32:32:32:32 6dBm Nov 19, 2018 22:11:35.210649000 +07
  554  88.725249 32:32:32:32:32:32 7dBm Nov 19, 2018 22:11:35.232336000 +07
  555  88.751029 32:32:32:32:32:32 5dBm Nov 19, 2018 22:11:35.258116000 +07
  556  88.855249 32:32:32:32:32:32 7dBm Nov 19, 2018 22:11:35.362336000 +07
  557  88.943386 32:32:32:32:32:32 7dBm Nov 19, 2018 22:11:35.450473000 +07
  558  89.018352 32:32:32:32:32:32 6dBm Nov 19, 2018 22:11:35.525439000 +07
  559  89.132292 32:32:32:32:32:32 6dBm Nov 19, 2018 22:11:35.639379000 +07
  560  89.358277 32:32:32:32:32:32 9dBm Nov 19, 2018 22:11:35.865364000 +07
  561  89.392130 32:32:32:32:32:32 6dBm Nov 19, 2018 22:11:35.899217000 +07
  562  89.496248 32:32:32:32:32:32 4dBm Nov 19, 2018 22:11:36.003335000 +07
  563  89.536638 32:32:32:32:32:32 7dBm Nov 19, 2018 22:11:36.043725000 +07
  564  89.564668 32:32:32:32:32:32 6dBm Nov 19, 2018 22:11:36.071755000 +07
  565  89.576105 32:32:32:32:32:32 8dBm Nov 19, 2018 22:11:36.083192000 +07
  566  89.715840 32:32:32:32:32:32 4dBm Nov 19, 2018 22:11:36.222927000 +07
  567  89.764739 32:32:32:32:32:32 7dBm Nov 19, 2018 22:11:36.271826000 +07
  568  89.801626 32:32:32:32:32:32 7dBm Nov 19, 2018 22:11:36.308713000 +07
  569  89.907025 32:32:32:32:32:32 6dBm Nov 19, 2018 22:11:36.414112000 +07
  570  89.928766 32:32:32:32:32:32 7dBm Nov 19, 2018 22:11:36.435853000 +07
  571  89.947225 32:32:32:32:32:32 8dBm Nov 19, 2018 22:11:36.454312000 +07
  572  89.996763 32:32:32:32:32:32 7dBm Nov 19, 2018 22:11:36.503850000 +07
  573  90.000605 32:32:32:32:32:32 7dBm Nov 19, 2018 22:11:36.507692000 +07
  574  90.101671 32:32:32:32:32:32 7dBm Nov 19, 2018 22:11:36.608758000 +07
  575  90.142351 32:32:32:32:32:32 6dBm Nov 19, 2018 22:11:36.649438000 +07
  576  90.268672 32:32:32:32:32:32 7dBm Nov 19, 2018 22:11:36.775759000 +07
  577  90.317381 32:32:32:32:32:32 6dBm Nov 19, 2018 22:11:36.824468000 +07
  578  90.466631 32:32:32:32:32:32 5dBm Nov 19, 2018 22:11:36.973718000 +07
  579  90.529465 32:32:32:32:32:32 7dBm Nov 19, 2018 22:11:37.036552000 +07
  580  90.579219 32:32:32:32:32:32 6dBm Nov 19, 2018 22:11:37.086306000 +07
  581  90.673505 32:32:32:32:32:32 8dBm Nov 19, 2018 22:11:37.180592000 +07
  582  90.844867 32:32:32:32:32:32 5dBm Nov 19, 2018 22:11:37.351954000 +07
  583  90.912964 32:32:32:32:32:32 7dBm Nov 19, 2018 22:11:37.420051000 +07
  584  91.197618 32:32:32:32:32:32 6dBm Nov 19, 2018 22:11:37.704705000 +07
  585  91.306772 32:32:32:32:32:32 7dBm Nov 19, 2018 22:11:37.813859000 +07
  586  91.368563 32:32:32:32:32:32 5dBm Nov 19, 2018 22:11:37.875650000 +07
  587  91.667427 32:32:32:32:32:32 8dBm Nov 19, 2018 22:11:38.174514000 +07
  588  91.694640 32:32:32:32:32:32 7dBm Nov 19, 2018 22:11:38.201727000 +07
  589  91.709061 32:32:32:32:32:32 6dBm Nov 19, 2018 22:11:38.216148000 +07
  590  91.864140 32:32:32:32:32:32 5dBm Nov 19, 2018 22:11:38.371227000 +07
  591  91.942141 32:32:32:32:32:32 6dBm Nov 19, 2018 22:11:38.449228000 +07
  592  91.981062 32:32:32:32:32:32 7dBm Nov 19, 2018 22:11:38.488149000 +07
  593  92.014061 32:32:32:32:32:32 7dBm Nov 19, 2018 22:11:38.521148000 +07
  594  92.030607 32:32:32:32:32:32 7dBm Nov 19, 2018 22:11:38.537694000 +07
  595  92.033124 32:32:32:32:32:32 6dBm Nov 19, 2018 22:11:38.540211000 +07
  596  92.098761 32:32:32:32:32:32 7dBm Nov 19, 2018 22:11:38.605848000 +07
  597  92.372898 32:32:32:32:32:32 7dBm Nov 19, 2018 22:11:38.879985000 +07
  598  92.424892 32:32:32:32:32:32 7dBm Nov 19, 2018 22:11:38.931979000 +07
  599  92.494886 32:32:32:32:32:32 7dBm Nov 19, 2018 22:11:39.001973000 +07
  600  92.544618 32:32:32:32:32:32 7dBm Nov 19, 2018 22:11:39.051705000 +07
  601  92.548645 32:32:32:32:32:32 5dBm Nov 19, 2018 22:11:39.055732000 +07
  602  92.797131 32:32:32:32:32:32 7dBm Nov 19, 2018 22:11:39.304218000 +07
  603  92.915887 32:32:32:32:32:32 7dBm Nov 19, 2018 22:11:39.422974000 +07
  604  92.999335 32:32:32:32:32:32 7dBm Nov 19, 2018 22:11:39.506422000 +07
  605  93.166989 32:32:32:32:32:32 8dBm Nov 19, 2018 22:11:39.674076000 +07
  606  93.215484 32:32:32:32:32:32 7dBm Nov 19, 2018 22:11:39.722571000 +07
  607  93.259026 32:32:32:32:32:32 6dBm Nov 19, 2018 22:11:39.766113000 +07
  608  93.340998 32:32:32:32:32:32 7dBm Nov 19, 2018 22:11:39.848085000 +07
  609  93.376925 32:32:32:32:32:32 7dBm Nov 19, 2018 22:11:39.884012000 +07
  610  93.427188 32:32:32:32:32:32 8dBm Nov 19, 2018 22:11:39.934275000 +07
  611  93.521778 32:32:32:32:32:32 6dBm Nov 19, 2018 22:11:40.028865000 +07
  612  93.682296 32:32:32:32:32:32 5dBm Nov 19, 2018 22:11:40.189383000 +07
  613  93.716778 32:32:32:32:32:32 7dBm Nov 19, 2018 22:11:40.223865000 +07
  614  93.729777 32:32:32:32:32:32 7dBm Nov 19, 2018 22:11:40.236864000 +07
  615  93.740700 32:32:32:32:32:32 7dBm Nov 19, 2018 22:11:40.247787000 +07
  616  93.870521 32:32:32:32:32:32 5dBm Nov 19, 2018 22:11:40.377608000 +07
  617  94.016780 32:32:32:32:32:32 7dBm Nov 19, 2018 22:11:40.523867000 +07
  618  94.103746 32:32:32:32:32:32 8dBm Nov 19, 2018 22:11:40.610833000 +07
  619  94.167461 32:32:32:32:32:32 7dBm Nov 19, 2018 22:11:40.674548000 +07
  620  94.248517 32:32:32:32:32:32 7dBm Nov 19, 2018 22:11:40.755604000 +07
  621  94.399224 32:32:32:32:32:32 7dBm Nov 19, 2018 22:11:40.906311000 +07
  622  94.438941 32:32:32:32:32:32 8dBm Nov 19, 2018 22:11:40.946028000 +07
  623  94.534459 32:32:32:32:32:32 7dBm Nov 19, 2018 22:11:41.041546000 +07
  624  94.682193 32:32:32:32:32:32 6dBm Nov 19, 2018 22:11:41.189280000 +07
  625  94.842383 32:32:32:32:32:32 8dBm Nov 19, 2018 22:11:41.349470000 +07
  626  94.974793 32:32:32:32:32:32 6dBm Nov 19, 2018 22:11:41.481880000 +07
  627  95.215378 32:32:32:32:32:32 6dBm Nov 19, 2018 22:11:41.722465000 +07
  628  95.343830 32:32:32:32:32:32 6dBm Nov 19, 2018 22:11:41.850917000 +07
  629  95.491128 32:32:32:32:32:32 8dBm Nov 19, 2018 22:11:41.998215000 +07
  630  95.514967 32:32:32:32:32:32 5dBm Nov 19, 2018 22:11:42.022054000 +07
  631  95.729788 32:32:32:32:32:32 6dBm Nov 19, 2018 22:11:42.236875000 +07
  632  95.760497 32:32:32:32:32:32 7dBm Nov 19, 2018 22:11:42.267584000 +07
  633  95.848715 32:32:32:32:32:32 6dBm Nov 19, 2018 22:11:42.355802000 +07
  634  95.896896 32:32:32:32:32:32 8dBm Nov 19, 2018 22:11:42.403983000 +07
  635  96.161902 32:32:32:32:32:32 7dBm Nov 19, 2018 22:11:42.668989000 +07
  636  96.199801 32:32:32:32:32:32 4dBm Nov 19, 2018 22:11:42.706888000 +07
  637  96.379007 32:32:32:32:32:32 6dBm Nov 19, 2018 22:11:42.886094000 +07
  638  96.563615 32:32:32:32:32:32 6dBm Nov 19, 2018 22:11:43.070702000 +07
  639  96.832098 32:32:32:32:32:32 8dBm Nov 19, 2018 22:11:43.339185000 +07
  640  96.893080 32:32:32:32:32:32 6dBm Nov 19, 2018 22:11:43.400167000 +07
  641  97.003391 32:32:32:32:32:32 4dBm Nov 19, 2018 22:11:43.510478000 +07
  642  97.071044 32:32:32:32:32:32 3dBm Nov 19, 2018 22:11:43.578131000 +07
  643  97.347692 32:32:32:32:32:32 7dBm Nov 19, 2018 22:11:43.854779000 +07
  644  97.375966 32:32:32:32:32:32 7dBm Nov 19, 2018 22:11:43.883053000 +07
  645  97.430505 32:32:32:32:32:32 7dBm Nov 19, 2018 22:11:43.937592000 +07
  646  97.442503 32:32:32:32:32:32 7dBm Nov 19, 2018 22:11:43.949590000 +07
  647  97.563719 32:32:32:32:32:32 7dBm Nov 19, 2018 22:11:44.070806000 +07
  648  97.641075 32:32:32:32:32:32 8dBm Nov 19, 2018 22:11:44.148162000 +07
  649  97.746033 32:32:32:32:32:32 6dBm Nov 19, 2018 22:11:44.253120000 +07
  650  97.764242 32:32:32:32:32:32 7dBm Nov 19, 2018 22:11:44.271329000 +07
  651  97.829964 32:32:32:32:32:32 7dBm Nov 19, 2018 22:11:44.337051000 +07
  652  97.959252 32:32:32:32:32:32 2dBm Nov 19, 2018 22:11:44.466339000 +07
  653  97.975794 32:32:32:32:32:32 5dBm Nov 19, 2018 22:11:44.482881000 +07
  654  98.028737 32:32:32:32:32:32 5dBm Nov 19, 2018 22:11:44.535824000 +07
  655  98.078936 32:32:32:32:32:32 5dBm Nov 19, 2018 22:11:44.586023000 +07
  656  98.134114 32:32:32:32:32:32 5dBm Nov 19, 2018 22:11:44.641201000 +07
  657  98.542867 32:32:32:32:32:32 5dBm Nov 19, 2018 22:11:45.049954000 +07
  658  98.612179 32:32:32:32:32:32 5dBm Nov 19, 2018 22:11:45.119266000 +07
  659  98.797396 32:32:32:32:32:32 5dBm Nov 19, 2018 22:11:45.304483000 +07
  660  98.813527 32:32:32:32:32:32 6dBm Nov 19, 2018 22:11:45.320614000 +07
  661  98.872718 32:32:32:32:32:32 6dBm Nov 19, 2018 22:11:45.379805000 +07
  662  99.098867 32:32:32:32:32:32 6dBm Nov 19, 2018 22:11:45.605954000 +07
  663  99.125084 32:32:32:32:32:32 6dBm Nov 19, 2018 22:11:45.632171000 +07
  664  99.334022 32:32:32:32:32:32 5dBm Nov 19, 2018 22:11:45.841109000 +07
  665  99.469673 32:32:32:32:32:32 7dBm Nov 19, 2018 22:11:45.976760000 +07
  666  99.571808 32:32:32:32:32:32 5dBm Nov 19, 2018 22:11:46.078895000 +07
  667  99.671809 32:32:32:32:32:32 7dBm Nov 19, 2018 22:11:46.178896000 +07
  668  99.818455 32:32:32:32:32:32 6dBm Nov 19, 2018 22:11:46.325542000 +07
  669  99.856978 32:32:32:32:32:32 6dBm Nov 19, 2018 22:11:46.364065000 +07
  670  99.920172 32:32:32:32:32:32 3dBm Nov 19, 2018 22:11:46.427259000 +07
  671  99.941927 32:32:32:32:32:32 5dBm Nov 19, 2018 22:11:46.449014000 +07
  672  99.994109 32:32:32:32:32:32 6dBm Nov 19, 2018 22:11:46.501196000 +07
  673 100.086270 32:32:32:32:32:32 6dBm Nov 19, 2018 22:11:46.593357000 +07
  674 100.099789 32:32:32:32:32:32 3dBm Nov 19, 2018 22:11:46.606876000 +07
  675 100.239929 32:32:32:32:32:32 6dBm Nov 19, 2018 22:11:46.747016000 +07
  676 100.420259 32:32:32:32:32:32 5dBm Nov 19, 2018 22:11:46.927346000 +07
  677 100.510982 32:32:32:32:32:32 8dBm Nov 19, 2018 22:11:47.018069000 +07
  678 100.550340 32:32:32:32:32:32 4dBm Nov 19, 2018 22:11:47.057427000 +07
  679 100.574652 32:32:32:32:32:32 6dBm Nov 19, 2018 22:11:47.081739000 +07
  680 100.657757 32:32:32:32:32:32 6dBm Nov 19, 2018 22:11:47.164844000 +07
  681 100.834840 32:32:32:32:32:32 8dBm Nov 19, 2018 22:11:47.341927000 +07
  682 100.972936 32:32:32:32:32:32 7dBm Nov 19, 2018 22:11:47.480023000 +07
  683 101.040226 32:32:32:32:32:32 7dBm Nov 19, 2018 22:11:47.547313000 +07
  684 101.124065 32:32:32:32:32:32 6dBm Nov 19, 2018 22:11:47.631152000 +07
  685 101.141839 32:32:32:32:32:32 6dBm Nov 19, 2018 22:11:47.648926000 +07
  686 101.274306 32:32:32:32:32:32 6dBm Nov 19, 2018 22:11:47.781393000 +07
  687 101.321614 32:32:32:32:32:32 9dBm Nov 19, 2018 22:11:47.828701000 +07
  688 101.504919 32:32:32:32:32:32 9dBm Nov 19, 2018 22:11:48.012006000 +07
  689 101.527878 32:32:32:32:32:32 7dBm Nov 19, 2018 22:11:48.034965000 +07
  690 101.537592 32:32:32:32:32:32 10dBm Nov 19, 2018 22:11:48.044679000 +07
  691 101.623913 32:32:32:32:32:32 7dBm Nov 19, 2018 22:11:48.131000000 +07
  692 101.671933 32:32:32:32:32:32 7dBm Nov 19, 2018 22:11:48.179020000 +07
  693 101.762506 32:32:32:32:32:32 5dBm Nov 19, 2018 22:11:48.269593000 +07
  694 101.788566 32:32:32:32:32:32 6dBm Nov 19, 2018 22:11:48.295653000 +07
  695 101.864180 32:32:32:32:32:32 7dBm Nov 19, 2018 22:11:48.371267000 +07
  696 101.971400 32:32:32:32:32:32 6dBm Nov 19, 2018 22:11:48.478487000 +07
  697 102.067632 32:32:32:32:32:32 8dBm Nov 19, 2018 22:11:48.574719000 +07
  698 102.081071 32:32:32:32:32:32 6dBm Nov 19, 2018 22:11:48.588158000 +07
  699 102.191079 32:32:32:32:32:32 6dBm Nov 19, 2018 22:11:48.698166000 +07
  700 102.305363 32:32:32:32:32:32 5dBm Nov 19, 2018 22:11:48.812450000 +07
  701 102.348944 32:32:32:32:32:32 7dBm Nov 19, 2018 22:11:48.856031000 +07
  702 102.453947 32:32:32:32:32:32 5dBm Nov 19, 2018 22:11:48.961034000 +07
  703 102.558912 32:32:32:32:32:32 7dBm Nov 19, 2018 22:11:49.065999000 +07
  704 102.592523 32:32:32:32:32:32 5dBm Nov 19, 2018 22:11:49.099610000 +07
  705 102.704161 32:32:32:32:32:32 6dBm Nov 19, 2018 22:11:49.211248000 +07
  706 102.813608 32:32:32:32:32:32 7dBm Nov 19, 2018 22:11:49.320695000 +07
  707 102.887926 32:32:32:32:32:32 7dBm Nov 19, 2018 22:11:49.395013000 +07
  708 102.959740 32:32:32:32:32:32 8dBm Nov 19, 2018 22:11:49.466827000 +07
  709 103.014471 32:32:32:32:32:32 6dBm Nov 19, 2018 22:11:49.521558000 +07
  710 103.036247 32:32:32:32:32:32 6dBm Nov 19, 2018 22:11:49.543334000 +07
  711 103.051383 32:32:32:32:32:32 7dBm Nov 19, 2018 22:11:49.558470000 +07
  712 103.124541 32:32:32:32:32:32 7dBm Nov 19, 2018 22:11:49.631628000 +07
  713 103.275595 32:32:32:32:32:32 7dBm Nov 19, 2018 22:11:49.782682000 +07
  714 103.444394 32:32:32:32:32:32 6dBm Nov 19, 2018 22:11:49.951481000 +07
  715 103.726787 32:32:32:32:32:32 4dBm Nov 19, 2018 22:11:50.233874000 +07
  716 103.753068 32:32:32:32:32:32 4dBm Nov 19, 2018 22:11:50.260155000 +07
  717 103.870430 32:32:32:32:32:32 6dBm Nov 19, 2018 22:11:50.377517000 +07
  718 103.938036 32:32:32:32:32:32 6dBm Nov 19, 2018 22:11:50.445123000 +07
  719 104.002741 32:32:32:32:32:32 5dBm Nov 19, 2018 22:11:50.509828000 +07
  720 104.194701 32:32:32:32:32:32 6dBm Nov 19, 2018 22:11:50.701788000 +07
  721 104.393070 32:32:32:32:32:32 8dBm Nov 19, 2018 22:11:50.900157000 +07
  722 104.704228 32:32:32:32:32:32 5dBm Nov 19, 2018 22:11:51.211315000 +07
  723 104.813519 32:32:32:32:32:32 7dBm Nov 19, 2018 22:11:51.320606000 +07
  724 104.938402 32:32:32:32:32:32 6dBm Nov 19, 2018 22:11:51.445489000 +07
  725 104.995922 32:32:32:32:32:32 7dBm Nov 19, 2018 22:11:51.503009000 +07
  726 105.049581 32:32:32:32:32:32 7dBm Nov 19, 2018 22:11:51.556668000 +07
  727 105.113589 32:32:32:32:32:32 7dBm Nov 19, 2018 22:11:51.620676000 +07
  728 105.283483 32:32:32:32:32:32 6dBm Nov 19, 2018 22:11:51.790570000 +07
  729 105.323144 32:32:32:32:32:32 6dBm Nov 19, 2018 22:11:51.830231000 +07
  730 105.331254 32:32:32:32:32:32 7dBm Nov 19, 2018 22:11:51.838341000 +07
  731 105.387021 32:32:32:32:32:32 7dBm Nov 19, 2018 22:11:51.894108000 +07
  732 105.439128 32:32:32:32:32:32 4dBm Nov 19, 2018 22:11:51.946215000 +07
  733 105.502390 32:32:32:32:32:32 7dBm Nov 19, 2018 22:11:52.009477000 +07
  734 105.553333 32:32:32:32:32:32 7dBm Nov 19, 2018 22:11:52.060420000 +07
  735 105.660100 32:32:32:32:32:32 7dBm Nov 19, 2018 22:11:52.167187000 +07
  736 105.914848 32:32:32:32:32:32 7dBm Nov 19, 2018 22:11:52.421935000 +07
  737 106.176353 32:32:32:32:32:32 7dBm Nov 19, 2018 22:11:52.683440000 +07
  738 106.300879 32:32:32:32:32:32 8dBm Nov 19, 2018 22:11:52.807966000 +07
  739 106.435566 32:32:32:32:32:32 5dBm Nov 19, 2018 22:11:52.942653000 +07
  740 106.491325 32:32:32:32:32:32 7dBm Nov 19, 2018 22:11:52.998412000 +07
  741 106.640844 32:32:32:32:32:32 7dBm Nov 19, 2018 22:11:53.147931000 +07
  742 106.673846 32:32:32:32:32:32 8dBm Nov 19, 2018 22:11:53.180933000 +07
  743 106.722800 32:32:32:32:32:32 8dBm Nov 19, 2018 22:11:53.229887000 +07
  744 106.752052 32:32:32:32:32:32 7dBm Nov 19, 2018 22:11:53.259139000 +07
  745 106.801289 32:32:32:32:32:32 8dBm Nov 19, 2018 22:11:53.308376000 +07
  746 106.872071 32:32:32:32:32:32 9dBm Nov 19, 2018 22:11:53.379158000 +07
  747 107.284975 32:32:32:32:32:32 5dBm Nov 19, 2018 22:11:53.792062000 +07
  748 107.344783 32:32:32:32:32:32 6dBm Nov 19, 2018 22:11:53.851870000 +07
  749 107.622290 32:32:32:32:32:32 7dBm Nov 19, 2018 22:11:54.129377000 +07
  750 107.778399 32:32:32:32:32:32 5dBm Nov 19, 2018 22:11:54.285486000 +07
  751 107.804902 32:32:32:32:32:32 5dBm Nov 19, 2018 22:11:54.311989000 +07
  752 107.832711 32:32:32:32:32:32 5dBm Nov 19, 2018 22:11:54.339798000 +07
  753 107.968386 32:32:32:32:32:32 6dBm Nov 19, 2018 22:11:54.475473000 +07
  754 108.036910 32:32:32:32:32:32 6dBm Nov 19, 2018 22:11:54.543997000 +07
  755 108.204002 32:32:32:32:32:32 5dBm Nov 19, 2018 22:11:54.711089000 +07
  756 108.272759 32:32:32:32:32:32 3dBm Nov 19, 2018 22:11:54.779846000 +07
  757 108.344279 32:32:32:32:32:32 7dBm Nov 19, 2018 22:11:54.851366000 +07
  758 108.402108 32:32:32:32:32:32 5dBm Nov 19, 2018 22:11:54.909195000 +07
  759 108.504654 32:32:32:32:32:32 6dBm Nov 19, 2018 22:11:55.011741000 +07
  760 108.541306 32:32:32:32:32:32 6dBm Nov 19, 2018 22:11:55.048393000 +07
  761 108.651451 32:32:32:32:32:32 4dBm Nov 19, 2018 22:11:55.158538000 +07
  762 109.981565 32:32:32:32:32:32 6dBm Nov 19, 2018 22:11:56.488652000 +07
  763 110.050597 32:32:32:32:32:32 6dBm Nov 19, 2018 22:11:56.557684000 +07
  764 110.343585 32:32:32:32:32:32 6dBm Nov 19, 2018 22:11:56.850672000 +07
  765 110.629763 32:32:32:32:32:32 4dBm Nov 19, 2018 22:11:57.136850000 +07
  766 110.643216 32:32:32:32:32:32 4dBm Nov 19, 2018 22:11:57.150303000 +07
  767 111.257893 32:32:32:32:32:32 4dBm Nov 19, 2018 22:11:57.764980000 +07
  768 111.709635 32:32:32:32:32:32 5dBm Nov 19, 2018 22:11:58.216722000 +07
  769 111.731101 32:32:32:32:32:32 6dBm Nov 19, 2018 22:11:58.238188000 +07
  770 111.999653 32:32:32:32:32:32 4dBm Nov 19, 2018 22:11:58.506740000 +07
