                1       032:32:32:32:32:3  4Bm N  ov 19, 2018 2 2:10:06.507087000  7          1
                28.87466832:32:32:32:32:3  5Bm N  ov 19, 2018 2 2:10:15.381755000  7         10
                39.20492432:32:32:32:32:3  5Bm N  ov 19, 2018 2 2:10:15.712011000  7        ###
                49.23441432:32:32:32:32:3  5Bm N  ov 19, 2018 2 2:10:15.741501000  7        ###
                59.24443932:32:32:32:32:3  5Bm N  ov 19, 2018 2 2:10:15.751526000  7        ###
                69.35175132:32:32:32:32:3  6Bm N  ov 19, 2018 2 2:10:15.858838000  7
                79.46836932:32:32:32:32:3  6Bm N  ov 19, 2018 2 2:10:15.975456000  7
                8 9.5314432:32:32:32:32:3  5Bm N  ov 19, 2018 2 2:10:16.038527000  7
                99.70535832:32:32:32:32:3  5Bm N  ov 19, 2018 2 2:10:16.212445000  7
               109.97192332:32:32:32:32:3  8Bm N  ov 19, 2018 2 2:10:16.479010000  7
            11  10.14142332:32:32:32:32:3  8Bm N  ov 19, 2018 2 2:10:16.648510000  7
            12  10.33762832:32:32:32:32:3  6Bm N  ov 19, 2018 2 2:10:16.844715000  7
            13  10.37043132:32:32:32:32:3  7Bm N  ov 19, 2018 2 2:10:16.877518000  7
            14  10.39607632:32:32:32:32:3  9Bm N  ov 19, 2018 2 2:10:16.903163000  7
            15  10.50732332:32:32:32:32:3  7Bm N  ov 19, 2018 2 2:10:17.014410000  7
            16  10.74496432:32:32:32:32:3  4Bm N  ov 19, 2018 2 2:10:17.252051000  7
            17  19.64575732:32:32:32:32:3  8Bm N  ov 19, 2018 2 2:10:26.152844000  7
            18  19.75070632:32:32:32:32:3  8Bm N  ov 19, 2018 2 2:10:26.257793000  7
            19  1 9.8837932:32:32:32:32:3  7Bm N  ov 19, 2018 2 2:10:26.390877000  7
            20  19.95366132:32:32:32:32:3  7Bm N  ov 19, 2018 2 2:10:26.460748000  7
            21  20.00203732:32:32:32:32:3  7Bm N  ov 19, 2018 2 2:10:26.509124000  7
            22  20.02802332:32:32:32:32:3  7Bm N  ov 19, 2018 2 2:10:26.535110000  7
            23  20.15250332:32:32:32:32:3  6Bm N  ov 19, 2018 2 2:10:26.659590000  7
            24  20.27427132:32:32:32:32:3  5Bm N  ov 19, 2018 2 2:10:26.781358000  7
            25  20.33008932:32:32:32:32:3  5Bm N  ov 19, 2018 2 2:10:26.837176000  7
            26  20.75987632:32:32:32:32:3  7Bm N  ov 19, 2018 2 2:10:27.266963000  7
            27  21.04171932:32:32:32:32:3  7Bm N  ov 19, 2018 2 2:10:27.548806000  7
            28  21.09767832:32:32:32:32:3  8Bm N  ov 19, 2018 2 2:10:27.604765000  7
            29  21.33720532:32:32:32:32:3  9Bm N  ov 19, 2018 2 2:10:27.844292000  7
            30  21.54973732:32:32:32:32:3  6Bm N  ov 19, 2018 2 2:10:28.056824000  7
            31  21.62919632:32:32:32:32:3  8Bm N  ov 19, 2018 2 2:10:28.136283000  7
            32  21.72782632:32:32:32:32:3  6Bm N  ov 19, 2018 2 2:10:28.234913000  7
            33  22.15682932:32:32:32:32:3  7Bm N  ov 19, 2018 2 2:10:28.663916000  7
            34  22.54475932:32:32:32:32:3  7Bm N  ov 19, 2018 2 2:10:29.051846000  7
            35  22.66526232:32:32:32:32:3  7Bm N  ov 19, 2018 2 2:10:29.172349000  7
            36  22.69949532:32:32:32:32:3  7Bm N  ov 19, 2018 2 2:10:29.206582000  7
            37  22.71666232:32:32:32:32:3  7Bm N  ov 19, 2018 2 2:10:29.223749000  7
            38  22.74144332:32:32:32:32:3  5Bm N  ov 19, 2018 2 2:10:29.248530000  7
            39  22.88023632:32:32:32:32:3  7Bm N  ov 19, 2018 2 2:10:29.387323000  7
            40  22.95001732:32:32:32:32:3  5Bm N  ov 19, 2018 2 2:10:29.457104000  7
            41  23.17660632:32:32:32:32:3  6Bm N  ov 19, 2018 2 2:10:29.683693000  7
            42  23.21311932:32:32:32:32:3  8Bm N  ov 19, 2018 2 2:10:29.720206000  7
            43  23.38763432:32:32:32:32:3  4Bm N  ov 19, 2018 2 2:10:29.894721000  7
            44  23.57720732:32:32:32:32:3  3Bm N  ov 19, 2018 2 2:10:30.084294000  7
            45  23.58631532:32:32:32:32:3  8Bm N  ov 19, 2018 2 2:10:30.093402000  7
            46  23.71216432:32:32:32:32:3  7Bm N  ov 19, 2018 2 2:10:30.219251000  7
            47  2 3.7505432:32:32:32:32:3  6Bm N  ov 19, 2018 2 2:10:30.257627000  7
            48  23.77403532:32:32:32:32:3  6Bm N  ov 19, 2018 2 2:10:30.281122000  7
            49  24.17233432:32:32:32:32:3  8Bm N  ov 19, 2018 2 2:10:30.679421000  7
            50  24.23970732:32:32:32:32:3  8Bm N  ov 19, 2018 2 2:10:30.746794000  7
            51  24.32570832:32:32:32:32:3  7Bm N  ov 19, 2018 2 2:10:30.832795000  7
            52  2 4.3931432:32:32:32:32:3  7Bm N  ov 19, 2018 2 2:10:30.900227000  7
            53  2 4.4637132:32:32:32:32:3  8Bm N  ov 19, 2018 2 2:10:30.970797000  7
            54  24.49497632:32:32:32:32:3  8Bm N  ov 19, 2018 2 2:10:31.002063000  7
            55  24.50020132:32:32:32:32:3  4Bm N  ov 19, 2018 2 2:10:31.007288000  7
            56  24.55456732:32:32:32:32:3  3Bm N  ov 19, 2018 2 2:10:31.061654000  7
            57  24.59814132:32:32:32:32:3  8Bm N  ov 19, 2018 2 2:10:31.105228000  7
            58  24.71699832:32:32:32:32:3  8Bm N  ov 19, 2018 2 2:10:31.224085000  7
            59  24.73828332:32:32:32:32:3  8Bm N  ov 19, 2018 2 2:10:31.245370000  7
            60  24.76981332:32:32:32:32:3  7Bm N  ov 19, 2018 2 2:10:31.276900000  7
            61  24.78682432:32:32:32:32:3  8Bm N  ov 19, 2018 2 2:10:31.293911000  7
            62  24.82098732:32:32:32:32:3  5Bm N  ov 19, 2018 2 2:10:31.328074000  7
            63  24.88210732:32:32:32:32:3  8Bm N  ov 19, 2018 2 2:10:31.389194000  7
            64  24.94118432:32:32:32:32:3  7Bm N  ov 19, 2018 2 2:10:31.448271000  7
            65  24.99862132:32:32:32:32:3  8Bm N  ov 19, 2018 2 2:10:31.505708000  7
            66  25.08893532:32:32:32:32:3  6Bm N  ov 19, 2018 2 2:10:31.596022000  7
            67  25.15592332:32:32:32:32:3  8Bm N  ov 19, 2018 2 2:10:31.663010000  7
            68  25.19271432:32:32:32:32:3  6Bm N  ov 19, 2018 2 2:10:31.699801000  7
            69  25.21972432:32:32:32:32:3  6Bm N  ov 19, 2018 2 2:10:31.726811000  7
            70  25.25251332:32:32:32:32:3  7Bm N  ov 19, 2018 2 2:10:31.759600000  7
            71  25.26927132:32:32:32:32:3  6Bm N  ov 19, 2018 2 2:10:31.776358000  7
            72  25.29963432:32:32:32:32:3  8Bm N  ov 19, 2018 2 2:10:31.806721000  7
            73  2 5.4657232:32:32:32:32:3  7Bm N  ov 19, 2018 2 2:10:31.972807000  7
            74  25.50703832:32:32:32:32:3  6Bm N  ov 19, 2018 2 2:10:32.014125000  7
            75  25.54774332:32:32:32:32:3  7Bm N  ov 19, 2018 2 2:10:32.054830000  7
            76  25.58424932:32:32:32:32:3  6Bm N  ov 19, 2018 2 2:10:32.091336000  7
            77  25.63753632:32:32:32:32:3  8Bm N  ov 19, 2018 2 2:10:32.144623000  7
            78  25.79857232:32:32:32:32:3  5Bm N  ov 19, 2018 2 2:10:32.305659000  7
            79  25.92563432:32:32:32:32:3  8Bm N  ov 19, 2018 2 2:10:32.432721000  7
            80  26.06624532:32:32:32:32:3  7Bm N  ov 19, 2018 2 2:10:32.573332000  7
            81  26.08710732:32:32:32:32:3  7Bm N  ov 19, 2018 2 2:10:32.594194000  7
            82  26.11635132:32:32:32:32:3  6Bm N  ov 19, 2018 2 2:10:32.623438000  7
            83  26.19886232:32:32:32:32:3  9Bm N  ov 19, 2018 2 2:10:32.705949000  7
            84  26.22256232:32:32:32:32:3  7Bm N  ov 19, 2018 2 2:10:32.729649000  7
            85  26.24532332:32:32:32:32:3  8Bm N  ov 19, 2018 2 2:10:32.752410000  7
            86  26.25031432:32:32:32:32:3  7Bm N  ov 19, 2018 2 2:10:32.757401000  7
            87  26.27082632:32:32:32:32:3  8Bm N  ov 19, 2018 2 2:10:32.777913000  7
            88  26.33888632:32:32:32:32:3  5Bm N  ov 19, 2018 2 2:10:32.845973000  7
            89  26.41182832:32:32:32:32:3  8Bm N  ov 19, 2018 2 2:10:32.918915000  7
            90  26.42817832:32:32:32:32:3  9Bm N  ov 19, 2018 2 2:10:32.935265000  7
            91  26.81238132:32:32:32:32:3  8Bm N  ov 19, 2018 2 2:10:33.319468000  7
            92  26.94438732:32:32:32:32:3  8Bm N  ov 19, 2018 2 2:10:33.451474000  7
            93  27.00444332:32:32:32:32:3  6Bm N  ov 19, 2018 2 2:10:33.511530000  7
            94  27.16882132:32:32:32:32:3  7Bm N  ov 19, 2018 2 2:10:33.675908000  7
            95  27.19400532:32:32:32:32:3  6Bm N  ov 19, 2018 2 2:10:33.701092000  7
            96  27.24271432:32:32:32:32:3  7Bm N  ov 19, 2018 2 2:10:33.749801000  7
            97  27.26231332:32:32:32:32:3  8Bm N  ov 19, 2018 2 2:10:33.769400000  7
            98  27.27992932:32:32:32:32:3  7Bm N  ov 19, 2018 2 2:10:33.787016000  7
            99  27.32704732:32:32:32:32:3  8Bm N  ov 19, 2018 2 2:10:33.834134000  7
           100  27.62071932:32:32:32:32:3  4Bm N  ov 19, 2018 2 2:10:34.127806000  7
           101  27.65909632:32:32:32:32:3  7Bm N  ov 19, 2018 2 2:10:34.166183000  7
           102  27.75558432:32:32:32:32:3  8Bm N  ov 19, 2018 2 2:10:34.262671000  7
           103  27.80139732:32:32:32:32:3  6Bm N  ov 19, 2018 2 2:10:34.308484000  7
           104  27.94312132:32:32:32:32:3  6Bm N  ov 19, 2018 2 2:10:34.450208000  7
           105  27.99486432:32:32:32:32:3  7Bm N  ov 19, 2018 2 2:10:34.501951000  7
           106  28.12395432:32:32:32:32:3  7Bm N  ov 19, 2018 2 2:10:34.631041000  7
           107  28.13879832:32:32:32:32:3  7Bm N  ov 19, 2018 2 2:10:34.645885000  7
           108  30.58572932:32:32:32:32:3  5Bm N  ov 19, 2018 2 2:10:37.092816000  7
           109  30.66826132:32:32:32:32:3  4Bm N  ov 19, 2018 2 2:10:37.175348000  7
           110  30.87578332:32:32:32:32:3  4Bm N  ov 19, 2018 2 2:10:37.382870000  7
           111  3 1.4489232:32:32:32:32:3  5Bm N  ov 19, 2018 2 2:10:37.956007000  7
           112  31.51744532:32:32:32:32:3  4Bm N  ov 19, 2018 2 2:10:38.024532000  7
           113  3 2.3224532:32:32:32:32:3  6Bm N  ov 19, 2018 2 2:10:38.829537000  7
           114  32.40403732:32:32:32:32:3  5Bm N  ov 19, 2018 2 2:10:38.911124000  7
           115  32.52843932:32:32:32:32:3  8Bm N  ov 19, 2018 2 2:10:39.035526000  7
           116  32.63655932:32:32:32:32:3  7Bm N  ov 19, 2018 2 2:10:39.143646000  7
           117  32.65660232:32:32:32:32:3  6Bm N  ov 19, 2018 2 2:10:39.163689000  7
           118  3 2.7593332:32:32:32:32:3  7Bm N  ov 19, 2018 2 2:10:39.266417000  7
           119  32.84530132:32:32:32:32:3  4Bm N  ov 19, 2018 2 2:10:39.352388000  7
           120  33.00913532:32:32:32:32:3  6Bm N  ov 19, 2018 2 2:10:39.516222000  7
           121  33.09121532:32:32:32:32:3  6Bm N  ov 19, 2018 2 2:10:39.598302000  7
           122  33.11688932:32:32:32:32:3  5Bm N  ov 19, 2018 2 2:10:39.623976000  7
           123  3 3.1607532:32:32:32:32:3  5Bm N  ov 19, 2018 2 2:10:39.667837000  7
           124  33.20971632:32:32:32:32:3  5Bm N  ov 19, 2018 2 2:10:39.716803000  7
           125  33.27598432:32:32:32:32:3  6Bm N  ov 19, 2018 2 2:10:39.783071000  7
           126  33.46177432:32:32:32:32:3  6Bm N  ov 19, 2018 2 2:10:39.968861000  7
           127  33.53334432:32:32:32:32:3  4Bm N  ov 19, 2018 2 2:10:40.040431000  7
           128  33.55357832:32:32:32:32:3  5Bm N  ov 19, 2018 2 2:10:40.060665000  7
           129  33.62825832:32:32:32:32:3  6Bm N  ov 19, 2018 2 2:10:40.135345000  7
           130  33.63920132:32:32:32:32:3  6Bm N  ov 19, 2018 2 2:10:40.146288000  7
           131  33.68415832:32:32:32:32:3  6Bm N  ov 19, 2018 2 2:10:40.191245000  7
           132  33.70899132:32:32:32:32:3  1Bm N  ov 19, 2018 2 2:10:40.216078000  7
           133  33.84383532:32:32:32:32:3  6Bm N  ov 19, 2018 2 2:10:40.350922000  7
           134  33.87838632:32:32:32:32:3  5Bm N  ov 19, 2018 2 2:10:40.385473000  7
           135  34.11264532:32:32:32:32:3  5Bm N  ov 19, 2018 2 2:10:40.619732000  7
           136  34.29998932:32:32:32:32:3  4Bm N  ov 19, 2018 2 2:10:40.807076000  7
           137  34.52840832:32:32:32:32:3  6Bm N  ov 19, 2018 2 2:10:41.035495000  7
           138  34.68597932:32:32:32:32:3  4Bm N  ov 19, 2018 2 2:10:41.193066000  7
           139  34.72333732:32:32:32:32:3  4Bm N  ov 19, 2018 2 2:10:41.230424000  7
           140  34.99056932:32:32:32:32:3  5Bm N  ov 19, 2018 2 2:10:41.497656000  7
           141  35.28093332:32:32:32:32:3  5Bm N  ov 19, 2018 2 2:10:41.788020000  7
           142  35.29282332:32:32:32:32:3  5Bm N  ov 19, 2018 2 2:10:41.799910000  7
           143  35.34633232:32:32:32:32:3  7Bm N  ov 19, 2018 2 2:10:41.853419000  7
           144  3 5.4356132:32:32:32:32:3  6Bm N  ov 19, 2018 2 2:10:41.942697000  7
           145  35.49406632:32:32:32:32:3  5Bm N  ov 19, 2018 2 2:10:42.001153000  7
           146  35.70837532:32:32:32:32:3  6Bm N  ov 19, 2018 2 2:10:42.215462000  7
           147  35.84172932:32:32:32:32:3  5Bm N  ov 19, 2018 2 2:10:42.348816000  7
           148  35.93325432:32:32:32:32:3  6Bm N  ov 19, 2018 2 2:10:42.440341000  7
           149  35.95481732:32:32:32:32:3  7Bm N  ov 19, 2018 2 2:10:42.461904000  7
           150  36.13487132:32:32:32:32:3  6Bm N  ov 19, 2018 2 2:10:42.641958000  7
           151  3 6.3421132:32:32:32:32:3  6Bm N  ov 19, 2018 2 2:10:42.849197000  7
           152  3 6.4395932:32:32:32:32:3  6Bm N  ov 19, 2018 2 2:10:42.946677000  7
           153  3 6.5938532:32:32:32:32:3  5Bm N  ov 19, 2018 2 2:10:43.100937000  7
           154  3 6.6604132:32:32:32:32:3  6Bm N  ov 19, 2018 2 2:10:43.167497000  7
           155  36.97339732:32:32:32:32:3  7Bm N  ov 19, 2018 2 2:10:43.480484000  7
           156  3 7.0126232:32:32:32:32:3  6Bm N  ov 19, 2018 2 2:10:43.519707000  7
           157  37.03824532:32:32:32:32:3  6Bm N  ov 19, 2018 2 2:10:43.545332000  7
           158  37.29324932:32:32:32:32:3  5Bm N  ov 19, 2018 2 2:10:43.800336000  7
           159  37.30657332:32:32:32:32:3  6Bm N  ov 19, 2018 2 2:10:43.813660000  7
           160  37.31371432:32:32:32:32:3  4Bm N  ov 19, 2018 2 2:10:43.820801000  7
           161  37.34969332:32:32:32:32:3  5Bm N  ov 19, 2018 2 2:10:43.856780000  7
           162  37.50827932:32:32:32:32:3  4Bm N  ov 19, 2018 2 2:10:44.015366000  7
           163  37.89166132:32:32:32:32:3  5Bm N  ov 19, 2018 2 2:10:44.398748000  7
           164  37.91366632:32:32:32:32:3  5Bm N  ov 19, 2018 2 2:10:44.420753000  7
           165  37.93703832:32:32:32:32:3  5Bm N  ov 19, 2018 2 2:10:44.444125000  7
           166  38.18413832:32:32:32:32:3  5Bm N  ov 19, 2018 2 2:10:44.691225000  7
           167  38.27432732:32:32:32:32:3  6Bm N  ov 19, 2018 2 2:10:44.781414000  7
           168  38.53193732:32:32:32:32:3  8Bm N  ov 19, 2018 2 2:10:45.039024000  7
           169  38.65791832:32:32:32:32:3  8Bm N  ov 19, 2018 2 2:10:45.165005000  7
           170  38.96124532:32:32:32:32:3  5Bm N  ov 19, 2018 2 2:10:45.468332000  7
           171  39.09393232:32:32:32:32:3  8Bm N  ov 19, 2018 2 2:10:45.601019000  7
           172  39.18795232:32:32:32:32:3  5Bm N  ov 19, 2018 2 2:10:45.695039000  7
           173  3  9.285832:32:32:32:32:3  9Bm N  ov 19, 2018 2 2:10:45.792887000  7
           174  39.42802132:32:32:32:32:3  8Bm N  ov 19, 2018 2 2:10:45.935108000  7
           175  39.47693332:32:32:32:32:3  6Bm N  ov 19, 2018 2 2:10:45.984020000  7
           176  39.53584832:32:32:32:32:3  3Bm N  ov 19, 2018 2 2:10:46.042935000  7
           177  39.64077932:32:32:32:32:3  3Bm N  ov 19, 2018 2 2:10:46.147866000  7
           178  39.70260332:32:32:32:32:3  6Bm N  ov 19, 2018 2 2:10:46.209690000  7
           179  3 9.8092232:32:32:32:32:3  6Bm N  ov 19, 2018 2 2:10:46.316307000  7
           180  3 9.8147332:32:32:32:32:3  5Bm N  ov 19, 2018 2 2:10:46.321817000  7
           181  3 9.8608932:32:32:32:32:3  5Bm N  ov 19, 2018 2 2:10:46.367977000  7
           182  39.95231732:32:32:32:32:3  6Bm N  ov 19, 2018 2 2:10:46.459404000  7
           183  40.02055332:32:32:32:32:3  7Bm N  ov 19, 2018 2 2:10:46.527640000  7
           184  40.10359832:32:32:32:32:3  5Bm N  ov 19, 2018 2 2:10:46.610685000  7
           185  40.18595732:32:32:32:32:3  4Bm N  ov 19, 2018 2 2:10:46.693044000  7
           186  40.22834832:32:32:32:32:3  5Bm N  ov 19, 2018 2 2:10:46.735435000  7
           187  40.32694632:32:32:32:32:3  5Bm N  ov 19, 2018 2 2:10:46.834033000  7
           188  40.70940232:32:32:32:32:3  5Bm N  ov 19, 2018 2 2:10:47.216489000  7
           189  41.30246732:32:32:32:32:3  5Bm N  ov 19, 2018 2 2:10:47.809554000  7
           190  42.07530232:32:32:32:32:3  5Bm N  ov 19, 2018 2 2:10:48.582389000  7
           191  42.24508732:32:32:32:32:3  5Bm N  ov 19, 2018 2 2:10:48.752174000  7
           192  4 2.8727732:32:32:32:32:3  4Bm N  ov 19, 2018 2 2:10:49.379857000  7
           193  4 3.0433932:32:32:32:32:3  7Bm N  ov 19, 2018 2 2:10:49.550477000  7
           194  43.06006232:32:32:32:32:3  3Bm N  ov 19, 2018 2 2:10:49.567149000  7
           195  43.08288532:32:32:32:32:3  5Bm N  ov 19, 2018 2 2:10:49.589972000  7
           196  43.15713132:32:32:32:32:3  2Bm N  ov 19, 2018 2 2:10:49.664218000  7
           197  43.32312632:32:32:32:32:3  4Bm N  ov 19, 2018 2 2:10:49.830213000  7
           198  43.41673732:32:32:32:32:3  6Bm N  ov 19, 2018 2 2:10:49.923824000  7
           199  43.48347932:32:32:32:32:3  6Bm N  ov 19, 2018 2 2:10:49.990566000  7
           200  43.57643532:32:32:32:32:3  6Bm N  ov 19, 2018 2 2:10:50.083522000  7
           201  43.94814932:32:32:32:32:3  6Bm N  ov 19, 2018 2 2:10:50.455236000  7
           202  44.27023632:32:32:32:32:3  5Bm N  ov 19, 2018 2 2:10:50.777323000  7
           203  44.40438832:32:32:32:32:3  3Bm N  ov 19, 2018 2 2:10:50.911475000  7
           204  44.78249132:32:32:32:32:3  5Bm N  ov 19, 2018 2 2:10:51.289578000  7
           205  44.85111232:32:32:32:32:3  4Bm N  ov 19, 2018 2 2:10:51.358199000  7
           206  45.13003932:32:32:32:32:3  8Bm N  ov 19, 2018 2 2:10:51.637126000  7
           207  45.16768832:32:32:32:32:3  8Bm N  ov 19, 2018 2 2:10:51.674775000  7
           208  45.24041132:32:32:32:32:3  8Bm N  ov 19, 2018 2 2:10:51.747498000  7
           209  45.30894432:32:32:32:32:3  8Bm N  ov 19, 2018 2 2:10:51.816031000  7
           210  45.45461732:32:32:32:32:3  8Bm N  ov 19, 2018 2 2:10:51.961704000  7
           211  4 5.5797332:32:32:32:32:3  7Bm N  ov 19, 2018 2 2:10:52.086817000  7
           212  45.60053432:32:32:32:32:3  8Bm N  ov 19, 2018 2 2:10:52.107621000  7
           213  45.72617132:32:32:32:32:3  7Bm N  ov 19, 2018 2 2:10:52.233258000  7
           214  45.81922532:32:32:32:32:3  6Bm N  ov 19, 2018 2 2:10:52.326312000  7
           215  4 5.9520432:32:32:32:32:3  9Bm N  ov 19, 2018 2 2:10:52.459127000  7
           216  45.98030932:32:32:32:32:3  8Bm N  ov 19, 2018 2 2:10:52.487396000  7
           217  46.02995132:32:32:32:32:3  7Bm N  ov 19, 2018 2 2:10:52.537038000  7
           218  46.10010432:32:32:32:32:3  8Bm N  ov 19, 2018 2 2:10:52.607191000  7
           219  46.11975232:32:32:32:32:3  7Bm N  ov 19, 2018 2 2:10:52.626839000  7
           220  46.21175232:32:32:32:32:3  7Bm N  ov 19, 2018 2 2:10:52.718839000  7
           221  46.38757932:32:32:32:32:3  5Bm N  ov 19, 2018 2 2:10:52.894666000  7
           222  46.44597932:32:32:32:32:3  6Bm N  ov 19, 2018 2 2:10:52.953066000  7
           223  46.54790332:32:32:32:32:3  8Bm N  ov 19, 2018 2 2:10:53.054990000  7
           224  46.58769932:32:32:32:32:3  8Bm N  ov 19, 2018 2 2:10:53.094786000  7
           225  46.61975132:32:32:32:32:3  8Bm N  ov 19, 2018 2 2:10:53.126838000  7
           226  4 6.6616932:32:32:32:32:3  6Bm N  ov 19, 2018 2 2:10:53.168777000  7
           227  46.67056532:32:32:32:32:3  7Bm N  ov 19, 2018 2 2:10:53.177652000  7
           228  46.73793232:32:32:32:32:3  7Bm N  ov 19, 2018 2 2:10:53.245019000  7
           229  46.80561832:32:32:32:32:3  8Bm N  ov 19, 2018 2 2:10:53.312705000  7
           230  46.89966632:32:32:32:32:3  6Bm N  ov 19, 2018 2 2:10:53.406753000  7
           231  46.90904132:32:32:32:32:3  8Bm N  ov 19, 2018 2 2:10:53.416128000  7
           232  47.09776132:32:32:32:32:3  8Bm N  ov 19, 2018 2 2:10:53.604848000  7
           233  47.21354332:32:32:32:32:3  6Bm N  ov 19, 2018 2 2:10:53.720630000  7
           234  47.23397432:32:32:32:32:3  7Bm N  ov 19, 2018 2 2:10:53.741061000  7
           235  47.35201432:32:32:32:32:3  8Bm N  ov 19, 2018 2 2:10:53.859101000  7
           236  47.48216632:32:32:32:32:3  7Bm N  ov 19, 2018 2 2:10:53.989253000  7
           237  47.52700232:32:32:32:32:3  7Bm N  ov 19, 2018 2 2:10:54.034089000  7
           238  47.63788132:32:32:32:32:3  6Bm N  ov 19, 2018 2 2:10:54.144968000  7
           239  47.69882232:32:32:32:32:3  7Bm N  ov 19, 2018 2 2:10:54.205909000  7
           240  4  8.166632:32:32:32:32:3  5Bm N  ov 19, 2018 2 2:10:54.673687000  7
           241  48.29115932:32:32:32:32:3  6Bm N  ov 19, 2018 2 2:10:54.798246000  7
           242  48.52404532:32:32:32:32:3  6Bm N  ov 19, 2018 2 2:10:55.031132000  7
           243  48.62168932:32:32:32:32:3  7Bm N  ov 19, 2018 2 2:10:55.128776000  7
           244  48.67105532:32:32:32:32:3  6Bm N  ov 19, 2018 2 2:10:55.178142000  7
           245  48.68148432:32:32:32:32:3  4Bm N  ov 19, 2018 2 2:10:55.188571000  7
           246  4 8.6964532:32:32:32:32:3  7Bm N  ov 19, 2018 2 2:10:55.203537000  7
           247  48.71826632:32:32:32:32:3  6Bm N  ov 19, 2018 2 2:10:55.225353000  7
           248  48.84198632:32:32:32:32:3  6Bm N  ov 19, 2018 2 2:10:55.349073000  7
           249  48.86280932:32:32:32:32:3  8Bm N  ov 19, 2018 2 2:10:55.369896000  7
           250  48.91893132:32:32:32:32:3  7Bm N  ov 19, 2018 2 2:10:55.426018000  7
           251  48.92741832:32:32:32:32:3  7Bm N  ov 19, 2018 2 2:10:55.434505000  7
           252  4 9.0398332:32:32:32:32:3  7Bm N  ov 19, 2018 2 2:10:55.546917000  7
           253  49.31526932:32:32:32:32:3  7Bm N  ov 19, 2018 2 2:10:55.822356000  7
           254  49.32632732:32:32:32:32:3  7Bm N  ov 19, 2018 2 2:10:55.833414000  7
           255  49.38380832:32:32:32:32:3  9Bm N  ov 19, 2018 2 2:10:55.890895000  7
           256  49.39501632:32:32:32:32:3  9Bm N  ov 19, 2018 2 2:10:55.902103000  7
           257  49.43082332:32:32:32:32:3  6Bm N  ov 19, 2018 2 2:10:55.937910000  7
           258  4  9.554632:32:32:32:32:3  6Bm N  ov 19, 2018 2 2:10:56.061687000  7
           259  49.56946932:32:32:32:32:3  6Bm N  ov 19, 2018 2 2:10:56.076556000  7
           260  49.63966632:32:32:32:32:3  6Bm N  ov 19, 2018 2 2:10:56.146753000  7
           261  49.92064232:32:32:32:32:3  7Bm N  ov 19, 2018 2 2:10:56.427729000  7
           262  49.94407132:32:32:32:32:3  4Bm N  ov 19, 2018 2 2:10:56.451158000  7
           263  5 0.4363632:32:32:32:32:3  5Bm N  ov 19, 2018 2 2:10:56.943447000  7
           264  5 1.4523932:32:32:32:32:3  5Bm N  ov 19, 2018 2 2:10:57.959477000  7
           265  51.52518532:32:32:32:32:3  5Bm N  ov 19, 2018 2 2:10:58.032272000  7
           266  51.97715932:32:32:32:32:3  3Bm N  ov 19, 2018 2 2:10:58.484246000  7
           267  5 2.6312132:32:32:32:32:3  6Bm N  ov 19, 2018 2 2:10:59.138297000  7
           268  52.80424632:32:32:32:32:3  5Bm N  ov 19, 2018 2 2:10:59.311333000  7
           269  53.09570232:32:32:32:32:3  8Bm N  ov 19, 2018 2 2:10:59.602789000  7
           270  53.21357332:32:32:32:32:3  5Bm N  ov 19, 2018 2 2:10:59.720660000  7
           271  53.26554732:32:32:32:32:3  6Bm N  ov 19, 2018 2 2:10:59.772634000  7
           272  53.39041432:32:32:32:32:3  6Bm N  ov 19, 2018 2 2:10:59.897501000  7
           273  53.81372132:32:32:32:32:3  5Bm N  ov 19, 2018 2 2:11:00.320808000  7
           274  53.84899732:32:32:32:32:3  4Bm N  ov 19, 2018 2 2:11:00.356084000  7
           275  53.89025732:32:32:32:32:3  6Bm N  ov 19, 2018 2 2:11:00.397344000  7
           276  54.04184132:32:32:32:32:3  6Bm N  ov 19, 2018 2 2:11:00.548928000  7
           277  54.19135532:32:32:32:32:3  6Bm N  ov 19, 2018 2 2:11:00.698442000  7
           278  54.37558932:32:32:32:32:3  6Bm N  ov 19, 2018 2 2:11:00.882676000  7
           279  55.11631532:32:32:32:32:3  5Bm N  ov 19, 2018 2 2:11:01.623402000  7
           280  55.29876132:32:32:32:32:3  6Bm N  ov 19, 2018 2 2:11:01.805848000  7
           281  55.38503732:32:32:32:32:3  5Bm N  ov 19, 2018 2 2:11:01.892124000  7
           282  55.41784332:32:32:32:32:3  6Bm N  ov 19, 2018 2 2:11:01.924930000  7
           283  55.78206832:32:32:32:32:3  6Bm N  ov 19, 2018 2 2:11:02.289155000  7
           284  56.16958132:32:32:32:32:3  6Bm N  ov 19, 2018 2 2:11:02.676668000  7
           285  56.30522532:32:32:32:32:3  3Bm N  ov 19, 2018 2 2:11:02.812312000  7
           286  56.38648632:32:32:32:32:3  6Bm N  ov 19, 2018 2 2:11:02.893573000  7
           287  56.45371732:32:32:32:32:3  3Bm N  ov 19, 2018 2 2:11:02.960804000  7
           288  56.60353232:32:32:32:32:3  5Bm N  ov 19, 2018 2 2:11:03.110619000  7
           289  56.74954932:32:32:32:32:3  4Bm N  ov 19, 2018 2 2:11:03.256636000  7
           290  56.78174832:32:32:32:32:3  5Bm N  ov 19, 2018 2 2:11:03.288835000  7
           291  56.99293932:32:32:32:32:3  6Bm N  ov 19, 2018 2 2:11:03.500026000  7
           292  57.04878132:32:32:32:32:3  6Bm N  ov 19, 2018 2 2:11:03.555868000  7
           293  57.05708732:32:32:32:32:3  5Bm N  ov 19, 2018 2 2:11:03.564174000  7
           294  57.11586732:32:32:32:32:3  6Bm N  ov 19, 2018 2 2:11:03.622954000  7
           295  57.15994932:32:32:32:32:3  4Bm N  ov 19, 2018 2 2:11:03.667036000  7
           296  57.19243932:32:32:32:32:3  6Bm N  ov 19, 2018 2 2:11:03.699526000  7
           297  57.46501832:32:32:32:32:3  5Bm N  ov 19, 2018 2 2:11:03.972105000  7
           298  57.49254232:32:32:32:32:3  6Bm N  ov 19, 2018 2 2:11:03.999629000  7
           299  5 7.5601932:32:32:32:32:3  4Bm N  ov 19, 2018 2 2:11:04.067277000  7
           300  5 7.6563432:32:32:32:32:3  7Bm N  ov 19, 2018 2 2:11:04.163427000  7
           301  57.68914232:32:32:32:32:3  7Bm N  ov 19, 2018 2 2:11:04.196229000  7
           302  57.74314732:32:32:32:32:3  6Bm N  ov 19, 2018 2 2:11:04.250234000  7
           303  57.76940532:32:32:32:32:3  6Bm N  ov 19, 2018 2 2:11:04.276492000  7
           304  57.95650432:32:32:32:32:3  6Bm N  ov 19, 2018 2 2:11:04.463591000  7
           305  58.02326232:32:32:32:32:3  6Bm N  ov 19, 2018 2 2:11:04.530349000  7
           306  58.07149532:32:32:32:32:3  6Bm N  ov 19, 2018 2 2:11:04.578582000  7
           307  58.21186432:32:32:32:32:3  5Bm N  ov 19, 2018 2 2:11:04.718951000  7
           308  58.25066832:32:32:32:32:3  6Bm N  ov 19, 2018 2 2:11:04.757755000  7
           309  58.43031232:32:32:32:32:3  5Bm N  ov 19, 2018 2 2:11:04.937399000  7
           310  58.82608432:32:32:32:32:3  4Bm N  ov 19, 2018 2 2:11:05.333171000  7
           311  58.84950932:32:32:32:32:3  6Bm N  ov 19, 2018 2 2:11:05.356596000  7
           312  58.86215632:32:32:32:32:3  6Bm N  ov 19, 2018 2 2:11:05.369243000  7
           313  58.90509532:32:32:32:32:3  4Bm N  ov 19, 2018 2 2:11:05.412182000  7
           314  58.92681132:32:32:32:32:3  5Bm N  ov 19, 2018 2 2:11:05.433898000  7
           315  59.11417932:32:32:32:32:3  6Bm N  ov 19, 2018 2 2:11:05.621266000  7
           316  59.16450732:32:32:32:32:3  8Bm N  ov 19, 2018 2 2:11:05.671594000  7
           317  59.18900432:32:32:32:32:3  7Bm N  ov 19, 2018 2 2:11:05.696091000  7
           318  59.23791432:32:32:32:32:3  7Bm N  ov 19, 2018 2 2:11:05.745001000  7
           319  59.35310632:32:32:32:32:3  5Bm N  ov 19, 2018 2 2:11:05.860193000  7
           320  59.40522132:32:32:32:32:3  7Bm N  ov 19, 2018 2 2:11:05.912308000  7
           321  59.52182232:32:32:32:32:3  6Bm N  ov 19, 2018 2 2:11:06.028909000  7
           322  59.60010932:32:32:32:32:3  6Bm N  ov 19, 2018 2 2:11:06.107196000  7
           323  59.65290632:32:32:32:32:3  4Bm N  ov 19, 2018 2 2:11:06.159993000  7
           324  5 9.6613132:32:32:32:32:3  6Bm N  ov 19, 2018 2 2:11:06.168397000  7
           325  59.68596532:32:32:32:32:3  5Bm N  ov 19, 2018 2 2:11:06.193052000  7
           326  59.75554132:32:32:32:32:3  6Bm N  ov 19, 2018 2 2:11:06.262628000  7
           327  60.36194632:32:32:32:32:3  6Bm N  ov 19, 2018 2 2:11:06.869033000  7
           328  6 0.6390832:32:32:32:32:3  5Bm N  ov 19, 2018 2 2:11:07.146167000  7
           329  60.79110532:32:32:32:32:3  6Bm N  ov 19, 2018 2 2:11:07.298192000  7
           330  61.00397132:32:32:32:32:3  6Bm N  ov 19, 2018 2 2:11:07.511058000  7
           331  61.03008432:32:32:32:32:3  6Bm N  ov 19, 2018 2 2:11:07.537171000  7
           332  61.09774432:32:32:32:32:3  6Bm N  ov 19, 2018 2 2:11:07.604831000  7
           333  6 1.1203732:32:32:32:32:3  7Bm N  ov 19, 2018 2 2:11:07.627457000  7
           334  61.25773432:32:32:32:32:3  7Bm N  ov 19, 2018 2 2:11:07.764821000  7
           335  61.29162732:32:32:32:32:3  4Bm N  ov 19, 2018 2 2:11:07.798714000  7
           336  61.48997632:32:32:32:32:3  5Bm N  ov 19, 2018 2 2:11:07.997063000  7
           337  61.77317232:32:32:32:32:3  6Bm N  ov 19, 2018 2 2:11:08.280259000  7
           338  61.91378732:32:32:32:32:3  6Bm N  ov 19, 2018 2 2:11:08.420874000  7
           339  61.93562332:32:32:32:32:3  5Bm N  ov 19, 2018 2 2:11:08.442710000  7
           340  6   1.98432:32:32:32:32:3  7Bm N  ov 19, 2018 2 2:11:08.491087000  7
           341  62.10152532:32:32:32:32:3  5Bm N  ov 19, 2018 2 2:11:08.608612000  7
           342  62.13697132:32:32:32:32:3  7Bm N  ov 19, 2018 2 2:11:08.644058000  7
           343  62.14479732:32:32:32:32:3  6Bm N  ov 19, 2018 2 2:11:08.651884000  7
           344  62.22029532:32:32:32:32:3  5Bm N  ov 19, 2018 2 2:11:08.727382000  7
           345  6 2.2864132:32:32:32:32:3  4Bm N  ov 19, 2018 2 2:11:08.793497000  7
           346  62.30783532:32:32:32:32:3  6Bm N  ov 19, 2018 2 2:11:08.814922000  7
           347  62.33485332:32:32:32:32:3  4Bm N  ov 19, 2018 2 2:11:08.841940000  7
           348  62.35380132:32:32:32:32:3  7Bm N  ov 19, 2018 2 2:11:08.860888000  7
           349  62.36852932:32:32:32:32:3  5Bm N  ov 19, 2018 2 2:11:08.875616000  7
           350  62.44718932:32:32:32:32:3  6Bm N  ov 19, 2018 2 2:11:08.954276000  7
           351  62.48092132:32:32:32:32:3  4Bm N  ov 19, 2018 2 2:11:08.988008000  7
           352  62.65990632:32:32:32:32:3  5Bm N  ov 19, 2018 2 2:11:09.166993000  7
           353  62.74917932:32:32:32:32:3  7Bm N  ov 19, 2018 2 2:11:09.256266000  7
           354  62.84837232:32:32:32:32:3  5Bm N  ov 19, 2018 2 2:11:09.355459000  7
           355  62.99311732:32:32:32:32:3  6Bm N  ov 19, 2018 2 2:11:09.500204000  7
           356  63.08089632:32:32:32:32:3  8Bm N  ov 19, 2018 2 2:11:09.587983000  7
           357  63.10764432:32:32:32:32:3  5Bm N  ov 19, 2018 2 2:11:09.614731000  7
           358  63.35417132:32:32:32:32:3  6Bm N  ov 19, 2018 2 2:11:09.861258000  7
           359  63.37861532:32:32:32:32:3  5Bm N  ov 19, 2018 2 2:11:09.885702000  7
           360  6 3.4129232:32:32:32:32:3  6Bm N  ov 19, 2018 2 2:11:09.920007000  7
           361  63.55342632:32:32:32:32:3  4Bm N  ov 19, 2018 2 2:11:10.060513000  7
           362  63.55929232:32:32:32:32:3  3Bm N  ov 19, 2018 2 2:11:10.066379000  7
           363  63.65031532:32:32:32:32:3  3Bm N  ov 19, 2018 2 2:11:10.157402000  7
           364  6 3.6689232:32:32:32:32:3  4Bm N  ov 19, 2018 2 2:11:10.176007000  7
           365  63.76410332:32:32:32:32:3  5Bm N  ov 19, 2018 2 2:11:10.271190000  7
           366  63.89138232:32:32:32:32:3  6Bm N  ov 19, 2018 2 2:11:10.398469000  7
           367  63.93824332:32:32:32:32:3  5Bm N  ov 19, 2018 2 2:11:10.445330000  7
           368  64.14837632:32:32:32:32:3  4Bm N  ov 19, 2018 2 2:11:10.655463000  7
           369  64.27149332:32:32:32:32:3  6Bm N  ov 19, 2018 2 2:11:10.778580000  7
           370  6 4.6401332:32:32:32:32:3  5Bm N  ov 19, 2018 2 2:11:11.147217000  7
           371  64.76967332:32:32:32:32:3  6Bm N  ov 19, 2018 2 2:11:11.276760000  7
           372  64.82358632:32:32:32:32:3  3Bm N  ov 19, 2018 2 2:11:11.330673000  7
           373  64.84090132:32:32:32:32:3  6Bm N  ov 19, 2018 2 2:11:11.347988000  7
           374  6 4.9084832:32:32:32:32:3  5Bm N  ov 19, 2018 2 2:11:11.415567000  7
           375  65.05197132:32:32:32:32:3  7Bm N  ov 19, 2018 2 2:11:11.559058000  7
           376  6 5.2049832:32:32:32:32:3  6Bm N  ov 19, 2018 2 2:11:11.712067000  7
           377  6 5.3691932:32:32:32:32:3  5Bm N  ov 19, 2018 2 2:11:11.876277000  7
           378  65.40272832:32:32:32:32:3  6Bm N  ov 19, 2018 2 2:11:11.909815000  7
           379  65.53821832:32:32:32:32:3  4Bm N  ov 19, 2018 2 2:11:12.045305000  7
           380  65.62144832:32:32:32:32:3  5Bm N  ov 19, 2018 2 2:11:12.128535000  7
           381  65.81687832:32:32:32:32:3  3Bm N  ov 19, 2018 2 2:11:12.323965000  7
           382  66.05841632:32:32:32:32:3  5Bm N  ov 19, 2018 2 2:11:12.565503000  7
           383  66.13478332:32:32:32:32:3  4Bm N  ov 19, 2018 2 2:11:12.641870000  7
           384  6 6.2499132:32:32:32:32:3  7Bm N  ov 19, 2018 2 2:11:12.756997000  7
           385  6 6.3539632:32:32:32:32:3  6Bm N  ov 19, 2018 2 2:11:12.861047000  7
           386  66.49351332:32:32:32:32:3  5Bm N  ov 19, 2018 2 2:11:13.000600000  7
           387  6 6.5776232:32:32:32:32:3  9Bm N  ov 19, 2018 2 2:11:13.084707000  7
           388  66.71893432:32:32:32:32:3  9Bm N  ov 19, 2018 2 2:11:13.226021000  7
           389  66.78892232:32:32:32:32:3  7Bm N  ov 19, 2018 2 2:11:13.296009000  7
           390  66.92786232:32:32:32:32:3  8Bm N  ov 19, 2018 2 2:11:13.434949000  7
           391  66.99139332:32:32:32:32:3  7Bm N  ov 19, 2018 2 2:11:13.498480000  7
           392  67.07616632:32:32:32:32:3  8Bm N  ov 19, 2018 2 2:11:13.583253000  7
           393  67.12516732:32:32:32:32:3  7Bm N  ov 19, 2018 2 2:11:13.632254000  7
           394  67.64688732:32:32:32:32:3  5Bm N  ov 19, 2018 2 2:11:14.153974000  7
           395  6 7.6659432:32:32:32:32:3  7Bm N  ov 19, 2018 2 2:11:14.173027000  7
           396  67.68137432:32:32:32:32:3  3Bm N  ov 19, 2018 2 2:11:14.188461000  7
           397  67.82155832:32:32:32:32:3  5Bm N  ov 19, 2018 2 2:11:14.328645000  7
           398  68.69709532:32:32:32:32:3  5Bm N  ov 19, 2018 2 2:11:15.204182000  7
           399  68.83693932:32:32:32:32:3  3Bm N  ov 19, 2018 2 2:11:15.344026000  7
           400  68.96752132:32:32:32:32:3  3Bm N  ov 19, 2018 2 2:11:15.474608000  7
           401  6 9.2462432:32:32:32:32:3  4Bm N  ov 19, 2018 2 2:11:15.753327000  7
           402  69.31619532:32:32:32:32:3  6Bm N  ov 19, 2018 2 2:11:15.823282000  7
           403  69.42402832:32:32:32:32:3  4Bm N  ov 19, 2018 2 2:11:15.931115000  7
           404  69.44538732:32:32:32:32:3  4Bm N  ov 19, 2018 2 2:11:15.952474000  7
           405  69.49322432:32:32:32:32:3  7Bm N  ov 19, 2018 2 2:11:16.000311000  7
           406  69.76305132:32:32:32:32:3  6Bm N  ov 19, 2018 2 2:11:16.270138000  7
           407  6 9.8274632:32:32:32:32:3  5Bm N  ov 19, 2018 2 2:11:16.334547000  7
           408  69.86223632:32:32:32:32:3  6Bm N  ov 19, 2018 2 2:11:16.369323000  7
           409  69.88884132:32:32:32:32:3  7Bm N  ov 19, 2018 2 2:11:16.395928000  7
           410  69.93418232:32:32:32:32:3  6Bm N  ov 19, 2018 2 2:11:16.441269000  7
           411  70.23679832:32:32:32:32:3  6Bm N  ov 19, 2018 2 2:11:16.743885000  7
           412  70.47975732:32:32:32:32:3  4Bm N  ov 19, 2018 2 2:11:16.986844000  7
           413  70.98400232:32:32:32:32:3  5Bm N  ov 19, 2018 2 2:11:17.491089000  7
           414  70.99973232:32:32:32:32:3  6Bm N  ov 19, 2018 2 2:11:17.506819000  7
           415  71.07372732:32:32:32:32:3  6Bm N  ov 19, 2018 2 2:11:17.580814000  7
           416  71.21735932:32:32:32:32:3  6Bm N  ov 19, 2018 2 2:11:17.724446000  7
           417  71.32473832:32:32:32:32:3  4Bm N  ov 19, 2018 2 2:11:17.831825000  7
           418  71.78735532:32:32:32:32:3  5Bm N  ov 19, 2018 2 2:11:18.294442000  7
           419  72.60798932:32:32:32:32:3  5Bm N  ov 19, 2018 2 2:11:19.115076000  7
           420  7 2.6632632:32:32:32:32:3  5Bm N  ov 19, 2018 2 2:11:19.170347000  7
           421  7 2.9613432:32:32:32:32:3  3Bm N  ov 19, 2018 2 2:11:19.468427000  7
           422  73.15995532:32:32:32:32:3  5Bm N  ov 19, 2018 2 2:11:19.667042000  7
           423  73.22058632:32:32:32:32:3  6Bm N  ov 19, 2018 2 2:11:19.727673000  7
           424  73.42344632:32:32:32:32:3  5Bm N  ov 19, 2018 2 2:11:19.930533000  7
           425  73.60327132:32:32:32:32:3  5Bm N  ov 19, 2018 2 2:11:20.110358000  7
           426  73.80113732:32:32:32:32:3  7Bm N  ov 19, 2018 2 2:11:20.308224000  7
           427  73.98011932:32:32:32:32:3  7Bm N  ov 19, 2018 2 2:11:20.487206000  7
           428  7 4.2078632:32:32:32:32:3  5Bm N  ov 19, 2018 2 2:11:20.714947000  7
           429  74.41508932:32:32:32:32:3  4Bm N  ov 19, 2018 2 2:11:20.922176000  7
           430  74.62082632:32:32:32:32:3  6Bm N  ov 19, 2018 2 2:11:21.127913000  7
           431  74.78189632:32:32:32:32:3  5Bm N  ov 19, 2018 2 2:11:21.288983000  7
           432  74.81066632:32:32:32:32:3  6Bm N  ov 19, 2018 2 2:11:21.317753000  7
           433  74.86740932:32:32:32:32:3  3Bm N  ov 19, 2018 2 2:11:21.374496000  7
           434  74.88180932:32:32:32:32:3  4Bm N  ov 19, 2018 2 2:11:21.388896000  7
           435  75.26788832:32:32:32:32:3  6Bm N  ov 19, 2018 2 2:11:21.774975000  7
           436  75.31154532:32:32:32:32:3  5Bm N  ov 19, 2018 2 2:11:21.818632000  7
           437  75.45832632:32:32:32:32:3  6Bm N  ov 19, 2018 2 2:11:21.965413000  7
           438  75.63488232:32:32:32:32:3  6Bm N  ov 19, 2018 2 2:11:22.141969000  7
           439  75.67468832:32:32:32:32:3  6Bm N  ov 19, 2018 2 2:11:22.181775000  7
           440  7 5.7417932:32:32:32:32:3  3Bm N  ov 19, 2018 2 2:11:22.248877000  7
           441  75.76500132:32:32:32:32:3  6Bm N  ov 19, 2018 2 2:11:22.272088000  7
           442  75.87339832:32:32:32:32:3  5Bm N  ov 19, 2018 2 2:11:22.380485000  7
           443  75.92248932:32:32:32:32:3  5Bm N  ov 19, 2018 2 2:11:22.429576000  7
           444  75.95408632:32:32:32:32:3  4Bm N  ov 19, 2018 2 2:11:22.461173000  7
           445  76.12724832:32:32:32:32:3  5Bm N  ov 19, 2018 2 2:11:22.634335000  7
           446  76.23569732:32:32:32:32:3  3Bm N  ov 19, 2018 2 2:11:22.742784000  7
           447  76.31370232:32:32:32:32:3  5Bm N  ov 19, 2018 2 2:11:22.820789000  7
           448  76.38572532:32:32:32:32:3  4Bm N  ov 19, 2018 2 2:11:22.892812000  7
           449  76.51042732:32:32:32:32:3  7Bm N  ov 19, 2018 2 2:11:23.017514000  7
           450  76.59998632:32:32:32:32:3  5Bm N  ov 19, 2018 2 2:11:23.107073000  7
           451  7  6.992532:32:32:32:32:3  6Bm N  ov 19, 2018 2 2:11:23.499587000  7
           452  77.13887832:32:32:32:32:3  5Bm N  ov 19, 2018 2 2:11:23.645965000  7
           453  77.27413432:32:32:32:32:3  7Bm N  ov 19, 2018 2 2:11:23.781221000  7
           454  77.31782532:32:32:32:32:3  5Bm N  ov 19, 2018 2 2:11:23.824912000  7
           455  77.32941632:32:32:32:32:3  4Bm N  ov 19, 2018 2 2:11:23.836503000  7
           456  77.43612732:32:32:32:32:3  8Bm N  ov 19, 2018 2 2:11:23.943214000  7
           457  77.46204932:32:32:32:32:3  4Bm N  ov 19, 2018 2 2:11:23.969136000  7
           458  77.81938232:32:32:32:32:3  6Bm N  ov 19, 2018 2 2:11:24.326469000  7
           459  77.83110132:32:32:32:32:3  7Bm N  ov 19, 2018 2 2:11:24.338188000  7
           460  78.00670432:32:32:32:32:3  3Bm N  ov 19, 2018 2 2:11:24.513791000  7
           461  7 8.1645132:32:32:32:32:3  6Bm N  ov 19, 2018 2 2:11:24.671597000  7
           462  78.38546732:32:32:32:32:3  4Bm N  ov 19, 2018 2 2:11:24.892554000  7
           463  78.58944632:32:32:32:32:3  5Bm N  ov 19, 2018 2 2:11:25.096533000  7
           464  78.67821532:32:32:32:32:3  5Bm N  ov 19, 2018 2 2:11:25.185302000  7
           465  78.72421532:32:32:32:32:3  5Bm N  ov 19, 2018 2 2:11:25.231302000  7
           466  78.84909632:32:32:32:32:3  4Bm N  ov 19, 2018 2 2:11:25.356183000  7
           467  79.10859732:32:32:32:32:3  6Bm N  ov 19, 2018 2 2:11:25.615684000  7
           468  79.11888832:32:32:32:32:3  6Bm N  ov 19, 2018 2 2:11:25.625975000  7
           469  79.43974432:32:32:32:32:3  5Bm N  ov 19, 2018 2 2:11:25.946831000  7
           470  79.48944832:32:32:32:32:3  2Bm N  ov 19, 2018 2 2:11:25.996535000  7
           471  79.60368332:32:32:32:32:3  4Bm N  ov 19, 2018 2 2:11:26.110770000  7
           472  79.75239332:32:32:32:32:3  6Bm N  ov 19, 2018 2 2:11:26.259480000  7
           473  79.87462632:32:32:32:32:3  4Bm N  ov 19, 2018 2 2:11:26.381713000  7
           474  79.90486632:32:32:32:32:3  4Bm N  ov 19, 2018 2 2:11:26.411953000  7
           475  80.04607132:32:32:32:32:3  5Bm N  ov 19, 2018 2 2:11:26.553158000  7
           476  80.12862432:32:32:32:32:3  4Bm N  ov 19, 2018 2 2:11:26.635711000  7
           477  80.18985232:32:32:32:32:3  6Bm N  ov 19, 2018 2 2:11:26.696939000  7
           478  80.20680832:32:32:32:32:3  5Bm N  ov 19, 2018 2 2:11:26.713895000  7
           479  80.26178932:32:32:32:32:3  7Bm N  ov 19, 2018 2 2:11:26.768876000  7
           480  8 0.4829432:32:32:32:32:3  4Bm N  ov 19, 2018 2 2:11:26.990027000  7
           481  80.62468132:32:32:32:32:3  4Bm N  ov 19, 2018 2 2:11:27.131768000  7
           482  80.70042832:32:32:32:32:3  6Bm N  ov 19, 2018 2 2:11:27.207515000  7
           483  81.20710932:32:32:32:32:3  6Bm N  ov 19, 2018 2 2:11:27.714196000  7
           484  8 1.2662932:32:32:32:32:3  5Bm N  ov 19, 2018 2 2:11:27.773377000  7
           485  81.30437932:32:32:32:32:3  6Bm N  ov 19, 2018 2 2:11:27.811466000  7
           486  81.35549632:32:32:32:32:3  7Bm N  ov 19, 2018 2 2:11:27.862583000  7
           487  81.47294432:32:32:32:32:3  7Bm N  ov 19, 2018 2 2:11:27.980031000  7
           488  81.60767432:32:32:32:32:3  3Bm N  ov 19, 2018 2 2:11:28.114761000  7
           489  81.71734932:32:32:32:32:3  4Bm N  ov 19, 2018 2 2:11:28.224436000  7
           490  81.74732432:32:32:32:32:3  5Bm N  ov 19, 2018 2 2:11:28.254411000  7
           491  81.84614432:32:32:32:32:3  8Bm N  ov 19, 2018 2 2:11:28.353231000  7
           492  81.87095432:32:32:32:32:3  7Bm N  ov 19, 2018 2 2:11:28.378041000  7
           493  81.90411732:32:32:32:32:3  6Bm N  ov 19, 2018 2 2:11:28.411204000  7
           494  8 2.0095732:32:32:32:32:3  7Bm N  ov 19, 2018 2 2:11:28.516657000  7
           495  82.10797532:32:32:32:32:3  4Bm N  ov 19, 2018 2 2:11:28.615062000  7
           496  82.14101832:32:32:32:32:3  7Bm N  ov 19, 2018 2 2:11:28.648105000  7
           497  82.65845132:32:32:32:32:3  5Bm N  ov 19, 2018 2 2:11:29.165538000  7
           498  82.82182232:32:32:32:32:3  7Bm N  ov 19, 2018 2 2:11:29.328909000  7
           499  82.91880332:32:32:32:32:3  4Bm N  ov 19, 2018 2 2:11:29.425890000  7
           500  82.93480732:32:32:32:32:3  5Bm N  ov 19, 2018 2 2:11:29.441894000  7
           501  83.17691432:32:32:32:32:3  7Bm N  ov 19, 2018 2 2:11:29.684001000  7
           502  83.22317332:32:32:32:32:3  7Bm N  ov 19, 2018 2 2:11:29.730260000  7
           503  83.25146932:32:32:32:32:3  5Bm N  ov 19, 2018 2 2:11:29.758556000  7
           504  83.31843132:32:32:32:32:3  6Bm N  ov 19, 2018 2 2:11:29.825518000  7
           505  83.35853932:32:32:32:32:3  7Bm N  ov 19, 2018 2 2:11:29.865626000  7
           506  83.55348832:32:32:32:32:3  6Bm N  ov 19, 2018 2 2:11:30.060575000  7
           507  8 3.5855432:32:32:32:32:3  5Bm N  ov 19, 2018 2 2:11:30.092627000  7
           508  83.81935732:32:32:32:32:3  6Bm N  ov 19, 2018 2 2:11:30.326444000  7
           509  83.96116832:32:32:32:32:3  6Bm N  ov 19, 2018 2 2:11:30.468255000  7
           510  83.98656532:32:32:32:32:3  7Bm N  ov 19, 2018 2 2:11:30.493652000  7
           511  84.20278232:32:32:32:32:3  5Bm N  ov 19, 2018 2 2:11:30.709869000  7
           512  84.34117732:32:32:32:32:3  2Bm N  ov 19, 2018 2 2:11:30.848264000  7
           513  8 4.4063932:32:32:32:32:3  5Bm N  ov 19, 2018 2 2:11:30.913477000  7
           514  8 4.5216532:32:32:32:32:3  6Bm N  ov 19, 2018 2 2:11:31.028737000  7
           515  84.56744432:32:32:32:32:3  6Bm N  ov 19, 2018 2 2:11:31.074531000  7
           516  84.62108532:32:32:32:32:3  6Bm N  ov 19, 2018 2 2:11:31.128172000  7
           517  84.75731432:32:32:32:32:3  4Bm N  ov 19, 2018 2 2:11:31.264401000  7
           518  84.80260332:32:32:32:32:3  7Bm N  ov 19, 2018 2 2:11:31.309690000  7
           519  84.83306532:32:32:32:32:3  7Bm N  ov 19, 2018 2 2:11:31.340152000  7
           520  84.88497732:32:32:32:32:3  3Bm N  ov 19, 2018 2 2:11:31.392064000  7
           521  84.98042132:32:32:32:32:3  6Bm N  ov 19, 2018 2 2:11:31.487508000  7
           522  85.21564632:32:32:32:32:3  5Bm N  ov 19, 2018 2 2:11:31.722733000  7
           523  85.23138932:32:32:32:32:3  5Bm N  ov 19, 2018 2 2:11:31.738476000  7
           524  85.28047332:32:32:32:32:3  4Bm N  ov 19, 2018 2 2:11:31.787560000  7
           525  85.48509532:32:32:32:32:3  6Bm N  ov 19, 2018 2 2:11:31.992182000  7
           526  85.51289232:32:32:32:32:3  6Bm N  ov 19, 2018 2 2:11:32.019979000  7
           527  85.56490932:32:32:32:32:3  5Bm N  ov 19, 2018 2 2:11:32.071996000  7
           528  85.71528532:32:32:32:32:3  7Bm N  ov 19, 2018 2 2:11:32.222372000  7
           529  85.76408532:32:32:32:32:3  6Bm N  ov 19, 2018 2 2:11:32.271172000  7
           530  85.86832432:32:32:32:32:3  4Bm N  ov 19, 2018 2 2:11:32.375411000  7
           531  86.02081932:32:32:32:32:3  6Bm N  ov 19, 2018 2 2:11:32.527906000  7
           532  86.06843332:32:32:32:32:3  6Bm N  ov 19, 2018 2 2:11:32.575520000  7
           533  86.18727832:32:32:32:32:3  6Bm N  ov 19, 2018 2 2:11:32.694365000  7
           534  8 6.2853632:32:32:32:32:3  7Bm N  ov 19, 2018 2 2:11:32.792447000  7
           535  86.45633532:32:32:32:32:3  5Bm N  ov 19, 2018 2 2:11:32.963422000  7
           536  86.48458332:32:32:32:32:3  3Bm N  ov 19, 2018 2 2:11:32.991670000  7
           537  86.50139132:32:32:32:32:3  6Bm N  ov 19, 2018 2 2:11:33.008478000  7
           538  86.73452232:32:32:32:32:3  7Bm N  ov 19, 2018 2 2:11:33.241609000  7
           539  87.02305532:32:32:32:32:3  6Bm N  ov 19, 2018 2 2:11:33.530142000  7
           540  8 7.2033332:32:32:32:32:3  7Bm N  ov 19, 2018 2 2:11:33.710417000  7
           541  87.36660932:32:32:32:32:3  4Bm N  ov 19, 2018 2 2:11:33.873696000  7
           542  87.45123532:32:32:32:32:3  6Bm N  ov 19, 2018 2 2:11:33.958322000  7
           543  87.57277232:32:32:32:32:3  6Bm N  ov 19, 2018 2 2:11:34.079859000  7
           544  87.59312332:32:32:32:32:3  8Bm N  ov 19, 2018 2 2:11:34.100210000  7
           545  87.60395332:32:32:32:32:3  6Bm N  ov 19, 2018 2 2:11:34.111040000  7
           546  87.61148732:32:32:32:32:3  7Bm N  ov 19, 2018 2 2:11:34.118574000  7
           547  87.70737632:32:32:32:32:3  6Bm N  ov 19, 2018 2 2:11:34.214463000  7
           548  87.74159232:32:32:32:32:3  6Bm N  ov 19, 2018 2 2:11:34.248679000  7
           549  87.96613832:32:32:32:32:3  7Bm N  ov 19, 2018 2 2:11:34.473225000  7
           550  88.00137632:32:32:32:32:3  7Bm N  ov 19, 2018 2 2:11:34.508463000  7
           551  88.00670532:32:32:32:32:3  6Bm N  ov 19, 2018 2 2:11:34.513792000  7
           552  88.67237232:32:32:32:32:3  6Bm N  ov 19, 2018 2 2:11:35.179459000  7
           553  88.70356232:32:32:32:32:3  6Bm N  ov 19, 2018 2 2:11:35.210649000  7
           554  88.72524932:32:32:32:32:3  7Bm N  ov 19, 2018 2 2:11:35.232336000  7
           555  88.75102932:32:32:32:32:3  5Bm N  ov 19, 2018 2 2:11:35.258116000  7
           556  88.85524932:32:32:32:32:3  7Bm N  ov 19, 2018 2 2:11:35.362336000  7
           557  88.94338632:32:32:32:32:3  7Bm N  ov 19, 2018 2 2:11:35.450473000  7
           558  89.01835232:32:32:32:32:3  6Bm N  ov 19, 2018 2 2:11:35.525439000  7
           559  89.13229232:32:32:32:32:3  6Bm N  ov 19, 2018 2 2:11:35.639379000  7
           560  89.35827732:32:32:32:32:3  9Bm N  ov 19, 2018 2 2:11:35.865364000  7
           561  8 9.3921332:32:32:32:32:3  6Bm N  ov 19, 2018 2 2:11:35.899217000  7
           562  89.49624832:32:32:32:32:3  4Bm N  ov 19, 2018 2 2:11:36.003335000  7
           563  89.53663832:32:32:32:32:3  7Bm N  ov 19, 2018 2 2:11:36.043725000  7
           564  89.56466832:32:32:32:32:3  6Bm N  ov 19, 2018 2 2:11:36.071755000  7
           565  89.57610532:32:32:32:32:3  8Bm N  ov 19, 2018 2 2:11:36.083192000  7
           566  8 9.7158432:32:32:32:32:3  4Bm N  ov 19, 2018 2 2:11:36.222927000  7
           567  89.76473932:32:32:32:32:3  7Bm N  ov 19, 2018 2 2:11:36.271826000  7
           568  89.80162632:32:32:32:32:3  7Bm N  ov 19, 2018 2 2:11:36.308713000  7
           569  89.90702532:32:32:32:32:3  6Bm N  ov 19, 2018 2 2:11:36.414112000  7
           570  89.92876632:32:32:32:32:3  7Bm N  ov 19, 2018 2 2:11:36.435853000  7
           571  89.94722532:32:32:32:32:3  8Bm N  ov 19, 2018 2 2:11:36.454312000  7
           572  89.99676332:32:32:32:32:3  7Bm N  ov 19, 2018 2 2:11:36.503850000  7
           573  90.00060532:32:32:32:32:3  7Bm N  ov 19, 2018 2 2:11:36.507692000  7
           574  90.10167132:32:32:32:32:3  7Bm N  ov 19, 2018 2 2:11:36.608758000  7
           575  90.14235132:32:32:32:32:3  6Bm N  ov 19, 2018 2 2:11:36.649438000  7
           576  90.26867232:32:32:32:32:3  7Bm N  ov 19, 2018 2 2:11:36.775759000  7
           577  90.31738132:32:32:32:32:3  6Bm N  ov 19, 2018 2 2:11:36.824468000  7
           578  90.46663132:32:32:32:32:3  5Bm N  ov 19, 2018 2 2:11:36.973718000  7
           579  90.52946532:32:32:32:32:3  7Bm N  ov 19, 2018 2 2:11:37.036552000  7
           580  90.57921932:32:32:32:32:3  6Bm N  ov 19, 2018 2 2:11:37.086306000  7
           581  90.67350532:32:32:32:32:3  8Bm N  ov 19, 2018 2 2:11:37.180592000  7
           582  90.84486732:32:32:32:32:3  5Bm N  ov 19, 2018 2 2:11:37.351954000  7
           583  90.91296432:32:32:32:32:3  7Bm N  ov 19, 2018 2 2:11:37.420051000  7
           584  91.19761832:32:32:32:32:3  6Bm N  ov 19, 2018 2 2:11:37.704705000  7
           585  91.30677232:32:32:32:32:3  7Bm N  ov 19, 2018 2 2:11:37.813859000  7
           586  91.36856332:32:32:32:32:3  5Bm N  ov 19, 2018 2 2:11:37.875650000  7
           587  91.66742732:32:32:32:32:3  8Bm N  ov 19, 2018 2 2:11:38.174514000  7
           588  9 1.6946432:32:32:32:32:3  7Bm N  ov 19, 2018 2 2:11:38.201727000  7
           589  91.70906132:32:32:32:32:3  6Bm N  ov 19, 2018 2 2:11:38.216148000  7
           590  9 1.8641432:32:32:32:32:3  5Bm N  ov 19, 2018 2 2:11:38.371227000  7
           591  91.94214132:32:32:32:32:3  6Bm N  ov 19, 2018 2 2:11:38.449228000  7
           592  91.98106232:32:32:32:32:3  7Bm N  ov 19, 2018 2 2:11:38.488149000  7
           593  92.01406132:32:32:32:32:3  7Bm N  ov 19, 2018 2 2:11:38.521148000  7
           594  92.03060732:32:32:32:32:3  7Bm N  ov 19, 2018 2 2:11:38.537694000  7
           595  92.03312432:32:32:32:32:3  6Bm N  ov 19, 2018 2 2:11:38.540211000  7
           596  92.09876132:32:32:32:32:3  7Bm N  ov 19, 2018 2 2:11:38.605848000  7
           597  92.37289832:32:32:32:32:3  7Bm N  ov 19, 2018 2 2:11:38.879985000  7
           598  92.42489232:32:32:32:32:3  7Bm N  ov 19, 2018 2 2:11:38.931979000  7
           599  92.49488632:32:32:32:32:3  7Bm N  ov 19, 2018 2 2:11:39.001973000  7
           600  92.54461832:32:32:32:32:3  7Bm N  ov 19, 2018 2 2:11:39.051705000  7
           601  92.54864532:32:32:32:32:3  5Bm N  ov 19, 2018 2 2:11:39.055732000  7
           602  92.79713132:32:32:32:32:3  7Bm N  ov 19, 2018 2 2:11:39.304218000  7
           603  92.91588732:32:32:32:32:3  7Bm N  ov 19, 2018 2 2:11:39.422974000  7
           604  92.99933532:32:32:32:32:3  7Bm N  ov 19, 2018 2 2:11:39.506422000  7
           605  93.16698932:32:32:32:32:3  8Bm N  ov 19, 2018 2 2:11:39.674076000  7
           606  93.21548432:32:32:32:32:3  7Bm N  ov 19, 2018 2 2:11:39.722571000  7
           607  93.25902632:32:32:32:32:3  6Bm N  ov 19, 2018 2 2:11:39.766113000  7
           608  93.34099832:32:32:32:32:3  7Bm N  ov 19, 2018 2 2:11:39.848085000  7
           609  93.37692532:32:32:32:32:3  7Bm N  ov 19, 2018 2 2:11:39.884012000  7
           610  93.42718832:32:32:32:32:3  8Bm N  ov 19, 2018 2 2:11:39.934275000  7
           611  93.52177832:32:32:32:32:3  6Bm N  ov 19, 2018 2 2:11:40.028865000  7
           612  93.68229632:32:32:32:32:3  5Bm N  ov 19, 2018 2 2:11:40.189383000  7
           613  93.71677832:32:32:32:32:3  7Bm N  ov 19, 2018 2 2:11:40.223865000  7
           614  93.72977732:32:32:32:32:3  7Bm N  ov 19, 2018 2 2:11:40.236864000  7
           615  9  3.740732:32:32:32:32:3  7Bm N  ov 19, 2018 2 2:11:40.247787000  7
           616  93.87052132:32:32:32:32:3  5Bm N  ov 19, 2018 2 2:11:40.377608000  7
           617  9 4.0167832:32:32:32:32:3  7Bm N  ov 19, 2018 2 2:11:40.523867000  7
           618  94.10374632:32:32:32:32:3  8Bm N  ov 19, 2018 2 2:11:40.610833000  7
           619  94.16746132:32:32:32:32:3  7Bm N  ov 19, 2018 2 2:11:40.674548000  7
           620  94.24851732:32:32:32:32:3  7Bm N  ov 19, 2018 2 2:11:40.755604000  7
           621  94.39922432:32:32:32:32:3  7Bm N  ov 19, 2018 2 2:11:40.906311000  7
           622  94.43894132:32:32:32:32:3  8Bm N  ov 19, 2018 2 2:11:40.946028000  7
           623  94.53445932:32:32:32:32:3  7Bm N  ov 19, 2018 2 2:11:41.041546000  7
           624  94.68219332:32:32:32:32:3  6Bm N  ov 19, 2018 2 2:11:41.189280000  7
           625  94.84238332:32:32:32:32:3  8Bm N  ov 19, 2018 2 2:11:41.349470000  7
           626  94.97479332:32:32:32:32:3  6Bm N  ov 19, 2018 2 2:11:41.481880000  7
           627  95.21537832:32:32:32:32:3  6Bm N  ov 19, 2018 2 2:11:41.722465000  7
           628  9 5.3438332:32:32:32:32:3  6Bm N  ov 19, 2018 2 2:11:41.850917000  7
           629  95.49112832:32:32:32:32:3  8Bm N  ov 19, 2018 2 2:11:41.998215000  7
           630  95.51496732:32:32:32:32:3  5Bm N  ov 19, 2018 2 2:11:42.022054000  7
           631  95.72978832:32:32:32:32:3  6Bm N  ov 19, 2018 2 2:11:42.236875000  7
           632  95.76049732:32:32:32:32:3  7Bm N  ov 19, 2018 2 2:11:42.267584000  7
           633  95.84871532:32:32:32:32:3  6Bm N  ov 19, 2018 2 2:11:42.355802000  7
           634  95.89689632:32:32:32:32:3  8Bm N  ov 19, 2018 2 2:11:42.403983000  7
           635  96.16190232:32:32:32:32:3  7Bm N  ov 19, 2018 2 2:11:42.668989000  7
           636  96.19980132:32:32:32:32:3  4Bm N  ov 19, 2018 2 2:11:42.706888000  7
           637  96.37900732:32:32:32:32:3  6Bm N  ov 19, 2018 2 2:11:42.886094000  7
           638  96.56361532:32:32:32:32:3  6Bm N  ov 19, 2018 2 2:11:43.070702000  7
           639  96.83209832:32:32:32:32:3  8Bm N  ov 19, 2018 2 2:11:43.339185000  7
           640  9 6.8930832:32:32:32:32:3  6Bm N  ov 19, 2018 2 2:11:43.400167000  7
           641  97.00339132:32:32:32:32:3  4Bm N  ov 19, 2018 2 2:11:43.510478000  7
           642  97.07104432:32:32:32:32:3  3Bm N  ov 19, 2018 2 2:11:43.578131000  7
           643  97.34769232:32:32:32:32:3  7Bm N  ov 19, 2018 2 2:11:43.854779000  7
           644  97.37596632:32:32:32:32:3  7Bm N  ov 19, 2018 2 2:11:43.883053000  7
           645  97.43050532:32:32:32:32:3  7Bm N  ov 19, 2018 2 2:11:43.937592000  7
           646  97.44250332:32:32:32:32:3  7Bm N  ov 19, 2018 2 2:11:43.949590000  7
           647  97.56371932:32:32:32:32:3  7Bm N  ov 19, 2018 2 2:11:44.070806000  7
           648  97.64107532:32:32:32:32:3  8Bm N  ov 19, 2018 2 2:11:44.148162000  7
           649  97.74603332:32:32:32:32:3  6Bm N  ov 19, 2018 2 2:11:44.253120000  7
           650  97.76424232:32:32:32:32:3  7Bm N  ov 19, 2018 2 2:11:44.271329000  7
           651  97.82996432:32:32:32:32:3  7Bm N  ov 19, 2018 2 2:11:44.337051000  7
           652  97.95925232:32:32:32:32:3  2Bm N  ov 19, 2018 2 2:11:44.466339000  7
           653  97.97579432:32:32:32:32:3  5Bm N  ov 19, 2018 2 2:11:44.482881000  7
           654  98.02873732:32:32:32:32:3  5Bm N  ov 19, 2018 2 2:11:44.535824000  7
           655  98.07893632:32:32:32:32:3  5Bm N  ov 19, 2018 2 2:11:44.586023000  7
           656  98.13411432:32:32:32:32:3  5Bm N  ov 19, 2018 2 2:11:44.641201000  7
           657  98.54286732:32:32:32:32:3  5Bm N  ov 19, 2018 2 2:11:45.049954000  7
           658  98.61217932:32:32:32:32:3  5Bm N  ov 19, 2018 2 2:11:45.119266000  7
           659  98.79739632:32:32:32:32:3  5Bm N  ov 19, 2018 2 2:11:45.304483000  7
           660  98.81352732:32:32:32:32:3  6Bm N  ov 19, 2018 2 2:11:45.320614000  7
           661  98.87271832:32:32:32:32:3  6Bm N  ov 19, 2018 2 2:11:45.379805000  7
           662  99.09886732:32:32:32:32:3  6Bm N  ov 19, 2018 2 2:11:45.605954000  7
           663  99.12508432:32:32:32:32:3  6Bm N  ov 19, 2018 2 2:11:45.632171000  7
           664  99.33402232:32:32:32:32:3  5Bm N  ov 19, 2018 2 2:11:45.841109000  7
           665  99.46967332:32:32:32:32:3  7Bm N  ov 19, 2018 2 2:11:45.976760000  7
           666  99.57180832:32:32:32:32:3  5Bm N  ov 19, 2018 2 2:11:46.078895000  7
           667  99.67180932:32:32:32:32:3  7Bm N  ov 19, 2018 2 2:11:46.178896000  7
           668  99.81845532:32:32:32:32:3  6Bm N  ov 19, 2018 2 2:11:46.325542000  7
           669  99.85697832:32:32:32:32:3  6Bm N  ov 19, 2018 2 2:11:46.364065000  7
           670  99.92017232:32:32:32:32:3  3Bm N  ov 19, 2018 2 2:11:46.427259000  7
           671  99.94192732:32:32:32:32:3  5Bm N  ov 19, 2018 2 2:11:46.449014000  7
           672  99.99410932:32:32:32:32:3  6Bm N  ov 19, 2018 2 2:11:46.501196000  7
           673 10 0.0862732:32:32:32:32:3  6Bm N  ov 19, 2018 2 2:11:46.593357000  7
           674 100.09978932:32:32:32:32:3  3Bm N  ov 19, 2018 2 2:11:46.606876000  7
           675 100.23992932:32:32:32:32:3  6Bm N  ov 19, 2018 2 2:11:46.747016000  7
           676 100.42025932:32:32:32:32:3  5Bm N  ov 19, 2018 2 2:11:46.927346000  7
           677 100.51098232:32:32:32:32:3  8Bm N  ov 19, 2018 2 2:11:47.018069000  7
           678 10 0.5503432:32:32:32:32:3  4Bm N  ov 19, 2018 2 2:11:47.057427000  7
           679 100.57465232:32:32:32:32:3  6Bm N  ov 19, 2018 2 2:11:47.081739000  7
           680 100.65775732:32:32:32:32:3  6Bm N  ov 19, 2018 2 2:11:47.164844000  7
           681 10 0.8348432:32:32:32:32:3  8Bm N  ov 19, 2018 2 2:11:47.341927000  7
           682 100.97293632:32:32:32:32:3  7Bm N  ov 19, 2018 2 2:11:47.480023000  7
           683 101.04022632:32:32:32:32:3  7Bm N  ov 19, 2018 2 2:11:47.547313000  7
           684 101.12406532:32:32:32:32:3  6Bm N  ov 19, 2018 2 2:11:47.631152000  7
           685 101.14183932:32:32:32:32:3  6Bm N  ov 19, 2018 2 2:11:47.648926000  7
           686 101.27430632:32:32:32:32:3  6Bm N  ov 19, 2018 2 2:11:47.781393000  7
           687 101.32161432:32:32:32:32:3  9Bm N  ov 19, 2018 2 2:11:47.828701000  7
           688 101.50491932:32:32:32:32:3  9Bm N  ov 19, 2018 2 2:11:48.012006000  7
           689 101.52787832:32:32:32:32:3  7Bm N  ov 19, 2018 2 2:11:48.034965000  7
           690 101.53759232:32:32:32:32:3 10dBm   Nov 19,   201822:11:48.044679000 7
           691 101.62391332:32:32:32:32:3  7Bm N  ov 19, 2018 2 2:11:48.131000000  7
           692 101.67193332:32:32:32:32:3  7Bm N  ov 19, 2018 2 2:11:48.179020000  7
           693 101.76250632:32:32:32:32:3  5Bm N  ov 19, 2018 2 2:11:48.269593000  7
           694 101.78856632:32:32:32:32:3  6Bm N  ov 19, 2018 2 2:11:48.295653000  7
           695 10 1.8641832:32:32:32:32:3  7Bm N  ov 19, 2018 2 2:11:48.371267000  7
           696 10  1.971432:32:32:32:32:3  6Bm N  ov 19, 2018 2 2:11:48.478487000  7
           697 102.06763232:32:32:32:32:3  8Bm N  ov 19, 2018 2 2:11:48.574719000  7
           698 102.08107132:32:32:32:32:3  6Bm N  ov 19, 2018 2 2:11:48.588158000  7
           699 102.19107932:32:32:32:32:3  6Bm N  ov 19, 2018 2 2:11:48.698166000  7
           700 102.30536332:32:32:32:32:3  5Bm N  ov 19, 2018 2 2:11:48.812450000  7
           701 102.34894432:32:32:32:32:3  7Bm N  ov 19, 2018 2 2:11:48.856031000  7
           702 102.45394732:32:32:32:32:3  5Bm N  ov 19, 2018 2 2:11:48.961034000  7
           703 102.55891232:32:32:32:32:3  7Bm N  ov 19, 2018 2 2:11:49.065999000  7
           704 102.59252332:32:32:32:32:3  5Bm N  ov 19, 2018 2 2:11:49.099610000  7
           705 102.70416132:32:32:32:32:3  6Bm N  ov 19, 2018 2 2:11:49.211248000  7
           706 102.81360832:32:32:32:32:3  7Bm N  ov 19, 2018 2 2:11:49.320695000  7
           707 102.88792632:32:32:32:32:3  7Bm N  ov 19, 2018 2 2:11:49.395013000  7
           708 10 2.9597432:32:32:32:32:3  8Bm N  ov 19, 2018 2 2:11:49.466827000  7
           709 103.01447132:32:32:32:32:3  6Bm N  ov 19, 2018 2 2:11:49.521558000  7
           710 103.03624732:32:32:32:32:3  6Bm N  ov 19, 2018 2 2:11:49.543334000  7
           711 103.05138332:32:32:32:32:3  7Bm N  ov 19, 2018 2 2:11:49.558470000  7
           712 103.12454132:32:32:32:32:3  7Bm N  ov 19, 2018 2 2:11:49.631628000  7
           713 103.27559532:32:32:32:32:3  7Bm N  ov 19, 2018 2 2:11:49.782682000  7
           714 103.44439432:32:32:32:32:3  6Bm N  ov 19, 2018 2 2:11:49.951481000  7
           715 103.72678732:32:32:32:32:3  4Bm N  ov 19, 2018 2 2:11:50.233874000  7
           716 103.75306832:32:32:32:32:3  4Bm N  ov 19, 2018 2 2:11:50.260155000  7
           717 10 3.8704332:32:32:32:32:3  6Bm N  ov 19, 2018 2 2:11:50.377517000  7
           718 103.93803632:32:32:32:32:3  6Bm N  ov 19, 2018 2 2:11:50.445123000  7
           719 104.00274132:32:32:32:32:3  5Bm N  ov 19, 2018 2 2:11:50.509828000  7
           720 104.19470132:32:32:32:32:3  6Bm N  ov 19, 2018 2 2:11:50.701788000  7
           721 10 4.3930732:32:32:32:32:3  8Bm N  ov 19, 2018 2 2:11:50.900157000  7
           722 104.70422832:32:32:32:32:3  5Bm N  ov 19, 2018 2 2:11:51.211315000  7
           723 104.81351932:32:32:32:32:3  7Bm N  ov 19, 2018 2 2:11:51.320606000  7
           724 104.93840232:32:32:32:32:3  6Bm N  ov 19, 2018 2 2:11:51.445489000  7
           725 104.99592232:32:32:32:32:3  7Bm N  ov 19, 2018 2 2:11:51.503009000  7
           726 105.04958132:32:32:32:32:3  7Bm N  ov 19, 2018 2 2:11:51.556668000  7
           727 105.11358932:32:32:32:32:3  7Bm N  ov 19, 2018 2 2:11:51.620676000  7
           728 105.28348332:32:32:32:32:3  6Bm N  ov 19, 2018 2 2:11:51.790570000  7
           729 105.32314432:32:32:32:32:3  6Bm N  ov 19, 2018 2 2:11:51.830231000  7
           730 105.33125432:32:32:32:32:3  7Bm N  ov 19, 2018 2 2:11:51.838341000  7
           731 105.38702132:32:32:32:32:3  7Bm N  ov 19, 2018 2 2:11:51.894108000  7
           732 105.43912832:32:32:32:32:3  4Bm N  ov 19, 2018 2 2:11:51.946215000  7
           733 10 5.5023932:32:32:32:32:3  7Bm N  ov 19, 2018 2 2:11:52.009477000  7
           734 105.55333332:32:32:32:32:3  7Bm N  ov 19, 2018 2 2:11:52.060420000  7
           735 10  5.660132:32:32:32:32:3  7Bm N  ov 19, 2018 2 2:11:52.167187000  7
           736 105.91484832:32:32:32:32:3  7Bm N  ov 19, 2018 2 2:11:52.421935000  7
           737 106.17635332:32:32:32:32:3  7Bm N  ov 19, 2018 2 2:11:52.683440000  7
           738 106.30087932:32:32:32:32:3  8Bm N  ov 19, 2018 2 2:11:52.807966000  7
           739 106.43556632:32:32:32:32:3  5Bm N  ov 19, 2018 2 2:11:52.942653000  7
           740 106.49132532:32:32:32:32:3  7Bm N  ov 19, 2018 2 2:11:52.998412000  7
           741 106.64084432:32:32:32:32:3  7Bm N  ov 19, 2018 2 2:11:53.147931000  7
           742 106.67384632:32:32:32:32:3  8Bm N  ov 19, 2018 2 2:11:53.180933000  7
           743 10  6.722832:32:32:32:32:3  8Bm N  ov 19, 2018 2 2:11:53.229887000  7
           744 106.75205232:32:32:32:32:3  7Bm N  ov 19, 2018 2 2:11:53.259139000  7
           745 106.80128932:32:32:32:32:3  8Bm N  ov 19, 2018 2 2:11:53.308376000  7
           746 106.87207132:32:32:32:32:3  9Bm N  ov 19, 2018 2 2:11:53.379158000  7
           747 107.28497532:32:32:32:32:3  5Bm N  ov 19, 2018 2 2:11:53.792062000  7
           748 107.34478332:32:32:32:32:3  6Bm N  ov 19, 2018 2 2:11:53.851870000  7
           749 10 7.6222932:32:32:32:32:3  7Bm N  ov 19, 2018 2 2:11:54.129377000  7
           750 107.77839932:32:32:32:32:3  5Bm N  ov 19, 2018 2 2:11:54.285486000  7
           751 107.80490232:32:32:32:32:3  5Bm N  ov 19, 2018 2 2:11:54.311989000  7
           752 107.83271132:32:32:32:32:3  5Bm N  ov 19, 2018 2 2:11:54.339798000  7
           753 107.96838632:32:32:32:32:3  6Bm N  ov 19, 2018 2 2:11:54.475473000  7
           754 10 8.0369132:32:32:32:32:3  6Bm N  ov 19, 2018 2 2:11:54.543997000  7
           755 108.20400232:32:32:32:32:3  5Bm N  ov 19, 2018 2 2:11:54.711089000  7
           756 108.27275932:32:32:32:32:3  3Bm N  ov 19, 2018 2 2:11:54.779846000  7
           757 108.34427932:32:32:32:32:3  7Bm N  ov 19, 2018 2 2:11:54.851366000  7
           758 108.40210832:32:32:32:32:3  5Bm N  ov 19, 2018 2 2:11:54.909195000  7
           759 108.50465432:32:32:32:32:3  6Bm N  ov 19, 2018 2 2:11:55.011741000  7
           760 108.54130632:32:32:32:32:3  6Bm N  ov 19, 2018 2 2:11:55.048393000  7
           761 108.65145132:32:32:32:32:3  4Bm N  ov 19, 2018 2 2:11:55.158538000  7
           762 109.98156532:32:32:32:32:3  6Bm N  ov 19, 2018 2 2:11:56.488652000  7
           763 110.05059732:32:32:32:32:3  6Bm N  ov 19, 2018 2 2:11:56.557684000  7
           764 110.34358532:32:32:32:32:3  6Bm N  ov 19, 2018 2 2:11:56.850672000  7
           765 110.62976332:32:32:32:32:3  4Bm N  ov 19, 2018 2 2:11:57.136850000  7
           766 110.64321632:32:32:32:32:3  4Bm N  ov 19, 2018 2 2:11:57.150303000  7
           767 111.25789332:32:32:32:32:3  4Bm N  ov 19, 2018 2 2:11:57.764980000  7
           768 111.70963532:32:32:32:32:3  5Bm N  ov 19, 2018 2 2:11:58.216722000  7
           769 111.73110132:32:32:32:32:3  6Bm N  ov 19, 2018 2 2:11:58.238188000  7
           770 111.99965332:32:32:32:32:3  4Bm N  ov 19, 2018 2 2:11:58.506740000  7
