    1   0.000000 32:32:32:32:32:32 6dBm Nov 19, 2018 22:04:02.253453000 +07
    2   0.082610 32:32:32:32:32:32 6dBm Nov 19, 2018 22:04:02.336063000 +07
    3   0.330556 32:32:32:32:32:32 6dBm Nov 19, 2018 22:04:02.584009000 +07
    4   0.443978 32:32:32:32:32:32 7dBm Nov 19, 2018 22:04:02.697431000 +07
    5   0.455064 32:32:32:32:32:32 7dBm Nov 19, 2018 22:04:02.708517000 +07
    6   0.626628 32:32:32:32:32:32 5dBm Nov 19, 2018 22:04:02.880081000 +07
    7   0.817531 32:32:32:32:32:32 6dBm Nov 19, 2018 22:04:03.070984000 +07
    8   0.867769 32:32:32:32:32:32 6dBm Nov 19, 2018 22:04:03.121222000 +07
    9   0.909157 32:32:32:32:32:32 4dBm Nov 19, 2018 22:04:03.162610000 +07
   10   0.982132 32:32:32:32:32:32 5dBm Nov 19, 2018 22:04:03.235585000 +07
   11   1.152583 32:32:32:32:32:32 6dBm Nov 19, 2018 22:04:03.406036000 +07
   12   1.172760 32:32:32:32:32:32 6dBm Nov 19, 2018 22:04:03.426213000 +07
   13   1.588462 32:32:32:32:32:32 5dBm Nov 19, 2018 22:04:03.841915000 +07
   14   1.641670 32:32:32:32:32:32 6dBm Nov 19, 2018 22:04:03.895123000 +07
   15   1.657103 32:32:32:32:32:32 6dBm Nov 19, 2018 22:04:03.910556000 +07
   16   2.226152 32:32:32:32:32:32 7dBm Nov 19, 2018 22:04:04.479605000 +07
   17   2.323307 32:32:32:32:32:32 6dBm Nov 19, 2018 22:04:04.576760000 +07
   18   2.369403 32:32:32:32:32:32 6dBm Nov 19, 2018 22:04:04.622856000 +07
   19   2.392994 32:32:32:32:32:32 6dBm Nov 19, 2018 22:04:04.646447000 +07
   20   2.549993 32:32:32:32:32:32 7dBm Nov 19, 2018 22:04:04.803446000 +07
   21   2.827807 32:32:32:32:32:32 8dBm Nov 19, 2018 22:04:05.081260000 +07
   22   2.864554 32:32:32:32:32:32 6dBm Nov 19, 2018 22:04:05.118007000 +07
   23   3.093009 32:32:32:32:32:32 7dBm Nov 19, 2018 22:04:05.346462000 +07
   24   3.131733 32:32:32:32:32:32 8dBm Nov 19, 2018 22:04:05.385186000 +07
   25   3.162865 32:32:32:32:32:32 7dBm Nov 19, 2018 22:04:05.416318000 +07
   26   3.822099 32:32:32:32:32:32 5dBm Nov 19, 2018 22:04:06.075552000 +07
   27   3.854296 32:32:32:32:32:32 7dBm Nov 19, 2018 22:04:06.107749000 +07
   28   3.875505 32:32:32:32:32:32 8dBm Nov 19, 2018 22:04:06.128958000 +07
   29   3.976025 32:32:32:32:32:32 8dBm Nov 19, 2018 22:04:06.229478000 +07
   30   3.979021 32:32:32:32:32:32 7dBm Nov 19, 2018 22:04:06.232474000 +07
   31   4.048208 32:32:32:32:32:32 7dBm Nov 19, 2018 22:04:06.301661000 +07
   32   4.544916 32:32:32:32:32:32 4dBm Nov 19, 2018 22:04:06.798369000 +07
   33   4.625948 32:32:32:32:32:32 6dBm Nov 19, 2018 22:04:06.879401000 +07
   34   4.746890 32:32:32:32:32:32 7dBm Nov 19, 2018 22:04:07.000343000 +07
   35   4.832396 32:32:32:32:32:32 6dBm Nov 19, 2018 22:04:07.085849000 +07
   36   5.125066 32:32:32:32:32:32 9dBm Nov 19, 2018 22:04:07.378519000 +07
   37   5.201562 32:32:32:32:32:32 7dBm Nov 19, 2018 22:04:07.455015000 +07
   38   5.286549 32:32:32:32:32:32 5dBm Nov 19, 2018 22:04:07.540002000 +07
   39   5.340988 32:32:32:32:32:32 5dBm Nov 19, 2018 22:04:07.594441000 +07
   40   5.579437 32:32:32:32:32:32 3dBm Nov 19, 2018 22:04:07.832890000 +07
   41   5.601947 32:32:32:32:32:32 6dBm Nov 19, 2018 22:04:07.855400000 +07
   42   5.666717 32:32:32:32:32:32 6dBm Nov 19, 2018 22:04:07.920170000 +07
   43   5.747191 32:32:32:32:32:32 5dBm Nov 19, 2018 22:04:08.000644000 +07
   44   5.903969 32:32:32:32:32:32 7dBm Nov 19, 2018 22:04:08.157422000 +07
   45   5.962062 32:32:32:32:32:32 7dBm Nov 19, 2018 22:04:08.215515000 +07
   46   5.993768 32:32:32:32:32:32 6dBm Nov 19, 2018 22:04:08.247221000 +07
   47   6.095918 32:32:32:32:32:32 6dBm Nov 19, 2018 22:04:08.349371000 +07
   48   6.231220 32:32:32:32:32:32 4dBm Nov 19, 2018 22:04:08.484673000 +07
   49   6.281832 32:32:32:32:32:32 7dBm Nov 19, 2018 22:04:08.535285000 +07
   50   6.307616 32:32:32:32:32:32 6dBm Nov 19, 2018 22:04:08.561069000 +07
   51   6.352565 32:32:32:32:32:32 6dBm Nov 19, 2018 22:04:08.606018000 +07
   52   6.382451 32:32:32:32:32:32 7dBm Nov 19, 2018 22:04:08.635904000 +07
   53   6.402438 32:32:32:32:32:32 4dBm Nov 19, 2018 22:04:08.655891000 +07
   54   6.468184 32:32:32:32:32:32 5dBm Nov 19, 2018 22:04:08.721637000 +07
   55   6.542418 32:32:32:32:32:32 8dBm Nov 19, 2018 22:04:08.795871000 +07
   56   6.575653 32:32:32:32:32:32 8dBm Nov 19, 2018 22:04:08.829106000 +07
   57   6.605879 32:32:32:32:32:32 6dBm Nov 19, 2018 22:04:08.859332000 +07
   58   6.619811 32:32:32:32:32:32 5dBm Nov 19, 2018 22:04:08.873264000 +07
   59   6.628621 32:32:32:32:32:32 7dBm Nov 19, 2018 22:04:08.882074000 +07
   60   6.742439 32:32:32:32:32:32 6dBm Nov 19, 2018 22:04:08.995892000 +07
   61   6.851926 32:32:32:32:32:32 7dBm Nov 19, 2018 22:04:09.105379000 +07
   62   6.866493 32:32:32:32:32:32 8dBm Nov 19, 2018 22:04:09.119946000 +07
   63   6.876320 32:32:32:32:32:32 7dBm Nov 19, 2018 22:04:09.129773000 +07
   64   6.952650 32:32:32:32:32:32 5dBm Nov 19, 2018 22:04:09.206103000 +07
   65   7.002107 32:32:32:32:32:32 7dBm Nov 19, 2018 22:04:09.255560000 +07
   66   7.023135 32:32:32:32:32:32 7dBm Nov 19, 2018 22:04:09.276588000 +07
   67   7.125997 32:32:32:32:32:32 9dBm Nov 19, 2018 22:04:09.379450000 +07
   68   7.261474 32:32:32:32:32:32 3dBm Nov 19, 2018 22:04:09.514927000 +07
   69   7.354437 32:32:32:32:32:32 7dBm Nov 19, 2018 22:04:09.607890000 +07
   70   7.413948 32:32:32:32:32:32 5dBm Nov 19, 2018 22:04:09.667401000 +07
   71   7.524858 32:32:32:32:32:32 8dBm Nov 19, 2018 22:04:09.778311000 +07
   72   7.559893 32:32:32:32:32:32 7dBm Nov 19, 2018 22:04:09.813346000 +07
   73   7.650587 32:32:32:32:32:32 6dBm Nov 19, 2018 22:04:09.904040000 +07
   74   7.871750 32:32:32:32:32:32 6dBm Nov 19, 2018 22:04:10.125203000 +07
   75   7.986357 32:32:32:32:32:32 8dBm Nov 19, 2018 22:04:10.239810000 +07
   76   8.184489 32:32:32:32:32:32 6dBm Nov 19, 2018 22:04:10.437942000 +07
   77   8.498157 32:32:32:32:32:32 8dBm Nov 19, 2018 22:04:10.751610000 +07
   78   8.750972 32:32:32:32:32:32 6dBm Nov 19, 2018 22:04:11.004425000 +07
   79   8.824844 32:32:32:32:32:32 4dBm Nov 19, 2018 22:04:11.078297000 +07
   80   8.842375 32:32:32:32:32:32 6dBm Nov 19, 2018 22:04:11.095828000 +07
   81   8.876419 32:32:32:32:32:32 5dBm Nov 19, 2018 22:04:11.129872000 +07
   82   8.896832 32:32:32:32:32:32 7dBm Nov 19, 2018 22:04:11.150285000 +07
   83   8.919335 32:32:32:32:32:32 6dBm Nov 19, 2018 22:04:11.172788000 +07
   84   9.101212 32:32:32:32:32:32 7dBm Nov 19, 2018 22:04:11.354665000 +07
   85   9.162723 32:32:32:32:32:32 7dBm Nov 19, 2018 22:04:11.416176000 +07
   86   9.322980 32:32:32:32:32:32 8dBm Nov 19, 2018 22:04:11.576433000 +07
   87   9.384535 32:32:32:32:32:32 6dBm Nov 19, 2018 22:04:11.637988000 +07
   88   9.402000 32:32:32:32:32:32 8dBm Nov 19, 2018 22:04:11.655453000 +07
   89   9.435054 32:32:32:32:32:32 7dBm Nov 19, 2018 22:04:11.688507000 +07
   90   9.455017 32:32:32:32:32:32 7dBm Nov 19, 2018 22:04:11.708470000 +07
   91   9.504900 32:32:32:32:32:32 3dBm Nov 19, 2018 22:04:11.758353000 +07
   92   9.544477 32:32:32:32:32:32 7dBm Nov 19, 2018 22:04:11.797930000 +07
   93   9.645560 32:32:32:32:32:32 5dBm Nov 19, 2018 22:04:11.899013000 +07
   94   9.711475 32:32:32:32:32:32 7dBm Nov 19, 2018 22:04:11.964928000 +07
   95   9.817439 32:32:32:32:32:32 7dBm Nov 19, 2018 22:04:12.070892000 +07
   96   9.863309 32:32:32:32:32:32 4dBm Nov 19, 2018 22:04:12.116762000 +07
   97   9.964206 32:32:32:32:32:32 9dBm Nov 19, 2018 22:04:12.217659000 +07
   98  10.023775 32:32:32:32:32:32 6dBm Nov 19, 2018 22:04:12.277228000 +07
   99  10.063597 32:32:32:32:32:32 8dBm Nov 19, 2018 22:04:12.317050000 +07
  100  10.098350 32:32:32:32:32:32 7dBm Nov 19, 2018 22:04:12.351803000 +07
  101  10.171010 32:32:32:32:32:32 7dBm Nov 19, 2018 22:04:12.424463000 +07
  102  10.361139 32:32:32:32:32:32 7dBm Nov 19, 2018 22:04:12.614592000 +07
  103  10.422071 32:32:32:32:32:32 6dBm Nov 19, 2018 22:04:12.675524000 +07
  104  10.521362 32:32:32:32:32:32 7dBm Nov 19, 2018 22:04:12.774815000 +07
  105  10.716022 32:32:32:32:32:32 6dBm Nov 19, 2018 22:04:12.969475000 +07
  106  10.777423 32:32:32:32:32:32 8dBm Nov 19, 2018 22:04:13.030876000 +07
  107  10.954911 32:32:32:32:32:32 4dBm Nov 19, 2018 22:04:13.208364000 +07
  108  10.976222 32:32:32:32:32:32 6dBm Nov 19, 2018 22:04:13.229675000 +07
  109  11.007446 32:32:32:32:32:32 7dBm Nov 19, 2018 22:04:13.260899000 +07
  110  11.166896 32:32:32:32:32:32 5dBm Nov 19, 2018 22:04:13.420349000 +07
  111  11.177828 32:32:32:32:32:32 6dBm Nov 19, 2018 22:04:13.431281000 +07
  112  11.296329 32:32:32:32:32:32 6dBm Nov 19, 2018 22:04:13.549782000 +07
  113  11.426890 32:32:32:32:32:32 5dBm Nov 19, 2018 22:04:13.680343000 +07
  114  11.572753 32:32:32:32:32:32 7dBm Nov 19, 2018 22:04:13.826206000 +07
  115  11.611170 32:32:32:32:32:32 7dBm Nov 19, 2018 22:04:13.864623000 +07
  116  11.650836 32:32:32:32:32:32 5dBm Nov 19, 2018 22:04:13.904289000 +07
  117  11.714935 32:32:32:32:32:32 6dBm Nov 19, 2018 22:04:13.968388000 +07
  118  12.088882 32:32:32:32:32:32 1dBm Nov 19, 2018 22:04:14.342335000 +07
  119  12.121111 32:32:32:32:32:32 7dBm Nov 19, 2018 22:04:14.374564000 +07
  120  12.180128 32:32:32:32:32:32 5dBm Nov 19, 2018 22:04:14.433581000 +07
  121  12.407979 32:32:32:32:32:32 7dBm Nov 19, 2018 22:04:14.661432000 +07
  122  12.476797 32:32:32:32:32:32 5dBm Nov 19, 2018 22:04:14.730250000 +07
  123  12.505733 32:32:32:32:32:32 6dBm Nov 19, 2018 22:04:14.759186000 +07
  124  12.555310 32:32:32:32:32:32 4dBm Nov 19, 2018 22:04:14.808763000 +07
  125  12.568334 32:32:32:32:32:32 8dBm Nov 19, 2018 22:04:14.821787000 +07
  126  12.637384 32:32:32:32:32:32 8dBm Nov 19, 2018 22:04:14.890837000 +07
  127  12.985431 32:32:32:32:32:32 7dBm Nov 19, 2018 22:04:15.238884000 +07
  128  13.132451 32:32:32:32:32:32 6dBm Nov 19, 2018 22:04:15.385904000 +07
  129  13.350406 32:32:32:32:32:32 5dBm Nov 19, 2018 22:04:15.603859000 +07
  130  13.503714 32:32:32:32:32:32 7dBm Nov 19, 2018 22:04:15.757167000 +07
  131  13.632733 32:32:32:32:32:32 8dBm Nov 19, 2018 22:04:15.886186000 +07
  132  13.735454 32:32:32:32:32:32 5dBm Nov 19, 2018 22:04:15.988907000 +07
  133  13.804660 32:32:32:32:32:32 9dBm Nov 19, 2018 22:04:16.058113000 +07
  134  13.867733 32:32:32:32:32:32 6dBm Nov 19, 2018 22:04:16.121186000 +07
  135  13.890922 32:32:32:32:32:32 7dBm Nov 19, 2018 22:04:16.144375000 +07
  136  13.930340 32:32:32:32:32:32 8dBm Nov 19, 2018 22:04:16.183793000 +07
  137  13.991980 32:32:32:32:32:32 7dBm Nov 19, 2018 22:04:16.245433000 +07
  138  14.037864 32:32:32:32:32:32 8dBm Nov 19, 2018 22:04:16.291317000 +07
  139  14.117113 32:32:32:32:32:32 7dBm Nov 19, 2018 22:04:16.370566000 +07
  140  14.306836 32:32:32:32:32:32 5dBm Nov 19, 2018 22:04:16.560289000 +07
  141  14.362704 32:32:32:32:32:32 7dBm Nov 19, 2018 22:04:16.616157000 +07
  142  14.494062 32:32:32:32:32:32 8dBm Nov 19, 2018 22:04:16.747515000 +07
  143  14.672878 32:32:32:32:32:32 6dBm Nov 19, 2018 22:04:16.926331000 +07
  144  14.698578 32:32:32:32:32:32 7dBm Nov 19, 2018 22:04:16.952031000 +07
  145  14.719525 32:32:32:32:32:32 6dBm Nov 19, 2018 22:04:16.972978000 +07
  146  14.749207 32:32:32:32:32:32 6dBm Nov 19, 2018 22:04:17.002660000 +07
  147  14.829785 32:32:32:32:32:32 6dBm Nov 19, 2018 22:04:17.083238000 +07
  148  14.890231 32:32:32:32:32:32 7dBm Nov 19, 2018 22:04:17.143684000 +07
  149  14.937114 32:32:32:32:32:32 7dBm Nov 19, 2018 22:04:17.190567000 +07
  150  15.087515 32:32:32:32:32:32 8dBm Nov 19, 2018 22:04:17.340968000 +07
  151  15.200045 32:32:32:32:32:32 7dBm Nov 19, 2018 22:04:17.453498000 +07
  152  15.279218 32:32:32:32:32:32 5dBm Nov 19, 2018 22:04:17.532671000 +07
  153  15.293522 32:32:32:32:32:32 8dBm Nov 19, 2018 22:04:17.546975000 +07
  154  15.461610 32:32:32:32:32:32 6dBm Nov 19, 2018 22:04:17.715063000 +07
  155  15.485756 32:32:32:32:32:32 6dBm Nov 19, 2018 22:04:17.739209000 +07
  156  15.577047 32:32:32:32:32:32 7dBm Nov 19, 2018 22:04:17.830500000 +07
  157  15.740875 32:32:32:32:32:32 7dBm Nov 19, 2018 22:04:17.994328000 +07
  158  15.964181 32:32:32:32:32:32 8dBm Nov 19, 2018 22:04:18.217634000 +07
  159  15.982174 32:32:32:32:32:32 7dBm Nov 19, 2018 22:04:18.235627000 +07
  160  16.205964 32:32:32:32:32:32 8dBm Nov 19, 2018 22:04:18.459417000 +07
  161  16.266642 32:32:32:32:32:32 4dBm Nov 19, 2018 22:04:18.520095000 +07
  162  16.404304 32:32:32:32:32:32 3dBm Nov 19, 2018 22:04:18.657757000 +07
  163  16.720510 32:32:32:32:32:32 8dBm Nov 19, 2018 22:04:18.973963000 +07
  164  16.768871 32:32:32:32:32:32 8dBm Nov 19, 2018 22:04:19.022324000 +07
  165  16.777967 32:32:32:32:32:32 6dBm Nov 19, 2018 22:04:19.031420000 +07
  166  16.866976 32:32:32:32:32:32 6dBm Nov 19, 2018 22:04:19.120429000 +07
  167  16.918815 32:32:32:32:32:32 7dBm Nov 19, 2018 22:04:19.172268000 +07
  168  17.102086 32:32:32:32:32:32 5dBm Nov 19, 2018 22:04:19.355539000 +07
  169  17.227425 32:32:32:32:32:32 7dBm Nov 19, 2018 22:04:19.480878000 +07
  170  17.430207 32:32:32:32:32:32 7dBm Nov 19, 2018 22:04:19.683660000 +07
  171  17.493333 32:32:32:32:32:32 6dBm Nov 19, 2018 22:04:19.746786000 +07
  172  17.536438 32:32:32:32:32:32 6dBm Nov 19, 2018 22:04:19.789891000 +07
  173  17.549449 32:32:32:32:32:32 6dBm Nov 19, 2018 22:04:19.802902000 +07
  174  17.698793 32:32:32:32:32:32 5dBm Nov 19, 2018 22:04:19.952246000 +07
  175  17.930581 32:32:32:32:32:32 7dBm Nov 19, 2018 22:04:20.184034000 +07
  176  17.990302 32:32:32:32:32:32 5dBm Nov 19, 2018 22:04:20.243755000 +07
  177  18.085780 32:32:32:32:32:32 6dBm Nov 19, 2018 22:04:20.339233000 +07
  178  18.120365 32:32:32:32:32:32 7dBm Nov 19, 2018 22:04:20.373818000 +07
  179  18.322509 32:32:32:32:32:32 5dBm Nov 19, 2018 22:04:20.575962000 +07
  180  18.561256 32:32:32:32:32:32 8dBm Nov 19, 2018 22:04:20.814709000 +07
  181  18.770392 32:32:32:32:32:32 8dBm Nov 19, 2018 22:04:21.023845000 +07
  182  18.902900 32:32:32:32:32:32 6dBm Nov 19, 2018 22:04:21.156353000 +07
  183  18.996028 32:32:32:32:32:32 6dBm Nov 19, 2018 22:04:21.249481000 +07
  184  19.016273 32:32:32:32:32:32 7dBm Nov 19, 2018 22:04:21.269726000 +07
  185  19.033699 32:32:32:32:32:32 7dBm Nov 19, 2018 22:04:21.287152000 +07
  186  19.144220 32:32:32:32:32:32 8dBm Nov 19, 2018 22:04:21.397673000 +07
  187  19.239027 32:32:32:32:32:32 8dBm Nov 19, 2018 22:04:21.492480000 +07
  188  19.262282 32:32:32:32:32:32 7dBm Nov 19, 2018 22:04:21.515735000 +07
  189  19.474501 32:32:32:32:32:32 7dBm Nov 19, 2018 22:04:21.727954000 +07
  190  19.743263 32:32:32:32:32:32 7dBm Nov 19, 2018 22:04:21.996716000 +07
  191  19.810581 32:32:32:32:32:32 7dBm Nov 19, 2018 22:04:22.064034000 +07
  192  19.907180 32:32:32:32:32:32 8dBm Nov 19, 2018 22:04:22.160633000 +07
  193  20.081955 32:32:32:32:32:32 6dBm Nov 19, 2018 22:04:22.335408000 +07
  194  20.144020 32:32:32:32:32:32 4dBm Nov 19, 2018 22:04:22.397473000 +07
  195  20.224205 32:32:32:32:32:32 8dBm Nov 19, 2018 22:04:22.477658000 +07
  196  20.264481 32:32:32:32:32:32 9dBm Nov 19, 2018 22:04:22.517934000 +07
  197  20.316949 32:32:32:32:32:32 6dBm Nov 19, 2018 22:04:22.570402000 +07
  198  20.329617 32:32:32:32:32:32 8dBm Nov 19, 2018 22:04:22.583070000 +07
  199  20.489578 32:32:32:32:32:32 8dBm Nov 19, 2018 22:04:22.743031000 +07
  200  20.545912 32:32:32:32:32:32 7dBm Nov 19, 2018 22:04:22.799365000 +07
  201  20.621635 32:32:32:32:32:32 6dBm Nov 19, 2018 22:04:22.875088000 +07
  202  20.817440 32:32:32:32:32:32 8dBm Nov 19, 2018 22:04:23.070893000 +07
  203  20.862716 32:32:32:32:32:32 6dBm Nov 19, 2018 22:04:23.116169000 +07
  204  20.958024 32:32:32:32:32:32 8dBm Nov 19, 2018 22:04:23.211477000 +07
  205  21.018552 32:32:32:32:32:32 6dBm Nov 19, 2018 22:04:23.272005000 +07
  206  21.041556 32:32:32:32:32:32 6dBm Nov 19, 2018 22:04:23.295009000 +07
  207  21.068072 32:32:32:32:32:32 6dBm Nov 19, 2018 22:04:23.321525000 +07
  208  21.103347 32:32:32:32:32:32 8dBm Nov 19, 2018 22:04:23.356800000 +07
  209  21.175331 32:32:32:32:32:32 6dBm Nov 19, 2018 22:04:23.428784000 +07
  210  21.209559 32:32:32:32:32:32 8dBm Nov 19, 2018 22:04:23.463012000 +07
  211  21.262015 32:32:32:32:32:32 6dBm Nov 19, 2018 22:04:23.515468000 +07
  212  21.363401 32:32:32:32:32:32 6dBm Nov 19, 2018 22:04:23.616854000 +07
  213  21.505554 32:32:32:32:32:32 5dBm Nov 19, 2018 22:04:23.759007000 +07
  214  21.796653 32:32:32:32:32:32 6dBm Nov 19, 2018 22:04:24.050106000 +07
  215  21.850526 32:32:32:32:32:32 6dBm Nov 19, 2018 22:04:24.103979000 +07
  216  21.877751 32:32:32:32:32:32 5dBm Nov 19, 2018 22:04:24.131204000 +07
  217  21.995744 32:32:32:32:32:32 7dBm Nov 19, 2018 22:04:24.249197000 +07
  218  22.025154 32:32:32:32:32:32 6dBm Nov 19, 2018 22:04:24.278607000 +07
  219  22.193792 32:32:32:32:32:32 7dBm Nov 19, 2018 22:04:24.447245000 +07
  220  22.464639 32:32:32:32:32:32 6dBm Nov 19, 2018 22:04:24.718092000 +07
  221  22.732160 32:32:32:32:32:32 6dBm Nov 19, 2018 22:04:24.985613000 +07
  222  22.854828 32:32:32:32:32:32 7dBm Nov 19, 2018 22:04:25.108281000 +07
  223  22.882208 32:32:32:32:32:32 8dBm Nov 19, 2018 22:04:25.135661000 +07
  224  22.890501 32:32:32:32:32:32 6dBm Nov 19, 2018 22:04:25.143954000 +07
  225  23.053302 32:32:32:32:32:32 7dBm Nov 19, 2018 22:04:25.306755000 +07
  226  23.267964 32:32:32:32:32:32 7dBm Nov 19, 2018 22:04:25.521417000 +07
  227  23.393802 32:32:32:32:32:32 6dBm Nov 19, 2018 22:04:25.647255000 +07
  228  23.429343 32:32:32:32:32:32 6dBm Nov 19, 2018 22:04:25.682796000 +07
  229  23.517373 32:32:32:32:32:32 6dBm Nov 19, 2018 22:04:25.770826000 +07
  230  23.905089 32:32:32:32:32:32 7dBm Nov 19, 2018 22:04:26.158542000 +07
  231  24.073733 32:32:32:32:32:32 6dBm Nov 19, 2018 22:04:26.327186000 +07
  232  24.341044 32:32:32:32:32:32 8dBm Nov 19, 2018 22:04:26.594497000 +07
  233  24.478113 32:32:32:32:32:32 8dBm Nov 19, 2018 22:04:26.731566000 +07
  234  24.646892 32:32:32:32:32:32 7dBm Nov 19, 2018 22:04:26.900345000 +07
  235  24.757123 32:32:32:32:32:32 6dBm Nov 19, 2018 22:04:27.010576000 +07
  236  25.227264 32:32:32:32:32:32 6dBm Nov 19, 2018 22:04:27.480717000 +07
  237  25.412714 32:32:32:32:32:32 8dBm Nov 19, 2018 22:04:27.666167000 +07
  238  25.621831 32:32:32:32:32:32 7dBm Nov 19, 2018 22:04:27.875284000 +07
  239  25.800494 32:32:32:32:32:32 4dBm Nov 19, 2018 22:04:28.053947000 +07
  240  25.914486 32:32:32:32:32:32 7dBm Nov 19, 2018 22:04:28.167939000 +07
  241  26.104432 32:32:32:32:32:32 7dBm Nov 19, 2018 22:04:28.357885000 +07
  242  26.285267 32:32:32:32:32:32 8dBm Nov 19, 2018 22:04:28.538720000 +07
  243  26.319346 32:32:32:32:32:32 6dBm Nov 19, 2018 22:04:28.572799000 +07
  244  26.371669 32:32:32:32:32:32 6dBm Nov 19, 2018 22:04:28.625122000 +07
  245  26.399299 32:32:32:32:32:32 6dBm Nov 19, 2018 22:04:28.652752000 +07
  246  26.508144 32:32:32:32:32:32 8dBm Nov 19, 2018 22:04:28.761597000 +07
  247  26.518632 32:32:32:32:32:32 8dBm Nov 19, 2018 22:04:28.772085000 +07
  248  26.604424 32:32:32:32:32:32 8dBm Nov 19, 2018 22:04:28.857877000 +07
  249  26.697792 32:32:32:32:32:32 8dBm Nov 19, 2018 22:04:28.951245000 +07
  250  26.844528 32:32:32:32:32:32 7dBm Nov 19, 2018 22:04:29.097981000 +07
  251  26.858395 32:32:32:32:32:32 6dBm Nov 19, 2018 22:04:29.111848000 +07
  252  26.934371 32:32:32:32:32:32 8dBm Nov 19, 2018 22:04:29.187824000 +07
  253  26.986428 32:32:32:32:32:32 6dBm Nov 19, 2018 22:04:29.239881000 +07
  254  27.017774 32:32:32:32:32:32 7dBm Nov 19, 2018 22:04:29.271227000 +07
  255  27.188522 32:32:32:32:32:32 7dBm Nov 19, 2018 22:04:29.441975000 +07
  256  27.253929 32:32:32:32:32:32 5dBm Nov 19, 2018 22:04:29.507382000 +07
  257  27.594026 32:32:32:32:32:32 6dBm Nov 19, 2018 22:04:29.847479000 +07
  258  27.798860 32:32:32:32:32:32 7dBm Nov 19, 2018 22:04:30.052313000 +07
  259  27.828728 32:32:32:32:32:32 7dBm Nov 19, 2018 22:04:30.082181000 +07
  260  27.904816 32:32:32:32:32:32 8dBm Nov 19, 2018 22:04:30.158269000 +07
  261  27.958550 32:32:32:32:32:32 6dBm Nov 19, 2018 22:04:30.212003000 +07
  262  27.976031 32:32:32:32:32:32 6dBm Nov 19, 2018 22:04:30.229484000 +07
  263  28.078738 32:32:32:32:32:32 7dBm Nov 19, 2018 22:04:30.332191000 +07
  264  28.301992 32:32:32:32:32:32 7dBm Nov 19, 2018 22:04:30.555445000 +07
  265  28.358476 32:32:32:32:32:32 6dBm Nov 19, 2018 22:04:30.611929000 +07
  266  28.456094 32:32:32:32:32:32 5dBm Nov 19, 2018 22:04:30.709547000 +07
  267  28.537026 32:32:32:32:32:32 4dBm Nov 19, 2018 22:04:30.790479000 +07
  268  28.576591 32:32:32:32:32:32 6dBm Nov 19, 2018 22:04:30.830044000 +07
  269  28.645969 32:32:32:32:32:32 5dBm Nov 19, 2018 22:04:30.899422000 +07
  270  28.662895 32:32:32:32:32:32 7dBm Nov 19, 2018 22:04:30.916348000 +07
  271  28.688845 32:32:32:32:32:32 8dBm Nov 19, 2018 22:04:30.942298000 +07
  272  28.694940 32:32:32:32:32:32 6dBm Nov 19, 2018 22:04:30.948393000 +07
  273  28.743428 32:32:32:32:32:32 7dBm Nov 19, 2018 22:04:30.996881000 +07
  274  28.850375 32:32:32:32:32:32 7dBm Nov 19, 2018 22:04:31.103828000 +07
  275  28.955603 32:32:32:32:32:32 8dBm Nov 19, 2018 22:04:31.209056000 +07
  276  29.317644 32:32:32:32:32:32 7dBm Nov 19, 2018 22:04:31.571097000 +07
  277  29.384363 32:32:32:32:32:32 6dBm Nov 19, 2018 22:04:31.637816000 +07
  278  29.441682 32:32:32:32:32:32 7dBm Nov 19, 2018 22:04:31.695135000 +07
  279  29.538945 32:32:32:32:32:32 6dBm Nov 19, 2018 22:04:31.792398000 +07
  280  29.816902 32:32:32:32:32:32 7dBm Nov 19, 2018 22:04:32.070355000 +07
  281  29.829447 32:32:32:32:32:32 6dBm Nov 19, 2018 22:04:32.082900000 +07
  282  29.896217 32:32:32:32:32:32 7dBm Nov 19, 2018 22:04:32.149670000 +07
  283  29.923238 32:32:32:32:32:32 5dBm Nov 19, 2018 22:04:32.176691000 +07
  284  29.942135 32:32:32:32:32:32 5dBm Nov 19, 2018 22:04:32.195588000 +07
  285  30.005486 32:32:32:32:32:32 7dBm Nov 19, 2018 22:04:32.258939000 +07
  286  30.099298 32:32:32:32:32:32 7dBm Nov 19, 2018 22:04:32.352751000 +07
  287  30.125226 32:32:32:32:32:32 8dBm Nov 19, 2018 22:04:32.378679000 +07
  288  30.219750 32:32:32:32:32:32 5dBm Nov 19, 2018 22:04:32.473203000 +07
  289  30.301312 32:32:32:32:32:32 7dBm Nov 19, 2018 22:04:32.554765000 +07
  290  30.334455 32:32:32:32:32:32 8dBm Nov 19, 2018 22:04:32.587908000 +07
  291  30.382429 32:32:32:32:32:32 3dBm Nov 19, 2018 22:04:32.635882000 +07
  292  30.445279 32:32:32:32:32:32 7dBm Nov 19, 2018 22:04:32.698732000 +07
  293  30.486944 32:32:32:32:32:32 6dBm Nov 19, 2018 22:04:32.740397000 +07
  294  30.506063 32:32:32:32:32:32 7dBm Nov 19, 2018 22:04:32.759516000 +07
  295  30.519641 32:32:32:32:32:32 4dBm Nov 19, 2018 22:04:32.773094000 +07
  296  30.729489 32:32:32:32:32:32 5dBm Nov 19, 2018 22:04:32.982942000 +07
  297  30.854827 32:32:32:32:32:32 3dBm Nov 19, 2018 22:04:33.108280000 +07
  298  30.924712 32:32:32:32:32:32 9dBm Nov 19, 2018 22:04:33.178165000 +07
  299  31.224164 32:32:32:32:32:32 7dBm Nov 19, 2018 22:04:33.477617000 +07
  300  31.272765 32:32:32:32:32:32 5dBm Nov 19, 2018 22:04:33.526218000 +07
  301  31.379733 32:32:32:32:32:32 6dBm Nov 19, 2018 22:04:33.633186000 +07
  302  31.473035 32:32:32:32:32:32 7dBm Nov 19, 2018 22:04:33.726488000 +07
  303  31.617914 32:32:32:32:32:32 7dBm Nov 19, 2018 22:04:33.871367000 +07
  304  31.657439 32:32:32:32:32:32 7dBm Nov 19, 2018 22:04:33.910892000 +07
  305  31.851457 32:32:32:32:32:32 6dBm Nov 19, 2018 22:04:34.104910000 +07
  306  31.874419 32:32:32:32:32:32 6dBm Nov 19, 2018 22:04:34.127872000 +07
  307  31.882951 32:32:32:32:32:32 7dBm Nov 19, 2018 22:04:34.136404000 +07
  308  31.940761 32:32:32:32:32:32 7dBm Nov 19, 2018 22:04:34.194214000 +07
  309  32.042414 32:32:32:32:32:32 4dBm Nov 19, 2018 22:04:34.295867000 +07
  310  32.116722 32:32:32:32:32:32 7dBm Nov 19, 2018 22:04:34.370175000 +07
  311  32.213568 32:32:32:32:32:32 9dBm Nov 19, 2018 22:04:34.467021000 +07
  312  32.237718 32:32:32:32:32:32 6dBm Nov 19, 2018 22:04:34.491171000 +07
  313  32.285850 32:32:32:32:32:32 3dBm Nov 19, 2018 22:04:34.539303000 +07
  314  32.323045 32:32:32:32:32:32 8dBm Nov 19, 2018 22:04:34.576498000 +07
  315  32.417123 32:32:32:32:32:32 6dBm Nov 19, 2018 22:04:34.670576000 +07
  316  32.495496 32:32:32:32:32:32 6dBm Nov 19, 2018 22:04:34.748949000 +07
  317  32.665721 32:32:32:32:32:32 7dBm Nov 19, 2018 22:04:34.919174000 +07
  318  32.731608 32:32:32:32:32:32 6dBm Nov 19, 2018 22:04:34.985061000 +07
  319  32.787540 32:32:32:32:32:32 8dBm Nov 19, 2018 22:04:35.040993000 +07
  320  32.968009 32:32:32:32:32:32 6dBm Nov 19, 2018 22:04:35.221462000 +07
  321  33.195689 32:32:32:32:32:32 5dBm Nov 19, 2018 22:04:35.449142000 +07
  322  33.259833 32:32:32:32:32:32 7dBm Nov 19, 2018 22:04:35.513286000 +07
  323  33.696684 32:32:32:32:32:32 5dBm Nov 19, 2018 22:04:35.950137000 +07
  324  33.984397 32:32:32:32:32:32 7dBm Nov 19, 2018 22:04:36.237850000 +07
  325  34.009894 32:32:32:32:32:32 6dBm Nov 19, 2018 22:04:36.263347000 +07
  326  34.208791 32:32:32:32:32:32 6dBm Nov 19, 2018 22:04:36.462244000 +07
  327  34.352233 32:32:32:32:32:32 6dBm Nov 19, 2018 22:04:36.605686000 +07
  328  34.374781 32:32:32:32:32:32 7dBm Nov 19, 2018 22:04:36.628234000 +07
  329  34.523315 32:32:32:32:32:32 7dBm Nov 19, 2018 22:04:36.776768000 +07
  330  34.573254 32:32:32:32:32:32 8dBm Nov 19, 2018 22:04:36.826707000 +07
  331  34.597351 32:32:32:32:32:32 7dBm Nov 19, 2018 22:04:36.850804000 +07
  332  34.801283 32:32:32:32:32:32 8dBm Nov 19, 2018 22:04:37.054736000 +07
  333  34.854653 32:32:32:32:32:32 8dBm Nov 19, 2018 22:04:37.108106000 +07
  334  34.901134 32:32:32:32:32:32 7dBm Nov 19, 2018 22:04:37.154587000 +07
  335  34.920301 32:32:32:32:32:32 7dBm Nov 19, 2018 22:04:37.173754000 +07
  336  35.085332 32:32:32:32:32:32 7dBm Nov 19, 2018 22:04:37.338785000 +07
  337  35.168775 32:32:32:32:32:32 8dBm Nov 19, 2018 22:04:37.422228000 +07
  338  35.248315 32:32:32:32:32:32 8dBm Nov 19, 2018 22:04:37.501768000 +07
  339  35.355780 32:32:32:32:32:32 5dBm Nov 19, 2018 22:04:37.609233000 +07
  340  35.459940 32:32:32:32:32:32 7dBm Nov 19, 2018 22:04:37.713393000 +07
  341  35.489873 32:32:32:32:32:32 5dBm Nov 19, 2018 22:04:37.743326000 +07
  342  35.537513 32:32:32:32:32:32 6dBm Nov 19, 2018 22:04:37.790966000 +07
  343  35.565533 32:32:32:32:32:32 7dBm Nov 19, 2018 22:04:37.818986000 +07
  344  35.586909 32:32:32:32:32:32 7dBm Nov 19, 2018 22:04:37.840362000 +07
  345  35.694546 32:32:32:32:32:32 6dBm Nov 19, 2018 22:04:37.947999000 +07
  346  35.724727 32:32:32:32:32:32 7dBm Nov 19, 2018 22:04:37.978180000 +07
  347  35.842103 32:32:32:32:32:32 7dBm Nov 19, 2018 22:04:38.095556000 +07
  348  35.880610 32:32:32:32:32:32 5dBm Nov 19, 2018 22:04:38.134063000 +07
  349  36.179926 32:32:32:32:32:32 8dBm Nov 19, 2018 22:04:38.433379000 +07
  350  36.597877 32:32:32:32:32:32 4dBm Nov 19, 2018 22:04:38.851330000 +07
  351  36.654067 32:32:32:32:32:32 6dBm Nov 19, 2018 22:04:38.907520000 +07
  352  36.680484 32:32:32:32:32:32 6dBm Nov 19, 2018 22:04:38.933937000 +07
  353  36.688732 32:32:32:32:32:32 8dBm Nov 19, 2018 22:04:38.942185000 +07
  354  36.716561 32:32:32:32:32:32 6dBm Nov 19, 2018 22:04:38.970014000 +07
  355  36.858471 32:32:32:32:32:32 7dBm Nov 19, 2018 22:04:39.111924000 +07
  356  37.026914 32:32:32:32:32:32 9dBm Nov 19, 2018 22:04:39.280367000 +07
  357  37.063309 32:32:32:32:32:32 7dBm Nov 19, 2018 22:04:39.316762000 +07
  358  37.118100 32:32:32:32:32:32 6dBm Nov 19, 2018 22:04:39.371553000 +07
  359  37.275225 32:32:32:32:32:32 8dBm Nov 19, 2018 22:04:39.528678000 +07
  360  37.401570 32:32:32:32:32:32 7dBm Nov 19, 2018 22:04:39.655023000 +07
  361  37.581960 32:32:32:32:32:32 7dBm Nov 19, 2018 22:04:39.835413000 +07
  362  37.741442 32:32:32:32:32:32 7dBm Nov 19, 2018 22:04:39.994895000 +07
  363  37.805232 32:32:32:32:32:32 8dBm Nov 19, 2018 22:04:40.058685000 +07
  364  37.819225 32:32:32:32:32:32 7dBm Nov 19, 2018 22:04:40.072678000 +07
  365  37.824622 32:32:32:32:32:32 8dBm Nov 19, 2018 22:04:40.078075000 +07
  366  37.837852 32:32:32:32:32:32 6dBm Nov 19, 2018 22:04:40.091305000 +07
  367  37.886073 32:32:32:32:32:32 7dBm Nov 19, 2018 22:04:40.139526000 +07
  368  37.903938 32:32:32:32:32:32 7dBm Nov 19, 2018 22:04:40.157391000 +07
  369  37.924038 32:32:32:32:32:32 7dBm Nov 19, 2018 22:04:40.177491000 +07
  370  37.941953 32:32:32:32:32:32 5dBm Nov 19, 2018 22:04:40.195406000 +07
  371  37.975335 32:32:32:32:32:32 5dBm Nov 19, 2018 22:04:40.228788000 +07
  372  37.997612 32:32:32:32:32:32 6dBm Nov 19, 2018 22:04:40.251065000 +07
  373  38.095521 32:32:32:32:32:32 6dBm Nov 19, 2018 22:04:40.348974000 +07
  374  38.220568 32:32:32:32:32:32 6dBm Nov 19, 2018 22:04:40.474021000 +07
  375  38.304498 32:32:32:32:32:32 7dBm Nov 19, 2018 22:04:40.557951000 +07
  376  38.438520 32:32:32:32:32:32 7dBm Nov 19, 2018 22:04:40.691973000 +07
  377  38.483253 32:32:32:32:32:32 6dBm Nov 19, 2018 22:04:40.736706000 +07
  378  38.633813 32:32:32:32:32:32 7dBm Nov 19, 2018 22:04:40.887266000 +07
  379  38.661718 32:32:32:32:32:32 7dBm Nov 19, 2018 22:04:40.915171000 +07
  380  38.691491 32:32:32:32:32:32 7dBm Nov 19, 2018 22:04:40.944944000 +07
  381  38.743280 32:32:32:32:32:32 7dBm Nov 19, 2018 22:04:40.996733000 +07
  382  38.782856 32:32:32:32:32:32 8dBm Nov 19, 2018 22:04:41.036309000 +07
  383  38.800394 32:32:32:32:32:32 7dBm Nov 19, 2018 22:04:41.053847000 +07
  384  38.836142 32:32:32:32:32:32 8dBm Nov 19, 2018 22:04:41.089595000 +07
  385  38.853095 32:32:32:32:32:32 8dBm Nov 19, 2018 22:04:41.106548000 +07
  386  38.961684 32:32:32:32:32:32 8dBm Nov 19, 2018 22:04:41.215137000 +07
  387  39.011748 32:32:32:32:32:32 7dBm Nov 19, 2018 22:04:41.265201000 +07
  388  39.030013 32:32:32:32:32:32 5dBm Nov 19, 2018 22:04:41.283466000 +07
  389  39.221358 32:32:32:32:32:32 8dBm Nov 19, 2018 22:04:41.474811000 +07
  390  39.250340 32:32:32:32:32:32 7dBm Nov 19, 2018 22:04:41.503793000 +07
  391  39.369238 32:32:32:32:32:32 7dBm Nov 19, 2018 22:04:41.622691000 +07
  392  39.450495 32:32:32:32:32:32 8dBm Nov 19, 2018 22:04:41.703948000 +07
  393  39.469319 32:32:32:32:32:32 7dBm Nov 19, 2018 22:04:41.722772000 +07
  394  39.587307 32:32:32:32:32:32 8dBm Nov 19, 2018 22:04:41.840760000 +07
  395  39.619485 32:32:32:32:32:32 7dBm Nov 19, 2018 22:04:41.872938000 +07
  396  39.635309 32:32:32:32:32:32 7dBm Nov 19, 2018 22:04:41.888762000 +07
  397  39.648161 32:32:32:32:32:32 7dBm Nov 19, 2018 22:04:41.901614000 +07
  398  39.886840 32:32:32:32:32:32 7dBm Nov 19, 2018 22:04:42.140293000 +07
  399  39.913859 32:32:32:32:32:32 5dBm Nov 19, 2018 22:04:42.167312000 +07
  400  40.132403 32:32:32:32:32:32 8dBm Nov 19, 2018 22:04:42.385856000 +07
  401  40.150174 32:32:32:32:32:32 8dBm Nov 19, 2018 22:04:42.403627000 +07
  402  40.325349 32:32:32:32:32:32 8dBm Nov 19, 2018 22:04:42.578802000 +07
  403  40.356577 32:32:32:32:32:32 7dBm Nov 19, 2018 22:04:42.610030000 +07
  404  40.536293 32:32:32:32:32:32 7dBm Nov 19, 2018 22:04:42.789746000 +07
  405  40.626773 32:32:32:32:32:32 6dBm Nov 19, 2018 22:04:42.880226000 +07
  406  40.657730 32:32:32:32:32:32 7dBm Nov 19, 2018 22:04:42.911183000 +07
  407  40.682625 32:32:32:32:32:32 9dBm Nov 19, 2018 22:04:42.936078000 +07
  408  40.975995 32:32:32:32:32:32 9dBm Nov 19, 2018 22:04:43.229448000 +07
  409  40.993350 32:32:32:32:32:32 5dBm Nov 19, 2018 22:04:43.246803000 +07
  410  41.047344 32:32:32:32:32:32 8dBm Nov 19, 2018 22:04:43.300797000 +07
  411  41.158787 32:32:32:32:32:32 6dBm Nov 19, 2018 22:04:43.412240000 +07
  412  41.194099 32:32:32:32:32:32 6dBm Nov 19, 2018 22:04:43.447552000 +07
  413  41.464933 32:32:32:32:32:32 7dBm Nov 19, 2018 22:04:43.718386000 +07
  414  41.725289 32:32:32:32:32:32 6dBm Nov 19, 2018 22:04:43.978742000 +07
  415  42.356777 32:32:32:32:32:32 7dBm Nov 19, 2018 22:04:44.610230000 +07
  416  42.561686 32:32:32:32:32:32 7dBm Nov 19, 2018 22:04:44.815139000 +07
  417  42.590438 32:32:32:32:32:32 5dBm Nov 19, 2018 22:04:44.843891000 +07
  418  42.629089 32:32:32:32:32:32 7dBm Nov 19, 2018 22:04:44.882542000 +07
  419  42.731544 32:32:32:32:32:32 7dBm Nov 19, 2018 22:04:44.984997000 +07
  420  43.029857 32:32:32:32:32:32 8dBm Nov 19, 2018 22:04:45.283310000 +07
  421  43.111453 32:32:32:32:32:32 7dBm Nov 19, 2018 22:04:45.364906000 +07
  422  43.131171 32:32:32:32:32:32 5dBm Nov 19, 2018 22:04:45.384624000 +07
  423  43.241003 32:32:32:32:32:32 6dBm Nov 19, 2018 22:04:45.494456000 +07
  424  43.397657 32:32:32:32:32:32 7dBm Nov 19, 2018 22:04:45.651110000 +07
  425  43.422309 32:32:32:32:32:32 7dBm Nov 19, 2018 22:04:45.675762000 +07
  426  43.554449 32:32:32:32:32:32 5dBm Nov 19, 2018 22:04:45.807902000 +07
  427  43.569491 32:32:32:32:32:32 3dBm Nov 19, 2018 22:04:45.822944000 +07
  428  43.608044 32:32:32:32:32:32 6dBm Nov 19, 2018 22:04:45.861497000 +07
  429  43.689835 32:32:32:32:32:32 6dBm Nov 19, 2018 22:04:45.943288000 +07
  430  44.114382 32:32:32:32:32:32 5dBm Nov 19, 2018 22:04:46.367835000 +07
  431  44.279462 32:32:32:32:32:32 7dBm Nov 19, 2018 22:04:46.532915000 +07
  432  44.323343 32:32:32:32:32:32 6dBm Nov 19, 2018 22:04:46.576796000 +07
  433  44.482031 32:32:32:32:32:32 6dBm Nov 19, 2018 22:04:46.735484000 +07
  434  44.566646 32:32:32:32:32:32 7dBm Nov 19, 2018 22:04:46.820099000 +07
  435  44.606090 32:32:32:32:32:32 7dBm Nov 19, 2018 22:04:46.859543000 +07
  436  44.874662 32:32:32:32:32:32 5dBm Nov 19, 2018 22:04:47.128115000 +07
  437  44.939146 32:32:32:32:32:32 8dBm Nov 19, 2018 22:04:47.192599000 +07
  438  44.966238 32:32:32:32:32:32 5dBm Nov 19, 2018 22:04:47.219691000 +07
  439  45.309158 32:32:32:32:32:32 7dBm Nov 19, 2018 22:04:47.562611000 +07
  440  45.339380 32:32:32:32:32:32 7dBm Nov 19, 2018 22:04:47.592833000 +07
  441  45.524967 32:32:32:32:32:32 8dBm Nov 19, 2018 22:04:47.778420000 +07
  442  45.536813 32:32:32:32:32:32 6dBm Nov 19, 2018 22:04:47.790266000 +07
  443  45.553221 32:32:32:32:32:32 7dBm Nov 19, 2018 22:04:47.806674000 +07
  444  45.568607 32:32:32:32:32:32 5dBm Nov 19, 2018 22:04:47.822060000 +07
  445  45.586468 32:32:32:32:32:32 7dBm Nov 19, 2018 22:04:47.839921000 +07
  446  45.619375 32:32:32:32:32:32 7dBm Nov 19, 2018 22:04:47.872828000 +07
  447  45.763430 32:32:32:32:32:32 7dBm Nov 19, 2018 22:04:48.016883000 +07
  448  45.828419 32:32:32:32:32:32 6dBm Nov 19, 2018 22:04:48.081872000 +07
  449  46.256773 32:32:32:32:32:32 5dBm Nov 19, 2018 22:04:48.510226000 +07
  450  46.340263 32:32:32:32:32:32 5dBm Nov 19, 2018 22:04:48.593716000 +07
  451  46.359110 32:32:32:32:32:32 4dBm Nov 19, 2018 22:04:48.612563000 +07
  452  46.384884 32:32:32:32:32:32 6dBm Nov 19, 2018 22:04:48.638337000 +07
  453  46.414965 32:32:32:32:32:32 6dBm Nov 19, 2018 22:04:48.668418000 +07
  454  46.447113 32:32:32:32:32:32 8dBm Nov 19, 2018 22:04:48.700566000 +07
  455  46.574111 32:32:32:32:32:32 7dBm Nov 19, 2018 22:04:48.827564000 +07
  456  46.743994 32:32:32:32:32:32 7dBm Nov 19, 2018 22:04:48.997447000 +07
  457  46.769545 32:32:32:32:32:32 8dBm Nov 19, 2018 22:04:49.022998000 +07
  458  46.856066 32:32:32:32:32:32 6dBm Nov 19, 2018 22:04:49.109519000 +07
  459  46.915862 32:32:32:32:32:32 5dBm Nov 19, 2018 22:04:49.169315000 +07
  460  46.950557 32:32:32:32:32:32 7dBm Nov 19, 2018 22:04:49.204010000 +07
  461  46.964299 32:32:32:32:32:32 5dBm Nov 19, 2018 22:04:49.217752000 +07
  462  47.009388 32:32:32:32:32:32 6dBm Nov 19, 2018 22:04:49.262841000 +07
  463  47.138289 32:32:32:32:32:32 9dBm Nov 19, 2018 22:04:49.391742000 +07
  464  47.214968 32:32:32:32:32:32 8dBm Nov 19, 2018 22:04:49.468421000 +07
  465  47.271470 32:32:32:32:32:32 7dBm Nov 19, 2018 22:04:49.524923000 +07
  466  47.331631 32:32:32:32:32:32 8dBm Nov 19, 2018 22:04:49.585084000 +07
  467  47.574508 32:32:32:32:32:32 7dBm Nov 19, 2018 22:04:49.827961000 +07
  468  47.676925 32:32:32:32:32:32 5dBm Nov 19, 2018 22:04:49.930378000 +07
  469  47.704364 32:32:32:32:32:32 6dBm Nov 19, 2018 22:04:49.957817000 +07
  470  47.781895 32:32:32:32:32:32 5dBm Nov 19, 2018 22:04:50.035348000 +07
  471  47.895694 32:32:32:32:32:32 7dBm Nov 19, 2018 22:04:50.149147000 +07
  472  48.027649 32:32:32:32:32:32 5dBm Nov 19, 2018 22:04:50.281102000 +07
  473  48.047775 32:32:32:32:32:32 3dBm Nov 19, 2018 22:04:50.301228000 +07
  474  48.189872 32:32:32:32:32:32 7dBm Nov 19, 2018 22:04:50.443325000 +07
  475  48.513937 32:32:32:32:32:32 7dBm Nov 19, 2018 22:04:50.767390000 +07
  476  48.633588 32:32:32:32:32:32 8dBm Nov 19, 2018 22:04:50.887041000 +07
  477  48.692564 32:32:32:32:32:32 6dBm Nov 19, 2018 22:04:50.946017000 +07
  478  48.709987 32:32:32:32:32:32 6dBm Nov 19, 2018 22:04:50.963440000 +07
  479  48.784773 32:32:32:32:32:32 6dBm Nov 19, 2018 22:04:51.038226000 +07
  480  48.848153 32:32:32:32:32:32 8dBm Nov 19, 2018 22:04:51.101606000 +07
  481  48.870747 32:32:32:32:32:32 8dBm Nov 19, 2018 22:04:51.124200000 +07
  482  48.885473 32:32:32:32:32:32 6dBm Nov 19, 2018 22:04:51.138926000 +07
  483  48.935322 32:32:32:32:32:32 8dBm Nov 19, 2018 22:04:51.188775000 +07
  484  48.977573 32:32:32:32:32:32 7dBm Nov 19, 2018 22:04:51.231026000 +07
  485  48.995427 32:32:32:32:32:32 7dBm Nov 19, 2018 22:04:51.248880000 +07
  486  49.186530 32:32:32:32:32:32 7dBm Nov 19, 2018 22:04:51.439983000 +07
  487  49.227666 32:32:32:32:32:32 7dBm Nov 19, 2018 22:04:51.481119000 +07
  488  49.284681 32:32:32:32:32:32 7dBm Nov 19, 2018 22:04:51.538134000 +07
  489  49.306645 32:32:32:32:32:32 7dBm Nov 19, 2018 22:04:51.560098000 +07
  490  49.395732 32:32:32:32:32:32 7dBm Nov 19, 2018 22:04:51.649185000 +07
  491  49.454521 32:32:32:32:32:32 4dBm Nov 19, 2018 22:04:51.707974000 +07
  492  49.597787 32:32:32:32:32:32 8dBm Nov 19, 2018 22:04:51.851240000 +07
  493  49.627769 32:32:32:32:32:32 5dBm Nov 19, 2018 22:04:51.881222000 +07
  494  49.650070 32:32:32:32:32:32 7dBm Nov 19, 2018 22:04:51.903523000 +07
  495  49.659141 32:32:32:32:32:32 7dBm Nov 19, 2018 22:04:51.912594000 +07
  496  49.974975 32:32:32:32:32:32 8dBm Nov 19, 2018 22:04:52.228428000 +07
  497  49.989189 32:32:32:32:32:32 7dBm Nov 19, 2018 22:04:52.242642000 +07
  498  50.084894 32:32:32:32:32:32 8dBm Nov 19, 2018 22:04:52.338347000 +07
  499  50.100225 32:32:32:32:32:32 8dBm Nov 19, 2018 22:04:52.353678000 +07
  500  50.113532 32:32:32:32:32:32 7dBm Nov 19, 2018 22:04:52.366985000 +07
  501  50.131813 32:32:32:32:32:32 9dBm Nov 19, 2018 22:04:52.385266000 +07
  502  50.141047 32:32:32:32:32:32 7dBm Nov 19, 2018 22:04:52.394500000 +07
  503  50.169758 32:32:32:32:32:32 8dBm Nov 19, 2018 22:04:52.423211000 +07
  504  50.324486 32:32:32:32:32:32 6dBm Nov 19, 2018 22:04:52.577939000 +07
  505  50.393344 32:32:32:32:32:32 6dBm Nov 19, 2018 22:04:52.646797000 +07
  506  50.433089 32:32:32:32:32:32 8dBm Nov 19, 2018 22:04:52.686542000 +07
  507  50.616699 32:32:32:32:32:32 8dBm Nov 19, 2018 22:04:52.870152000 +07
  508  50.796906 32:32:32:32:32:32 6dBm Nov 19, 2018 22:04:53.050359000 +07
  509  50.899759 32:32:32:32:32:32 8dBm Nov 19, 2018 22:04:53.153212000 +07
  510  51.080188 32:32:32:32:32:32 6dBm Nov 19, 2018 22:04:53.333641000 +07
  511  51.107713 32:32:32:32:32:32 7dBm Nov 19, 2018 22:04:53.361166000 +07
  512  51.134993 32:32:32:32:32:32 9dBm Nov 19, 2018 22:04:53.388446000 +07
  513  51.281747 32:32:32:32:32:32 6dBm Nov 19, 2018 22:04:53.535200000 +07
  514  51.430248 32:32:32:32:32:32 9dBm Nov 19, 2018 22:04:53.683701000 +07
  515  51.561185 32:32:32:32:32:32 6dBm Nov 19, 2018 22:04:53.814638000 +07
  516  51.620653 32:32:32:32:32:32 8dBm Nov 19, 2018 22:04:53.874106000 +07
  517  52.028563 32:32:32:32:32:32 6dBm Nov 19, 2018 22:04:54.282016000 +07
  518  52.111520 32:32:32:32:32:32 8dBm Nov 19, 2018 22:04:54.364973000 +07
  519  52.174312 32:32:32:32:32:32 7dBm Nov 19, 2018 22:04:54.427765000 +07
  520  52.190457 32:32:32:32:32:32 7dBm Nov 19, 2018 22:04:54.443910000 +07
  521  52.423958 32:32:32:32:32:32 6dBm Nov 19, 2018 22:04:54.677411000 +07
  522  52.488604 32:32:32:32:32:32 8dBm Nov 19, 2018 22:04:54.742057000 +07
  523  52.777104 32:32:32:32:32:32 8dBm Nov 19, 2018 22:04:55.030557000 +07
  524  52.884837 32:32:32:32:32:32 7dBm Nov 19, 2018 22:04:55.138290000 +07
  525  52.899883 32:32:32:32:32:32 8dBm Nov 19, 2018 22:04:55.153336000 +07
  526  52.936033 32:32:32:32:32:32 7dBm Nov 19, 2018 22:04:55.189486000 +07
  527  52.953646 32:32:32:32:32:32 6dBm Nov 19, 2018 22:04:55.207099000 +07
  528  53.037552 32:32:32:32:32:32 7dBm Nov 19, 2018 22:04:55.291005000 +07
  529  53.115646 32:32:32:32:32:32 8dBm Nov 19, 2018 22:04:55.369099000 +07
  530  53.128631 32:32:32:32:32:32 6dBm Nov 19, 2018 22:04:55.382084000 +07
  531  53.174942 32:32:32:32:32:32 7dBm Nov 19, 2018 22:04:55.428395000 +07
  532  53.190074 32:32:32:32:32:32 8dBm Nov 19, 2018 22:04:55.443527000 +07
  533  53.228084 32:32:32:32:32:32 8dBm Nov 19, 2018 22:04:55.481537000 +07
  534  53.249516 32:32:32:32:32:32 5dBm Nov 19, 2018 22:04:55.502969000 +07
  535  53.290713 32:32:32:32:32:32 6dBm Nov 19, 2018 22:04:55.544166000 +07
  536  53.380058 32:32:32:32:32:32 8dBm Nov 19, 2018 22:04:55.633511000 +07
  537  53.687916 32:32:32:32:32:32 1dBm Nov 19, 2018 22:04:55.941369000 +07
  538  53.768333 32:32:32:32:32:32 5dBm Nov 19, 2018 22:04:56.021786000 +07
  539  53.787095 32:32:32:32:32:32 7dBm Nov 19, 2018 22:04:56.040548000 +07
  540  53.809310 32:32:32:32:32:32 8dBm Nov 19, 2018 22:04:56.062763000 +07
  541  53.839313 32:32:32:32:32:32 4dBm Nov 19, 2018 22:04:56.092766000 +07
  542  53.920997 32:32:32:32:32:32 8dBm Nov 19, 2018 22:04:56.174450000 +07
  543  53.948786 32:32:32:32:32:32 5dBm Nov 19, 2018 22:04:56.202239000 +07
  544  53.968572 32:32:32:32:32:32 4dBm Nov 19, 2018 22:04:56.222025000 +07
  545  54.059345 32:32:32:32:32:32 6dBm Nov 19, 2018 22:04:56.312798000 +07
  546  54.137650 32:32:32:32:32:32 7dBm Nov 19, 2018 22:04:56.391103000 +07
  547  54.450429 32:32:32:32:32:32 7dBm Nov 19, 2018 22:04:56.703882000 +07
  548  54.496931 32:32:32:32:32:32 5dBm Nov 19, 2018 22:04:56.750384000 +07
  549  54.674098 32:32:32:32:32:32 5dBm Nov 19, 2018 22:04:56.927551000 +07
  550  55.388532 32:32:32:32:32:32 6dBm Nov 19, 2018 22:04:57.641985000 +07
  551  55.495205 32:32:32:32:32:32 7dBm Nov 19, 2018 22:04:57.748658000 +07
  552  55.584029 32:32:32:32:32:32 7dBm Nov 19, 2018 22:04:57.837482000 +07
  553  55.613140 32:32:32:32:32:32 5dBm Nov 19, 2018 22:04:57.866593000 +07
  554  55.708866 32:32:32:32:32:32 5dBm Nov 19, 2018 22:04:57.962319000 +07
  555  55.849498 32:32:32:32:32:32 5dBm Nov 19, 2018 22:04:58.102951000 +07
  556  56.048506 32:32:32:32:32:32 7dBm Nov 19, 2018 22:04:58.301959000 +07
  557  56.065322 32:32:32:32:32:32 5dBm Nov 19, 2018 22:04:58.318775000 +07
  558  56.096431 32:32:32:32:32:32 8dBm Nov 19, 2018 22:04:58.349884000 +07
  559  56.344363 32:32:32:32:32:32 9dBm Nov 19, 2018 22:04:58.597816000 +07
  560  56.395631 32:32:32:32:32:32 6dBm Nov 19, 2018 22:04:58.649084000 +07
  561  56.536976 32:32:32:32:32:32 6dBm Nov 19, 2018 22:04:58.790429000 +07
  562  56.680082 32:32:32:32:32:32 5dBm Nov 19, 2018 22:04:58.933535000 +07
  563  56.737760 32:32:32:32:32:32 5dBm Nov 19, 2018 22:04:58.991213000 +07
  564  56.767229 32:32:32:32:32:32 7dBm Nov 19, 2018 22:04:59.020682000 +07
  565  56.786571 32:32:32:32:32:32 8dBm Nov 19, 2018 22:04:59.040024000 +07
  566  56.838470 32:32:32:32:32:32 3dBm Nov 19, 2018 22:04:59.091923000 +07
  567  56.862005 32:32:32:32:32:32 7dBm Nov 19, 2018 22:04:59.115458000 +07
  568  56.955599 32:32:32:32:32:32 5dBm Nov 19, 2018 22:04:59.209052000 +07
  569  57.181190 32:32:32:32:32:32 5dBm Nov 19, 2018 22:04:59.434643000 +07
  570  57.364578 32:32:32:32:32:32 5dBm Nov 19, 2018 22:04:59.618031000 +07
  571  57.514440 32:32:32:32:32:32 5dBm Nov 19, 2018 22:04:59.767893000 +07
  572  57.645246 32:32:32:32:32:32 6dBm Nov 19, 2018 22:04:59.898699000 +07
  573  57.752444 32:32:32:32:32:32 7dBm Nov 19, 2018 22:05:00.005897000 +07
  574  57.791604 32:32:32:32:32:32 7dBm Nov 19, 2018 22:05:00.045057000 +07
  575  57.833493 32:32:32:32:32:32 7dBm Nov 19, 2018 22:05:00.086946000 +07
  576  57.918360 32:32:32:32:32:32 5dBm Nov 19, 2018 22:05:00.171813000 +07
  577  57.941023 32:32:32:32:32:32 7dBm Nov 19, 2018 22:05:00.194476000 +07
  578  58.035614 32:32:32:32:32:32 6dBm Nov 19, 2018 22:05:00.289067000 +07
  579  58.058606 32:32:32:32:32:32 6dBm Nov 19, 2018 22:05:00.312059000 +07
  580  58.202385 32:32:32:32:32:32 6dBm Nov 19, 2018 22:05:00.455838000 +07
  581  58.252219 32:32:32:32:32:32 7dBm Nov 19, 2018 22:05:00.505672000 +07
  582  58.383407 32:32:32:32:32:32 7dBm Nov 19, 2018 22:05:00.636860000 +07
  583  58.495065 32:32:32:32:32:32 8dBm Nov 19, 2018 22:05:00.748518000 +07
  584  58.534811 32:32:32:32:32:32 8dBm Nov 19, 2018 22:05:00.788264000 +07
  585  58.564406 32:32:32:32:32:32 7dBm Nov 19, 2018 22:05:00.817859000 +07
  586  58.663029 32:32:32:32:32:32 6dBm Nov 19, 2018 22:05:00.916482000 +07
  587  58.806520 32:32:32:32:32:32 8dBm Nov 19, 2018 22:05:01.059973000 +07
  588  59.063537 32:32:32:32:32:32 7dBm Nov 19, 2018 22:05:01.316990000 +07
  589  59.174219 32:32:32:32:32:32 7dBm Nov 19, 2018 22:05:01.427672000 +07
  590  59.554698 32:32:32:32:32:32 5dBm Nov 19, 2018 22:05:01.808151000 +07
  591  59.593758 32:32:32:32:32:32 5dBm Nov 19, 2018 22:05:01.847211000 +07
  592  59.707979 32:32:32:32:32:32 6dBm Nov 19, 2018 22:05:01.961432000 +07
  593  59.755619 32:32:32:32:32:32 6dBm Nov 19, 2018 22:05:02.009072000 +07
  594  59.908970 32:32:32:32:32:32 8dBm Nov 19, 2018 22:05:02.162423000 +07
  595  60.063905 32:32:32:32:32:32 8dBm Nov 19, 2018 22:05:02.317358000 +07
  596  60.088352 32:32:32:32:32:32 7dBm Nov 19, 2018 22:05:02.341805000 +07
  597  60.179395 32:32:32:32:32:32 7dBm Nov 19, 2018 22:05:02.432848000 +07
  598  60.244875 32:32:32:32:32:32 5dBm Nov 19, 2018 22:05:02.498328000 +07
  599  60.358464 32:32:32:32:32:32 7dBm Nov 19, 2018 22:05:02.611917000 +07
  600  60.439541 32:32:32:32:32:32 8dBm Nov 19, 2018 22:05:02.692994000 +07
  601  60.452263 32:32:32:32:32:32 6dBm Nov 19, 2018 22:05:02.705716000 +07
  602  60.651911 32:32:32:32:32:32 7dBm Nov 19, 2018 22:05:02.905364000 +07
  603  60.692672 32:32:32:32:32:32 7dBm Nov 19, 2018 22:05:02.946125000 +07
  604  60.728372 32:32:32:32:32:32 9dBm Nov 19, 2018 22:05:02.981825000 +07
  605  61.157331 32:32:32:32:32:32 7dBm Nov 19, 2018 22:05:03.410784000 +07
  606  61.346918 32:32:32:32:32:32 7dBm Nov 19, 2018 22:05:03.600371000 +07
  607  61.427920 32:32:32:32:32:32 6dBm Nov 19, 2018 22:05:03.681373000 +07
  608  62.231407 32:32:32:32:32:32 7dBm Nov 19, 2018 22:05:04.484860000 +07
  609  62.443174 32:32:32:32:32:32 6dBm Nov 19, 2018 22:05:04.696627000 +07
  610  62.581554 32:32:32:32:32:32 5dBm Nov 19, 2018 22:05:04.835007000 +07
  611  62.798618 32:32:32:32:32:32 8dBm Nov 19, 2018 22:05:05.052071000 +07
  612  62.953602 32:32:32:32:32:32 9dBm Nov 19, 2018 22:05:05.207055000 +07
  613  62.981506 32:32:32:32:32:32 8dBm Nov 19, 2018 22:05:05.234959000 +07
  614  63.029340 32:32:32:32:32:32 8dBm Nov 19, 2018 22:05:05.282793000 +07
  615  63.124999 32:32:32:32:32:32 7dBm Nov 19, 2018 22:05:05.378452000 +07
  616  63.294399 32:32:32:32:32:32 6dBm Nov 19, 2018 22:05:05.547852000 +07
  617  63.378270 32:32:32:32:32:32 7dBm Nov 19, 2018 22:05:05.631723000 +07
  618  63.417727 32:32:32:32:32:32 7dBm Nov 19, 2018 22:05:05.671180000 +07
  619  63.436647 32:32:32:32:32:32 6dBm Nov 19, 2018 22:05:05.690100000 +07
  620  63.508346 32:32:32:32:32:32 7dBm Nov 19, 2018 22:05:05.761799000 +07
  621  63.627933 32:32:32:32:32:32 6dBm Nov 19, 2018 22:05:05.881386000 +07
  622  63.772534 32:32:32:32:32:32 7dBm Nov 19, 2018 22:05:06.025987000 +07
  623  63.964874 32:32:32:32:32:32 8dBm Nov 19, 2018 22:05:06.218327000 +07
  624  64.012569 32:32:32:32:32:32 7dBm Nov 19, 2018 22:05:06.266022000 +07
  625  64.202723 32:32:32:32:32:32 9dBm Nov 19, 2018 22:05:06.456176000 +07
  626  64.239835 32:32:32:32:32:32 9dBm Nov 19, 2018 22:05:06.493288000 +07
  627  64.354925 32:32:32:32:32:32 8dBm Nov 19, 2018 22:05:06.608378000 +07
  628  64.458536 32:32:32:32:32:32 8dBm Nov 19, 2018 22:05:06.711989000 +07
  629  64.480457 32:32:32:32:32:32 8dBm Nov 19, 2018 22:05:06.733910000 +07
  630  64.577830 32:32:32:32:32:32 6dBm Nov 19, 2018 22:05:06.831283000 +07
  631  64.688513 32:32:32:32:32:32 8dBm Nov 19, 2018 22:05:06.941966000 +07
  632  64.749594 32:32:32:32:32:32 6dBm Nov 19, 2018 22:05:07.003047000 +07
  633  64.764928 32:32:32:32:32:32 7dBm Nov 19, 2018 22:05:07.018381000 +07
  634  64.890807 32:32:32:32:32:32 9dBm Nov 19, 2018 22:05:07.144260000 +07
  635  65.142577 32:32:32:32:32:32 9dBm Nov 19, 2018 22:05:07.396030000 +07
  636  65.307712 32:32:32:32:32:32 9dBm Nov 19, 2018 22:05:07.561165000 +07
  637  65.324310 32:32:32:32:32:32 8dBm Nov 19, 2018 22:05:07.577763000 +07
  638  65.345579 32:32:32:32:32:32 7dBm Nov 19, 2018 22:05:07.599032000 +07
  639  65.395491 32:32:32:32:32:32 9dBm Nov 19, 2018 22:05:07.648944000 +07
  640  65.560388 32:32:32:32:32:32 8dBm Nov 19, 2018 22:05:07.813841000 +07
  641  65.579738 32:32:32:32:32:32 7dBm Nov 19, 2018 22:05:07.833191000 +07
  642  65.609667 32:32:32:32:32:32 6dBm Nov 19, 2018 22:05:07.863120000 +07
  643  65.743432 32:32:32:32:32:32 8dBm Nov 19, 2018 22:05:07.996885000 +07
  644  65.906882 32:32:32:32:32:32 8dBm Nov 19, 2018 22:05:08.160335000 +07
  645  65.973880 32:32:32:32:32:32 8dBm Nov 19, 2018 22:05:08.227333000 +07
  646  66.014581 32:32:32:32:32:32 9dBm Nov 19, 2018 22:05:08.268034000 +07
  647  66.050395 32:32:32:32:32:32 8dBm Nov 19, 2018 22:05:08.303848000 +07
  648  66.206468 32:32:32:32:32:32 9dBm Nov 19, 2018 22:05:08.459921000 +07
  649  66.284633 32:32:32:32:32:32 9dBm Nov 19, 2018 22:05:08.538086000 +07
  650  66.302952 32:32:32:32:32:32 9dBm Nov 19, 2018 22:05:08.556405000 +07
  651  66.325258 32:32:32:32:32:32 8dBm Nov 19, 2018 22:05:08.578711000 +07
  652  66.393930 32:32:32:32:32:32 8dBm Nov 19, 2018 22:05:08.647383000 +07
  653  66.571790 32:32:32:32:32:32 7dBm Nov 19, 2018 22:05:08.825243000 +07
  654  66.626478 32:32:32:32:32:32 9dBm Nov 19, 2018 22:05:08.879931000 +07
  655  66.766741 32:32:32:32:32:32 7dBm Nov 19, 2018 22:05:09.020194000 +07
  656  66.949667 32:32:32:32:32:32 8dBm Nov 19, 2018 22:05:09.203120000 +07
  657  66.969719 32:32:32:32:32:32 8dBm Nov 19, 2018 22:05:09.223172000 +07
  658  67.355348 32:32:32:32:32:32 7dBm Nov 19, 2018 22:05:09.608801000 +07
  659  67.460582 32:32:32:32:32:32 8dBm Nov 19, 2018 22:05:09.714035000 +07
  660  67.494585 32:32:32:32:32:32 6dBm Nov 19, 2018 22:05:09.748038000 +07
  661  67.599805 32:32:32:32:32:32 9dBm Nov 19, 2018 22:05:09.853258000 +07
  662  67.768727 32:32:32:32:32:32 8dBm Nov 19, 2018 22:05:10.022180000 +07
  663  67.784632 32:32:32:32:32:32 8dBm Nov 19, 2018 22:05:10.038085000 +07
  664  67.819719 32:32:32:32:32:32 7dBm Nov 19, 2018 22:05:10.073172000 +07
  665  67.832965 32:32:32:32:32:32 7dBm Nov 19, 2018 22:05:10.086418000 +07
  666  67.920617 32:32:32:32:32:32 9dBm Nov 19, 2018 22:05:10.174070000 +07
  667  67.986284 32:32:32:32:32:32 7dBm Nov 19, 2018 22:05:10.239737000 +07
  668  68.223352 32:32:32:32:32:32 8dBm Nov 19, 2018 22:05:10.476805000 +07
  669  68.256895 32:32:32:32:32:32 6dBm Nov 19, 2018 22:05:10.510348000 +07
  670  68.422548 32:32:32:32:32:32 7dBm Nov 19, 2018 22:05:10.676001000 +07
  671  68.442146 32:32:32:32:32:32 6dBm Nov 19, 2018 22:05:10.695599000 +07
  672  68.845848 32:32:32:32:32:32 2dBm Nov 19, 2018 22:05:11.099301000 +07
  673  69.024220 32:32:32:32:32:32 7dBm Nov 19, 2018 22:05:11.277673000 +07
  674  69.047301 32:32:32:32:32:32 7dBm Nov 19, 2018 22:05:11.300754000 +07
  675  69.177333 32:32:32:32:32:32 6dBm Nov 19, 2018 22:05:11.430786000 +07
  676  69.349298 32:32:32:32:32:32 8dBm Nov 19, 2018 22:05:11.602751000 +07
  677  69.563943 32:32:32:32:32:32 8dBm Nov 19, 2018 22:05:11.817396000 +07
  678  69.716276 32:32:32:32:32:32 8dBm Nov 19, 2018 22:05:11.969729000 +07
  679  69.745654 32:32:32:32:32:32 7dBm Nov 19, 2018 22:05:11.999107000 +07
  680  69.770010 32:32:32:32:32:32 6dBm Nov 19, 2018 22:05:12.023463000 +07
  681  69.846014 32:32:32:32:32:32 7dBm Nov 19, 2018 22:05:12.099467000 +07
  682  69.880112 32:32:32:32:32:32 6dBm Nov 19, 2018 22:05:12.133565000 +07
  683  70.185742 32:32:32:32:32:32 7dBm Nov 19, 2018 22:05:12.439195000 +07
  684  70.232489 32:32:32:32:32:32 7dBm Nov 19, 2018 22:05:12.485942000 +07
  685  70.250949 32:32:32:32:32:32 6dBm Nov 19, 2018 22:05:12.504402000 +07
  686  70.410932 32:32:32:32:32:32 6dBm Nov 19, 2018 22:05:12.664385000 +07
  687  70.549702 32:32:32:32:32:32 9dBm Nov 19, 2018 22:05:12.803155000 +07
  688  70.583751 32:32:32:32:32:32 6dBm Nov 19, 2018 22:05:12.837204000 +07
  689  70.617067 32:32:32:32:32:32 7dBm Nov 19, 2018 22:05:12.870520000 +07
  690  70.657852 32:32:32:32:32:32 8dBm Nov 19, 2018 22:05:12.911305000 +07
  691  70.676403 32:32:32:32:32:32 7dBm Nov 19, 2018 22:05:12.929856000 +07
  692  70.691790 32:32:32:32:32:32 7dBm Nov 19, 2018 22:05:12.945243000 +07
  693  70.710984 32:32:32:32:32:32 8dBm Nov 19, 2018 22:05:12.964437000 +07
  694  70.727731 32:32:32:32:32:32 7dBm Nov 19, 2018 22:05:12.981184000 +07
  695  70.794080 32:32:32:32:32:32 6dBm Nov 19, 2018 22:05:13.047533000 +07
  696  70.836708 32:32:32:32:32:32 5dBm Nov 19, 2018 22:05:13.090161000 +07
  697  71.196404 32:32:32:32:32:32 9dBm Nov 19, 2018 22:05:13.449857000 +07
  698  71.305683 32:32:32:32:32:32 8dBm Nov 19, 2018 22:05:13.559136000 +07
  699  71.509545 32:32:32:32:32:32 6dBm Nov 19, 2018 22:05:13.762998000 +07
  700  71.565414 32:32:32:32:32:32 6dBm Nov 19, 2018 22:05:13.818867000 +07
  701  71.760857 32:32:32:32:32:32 8dBm Nov 19, 2018 22:05:14.014310000 +07
  702  71.808122 32:32:32:32:32:32 6dBm Nov 19, 2018 22:05:14.061575000 +07
  703  71.917565 32:32:32:32:32:32 7dBm Nov 19, 2018 22:05:14.171018000 +07
  704  72.195851 32:32:32:32:32:32 9dBm Nov 19, 2018 22:05:14.449304000 +07
  705  72.243535 32:32:32:32:32:32 6dBm Nov 19, 2018 22:05:14.496988000 +07
  706  72.416128 32:32:32:32:32:32 8dBm Nov 19, 2018 22:05:14.669581000 +07
  707  72.484469 32:32:32:32:32:32 7dBm Nov 19, 2018 22:05:14.737922000 +07
  708  72.516349 32:32:32:32:32:32 8dBm Nov 19, 2018 22:05:14.769802000 +07
  709  72.668073 32:32:32:32:32:32 6dBm Nov 19, 2018 22:05:14.921526000 +07
  710  72.691882 32:32:32:32:32:32 8dBm Nov 19, 2018 22:05:14.945335000 +07
  711  72.717873 32:32:32:32:32:32 7dBm Nov 19, 2018 22:05:14.971326000 +07
  712  72.766817 32:32:32:32:32:32 8dBm Nov 19, 2018 22:05:15.020270000 +07
  713  72.914293 32:32:32:32:32:32 8dBm Nov 19, 2018 22:05:15.167746000 +07
  714  72.938727 32:32:32:32:32:32 9dBm Nov 19, 2018 22:05:15.192180000 +07
  715  72.963322 32:32:32:32:32:32 8dBm Nov 19, 2018 22:05:15.216775000 +07
  716  73.042980 32:32:32:32:32:32 8dBm Nov 19, 2018 22:05:15.296433000 +07
  717  73.140060 32:32:32:32:32:32 7dBm Nov 19, 2018 22:05:15.393513000 +07
  718  73.281097 32:32:32:32:32:32 6dBm Nov 19, 2018 22:05:15.534550000 +07
  719  73.393510 32:32:32:32:32:32 8dBm Nov 19, 2018 22:05:15.646963000 +07
  720  73.483973 32:32:32:32:32:32 6dBm Nov 19, 2018 22:05:15.737426000 +07
  721  73.857730 32:32:32:32:32:32 6dBm Nov 19, 2018 22:05:16.111183000 +07
  722  73.888771 32:32:32:32:32:32 10dBm Nov 19, 2018 22:05:16.142224000 +07
  723  73.958356 32:32:32:32:32:32 8dBm Nov 19, 2018 22:05:16.211809000 +07
  724  74.039192 32:32:32:32:32:32 5dBm Nov 19, 2018 22:05:16.292645000 +07
  725  74.065053 32:32:32:32:32:32 9dBm Nov 19, 2018 22:05:16.318506000 +07
  726  74.084820 32:32:32:32:32:32 7dBm Nov 19, 2018 22:05:16.338273000 +07
  727  74.099822 32:32:32:32:32:32 6dBm Nov 19, 2018 22:05:16.353275000 +07
  728  74.120572 32:32:32:32:32:32 8dBm Nov 19, 2018 22:05:16.374025000 +07
  729  74.265729 32:32:32:32:32:32 8dBm Nov 19, 2018 22:05:16.519182000 +07
  730  74.283761 32:32:32:32:32:32 8dBm Nov 19, 2018 22:05:16.537214000 +07
  731  74.317527 32:32:32:32:32:32 8dBm Nov 19, 2018 22:05:16.570980000 +07
  732  74.332738 32:32:32:32:32:32 8dBm Nov 19, 2018 22:05:16.586191000 +07
  733  74.351085 32:32:32:32:32:32 8dBm Nov 19, 2018 22:05:16.604538000 +07
  734  74.563937 32:32:32:32:32:32 6dBm Nov 19, 2018 22:05:16.817390000 +07
  735  74.583418 32:32:32:32:32:32 7dBm Nov 19, 2018 22:05:16.836871000 +07
  736  74.604859 32:32:32:32:32:32 7dBm Nov 19, 2018 22:05:16.858312000 +07
  737  74.662244 32:32:32:32:32:32 9dBm Nov 19, 2018 22:05:16.915697000 +07
  738  74.823051 32:32:32:32:32:32 7dBm Nov 19, 2018 22:05:17.076504000 +07
  739  74.846052 32:32:32:32:32:32 8dBm Nov 19, 2018 22:05:17.099505000 +07
  740  74.916890 32:32:32:32:32:32 8dBm Nov 19, 2018 22:05:17.170343000 +07
  741  74.940684 32:32:32:32:32:32 6dBm Nov 19, 2018 22:05:17.194137000 +07
  742  75.005842 32:32:32:32:32:32 8dBm Nov 19, 2018 22:05:17.259295000 +07
  743  75.065298 32:32:32:32:32:32 7dBm Nov 19, 2018 22:05:17.318751000 +07
  744  75.076870 32:32:32:32:32:32 8dBm Nov 19, 2018 22:05:17.330323000 +07
  745  75.099221 32:32:32:32:32:32 7dBm Nov 19, 2018 22:05:17.352674000 +07
  746  75.122156 32:32:32:32:32:32 7dBm Nov 19, 2018 22:05:17.375609000 +07
  747  75.184797 32:32:32:32:32:32 8dBm Nov 19, 2018 22:05:17.438250000 +07
  748  75.275493 32:32:32:32:32:32 7dBm Nov 19, 2018 22:05:17.528946000 +07
  749  75.470717 32:32:32:32:32:32 7dBm Nov 19, 2018 22:05:17.724170000 +07
  750  75.710040 32:32:32:32:32:32 7dBm Nov 19, 2018 22:05:17.963493000 +07
  751  76.113493 32:32:32:32:32:32 8dBm Nov 19, 2018 22:05:18.366946000 +07
  752  76.166096 32:32:32:32:32:32 8dBm Nov 19, 2018 22:05:18.419549000 +07
  753  76.320165 32:32:32:32:32:32 6dBm Nov 19, 2018 22:05:18.573618000 +07
  754  76.353664 32:32:32:32:32:32 5dBm Nov 19, 2018 22:05:18.607117000 +07
  755  76.364064 32:32:32:32:32:32 7dBm Nov 19, 2018 22:05:18.617517000 +07
  756  76.450351 32:32:32:32:32:32 7dBm Nov 19, 2018 22:05:18.703804000 +07
  757  76.516636 32:32:32:32:32:32 6dBm Nov 19, 2018 22:05:18.770089000 +07
  758  76.617232 32:32:32:32:32:32 9dBm Nov 19, 2018 22:05:18.870685000 +07
  759  76.678132 32:32:32:32:32:32 7dBm Nov 19, 2018 22:05:18.931585000 +07
  760  76.701643 32:32:32:32:32:32 7dBm Nov 19, 2018 22:05:18.955096000 +07
  761  77.012113 32:32:32:32:32:32 5dBm Nov 19, 2018 22:05:19.265566000 +07
  762  77.216092 32:32:32:32:32:32 7dBm Nov 19, 2018 22:05:19.469545000 +07
  763  77.303306 32:32:32:32:32:32 7dBm Nov 19, 2018 22:05:19.556759000 +07
  764  77.517810 32:32:32:32:32:32 6dBm Nov 19, 2018 22:05:19.771263000 +07
  765  77.528857 32:32:32:32:32:32 6dBm Nov 19, 2018 22:05:19.782310000 +07
  766  77.566448 32:32:32:32:32:32 7dBm Nov 19, 2018 22:05:19.819901000 +07
  767  77.576815 32:32:32:32:32:32 8dBm Nov 19, 2018 22:05:19.830268000 +07
  768  77.688015 32:32:32:32:32:32 7dBm Nov 19, 2018 22:05:19.941468000 +07
  769  77.779154 32:32:32:32:32:32 5dBm Nov 19, 2018 22:05:20.032607000 +07
  770  77.810085 32:32:32:32:32:32 8dBm Nov 19, 2018 22:05:20.063538000 +07
  771  77.884452 32:32:32:32:32:32 8dBm Nov 19, 2018 22:05:20.137905000 +07
  772  78.004807 32:32:32:32:32:32 7dBm Nov 19, 2018 22:05:20.258260000 +07
  773  78.040040 32:32:32:32:32:32 6dBm Nov 19, 2018 22:05:20.293493000 +07
  774  78.203231 32:32:32:32:32:32 7dBm Nov 19, 2018 22:05:20.456684000 +07
  775  78.392615 32:32:32:32:32:32 6dBm Nov 19, 2018 22:05:20.646068000 +07
  776  78.551093 32:32:32:32:32:32 8dBm Nov 19, 2018 22:05:20.804546000 +07
  777  78.864852 32:32:32:32:32:32 6dBm Nov 19, 2018 22:05:21.118305000 +07
  778  79.099568 32:32:32:32:32:32 6dBm Nov 19, 2018 22:05:21.353021000 +07
  779  79.146826 32:32:32:32:32:32 5dBm Nov 19, 2018 22:05:21.400279000 +07
  780  79.212483 32:32:32:32:32:32 8dBm Nov 19, 2018 22:05:21.465936000 +07
  781  79.434240 32:32:32:32:32:32 7dBm Nov 19, 2018 22:05:21.687693000 +07
  782  79.636099 32:32:32:32:32:32 5dBm Nov 19, 2018 22:05:21.889552000 +07
  783  79.679183 32:32:32:32:32:32 6dBm Nov 19, 2018 22:05:21.932636000 +07
  784  79.796068 32:32:32:32:32:32 7dBm Nov 19, 2018 22:05:22.049521000 +07
  785  79.871688 32:32:32:32:32:32 6dBm Nov 19, 2018 22:05:22.125141000 +07
  786  80.081432 32:32:32:32:32:32 5dBm Nov 19, 2018 22:05:22.334885000 +07
  787  80.147640 32:32:32:32:32:32 7dBm Nov 19, 2018 22:05:22.401093000 +07
  788  80.272270 32:32:32:32:32:32 6dBm Nov 19, 2018 22:05:22.525723000 +07
  789  80.382456 32:32:32:32:32:32 7dBm Nov 19, 2018 22:05:22.635909000 +07
  790  80.477938 32:32:32:32:32:32 6dBm Nov 19, 2018 22:05:22.731391000 +07
  791  80.526577 32:32:32:32:32:32 6dBm Nov 19, 2018 22:05:22.780030000 +07
  792  80.684320 32:32:32:32:32:32 6dBm Nov 19, 2018 22:05:22.937773000 +07
  793  80.727835 32:32:32:32:32:32 6dBm Nov 19, 2018 22:05:22.981288000 +07
  794  80.774915 32:32:32:32:32:32 7dBm Nov 19, 2018 22:05:23.028368000 +07
  795  80.793665 32:32:32:32:32:32 7dBm Nov 19, 2018 22:05:23.047118000 +07
  796  80.999353 32:32:32:32:32:32 8dBm Nov 19, 2018 22:05:23.252806000 +07
  797  81.041865 32:32:32:32:32:32 8dBm Nov 19, 2018 22:05:23.295318000 +07
  798  81.060049 32:32:32:32:32:32 6dBm Nov 19, 2018 22:05:23.313502000 +07
  799  81.086234 32:32:32:32:32:32 6dBm Nov 19, 2018 22:05:23.339687000 +07
  800  81.329205 32:32:32:32:32:32 8dBm Nov 19, 2018 22:05:23.582658000 +07
  801  81.437681 32:32:32:32:32:32 7dBm Nov 19, 2018 22:05:23.691134000 +07
