instantaneous fer: 0.99949
instantaneous fer: 0.875
instantaneous fer: 0.909091
instantaneous fer: 0.975
instantaneous fer: 0.952381
instantaneous fer: 0.952381
instantaneous fer: 0.9
instantaneous fer: 0.962963
instantaneous fer: 0.9
instantaneous fer: 0.666667
instantaneous fer: 0.986301
instantaneous fer: 0.941176
instantaneous fer: 0.984848
instantaneous fer: 0.666667
instantaneous fer: 0.5
instantaneous fer: 0.833333
instantaneous fer: 0.9
instantaneous fer: 0
instantaneous fer: 0.96
instantaneous fer: 0.5
instantaneous fer: 0.875
instantaneous fer: 0.5
instantaneous fer: 0.75
instantaneous fer: 0.985915
instantaneous fer: 0.980392
instantaneous fer: 0.969697
instantaneous fer: 0.986301
instantaneous fer: 0.979167
instantaneous fer: 0.982456
instantaneous fer: 0.909091
instantaneous fer: 0.985294
instantaneous fer: 0.994475
instantaneous fer: 0.971429
instantaneous fer: 0.923077
instantaneous fer: 0.944444
instantaneous fer: 0.978261
instantaneous fer: 0.972222
instantaneous fer: 0.970588
instantaneous fer: 0.982759
instantaneous fer: 0.986301
instantaneous fer: 0.98
instantaneous fer: 0.978723
instantaneous fer: 0.5
instantaneous fer: 0.875
instantaneous fer: 0.993289
instantaneous fer: 0.984615
instantaneous fer: 0.990741
instantaneous fer: 0.970588
instantaneous fer: 0.965517
instantaneous fer: 0.947368
instantaneous fer: 0.947368
instantaneous fer: 0.5
instantaneous fer: 0.928571
instantaneous fer: 0.857143
instantaneous fer: 0.956522
instantaneous fer: 0.995434
instantaneous fer: 0.993789
instantaneous fer: 0.981132
instantaneous fer: 0.971429
instantaneous fer: 0.975
instantaneous fer: 0.857143
instantaneous fer: 0.75
instantaneous fer: 0.988636
instantaneous fer: 0.982143
instantaneous fer: 0.990476
instantaneous fer: 0.928571
instantaneous fer: 0.972222
instantaneous fer: 0.947368
instantaneous fer: 0.983871
instantaneous fer: 0.923077
instantaneous fer: 0.965517
instantaneous fer: 0.857143
instantaneous fer: 0.9375
instantaneous fer: 0.964286
instantaneous fer: 0.833333
instantaneous fer: 0.9
instantaneous fer: 0.980769
instantaneous fer: 0.981818
instantaneous fer: 0.923077
instantaneous fer: 0
instantaneous fer: 0.96875
instantaneous fer: 0.970588
instantaneous fer: 0
instantaneous fer: 0.994536
instantaneous fer: 0.977778
instantaneous fer: 0.857143
instantaneous fer: 0.916667
instantaneous fer: 0.5
instantaneous fer: 0.983051
instantaneous fer: 0.967742
instantaneous fer: 0.981818
instantaneous fer: 0.987342
instantaneous fer: 0.888889
instantaneous fer: 0.916667
instantaneous fer: 0.947368
instantaneous fer: 0.990099
instantaneous fer: 0.916667
instantaneous fer: 0.995745
instantaneous fer: 0.958333
instantaneous fer: 0.989474
instantaneous fer: 0.971429
instantaneous fer: 0.966667
instantaneous fer: 0.990566
instantaneous fer: 0.952381
instantaneous fer: 0.923077
instantaneous fer: 0.5
instantaneous fer: 0.5
instantaneous fer: 0.916667
instantaneous fer: 0.979592
instantaneous fer: 0.5
instantaneous fer: 0.969697
instantaneous fer: 0.97619
instantaneous fer: 0.96
instantaneous fer: 0.993865
instantaneous fer: 0.909091
instantaneous fer: 0.972973
instantaneous fer: 0.980392
instantaneous fer: 0.974359
instantaneous fer: 0.993378
instantaneous fer: 0.75
instantaneous fer: 0.909091
instantaneous fer: 0.9375
instantaneous fer: 0.979592
instantaneous fer: 0.916667
instantaneous fer: 0.941176
instantaneous fer: 0.933333
instantaneous fer: 0.9375
instantaneous fer: 0.989691
instantaneous fer: 0.974359
instantaneous fer: 0.923077
instantaneous fer: 0.985075
instantaneous fer: 0.965517
instantaneous fer: 0.990654
instantaneous fer: 0.9
instantaneous fer: 0.933333
instantaneous fer: 0.5
instantaneous fer: 0.971429
instantaneous fer: 0.958333
instantaneous fer: 0.985075
instantaneous fer: 0.944444
instantaneous fer: 0.964286
