               1       032:32:32:32:32:3  2Bm N  ov 18, 2018 0 1:13:39.206770000  7          1
               2 2.1856332:32:32:32:32:3  5Bm N  ov 18, 2018 0 1:13:41.392400000  7          9
               32.35685932:32:32:32:32:3  4Bm N  ov 18, 2018 0 1:13:41.563629000  7        ###
               42.48376432:32:32:32:32:3  5Bm N  ov 18, 2018 0 1:13:41.690534000  7        ###
               53.54387532:32:32:32:32:3  4Bm N  ov 18, 2018 0 1:13:42.750645000  7        ###
               67.16739732:32:32:32:32:3  5Bm N  ov 18, 2018 0 1:13:46.374167000  7
             7  1.95048832:32:32:32:32:3  5Bm N  ov 18, 2018 0 1:14:11.157258000  7
             8  2.33902932:32:32:32:32:3  6Bm N  ov 18, 2018 0 1:14:11.545799000  7
             9  2.39959632:32:32:32:32:3  5Bm N  ov 18, 2018 0 1:14:11.606366000  7
            10  2.46979632:32:32:32:32:3  5Bm N  ov 18, 2018 0 1:14:11.676566000  7
            11  2.65642932:32:32:32:32:3  7Bm N  ov 18, 2018 0 1:14:11.863199000  7
            12  3.20850432:32:32:32:32:3  5Bm N  ov 18, 2018 0 1:14:12.415274000  7
            13  6.65630732:32:32:32:32:3  1Bm N  ov 18, 2018 0 1:14:15.863077000  7
            14  7.38014232:32:32:32:32:3  5Bm N  ov 18, 2018 0 1:14:16.586912000  7
            15  8.69328332:32:32:32:32:3  7Bm N  ov 18, 2018 0 1:14:17.900053000  7
            16  9.21963832:32:32:32:32:3  6Bm N  ov 18, 2018 0 1:14:18.426408000  7
            17  9.27906532:32:32:32:32:3  7Bm N  ov 18, 2018 0 1:14:18.485835000  7
            18  9.43125132:32:32:32:32:3  5Bm N  ov 18, 2018 0 1:14:18.638021000  7
            19  9.45730432:32:32:32:32:3  5Bm N  ov 18, 2018 0 1:14:18.664074000  7
            20  9.67784332:32:32:32:32:3  4Bm N  ov 18, 2018 0 1:14:18.884613000  7
            21  9.93766532:32:32:32:32:3  4Bm N  ov 18, 2018 0 1:14:19.144435000  7
            22  9.95732632:32:32:32:32:3  6Bm N  ov 18, 2018 0 1:14:19.164096000  7
            23  9.98115632:32:32:32:32:3  5Bm N  ov 18, 2018 0 1:14:19.187926000  7
            24   0.9452132:32:32:32:32:3  5Bm N  ov 18, 2018 0 1:14:20.151980000  7
            25  2.87832132:32:32:32:32:3  5Bm N  ov 18, 2018 0 1:14:22.085091000  7
            26  2.99247632:32:32:32:32:3  4Bm N  ov 18, 2018 0 1:14:22.199246000  7
            27  3.08074532:32:32:32:32:3  6Bm N  ov 18, 2018 0 1:14:22.287515000  7
            28  3.23710232:32:32:32:32:3  7Bm N  ov 18, 2018 0 1:14:22.443872000  7
            29  3.32374332:32:32:32:32:3  6Bm N  ov 18, 2018 0 1:14:22.530513000  7
            30  3.47194732:32:32:32:32:3  4Bm N  ov 18, 2018 0 1:14:22.678717000  7
            31  4.26177532:32:32:32:32:3  5Bm N  ov 18, 2018 0 1:14:23.468545000  7
            32  4.42504932:32:32:32:32:3  7Bm N  ov 18, 2018 0 1:14:23.631819000  7
            33  4.47501432:32:32:32:32:3  5Bm N  ov 18, 2018 0 1:14:23.681784000  7
            34  4.95150532:32:32:32:32:3  5Bm N  ov 18, 2018 0 1:14:24.158275000  7
            35  5.11949632:32:32:32:32:3  7Bm N  ov 18, 2018 0 1:14:24.326266000  7
            36  5.14859132:32:32:32:32:3  8Bm N  ov 18, 2018 0 1:14:24.355361000  7
            37  5.20860432:32:32:32:32:3  5Bm N  ov 18, 2018 0 1:14:24.415374000  7
            38  5.22927132:32:32:32:32:3  4Bm N  ov 18, 2018 0 1:14:24.436041000  7
            39  5.33332532:32:32:32:32:3  5Bm N  ov 18, 2018 0 1:14:24.540095000  7
            40  5.51755832:32:32:32:32:3  6Bm N  ov 18, 2018 0 1:14:24.724328000  7
            41  5.70144232:32:32:32:32:3  8Bm N  ov 18, 2018 0 1:14:24.908212000  7
            42  5.78841532:32:32:32:32:3  6Bm N  ov 18, 2018 0 1:14:24.995185000  7
            43  5.88535632:32:32:32:32:3  8Bm N  ov 18, 2018 0 1:14:25.092126000  7
            44  5.92688632:32:32:32:32:3  7Bm N  ov 18, 2018 0 1:14:25.133656000  7
            45  5.94452532:32:32:32:32:3  6Bm N  ov 18, 2018 0 1:14:25.151295000  7
            46  5.97730332:32:32:32:32:3  7Bm N  ov 18, 2018 0 1:14:25.184073000  7
            47  5.99948132:32:32:32:32:3  7Bm N  ov 18, 2018 0 1:14:25.206251000  7
            48  6.52256532:32:32:32:32:3  6Bm N  ov 18, 2018 0 1:14:25.729335000  7
            49  6.57137932:32:32:32:32:3  7Bm N  ov 18, 2018 0 1:14:25.778149000  7
            50  7.04328132:32:32:32:32:3  6Bm N  ov 18, 2018 0 1:14:26.250051000  7
            51  7.25210532:32:32:32:32:3  6Bm N  ov 18, 2018 0 1:14:26.458875000  7
            52  7.27514732:32:32:32:32:3  6Bm N  ov 18, 2018 0 1:14:26.481917000  7
            53  7.29893232:32:32:32:32:3  6Bm N  ov 18, 2018 0 1:14:26.505702000  7
            54  7.35853432:32:32:32:32:3  8Bm N  ov 18, 2018 0 1:14:26.565304000  7
            55  7.96754232:32:32:32:32:3  6Bm N  ov 18, 2018 0 1:14:27.174312000  7
            56  8.06776432:32:32:32:32:3  7Bm N  ov 18, 2018 0 1:14:27.274534000  7
            57  8.08286432:32:32:32:32:3  5Bm N  ov 18, 2018 0 1:14:27.289634000  7
            58  8.14724732:32:32:32:32:3  5Bm N  ov 18, 2018 0 1:14:27.354017000  7
            59  8.57693532:32:32:32:32:3  5Bm N  ov 18, 2018 0 1:14:27.783705000  7
            60  8.59892632:32:32:32:32:3  5Bm N  ov 18, 2018 0 1:14:27.805696000  7
            61   8.9093232:32:32:32:32:3  6Bm N  ov 18, 2018 0 1:14:28.116090000  7
            62  9.00037232:32:32:32:32:3  6Bm N  ov 18, 2018 0 1:14:28.207142000  7
            63  9.03399432:32:32:32:32:3  5Bm N  ov 18, 2018 0 1:14:28.240764000  7
            64  9.08921432:32:32:32:32:3  6Bm N  ov 18, 2018 0 1:14:28.295984000  7
            65   0.5105432:32:32:32:32:3  7Bm N  ov 18, 2018 0 1:14:29.717310000  7
            66   0.6960832:32:32:32:32:3  7Bm N  ov 18, 2018 0 1:14:29.902850000  7
            67  1.13834632:32:32:32:32:3  3Bm N  ov 18, 2018 0 1:14:30.345116000  7
            68  1.15910332:32:32:32:32:3  7Bm N  ov 18, 2018 0 1:14:30.365873000  7
            69  1.21822132:32:32:32:32:3  6Bm N  ov 18, 2018 0 1:14:30.424991000  7
            70  1.23826832:32:32:32:32:3  7Bm N  ov 18, 2018 0 1:14:30.445038000  7
            71  1.25768432:32:32:32:32:3  4Bm N  ov 18, 2018 0 1:14:30.464454000  7
            72  1.40180432:32:32:32:32:3  7Bm N  ov 18, 2018 0 1:14:30.608574000  7
            73  1.95264932:32:32:32:32:3  5Bm N  ov 18, 2018 0 1:14:31.159419000  7
            74  1.97324632:32:32:32:32:3  7Bm N  ov 18, 2018 0 1:14:31.180016000  7
            75  2.02762732:32:32:32:32:3  5Bm N  ov 18, 2018 0 1:14:31.234397000  7
            76  2.04167732:32:32:32:32:3  6Bm N  ov 18, 2018 0 1:14:31.248447000  7
            77  2.07859632:32:32:32:32:3  4Bm N  ov 18, 2018 0 1:14:31.285366000  7
            78  2.17998532:32:32:32:32:3  4Bm N  ov 18, 2018 0 1:14:31.386755000  7
            79  2.32687132:32:32:32:32:3  7Bm N  ov 18, 2018 0 1:14:31.533641000  7
            80  2.37253132:32:32:32:32:3  4Bm N  ov 18, 2018 0 1:14:31.579301000  7
            81  2.43709532:32:32:32:32:3  7Bm N  ov 18, 2018 0 1:14:31.643865000  7
            82  2.56552232:32:32:32:32:3  5Bm N  ov 18, 2018 0 1:14:31.772292000  7
            83  2.70028932:32:32:32:32:3  7Bm N  ov 18, 2018 0 1:14:31.907059000  7
            84  2.74008132:32:32:32:32:3  5Bm N  ov 18, 2018 0 1:14:31.946851000  7
            85  2.98397232:32:32:32:32:3  4Bm N  ov 18, 2018 0 1:14:32.190742000  7
            86  3.39948532:32:32:32:32:3  5Bm N  ov 18, 2018 0 1:14:32.606255000  7
            87  3.58221232:32:32:32:32:3  5Bm N  ov 18, 2018 0 1:14:32.788982000  7
            88  3.62648532:32:32:32:32:3  6Bm N  ov 18, 2018 0 1:14:32.833255000  7
            89  3.74163332:32:32:32:32:3  4Bm N  ov 18, 2018 0 1:14:32.948403000  7
            90   3.8013232:32:32:32:32:3  6Bm N  ov 18, 2018 0 1:14:33.008090000  7
            91  3.80722532:32:32:32:32:3  7Bm N  ov 18, 2018 0 1:14:33.013995000  7
            92  3.83615832:32:32:32:32:3  8Bm N  ov 18, 2018 0 1:14:33.042928000  7
            93  3.87527432:32:32:32:32:3  6Bm N  ov 18, 2018 0 1:14:33.082044000  7
            94  4.24677932:32:32:32:32:3  6Bm N  ov 18, 2018 0 1:14:33.453549000  7
            95  4.27074932:32:32:32:32:3  5Bm N  ov 18, 2018 0 1:14:33.477519000  7
            96  4.40115732:32:32:32:32:3  5Bm N  ov 18, 2018 0 1:14:33.607927000  7
            97  4.52213432:32:32:32:32:3  7Bm N  ov 18, 2018 0 1:14:33.728904000  7
            98  4.66201132:32:32:32:32:3  7Bm N  ov 18, 2018 0 1:14:33.868781000  7
            99  4.68840432:32:32:32:32:3  6Bm N  ov 18, 2018 0 1:14:33.895174000  7
           100  4.71249832:32:32:32:32:3  7Bm N  ov 18, 2018 0 1:14:33.919268000  7
           101  4.77879532:32:32:32:32:3  8Bm N  ov 18, 2018 0 1:14:33.985565000  7
           102  5.13133132:32:32:32:32:3  6Bm N  ov 18, 2018 0 1:14:34.338101000  7
           103   5.2245932:32:32:32:32:3  2Bm N  ov 18, 2018 0 1:14:34.431360000  7
           104  5.72533532:32:32:32:32:3  6Bm N  ov 18, 2018 0 1:14:34.932105000  7
           105  5.98417232:32:32:32:32:3  7Bm N  ov 18, 2018 0 1:14:35.190942000  7
           106   6.0910532:32:32:32:32:3  4Bm N  ov 18, 2018 0 1:14:35.297820000  7
           107  6.11304432:32:32:32:32:3  7Bm N  ov 18, 2018 0 1:14:35.319814000  7
           108  6.62160232:32:32:32:32:3  7Bm N  ov 18, 2018 0 1:14:35.828372000  7
           109  6.69628532:32:32:32:32:3  6Bm N  ov 18, 2018 0 1:14:35.903055000  7
           110  6.71254932:32:32:32:32:3  6Bm N  ov 18, 2018 0 1:14:35.919319000  7
           111   6.7718832:32:32:32:32:3  5Bm N  ov 18, 2018 0 1:14:35.978650000  7
           112  6.79778932:32:32:32:32:3  7Bm N  ov 18, 2018 0 1:14:36.004559000  7
           113  6.90623832:32:32:32:32:3  5Bm N  ov 18, 2018 0 1:14:36.113008000  7
           114  7.03514732:32:32:32:32:3  6Bm N  ov 18, 2018 0 1:14:36.241917000  7
           115  7.22135432:32:32:32:32:3  6Bm N  ov 18, 2018 0 1:14:36.428124000  7
           116  7.74838132:32:32:32:32:3  7Bm N  ov 18, 2018 0 1:14:36.955151000  7
           117  8.04932832:32:32:32:32:3  9Bm N  ov 18, 2018 0 1:14:37.256098000  7
           118  8.15876932:32:32:32:32:3  7Bm N  ov 18, 2018 0 1:14:37.365539000  7
           119    8.187232:32:32:32:32:3  5Bm N  ov 18, 2018 0 1:14:37.393970000  7
           120   8.2840432:32:32:32:32:3  7Bm N  ov 18, 2018 0 1:14:37.490810000  7
           121  8.70200732:32:32:32:32:3  6Bm N  ov 18, 2018 0 1:14:37.908777000  7
           122  9.37025332:32:32:32:32:3  4Bm N  ov 18, 2018 0 1:14:38.577023000  7
           123  9.44022832:32:32:32:32:3  5Bm N  ov 18, 2018 0 1:14:38.646998000  7
           124  9.53872932:32:32:32:32:3  6Bm N  ov 18, 2018 0 1:14:38.745499000  7
           125  9.87466532:32:32:32:32:3  7Bm N  ov 18, 2018 0 1:14:39.081435000  7
           126  0.00516932:32:32:32:32:3  5Bm N  ov 18, 2018 0 1:14:39.211939000  7
           127  0.17536532:32:32:32:32:3  5Bm N  ov 18, 2018 0 1:14:39.382135000  7
           128  0.26412732:32:32:32:32:3  8Bm N  ov 18, 2018 0 1:14:39.470897000  7
           129  0.27992532:32:32:32:32:3  8Bm N  ov 18, 2018 0 1:14:39.486695000  7
           130   0.3344232:32:32:32:32:3  8Bm N  ov 18, 2018 0 1:14:39.541190000  7
           131   0.4492432:32:32:32:32:3  9Bm N  ov 18, 2018 0 1:14:39.656010000  7
           132   0.4704132:32:32:32:32:3  4Bm N  ov 18, 2018 0 1:14:39.677180000  7
           133  0.59454832:32:32:32:32:3  7Bm N  ov 18, 2018 0 1:14:39.801318000  7
           134  0.68499232:32:32:32:32:3  4Bm N  ov 18, 2018 0 1:14:39.891762000  7
           135  0.70972932:32:32:32:32:3  6Bm N  ov 18, 2018 0 1:14:39.916499000  7
           136  0.77107332:32:32:32:32:3  6Bm N  ov 18, 2018 0 1:14:39.977843000  7
           137  0.81388732:32:32:32:32:3  6Bm N  ov 18, 2018 0 1:14:40.020657000  7
           138  0.89186532:32:32:32:32:3  6Bm N  ov 18, 2018 0 1:14:40.098635000  7
           139  0.90720732:32:32:32:32:3  5Bm N  ov 18, 2018 0 1:14:40.113977000  7
           140  1.00679332:32:32:32:32:3  6Bm N  ov 18, 2018 0 1:14:40.213563000  7
           141  1.28701332:32:32:32:32:3  6Bm N  ov 18, 2018 0 1:14:40.493783000  7
           142  1.33676832:32:32:32:32:3  4Bm N  ov 18, 2018 0 1:14:40.543538000  7
           143  1.35435432:32:32:32:32:3  6Bm N  ov 18, 2018 0 1:14:40.561124000  7
           144  1.48351532:32:32:32:32:3  5Bm N  ov 18, 2018 0 1:14:40.690285000  7
           145  1.72377832:32:32:32:32:3  5Bm N  ov 18, 2018 0 1:14:40.930548000  7
           146   1.9819332:32:32:32:32:3  5Bm N  ov 18, 2018 0 1:14:41.188700000  7
           147  2.50572432:32:32:32:32:3  4Bm N  ov 18, 2018 0 1:14:41.712494000  7
           148  2.58552832:32:32:32:32:3  5Bm N  ov 18, 2018 0 1:14:41.792298000  7
           149  2.74349932:32:32:32:32:3  5Bm N  ov 18, 2018 0 1:14:41.950269000  7
           150  2.94741632:32:32:32:32:3  5Bm N  ov 18, 2018 0 1:14:42.154186000  7
           151  2.98907332:32:32:32:32:3  6Bm N  ov 18, 2018 0 1:14:42.195843000  7
           152  3.10291832:32:32:32:32:3  4Bm N  ov 18, 2018 0 1:14:42.309688000  7
           153   3.1397232:32:32:32:32:3  6Bm N  ov 18, 2018 0 1:14:42.346490000  7
           154  3.18028232:32:32:32:32:3  5Bm N  ov 18, 2018 0 1:14:42.387052000  7
           155  3.24521732:32:32:32:32:3  3Bm N  ov 18, 2018 0 1:14:42.451987000  7
           156  3.30930832:32:32:32:32:3  7Bm N  ov 18, 2018 0 1:14:42.516078000  7
           157  3.34450332:32:32:32:32:3  6Bm N  ov 18, 2018 0 1:14:42.551273000  7
           158  3.42350732:32:32:32:32:3  4Bm N  ov 18, 2018 0 1:14:42.630277000  7
           159   3.4287532:32:32:32:32:3  6Bm N  ov 18, 2018 0 1:14:42.635520000  7
           160  3.45960332:32:32:32:32:3  5Bm N  ov 18, 2018 0 1:14:42.666373000  7
           161  3.54072532:32:32:32:32:3  7Bm N  ov 18, 2018 0 1:14:42.747495000  7
           162   3.7089432:32:32:32:32:3  7Bm N  ov 18, 2018 0 1:14:42.915710000  7
           163  3.73206432:32:32:32:32:3  7Bm N  ov 18, 2018 0 1:14:42.938834000  7
           164  3.90064132:32:32:32:32:3  6Bm N  ov 18, 2018 0 1:14:43.107411000  7
           165   4.0284232:32:32:32:32:3  5Bm N  ov 18, 2018 0 1:14:43.235190000  7
           166  4.11074832:32:32:32:32:3  7Bm N  ov 18, 2018 0 1:14:43.317518000  7
           167  4.14417532:32:32:32:32:3  7Bm N  ov 18, 2018 0 1:14:43.350945000  7
           168  4.29620432:32:32:32:32:3  7Bm N  ov 18, 2018 0 1:14:43.502974000  7
           169   4.4828432:32:32:32:32:3  7Bm N  ov 18, 2018 0 1:14:43.689610000  7
           170  4.50054132:32:32:32:32:3  5Bm N  ov 18, 2018 0 1:14:43.707311000  7
           171  4.61397132:32:32:32:32:3  6Bm N  ov 18, 2018 0 1:14:43.820741000  7
           172   4.6905132:32:32:32:32:3  6Bm N  ov 18, 2018 0 1:14:43.897280000  7
           173  4.70472732:32:32:32:32:3  6Bm N  ov 18, 2018 0 1:14:43.911497000  7
           174  4.78179732:32:32:32:32:3  5Bm N  ov 18, 2018 0 1:14:43.988567000  7
           175  4.79616332:32:32:32:32:3  8Bm N  ov 18, 2018 0 1:14:44.002933000  7
           176  4.89715732:32:32:32:32:3  4Bm N  ov 18, 2018 0 1:14:44.103927000  7
           177  4.91126632:32:32:32:32:3  6Bm N  ov 18, 2018 0 1:14:44.118036000  7
           178  5.05980132:32:32:32:32:3  7Bm N  ov 18, 2018 0 1:14:44.266571000  7
           179  5.26837932:32:32:32:32:3  6Bm N  ov 18, 2018 0 1:14:44.475149000  7
           180  5.96394132:32:32:32:32:3  5Bm N  ov 18, 2018 0 1:14:45.170711000  7
           181  6.30476432:32:32:32:32:3  6Bm N  ov 18, 2018 0 1:14:45.511534000  7
           182   6.5682932:32:32:32:32:3  6Bm N  ov 18, 2018 0 1:14:45.775060000  7
           183  6.62830732:32:32:32:32:3  5Bm N  ov 18, 2018 0 1:14:45.835077000  7
           184  6.72541532:32:32:32:32:3  5Bm N  ov 18, 2018 0 1:14:45.932185000  7
           185  6.92199832:32:32:32:32:3  6Bm N  ov 18, 2018 0 1:14:46.128768000  7
           186   7.0112132:32:32:32:32:3  7Bm N  ov 18, 2018 0 1:14:46.217980000  7
           187  7.05582232:32:32:32:32:3  4Bm N  ov 18, 2018 0 1:14:46.262592000  7
           188  7.41524232:32:32:32:32:3  6Bm N  ov 18, 2018 0 1:14:46.622012000  7
           189   7.4604832:32:32:32:32:3  6Bm N  ov 18, 2018 0 1:14:46.667250000  7
           190  7.73910132:32:32:32:32:3  5Bm N  ov 18, 2018 0 1:14:46.945871000  7
           191  7.91411632:32:32:32:32:3  4Bm N  ov 18, 2018 0 1:14:47.120886000  7
           192  7.95670532:32:32:32:32:3  4Bm N  ov 18, 2018 0 1:14:47.163475000  7
           193  8.24059732:32:32:32:32:3  5Bm N  ov 18, 2018 0 1:14:47.447367000  7
           194  8.24596932:32:32:32:32:3  5Bm N  ov 18, 2018 0 1:14:47.452739000  7
           195  8.36570332:32:32:32:32:3  5Bm N  ov 18, 2018 0 1:14:47.572473000  7
           196   8.4275232:32:32:32:32:3  7Bm N  ov 18, 2018 0 1:14:47.634290000  7
           197  8.45625332:32:32:32:32:3  6Bm N  ov 18, 2018 0 1:14:47.663023000  7
           198  9.16823532:32:32:32:32:3  7Bm N  ov 18, 2018 0 1:14:48.375005000  7
           199   9.3046632:32:32:32:32:3  3Bm N  ov 18, 2018 0 1:14:48.511430000  7
           200  9.42546232:32:32:32:32:3  6Bm N  ov 18, 2018 0 1:14:48.632232000  7
           201   9.5864932:32:32:32:32:3  6Bm N  ov 18, 2018 0 1:14:48.793260000  7
           202  9.61347232:32:32:32:32:3  5Bm N  ov 18, 2018 0 1:14:48.820242000  7
           203  9.72033432:32:32:32:32:3  7Bm N  ov 18, 2018 0 1:14:48.927104000  7
           204  9.79982932:32:32:32:32:3  6Bm N  ov 18, 2018 0 1:14:49.006599000  7
           205  9.81897732:32:32:32:32:3  7Bm N  ov 18, 2018 0 1:14:49.025747000  7
           206  9.83565332:32:32:32:32:3  7Bm N  ov 18, 2018 0 1:14:49.042423000  7
           207   0.0524432:32:32:32:32:3  4Bm N  ov 18, 2018 0 1:14:49.259210000  7
           208   0.2644532:32:32:32:32:3  6Bm N  ov 18, 2018 0 1:14:49.471220000  7
           209  0.49873532:32:32:32:32:3  5Bm N  ov 18, 2018 0 1:14:49.705505000  7
           210  0.60498732:32:32:32:32:3  6Bm N  ov 18, 2018 0 1:14:49.811757000  7
           211  0.62592832:32:32:32:32:3  6Bm N  ov 18, 2018 0 1:14:49.832698000  7
           212  0.73015632:32:32:32:32:3  7Bm N  ov 18, 2018 0 1:14:49.936926000  7
           213  1.05029332:32:32:32:32:3  5Bm N  ov 18, 2018 0 1:14:50.257063000  7
           214  1.10953232:32:32:32:32:3  6Bm N  ov 18, 2018 0 1:14:50.316302000  7
           215  1.23419432:32:32:32:32:3  5Bm N  ov 18, 2018 0 1:14:50.440964000  7
           216  1.55512732:32:32:32:32:3  3Bm N  ov 18, 2018 0 1:14:50.761897000  7
           217  1.90265332:32:32:32:32:3  4Bm N  ov 18, 2018 0 1:14:51.109423000  7
           218  2.35980932:32:32:32:32:3  6Bm N  ov 18, 2018 0 1:14:51.566579000  7
           219  2.62150432:32:32:32:32:3  6Bm N  ov 18, 2018 0 1:14:51.828274000  7
           220  2.64378132:32:32:32:32:3  7Bm N  ov 18, 2018 0 1:14:51.850551000  7
           221  2.75622132:32:32:32:32:3  7Bm N  ov 18, 2018 0 1:14:51.962991000  7
           222  3.45581932:32:32:32:32:3  5Bm N  ov 18, 2018 0 1:14:52.662589000  7
           223  3.72173732:32:32:32:32:3  6Bm N  ov 18, 2018 0 1:14:52.928507000  7
           224   3.8392232:32:32:32:32:3  6Bm N  ov 18, 2018 0 1:14:53.045990000  7
           225  3.90479932:32:32:32:32:3  4Bm N  ov 18, 2018 0 1:14:53.111569000  7
           226  4.48662432:32:32:32:32:3  5Bm N  ov 18, 2018 0 1:14:53.693394000  7
           227  4.78898232:32:32:32:32:3  4Bm N  ov 18, 2018 0 1:14:53.995752000  7
           228  4.86055732:32:32:32:32:3  7Bm N  ov 18, 2018 0 1:14:54.067327000  7
           229  4.94475132:32:32:32:32:3  7Bm N  ov 18, 2018 0 1:14:54.151521000  7
           230  5.14859632:32:32:32:32:3  6Bm N  ov 18, 2018 0 1:14:54.355366000  7
           231  5.16304332:32:32:32:32:3  7Bm N  ov 18, 2018 0 1:14:54.369813000  7
           232  5.41238132:32:32:32:32:3  6Bm N  ov 18, 2018 0 1:14:54.619151000  7
           233  5.77247432:32:32:32:32:3  7Bm N  ov 18, 2018 0 1:14:54.979244000  7
           234  5.78460132:32:32:32:32:3  6Bm N  ov 18, 2018 0 1:14:54.991371000  7
           235    5.832132:32:32:32:32:3  7Bm N  ov 18, 2018 0 1:14:55.038870000  7
           236  5.87531932:32:32:32:32:3  8Bm N  ov 18, 2018 0 1:14:55.082089000  7
           237  6.02197732:32:32:32:32:3  4Bm N  ov 18, 2018 0 1:14:55.228747000  7
           238  6.20465632:32:32:32:32:3  4Bm N  ov 18, 2018 0 1:14:55.411426000  7
           239  6.49262632:32:32:32:32:3  5Bm N  ov 18, 2018 0 1:14:55.699396000  7
           240  6.67831332:32:32:32:32:3  4Bm N  ov 18, 2018 0 1:14:55.885083000  7
           241   6.7275332:32:32:32:32:3  6Bm N  ov 18, 2018 0 1:14:55.934300000  7
           242  6.77945532:32:32:32:32:3  6Bm N  ov 18, 2018 0 1:14:55.986225000  7
           243  7.37811432:32:32:32:32:3  4Bm N  ov 18, 2018 0 1:14:56.584884000  7
           244  7.63264432:32:32:32:32:3  6Bm N  ov 18, 2018 0 1:14:56.839414000  7
           245  7.82556832:32:32:32:32:3  5Bm N  ov 18, 2018 0 1:14:57.032338000  7
           246  7.92303232:32:32:32:32:3  6Bm N  ov 18, 2018 0 1:14:57.129802000  7
           247  8.07491232:32:32:32:32:3  6Bm N  ov 18, 2018 0 1:14:57.281682000  7
           248  8.10085532:32:32:32:32:3  7Bm N  ov 18, 2018 0 1:14:57.307625000  7
           249  8.30677332:32:32:32:32:3  6Bm N  ov 18, 2018 0 1:14:57.513543000  7
           250  8.41393732:32:32:32:32:3  4Bm N  ov 18, 2018 0 1:14:57.620707000  7
           251  8.46833132:32:32:32:32:3  7Bm N  ov 18, 2018 0 1:14:57.675101000  7
           252  8.49019532:32:32:32:32:3  6Bm N  ov 18, 2018 0 1:14:57.696965000  7
           253  8.52874432:32:32:32:32:3  5Bm N  ov 18, 2018 0 1:14:57.735514000  7
           254  8.63803932:32:32:32:32:3  4Bm N  ov 18, 2018 0 1:14:57.844809000  7
           255  8.88129132:32:32:32:32:3  6Bm N  ov 18, 2018 0 1:14:58.088061000  7
           256  9.04595632:32:32:32:32:3  6Bm N  ov 18, 2018 0 1:14:58.252726000  7
           257  9.07085132:32:32:32:32:3  5Bm N  ov 18, 2018 0 1:14:58.277621000  7
           258  9.18966132:32:32:32:32:3  5Bm N  ov 18, 2018 0 1:14:58.396431000  7
           259  9.23293632:32:32:32:32:3  7Bm N  ov 18, 2018 0 1:14:58.439706000  7
           260  9.26071232:32:32:32:32:3  5Bm N  ov 18, 2018 0 1:14:58.467482000  7
           261  9.28203532:32:32:32:32:3  6Bm N  ov 18, 2018 0 1:14:58.488805000  7
           262  9.29903832:32:32:32:32:3  6Bm N  ov 18, 2018 0 1:14:58.505808000  7
           263  9.32881932:32:32:32:32:3  5Bm N  ov 18, 2018 0 1:14:58.535589000  7
           264  9.37096332:32:32:32:32:3  6Bm N  ov 18, 2018 0 1:14:58.577733000  7
           265  9.40887932:32:32:32:32:3  4Bm N  ov 18, 2018 0 1:14:58.615649000  7
           266  9.44089632:32:32:32:32:3  7Bm N  ov 18, 2018 0 1:14:58.647666000  7
           267  9.47050432:32:32:32:32:3  6Bm N  ov 18, 2018 0 1:14:58.677274000  7
           268  9.60160932:32:32:32:32:3  4Bm N  ov 18, 2018 0 1:14:58.808379000  7
           269  9.69255432:32:32:32:32:3  6Bm N  ov 18, 2018 0 1:14:58.899324000  7
           270  9.71761732:32:32:32:32:3  5Bm N  ov 18, 2018 0 1:14:58.924387000  7
           271  9.76019432:32:32:32:32:3  6Bm N  ov 18, 2018 0 1:14:58.966964000  7
           272  9.77796132:32:32:32:32:3  6Bm N  ov 18, 2018 0 1:14:58.984731000  7
           273  9.85473932:32:32:32:32:3  5Bm N  ov 18, 2018 0 1:14:59.061509000  7
           274  9.88292232:32:32:32:32:3  7Bm N  ov 18, 2018 0 1:14:59.089692000  7
           275  9.98669432:32:32:32:32:3  5Bm N  ov 18, 2018 0 1:14:59.193464000  7
           276  0.05247632:32:32:32:32:3  4Bm N  ov 18, 2018 0 1:14:59.259246000  7
           277  0.16603932:32:32:32:32:3  3Bm N  ov 18, 2018 0 1:14:59.372809000  7
           278  0.22726332:32:32:32:32:3  7Bm N  ov 18, 2018 0 1:14:59.434033000  7
           279  0.28040932:32:32:32:32:3  5Bm N  ov 18, 2018 0 1:14:59.487179000  7
           280  0.31737532:32:32:32:32:3  6Bm N  ov 18, 2018 0 1:14:59.524145000  7
           281   0.3731832:32:32:32:32:3  3Bm N  ov 18, 2018 0 1:14:59.579950000  7
           282  1.63628532:32:32:32:32:3  5Bm N  ov 18, 2018 0 1:15:00.843055000  7
           283  1.83419832:32:32:32:32:3  6Bm N  ov 18, 2018 0 1:15:01.040968000  7
           284  1.91033432:32:32:32:32:3  6Bm N  ov 18, 2018 0 1:15:01.117104000  7
           285  2.72233732:32:32:32:32:3  4Bm N  ov 18, 2018 0 1:15:01.929107000  7
           286  2.89090332:32:32:32:32:3  6Bm N  ov 18, 2018 0 1:15:02.097673000  7
           287  5.90359432:32:32:32:32:3  3Bm N  ov 18, 2018 0 1:15:05.110364000  7
           288  6.60164932:32:32:32:32:3  5Bm N  ov 18, 2018 0 1:15:05.808419000  7
           289  6.61913632:32:32:32:32:3  6Bm N  ov 18, 2018 0 1:15:05.825906000  7
           290  6.74302432:32:32:32:32:3  7Bm N  ov 18, 2018 0 1:15:05.949794000  7
           291   6.7986232:32:32:32:32:3  6Bm N  ov 18, 2018 0 1:15:06.005390000  7
           292  6.83224232:32:32:32:32:3  8Bm N  ov 18, 2018 0 1:15:06.039012000  7
           293  6.90377632:32:32:32:32:3  4Bm N  ov 18, 2018 0 1:15:06.110546000  7
           294  7.00051432:32:32:32:32:3  4Bm N  ov 18, 2018 0 1:15:06.207284000  7
           295   7.1655132:32:32:32:32:3  7Bm N  ov 18, 2018 0 1:15:06.372280000  7
           296  7.31015332:32:32:32:32:3  6Bm N  ov 18, 2018 0 1:15:06.516923000  7
           297  7.59177332:32:32:32:32:3  6Bm N  ov 18, 2018 0 1:15:06.798543000  7
           298  7.68150232:32:32:32:32:3  5Bm N  ov 18, 2018 0 1:15:06.888272000  7
           299  8.11909332:32:32:32:32:3  4Bm N  ov 18, 2018 0 1:15:07.325863000  7
           300  8.34545732:32:32:32:32:3  8Bm N  ov 18, 2018 0 1:15:07.552227000  7
           301   8.4035432:32:32:32:32:3  4Bm N  ov 18, 2018 0 1:15:07.610310000  7
           302  8.41963732:32:32:32:32:3  7Bm N  ov 18, 2018 0 1:15:07.626407000  7
           303  8.53956832:32:32:32:32:3  5Bm N  ov 18, 2018 0 1:15:07.746338000  7
           304  8.58584532:32:32:32:32:3  5Bm N  ov 18, 2018 0 1:15:07.792615000  7
           305   8.7415832:32:32:32:32:3  4Bm N  ov 18, 2018 0 1:15:07.948350000  7
           306  8.79484532:32:32:32:32:3  6Bm N  ov 18, 2018 0 1:15:08.001615000  7
           307  3.69857232:32:32:32:32:3  5Bm N  ov 18, 2018 0 1:15:12.905342000  7
           308   3.7343832:32:32:32:32:3  7Bm N  ov 18, 2018 0 1:15:12.941150000  7
           309  3.73882632:32:32:32:32:3  7Bm N  ov 18, 2018 0 1:15:12.945596000  7
           310 10.83506332:32:32:32:32:3  6Bm N  ov 18, 2018 0 1:15:20.041833000  7
           311 11.70037532:32:32:32:32:3  5Bm N  ov 18, 2018 0 1:15:20.907145000  7
           312 11.75292332:32:32:32:32:3  4Bm N  ov 18, 2018 0 1:15:20.959693000  7
           313 11.86530532:32:32:32:32:3  5Bm N  ov 18, 2018 0 1:15:21.072075000  7
           314 11.88086832:32:32:32:32:3  4Bm N  ov 18, 2018 0 1:15:21.087638000  7
           315 11.97971432:32:32:32:32:3  6Bm N  ov 18, 2018 0 1:15:21.186484000  7
           316 16.35039832:32:32:32:32:3  6Bm N  ov 18, 2018 0 1:15:25.557168000  7
           317 17.16062732:32:32:32:32:3  7Bm N  ov 18, 2018 0 1:15:26.367397000  7
           318 17.69997932:32:32:32:32:3  5Bm N  ov 18, 2018 0 1:15:26.906749000  7
           319 18.40938732:32:32:32:32:3  6Bm N  ov 18, 2018 0 1:15:27.616157000  7
           320 18.52005132:32:32:32:32:3  6Bm N  ov 18, 2018 0 1:15:27.726821000  7
           321 19.03269332:32:32:32:32:3  4Bm N  ov 18, 2018 0 1:15:28.239463000  7
           322 19.13159832:32:32:32:32:3  5Bm N  ov 18, 2018 0 1:15:28.338368000  7
           323 19.59254932:32:32:32:32:3  6Bm N  ov 18, 2018 0 1:15:28.799319000  7
           324 19.63736932:32:32:32:32:3  6Bm N  ov 18, 2018 0 1:15:28.844139000  7
