    1   0.000000 32:32:32:32:32:32 6dBm Nov 18, 2018 00:19:15.917112000 +07
    2   0.473265 32:32:32:32:32:32 7dBm Nov 18, 2018 00:19:16.390377000 +07
    3   1.130980 32:32:32:32:32:32 7dBm Nov 18, 2018 00:19:17.048092000 +07
    4   1.481440 32:32:32:32:32:32 6dBm Nov 18, 2018 00:19:17.398552000 +07
    5   1.584924 32:32:32:32:32:32 7dBm Nov 18, 2018 00:19:17.502036000 +07
    6   1.802328 32:32:32:32:32:32 7dBm Nov 18, 2018 00:19:17.719440000 +07
    7   2.180389 32:32:32:32:32:32 7dBm Nov 18, 2018 00:19:18.097501000 +07
    8   3.276851 32:32:32:32:32:32 7dBm Nov 18, 2018 00:19:19.193963000 +07
    9   3.383596 32:32:32:32:32:32 8dBm Nov 18, 2018 00:19:19.300708000 +07
   10   3.855891 32:32:32:32:32:32 7dBm Nov 18, 2018 00:19:19.773003000 +07
   11   4.244552 32:32:32:32:32:32 8dBm Nov 18, 2018 00:19:20.161664000 +07
   12   4.313165 32:32:32:32:32:32 7dBm Nov 18, 2018 00:19:20.230277000 +07
   13   4.379783 32:32:32:32:32:32 8dBm Nov 18, 2018 00:19:20.296895000 +07
   14   4.453619 32:32:32:32:32:32 7dBm Nov 18, 2018 00:19:20.370731000 +07
   15   4.533042 32:32:32:32:32:32 6dBm Nov 18, 2018 00:19:20.450154000 +07
   16   5.127973 32:32:32:32:32:32 7dBm Nov 18, 2018 00:19:21.045085000 +07
   17   5.725994 32:32:32:32:32:32 6dBm Nov 18, 2018 00:19:21.643106000 +07
   18   5.877748 32:32:32:32:32:32 5dBm Nov 18, 2018 00:19:21.794860000 +07
   19   5.977882 32:32:32:32:32:32 8dBm Nov 18, 2018 00:19:21.894994000 +07
   20   6.377671 32:32:32:32:32:32 8dBm Nov 18, 2018 00:19:22.294783000 +07
   21   6.614417 32:32:32:32:32:32 8dBm Nov 18, 2018 00:19:22.531529000 +07
   22   6.760125 32:32:32:32:32:32 7dBm Nov 18, 2018 00:19:22.677237000 +07
   23   6.880550 32:32:32:32:32:32 9dBm Nov 18, 2018 00:19:22.797662000 +07
   24   6.954237 32:32:32:32:32:32 8dBm Nov 18, 2018 00:19:22.871349000 +07
   25   7.340217 32:32:32:32:32:32 7dBm Nov 18, 2018 00:19:23.257329000 +07
   26   7.624836 32:32:32:32:32:32 6dBm Nov 18, 2018 00:19:23.541948000 +07
   27   7.875265 32:32:32:32:32:32 9dBm Nov 18, 2018 00:19:23.792377000 +07
   28   8.197594 32:32:32:32:32:32 7dBm Nov 18, 2018 00:19:24.114706000 +07
   29   8.609416 32:32:32:32:32:32 7dBm Nov 18, 2018 00:19:24.526528000 +07
   30   9.037804 32:32:32:32:32:32 6dBm Nov 18, 2018 00:19:24.954916000 +07
   31   9.378878 32:32:32:32:32:32 7dBm Nov 18, 2018 00:19:25.295990000 +07
   32  10.225013 32:32:32:32:32:32 7dBm Nov 18, 2018 00:19:26.142125000 +07
   33  10.799300 32:32:32:32:32:32 6dBm Nov 18, 2018 00:19:26.716412000 +07
   34  11.164329 32:32:32:32:32:32 9dBm Nov 18, 2018 00:19:27.081441000 +07
   35  11.339242 32:32:32:32:32:32 7dBm Nov 18, 2018 00:19:27.256354000 +07
   36  11.788221 32:32:32:32:32:32 7dBm Nov 18, 2018 00:19:27.705333000 +07
   37  12.062871 32:32:32:32:32:32 7dBm Nov 18, 2018 00:19:27.979983000 +07
   38  12.510137 32:32:32:32:32:32 9dBm Nov 18, 2018 00:19:28.427249000 +07
   39  12.741694 32:32:32:32:32:32 8dBm Nov 18, 2018 00:19:28.658806000 +07
   40  13.098755 32:32:32:32:32:32 7dBm Nov 18, 2018 00:19:29.015867000 +07
   41  13.165431 32:32:32:32:32:32 4dBm Nov 18, 2018 00:19:29.082543000 +07
   42  14.553005 32:32:32:32:32:32 7dBm Nov 18, 2018 00:19:30.470117000 +07
   43  14.675615 32:32:32:32:32:32 8dBm Nov 18, 2018 00:19:30.592727000 +07
   44  15.046771 32:32:32:32:32:32 8dBm Nov 18, 2018 00:19:30.963883000 +07
   45  15.213609 32:32:32:32:32:32 7dBm Nov 18, 2018 00:19:31.130721000 +07
   46  15.453536 32:32:32:32:32:32 6dBm Nov 18, 2018 00:19:31.370648000 +07
   47  15.688957 32:32:32:32:32:32 7dBm Nov 18, 2018 00:19:31.606069000 +07
   48  15.884586 32:32:32:32:32:32 9dBm Nov 18, 2018 00:19:31.801698000 +07
   49  15.910829 32:32:32:32:32:32 8dBm Nov 18, 2018 00:19:31.827941000 +07
   50  16.404961 32:32:32:32:32:32 7dBm Nov 18, 2018 00:19:32.322073000 +07
   51  17.241883 32:32:32:32:32:32 8dBm Nov 18, 2018 00:19:33.158995000 +07
   52  17.404364 32:32:32:32:32:32 6dBm Nov 18, 2018 00:19:33.321476000 +07
   53  17.727451 32:32:32:32:32:32 8dBm Nov 18, 2018 00:19:33.644563000 +07
   54  17.821170 32:32:32:32:32:32 8dBm Nov 18, 2018 00:19:33.738282000 +07
   55  18.471344 32:32:32:32:32:32 9dBm Nov 18, 2018 00:19:34.388456000 +07
   56  18.474329 32:32:32:32:32:32 8dBm Nov 18, 2018 00:19:34.391441000 +07
   57  18.649322 32:32:32:32:32:32 8dBm Nov 18, 2018 00:19:34.566434000 +07
   58  18.876779 32:32:32:32:32:32 9dBm Nov 18, 2018 00:19:34.793891000 +07
   59  18.960671 32:32:32:32:32:32 7dBm Nov 18, 2018 00:19:34.877783000 +07
   60  19.034465 32:32:32:32:32:32 7dBm Nov 18, 2018 00:19:34.951577000 +07
   61  19.387192 32:32:32:32:32:32 8dBm Nov 18, 2018 00:19:35.304304000 +07
   62  19.508288 32:32:32:32:32:32 6dBm Nov 18, 2018 00:19:35.425400000 +07
   63  19.905493 32:32:32:32:32:32 7dBm Nov 18, 2018 00:19:35.822605000 +07
   64  20.179883 32:32:32:32:32:32 7dBm Nov 18, 2018 00:19:36.096995000 +07
   65  20.382866 32:32:32:32:32:32 8dBm Nov 18, 2018 00:19:36.299978000 +07
   66  20.387355 32:32:32:32:32:32 9dBm Nov 18, 2018 00:19:36.304467000 +07
   67  20.833292 32:32:32:32:32:32 6dBm Nov 18, 2018 00:19:36.750404000 +07
   68  21.363033 32:32:32:32:32:32 7dBm Nov 18, 2018 00:19:37.280145000 +07
   69  22.098134 32:32:32:32:32:32 8dBm Nov 18, 2018 00:19:38.015246000 +07
   70  22.475180 32:32:32:32:32:32 9dBm Nov 18, 2018 00:19:38.392292000 +07
   71  22.736880 32:32:32:32:32:32 7dBm Nov 18, 2018 00:19:38.653992000 +07
   72  22.885648 32:32:32:32:32:32 7dBm Nov 18, 2018 00:19:38.802760000 +07
   73  22.901244 32:32:32:32:32:32 7dBm Nov 18, 2018 00:19:38.818356000 +07
   74  23.006929 32:32:32:32:32:32 7dBm Nov 18, 2018 00:19:38.924041000 +07
   75  23.185125 32:32:32:32:32:32 6dBm Nov 18, 2018 00:19:39.102237000 +07
   76  23.984008 32:32:32:32:32:32 7dBm Nov 18, 2018 00:19:39.901120000 +07
   77  25.434823 32:32:32:32:32:32 6dBm Nov 18, 2018 00:19:41.351935000 +07
   78  25.814777 32:32:32:32:32:32 7dBm Nov 18, 2018 00:19:41.731889000 +07
   79  26.216417 32:32:32:32:32:32 8dBm Nov 18, 2018 00:19:42.133529000 +07
   80  26.368439 32:32:32:32:32:32 7dBm Nov 18, 2018 00:19:42.285551000 +07
   81  26.774956 32:32:32:32:32:32 7dBm Nov 18, 2018 00:19:42.692068000 +07
   82  27.016494 32:32:32:32:32:32 9dBm Nov 18, 2018 00:19:42.933606000 +07
   83  27.398765 32:32:32:32:32:32 8dBm Nov 18, 2018 00:19:43.315877000 +07
   84  27.616342 32:32:32:32:32:32 2dBm Nov 18, 2018 00:19:43.533454000 +07
   85  27.660086 32:32:32:32:32:32 7dBm Nov 18, 2018 00:19:43.577198000 +07
   86  28.798778 32:32:32:32:32:32 5dBm Nov 18, 2018 00:19:44.715890000 +07
   87  28.881747 32:32:32:32:32:32 8dBm Nov 18, 2018 00:19:44.798859000 +07
   88  29.085734 32:32:32:32:32:32 8dBm Nov 18, 2018 00:19:45.002846000 +07
   89  29.378864 32:32:32:32:32:32 9dBm Nov 18, 2018 00:19:45.295976000 +07
   90  30.172878 32:32:32:32:32:32 5dBm Nov 18, 2018 00:19:46.089990000 +07
   91  30.279582 32:32:32:32:32:32 7dBm Nov 18, 2018 00:19:46.196694000 +07
   92  30.399319 32:32:32:32:32:32 7dBm Nov 18, 2018 00:19:46.316431000 +07
   93  30.470971 32:32:32:32:32:32 7dBm Nov 18, 2018 00:19:46.388083000 +07
   94  30.555196 32:32:32:32:32:32 7dBm Nov 18, 2018 00:19:46.472308000 +07
   95  30.613645 32:32:32:32:32:32 6dBm Nov 18, 2018 00:19:46.530757000 +07
   96  31.372559 32:32:32:32:32:32 8dBm Nov 18, 2018 00:19:47.289671000 +07
   97  31.600918 32:32:32:32:32:32 7dBm Nov 18, 2018 00:19:47.518030000 +07
   98  31.960482 32:32:32:32:32:32 5dBm Nov 18, 2018 00:19:47.877594000 +07
   99  32.780459 32:32:32:32:32:32 6dBm Nov 18, 2018 00:19:48.697571000 +07
  100  32.990308 32:32:32:32:32:32 7dBm Nov 18, 2018 00:19:48.907420000 +07
  101  33.117219 32:32:32:32:32:32 7dBm Nov 18, 2018 00:19:49.034331000 +07
  102  33.577878 32:32:32:32:32:32 6dBm Nov 18, 2018 00:19:49.494990000 +07
  103  33.764456 32:32:32:32:32:32 6dBm Nov 18, 2018 00:19:49.681568000 +07
  104  34.190735 32:32:32:32:32:32 7dBm Nov 18, 2018 00:19:50.107847000 +07
  105  34.410044 32:32:32:32:32:32 6dBm Nov 18, 2018 00:19:50.327156000 +07
  106  34.497015 32:32:32:32:32:32 6dBm Nov 18, 2018 00:19:50.414127000 +07
  107  35.186285 32:32:32:32:32:32 6dBm Nov 18, 2018 00:19:51.103397000 +07
  108  35.333328 32:32:32:32:32:32 6dBm Nov 18, 2018 00:19:51.250440000 +07
  109  35.488078 32:32:32:32:32:32 3dBm Nov 18, 2018 00:19:51.405190000 +07
  110  35.504762 32:32:32:32:32:32 6dBm Nov 18, 2018 00:19:51.421874000 +07
  111  35.588031 32:32:32:32:32:32 6dBm Nov 18, 2018 00:19:51.505143000 +07
  112  35.685128 32:32:32:32:32:32 6dBm Nov 18, 2018 00:19:51.602240000 +07
  113  35.821697 32:32:32:32:32:32 5dBm Nov 18, 2018 00:19:51.738809000 +07
  114  35.993357 32:32:32:32:32:32 7dBm Nov 18, 2018 00:19:51.910469000 +07
  115  36.289106 32:32:32:32:32:32 6dBm Nov 18, 2018 00:19:52.206218000 +07
  116  36.490973 32:32:32:32:32:32 8dBm Nov 18, 2018 00:19:52.408085000 +07
  117  36.501831 32:32:32:32:32:32 5dBm Nov 18, 2018 00:19:52.418943000 +07
  118  36.792373 32:32:32:32:32:32 8dBm Nov 18, 2018 00:19:52.709485000 +07
  119  36.964360 32:32:32:32:32:32 5dBm Nov 18, 2018 00:19:52.881472000 +07
  120  37.116429 32:32:32:32:32:32 6dBm Nov 18, 2018 00:19:53.033541000 +07
  121  37.724272 32:32:32:32:32:32 7dBm Nov 18, 2018 00:19:53.641384000 +07
  122  37.950353 32:32:32:32:32:32 6dBm Nov 18, 2018 00:19:53.867465000 +07
  123  38.196143 32:32:32:32:32:32 7dBm Nov 18, 2018 00:19:54.113255000 +07
  124  38.369076 32:32:32:32:32:32 8dBm Nov 18, 2018 00:19:54.286188000 +07
  125  38.755605 32:32:32:32:32:32 8dBm Nov 18, 2018 00:19:54.672717000 +07
  126  39.129457 32:32:32:32:32:32 8dBm Nov 18, 2018 00:19:55.046569000 +07
  127  39.414385 32:32:32:32:32:32 8dBm Nov 18, 2018 00:19:55.331497000 +07
  128  40.218659 32:32:32:32:32:32 7dBm Nov 18, 2018 00:19:56.135771000 +07
  129  40.806899 32:32:32:32:32:32 7dBm Nov 18, 2018 00:19:56.724011000 +07
  130  40.955889 32:32:32:32:32:32 8dBm Nov 18, 2018 00:19:56.873001000 +07
  131  41.152711 32:32:32:32:32:32 8dBm Nov 18, 2018 00:19:57.069823000 +07
  132  41.313106 32:32:32:32:32:32 6dBm Nov 18, 2018 00:19:57.230218000 +07
  133  41.722955 32:32:32:32:32:32 7dBm Nov 18, 2018 00:19:57.640067000 +07
  134  41.880706 32:32:32:32:32:32 9dBm Nov 18, 2018 00:19:57.797818000 +07
  135  42.469343 32:32:32:32:32:32 8dBm Nov 18, 2018 00:19:58.386455000 +07
  136  42.615995 32:32:32:32:32:32 9dBm Nov 18, 2018 00:19:58.533107000 +07
  137  42.678478 32:32:32:32:32:32 6dBm Nov 18, 2018 00:19:58.595590000 +07
  138  42.790483 32:32:32:32:32:32 7dBm Nov 18, 2018 00:19:58.707595000 +07
  139  42.973927 32:32:32:32:32:32 7dBm Nov 18, 2018 00:19:58.891039000 +07
  140  43.074278 32:32:32:32:32:32 8dBm Nov 18, 2018 00:19:58.991390000 +07
  141  43.196006 32:32:32:32:32:32 7dBm Nov 18, 2018 00:19:59.113118000 +07
  142  43.289981 32:32:32:32:32:32 6dBm Nov 18, 2018 00:19:59.207093000 +07
  143  43.925751 32:32:32:32:32:32 5dBm Nov 18, 2018 00:19:59.842863000 +07
  144  44.566506 32:32:32:32:32:32 7dBm Nov 18, 2018 00:20:00.483618000 +07
  145  44.798764 32:32:32:32:32:32 8dBm Nov 18, 2018 00:20:00.715876000 +07
  146  45.855327 32:32:32:32:32:32 6dBm Nov 18, 2018 00:20:01.772439000 +07
  147  47.061576 32:32:32:32:32:32 7dBm Nov 18, 2018 00:20:02.978688000 +07
  148  47.409971 32:32:32:32:32:32 7dBm Nov 18, 2018 00:20:03.327083000 +07
  149  47.730634 32:32:32:32:32:32 7dBm Nov 18, 2018 00:20:03.647746000 +07
  150  47.829962 32:32:32:32:32:32 8dBm Nov 18, 2018 00:20:03.747074000 +07
  151  48.015877 32:32:32:32:32:32 7dBm Nov 18, 2018 00:20:03.932989000 +07
  152  48.882334 32:32:32:32:32:32 8dBm Nov 18, 2018 00:20:04.799446000 +07
  153  49.008043 32:32:32:32:32:32 7dBm Nov 18, 2018 00:20:04.925155000 +07
  154  49.141811 32:32:32:32:32:32 6dBm Nov 18, 2018 00:20:05.058923000 +07
  155  49.322851 32:32:32:32:32:32 5dBm Nov 18, 2018 00:20:05.239963000 +07
  156  49.433679 32:32:32:32:32:32 4dBm Nov 18, 2018 00:20:05.350791000 +07
  157  49.772913 32:32:32:32:32:32 8dBm Nov 18, 2018 00:20:05.690025000 +07
  158  49.887829 32:32:32:32:32:32 7dBm Nov 18, 2018 00:20:05.804941000 +07
  159  50.421952 32:32:32:32:32:32 6dBm Nov 18, 2018 00:20:06.339064000 +07
  160  50.819034 32:32:32:32:32:32 8dBm Nov 18, 2018 00:20:06.736146000 +07
  161  50.907222 32:32:32:32:32:32 9dBm Nov 18, 2018 00:20:06.824334000 +07
  162  51.011644 32:32:32:32:32:32 6dBm Nov 18, 2018 00:20:06.928756000 +07
  163  51.178029 32:32:32:32:32:32 7dBm Nov 18, 2018 00:20:07.095141000 +07
  164  51.457014 32:32:32:32:32:32 9dBm Nov 18, 2018 00:20:07.374126000 +07
  165  51.843675 32:32:32:32:32:32 6dBm Nov 18, 2018 00:20:07.760787000 +07
  166  51.914672 32:32:32:32:32:32 8dBm Nov 18, 2018 00:20:07.831784000 +07
  167  51.969010 32:32:32:32:32:32 7dBm Nov 18, 2018 00:20:07.886122000 +07
  168  52.813328 32:32:32:32:32:32 7dBm Nov 18, 2018 00:20:08.730440000 +07
  169  52.954930 32:32:32:32:32:32 5dBm Nov 18, 2018 00:20:08.872042000 +07
  170  53.205029 32:32:32:32:32:32 6dBm Nov 18, 2018 00:20:09.122141000 +07
  171  53.434848 32:32:32:32:32:32 9dBm Nov 18, 2018 00:20:09.351960000 +07
  172  53.520468 32:32:32:32:32:32 7dBm Nov 18, 2018 00:20:09.437580000 +07
  173  54.355363 32:32:32:32:32:32 6dBm Nov 18, 2018 00:20:10.272475000 +07
  174  54.542902 32:32:32:32:32:32 6dBm Nov 18, 2018 00:20:10.460014000 +07
  175  54.620735 32:32:32:32:32:32 5dBm Nov 18, 2018 00:20:10.537847000 +07
  176  56.166284 32:32:32:32:32:32 5dBm Nov 18, 2018 00:20:12.083396000 +07
  177  56.524717 32:32:32:32:32:32 6dBm Nov 18, 2018 00:20:12.441829000 +07
  178  57.355315 32:32:32:32:32:32 7dBm Nov 18, 2018 00:20:13.272427000 +07
  179  57.950799 32:32:32:32:32:32 7dBm Nov 18, 2018 00:20:13.867911000 +07
  180  58.086259 32:32:32:32:32:32 7dBm Nov 18, 2018 00:20:14.003371000 +07
  181  58.984824 32:32:32:32:32:32 8dBm Nov 18, 2018 00:20:14.901936000 +07
  182  59.745157 32:32:32:32:32:32 7dBm Nov 18, 2018 00:20:15.662269000 +07
  183  60.633317 32:32:32:32:32:32 6dBm Nov 18, 2018 00:20:16.550429000 +07
  184  60.743778 32:32:32:32:32:32 6dBm Nov 18, 2018 00:20:16.660890000 +07
  185  60.904009 32:32:32:32:32:32 4dBm Nov 18, 2018 00:20:16.821121000 +07
  186  61.143499 32:32:32:32:32:32 7dBm Nov 18, 2018 00:20:17.060611000 +07
  187  61.283026 32:32:32:32:32:32 4dBm Nov 18, 2018 00:20:17.200138000 +07
  188  61.632579 32:32:32:32:32:32 7dBm Nov 18, 2018 00:20:17.549691000 +07
  189  61.919224 32:32:32:32:32:32 6dBm Nov 18, 2018 00:20:17.836336000 +07
  190  62.409671 32:32:32:32:32:32 8dBm Nov 18, 2018 00:20:18.326783000 +07
  191  62.791023 32:32:32:32:32:32 7dBm Nov 18, 2018 00:20:18.708135000 +07
  192  64.114085 32:32:32:32:32:32 6dBm Nov 18, 2018 00:20:20.031197000 +07
  193  64.233795 32:32:32:32:32:32 6dBm Nov 18, 2018 00:20:20.150907000 +07
  194  64.697977 32:32:32:32:32:32 8dBm Nov 18, 2018 00:20:20.615089000 +07
  195  66.458823 32:32:32:32:32:32 5dBm Nov 18, 2018 00:20:22.375935000 +07
  196  66.766627 32:32:32:32:32:32 7dBm Nov 18, 2018 00:20:22.683739000 +07
  197  66.994037 32:32:32:32:32:32 7dBm Nov 18, 2018 00:20:22.911149000 +07
  198  67.076955 32:32:32:32:32:32 6dBm Nov 18, 2018 00:20:22.994067000 +07
  199  67.236384 32:32:32:32:32:32 7dBm Nov 18, 2018 00:20:23.153496000 +07
  200  67.781823 32:32:32:32:32:32 6dBm Nov 18, 2018 00:20:23.698935000 +07
  201  69.926604 32:32:32:32:32:32 6dBm Nov 18, 2018 00:20:25.843716000 +07
  202  69.992294 32:32:32:32:32:32 6dBm Nov 18, 2018 00:20:25.909406000 +07
  203  70.813666 32:32:32:32:32:32 6dBm Nov 18, 2018 00:20:26.730778000 +07
  204  70.976524 32:32:32:32:32:32 8dBm Nov 18, 2018 00:20:26.893636000 +07
  205  71.982217 32:32:32:32:32:32 7dBm Nov 18, 2018 00:20:27.899329000 +07
  206  72.051837 32:32:32:32:32:32 5dBm Nov 18, 2018 00:20:27.968949000 +07
  207  72.122936 32:32:32:32:32:32 6dBm Nov 18, 2018 00:20:28.040048000 +07
  208  72.452785 32:32:32:32:32:32 8dBm Nov 18, 2018 00:20:28.369897000 +07
  209  72.781167 32:32:32:32:32:32 5dBm Nov 18, 2018 00:20:28.698279000 +07
  210  72.911739 32:32:32:32:32:32 5dBm Nov 18, 2018 00:20:28.828851000 +07
  211  72.985132 32:32:32:32:32:32 8dBm Nov 18, 2018 00:20:28.902244000 +07
  212  73.342656 32:32:32:32:32:32 7dBm Nov 18, 2018 00:20:29.259768000 +07
  213  74.809893 32:32:32:32:32:32 6dBm Nov 18, 2018 00:20:30.727005000 +07
  214  74.947049 32:32:32:32:32:32 6dBm Nov 18, 2018 00:20:30.864161000 +07
  215  75.768354 32:32:32:32:32:32 8dBm Nov 18, 2018 00:20:31.685466000 +07
  216  76.939283 32:32:32:32:32:32 7dBm Nov 18, 2018 00:20:32.856395000 +07
  217  77.191840 32:32:32:32:32:32 7dBm Nov 18, 2018 00:20:33.108952000 +07
  218  77.336949 32:32:32:32:32:32 6dBm Nov 18, 2018 00:20:33.254061000 +07
  219  77.419775 32:32:32:32:32:32 8dBm Nov 18, 2018 00:20:33.336887000 +07
  220  77.558391 32:32:32:32:32:32 7dBm Nov 18, 2018 00:20:33.475503000 +07
  221  77.587169 32:32:32:32:32:32 7dBm Nov 18, 2018 00:20:33.504281000 +07
  222  78.418773 32:32:32:32:32:32 7dBm Nov 18, 2018 00:20:34.335885000 +07
  223  78.743411 32:32:32:32:32:32 9dBm Nov 18, 2018 00:20:34.660523000 +07
  224  79.347985 32:32:32:32:32:32 7dBm Nov 18, 2018 00:20:35.265097000 +07
  225  79.678385 32:32:32:32:32:32 8dBm Nov 18, 2018 00:20:35.595497000 +07
  226  79.801369 32:32:32:32:32:32 6dBm Nov 18, 2018 00:20:35.718481000 +07
  227  80.197756 32:32:32:32:32:32 8dBm Nov 18, 2018 00:20:36.114868000 +07
  228  80.436948 32:32:32:32:32:32 8dBm Nov 18, 2018 00:20:36.354060000 +07
  229  80.506864 32:32:32:32:32:32 6dBm Nov 18, 2018 00:20:36.423976000 +07
  230  81.277641 32:32:32:32:32:32 9dBm Nov 18, 2018 00:20:37.194753000 +07
  231  81.915190 32:32:32:32:32:32 7dBm Nov 18, 2018 00:20:37.832302000 +07
  232  82.030979 32:32:32:32:32:32 9dBm Nov 18, 2018 00:20:37.948091000 +07
  233  82.592447 32:32:32:32:32:32 7dBm Nov 18, 2018 00:20:38.509559000 +07
  234  82.765908 32:32:32:32:32:32 6dBm Nov 18, 2018 00:20:38.683020000 +07
  235  83.057380 32:32:32:32:32:32 9dBm Nov 18, 2018 00:20:38.974492000 +07
  236  83.264462 32:32:32:32:32:32 8dBm Nov 18, 2018 00:20:39.181574000 +07
  237  84.610712 32:32:32:32:32:32 7dBm Nov 18, 2018 00:20:40.527824000 +07
  238  85.064569 32:32:32:32:32:32 6dBm Nov 18, 2018 00:20:40.981681000 +07
  239  85.550839 32:32:32:32:32:32 6dBm Nov 18, 2018 00:20:41.467951000 +07
  240  85.745089 32:32:32:32:32:32 3dBm Nov 18, 2018 00:20:41.662201000 +07
  241  85.815740 32:32:32:32:32:32 7dBm Nov 18, 2018 00:20:41.732852000 +07
  242  85.901655 32:32:32:32:32:32 8dBm Nov 18, 2018 00:20:41.818767000 +07
  243  85.988680 32:32:32:32:32:32 8dBm Nov 18, 2018 00:20:41.905792000 +07
  244  86.065534 32:32:32:32:32:32 8dBm Nov 18, 2018 00:20:41.982646000 +07
  245  86.725169 32:32:32:32:32:32 7dBm Nov 18, 2018 00:20:42.642281000 +07
  246  87.192787 32:32:32:32:32:32 8dBm Nov 18, 2018 00:20:43.109899000 +07
  247  87.539091 32:32:32:32:32:32 8dBm Nov 18, 2018 00:20:43.456203000 +07
  248  87.715400 32:32:32:32:32:32 7dBm Nov 18, 2018 00:20:43.632512000 +07
  249  87.913689 32:32:32:32:32:32 6dBm Nov 18, 2018 00:20:43.830801000 +07
  250  88.157147 32:32:32:32:32:32 7dBm Nov 18, 2018 00:20:44.074259000 +07
  251  88.291718 32:32:32:32:32:32 6dBm Nov 18, 2018 00:20:44.208830000 +07
  252  89.005370 32:32:32:32:32:32 7dBm Nov 18, 2018 00:20:44.922482000 +07
  253  89.100955 32:32:32:32:32:32 7dBm Nov 18, 2018 00:20:45.018067000 +07
  254  89.110208 32:32:32:32:32:32 7dBm Nov 18, 2018 00:20:45.027320000 +07
  255  89.672290 32:32:32:32:32:32 8dBm Nov 18, 2018 00:20:45.589402000 +07
  256  89.905697 32:32:32:32:32:32 8dBm Nov 18, 2018 00:20:45.822809000 +07
  257  90.483538 32:32:32:32:32:32 8dBm Nov 18, 2018 00:20:46.400650000 +07
  258  90.625251 32:32:32:32:32:32 7dBm Nov 18, 2018 00:20:46.542363000 +07
  259  90.759787 32:32:32:32:32:32 8dBm Nov 18, 2018 00:20:46.676899000 +07
  260  91.216490 32:32:32:32:32:32 7dBm Nov 18, 2018 00:20:47.133602000 +07
  261  92.603647 32:32:32:32:32:32 7dBm Nov 18, 2018 00:20:48.520759000 +07
  262  92.692529 32:32:32:32:32:32 7dBm Nov 18, 2018 00:20:48.609641000 +07
  263  92.776314 32:32:32:32:32:32 9dBm Nov 18, 2018 00:20:48.693426000 +07
  264 1170372160.345034               Dec 19, 2055 23:41:56.262146000 +07
