,Actual Tx Distance from RX1,Observed Tx Distance from  Rx1,Actual Tx Distance from Rx2,Observed Tx Distance from Rx2
0,5.220153254,5.61506591,6.72812029,5.26783161
0.5,5.09999954,5.347956088,6.403124237,4.315076271
1,5.024937819,3.960718082,6.10327775808,4.8181999957
1.5,5,4.9999999,5.830951895,4.838247535
2,5.024937819,4.150530922,5.596169944,
2.5,5.09909514,4.032793024,5.3851648067,4.062862006
3,5.220153254,5.0559849,5.229530254,3.720887542
3.5,5.385164807,5.824933698,5.09999514,4.9600334363
4,5.590169944,3.813051274,5.024937811,3.37064963
4.5,5.830951895,4.781475894,5,5.0001
5,6.103277808,,5.024937811,5.24599
