,Distance Rx1,Rx2 Actual Distance,Rx2 Observed
0.25,0.31,3.010398,3.2135842
0.5,0.48826,3.0413812,3.246
0.75,0.59213,3.09232929,
1,0.98,3.1622778,
1.25,,3.25,3.19
1.5,,3.354101966,3.65336146
1.75,1.710015,3.47,
2,1.90029,3.605551275,
2.25,2.206480024,3.72021,3.797596339
2.5,,3.9051248,4.023773014
2.75,2.646573,4.0697,4.062667721
3,2.89,4.24242640687,4.20148
3.25,,4.422951503,
3.5,,4.6097772229,
3.75,3.759,4.802343178,
4,3.9,5,4.6057
4.25,,5.202163012,4.7086
4.5,,5.408,
4.75,,5.618051264,
5,,5.830951895,
