,Min FER,Max FER,Avg FER,Var FER
0.5,0,0.9994284,0.730381725146,0.0464210200792
1,0,0.999004,0.82535177,0.0436725957
1.5,0,0.099967,0.787692125528914,0.041848840866
2,0,0.999456,0.780468162,0.05135263
2.5,0,0.999646,0.815678709,0.00532325832
3,0,0.999617,0.8346996,0.0363581
3.5,0,0.999585,0.788579562963,0.0374905
4,0,0.999949,0.892769213,0.0338293
4.5,0,0.997573,0.93402243,0.024980668
5,0,0.99489,0.908832068,0.02498066
5.5,0,0.999392,0.773248610091742,0.047339765165662
6,0,0.99972,0.7609355287,0.0466422148
6.5,0,0.999427,0.770743,0.046949
7,0,0.999427,0.770743,0.046949
7.5,0,0.999675,0.787162537,0.040416083
