                1       032:32:32:32:32:3 11dBm   Nov 18,   201816:34:28.835558000 7          4
                20.07887632:32:32:32:32:3 11dBm   Nov 18,   201816:34:28.914434000 7         17
                30.10585832:32:32:32:32:3 12dBm   Nov 18,   201816:34:28.941416000 7        ###
                40.21524232:32:32:32:32:3 11dBm   Nov 18,   201816:34:29.050800000 7        ###
                50.28102732:32:32:32:32:3 10dBm   Nov 18,   201816:34:29.116585000 7        ###
                60.30749832:32:32:32:32:3  9Bm N  ov 18, 2018 1 6:34:29.143056000  7
                70.33906632:32:32:32:32:3 10dBm   Nov 18,   201816:34:29.174624000 7
                8 0.3579932:32:32:32:32:3  9Bm N  ov 18, 2018 1 6:34:29.193548000  7
                90.41073732:32:32:32:32:3  6Bm N  ov 18, 2018 1 6:34:29.246295000  7
               100.48486132:32:32:32:32:3  8Bm N  ov 18, 2018 1 6:34:29.320419000  7
               110.58624632:32:32:32:32:3  8Bm N  ov 18, 2018 1 6:34:29.421804000  7
               120.80528932:32:32:32:32:3 13dBm   Nov 18,   201816:34:29.640847000 7
               130.83245632:32:32:32:32:3 11dBm   Nov 18,   201816:34:29.668014000 7
               141.05690132:32:32:32:32:3  9Bm N  ov 18, 2018 1 6:34:29.892459000  7
               151.31333732:32:32:32:32:3 10dBm   Nov 18,   201816:34:30.148895000 7
               16  1.510232:32:32:32:32:3 15dBm   Nov 18,   201816:34:30.345758000 7
               17 1.5522532:32:32:32:32:3 14dBm   Nov 18,   201816:34:30.387808000 7
               181.67872732:32:32:32:32:3 13dBm   Nov 18,   201816:34:30.514285000 7
               191.79063732:32:32:32:32:3  9Bm N  ov 18, 2018 1 6:34:30.626195000  7
               201.81203132:32:32:32:32:3 11dBm   Nov 18,   201816:34:30.647589000 7
               211.85330832:32:32:32:32:3 11dBm   Nov 18,   201816:34:30.688866000 7
               221.89264232:32:32:32:32:3 13dBm   Nov 18,   201816:34:30.728200000 7
               231.90938132:32:32:32:32:3 12dBm   Nov 18,   201816:34:30.744939000 7
               242.11221932:32:32:32:32:3 14dBm   Nov 18,   201816:34:30.947777000 7
               25  2.130532:32:32:32:32:3 12dBm   Nov 18,   201816:34:30.966058000 7
               262.20967632:32:32:32:32:3 10dBm   Nov 18,   201816:34:31.045234000 7
               272.34897332:32:32:32:32:3 13dBm   Nov 18,   201816:34:31.184531000 7
               282.42404732:32:32:32:32:3 15dBm   Nov 18,   201816:34:31.259605000 7
               292.53989332:32:32:32:32:3 15dBm   Nov 18,   201816:34:31.375451000 7
               302.66056232:32:32:32:32:3  4Bm N  ov 18, 2018 1 6:34:31.496120000  7
               312.69812832:32:32:32:32:3  9Bm N  ov 18, 2018 1 6:34:31.533686000  7
               322.95935432:32:32:32:32:3 12dBm   Nov 18,   201816:34:31.794912000 7
               333.09264232:32:32:32:32:3  8Bm N  ov 18, 2018 1 6:34:31.928200000  7
               343.17056232:32:32:32:32:3 11dBm   Nov 18,   201816:34:32.006120000 7
               353.30657932:32:32:32:32:3 10dBm   Nov 18,   201816:34:32.142137000 7
               363.34812732:32:32:32:32:3  8Bm N  ov 18, 2018 1 6:34:32.183685000  7
               373.67625132:32:32:32:32:3 13dBm   Nov 18,   201816:34:32.511809000 7
               383.74357932:32:32:32:32:3 14dBm   Nov 18,   201816:34:32.579137000 7
               393.77041332:32:32:32:32:3 11dBm   Nov 18,   201816:34:32.605971000 7
               403.79092632:32:32:32:32:3 13dBm   Nov 18,   201816:34:32.626484000 7
               41 3.8335632:32:32:32:32:3 11dBm   Nov 18,   201816:34:32.669118000 7
               423.86584932:32:32:32:32:3 13dBm   Nov 18,   201816:34:32.701407000 7
               433.95429932:32:32:32:32:3 10dBm   Nov 18,   201816:34:32.789857000 7
               443.98007332:32:32:32:32:3 12dBm   Nov 18,   201816:34:32.815631000 7
               45 4.0254732:32:32:32:32:3 14dBm   Nov 18,   201816:34:32.861028000 7
               464.34924532:32:32:32:32:3 15dBm   Nov 18,   201816:34:33.184803000 7
               474.37065232:32:32:32:32:3 14dBm   Nov 18,   201816:34:33.206210000 7
               484.38734432:32:32:32:32:3 15dBm   Nov 18,   201816:34:33.222902000 7
               494.42665932:32:32:32:32:3 14dBm   Nov 18,   201816:34:33.262217000 7
               504.83958932:32:32:32:32:3 14dBm   Nov 18,   201816:34:33.675147000 7
               514.98878232:32:32:32:32:3 13dBm   Nov 18,   201816:34:33.824340000 7
               525.07739132:32:32:32:32:3 15dBm   Nov 18,   201816:34:33.912949000 7
               535.12796432:32:32:32:32:3  9Bm N  ov 18, 2018 1 6:34:33.963522000  7
               545.19503832:32:32:32:32:3 13dBm   Nov 18,   201816:34:34.030596000 7
               55 5.3319132:32:32:32:32:3 13dBm   Nov 18,   201816:34:34.167468000 7
               565.47209832:32:32:32:32:3 14dBm   Nov 18,   201816:34:34.307656000 7
               575.62311632:32:32:32:32:3  9Bm N  ov 18, 2018 1 6:34:34.458674000  7
               585.88417332:32:32:32:32:3 13dBm   Nov 18,   201816:34:34.719731000 7
               596.00052532:32:32:32:32:3  9Bm N  ov 18, 2018 1 6:34:34.836083000  7
               606.12055432:32:32:32:32:3 10dBm   Nov 18,   201816:34:34.956112000 7
               616.19359832:32:32:32:32:3 15dBm   Nov 18,   201816:34:35.029156000 7
               626.25047732:32:32:32:32:3 13dBm   Nov 18,   201816:34:35.086035000 7
               636.25895332:32:32:32:32:3 10dBm   Nov 18,   201816:34:35.094511000 7
               646.27471532:32:32:32:32:3 12dBm   Nov 18,   201816:34:35.110273000 7
               65 6.2861132:32:32:32:32:3 14dBm   Nov 18,   201816:34:35.121668000 7
               666.33751932:32:32:32:32:3 14dBm   Nov 18,   201816:34:35.173077000 7
               676.47792332:32:32:32:32:3 13dBm   Nov 18,   201816:34:35.313481000 7
               686.51708732:32:32:32:32:3 14dBm   Nov 18,   201816:34:35.352645000 7
               696.77577232:32:32:32:32:3 16dBm   Nov 18,   201816:34:35.611330000 7
               707.15057132:32:32:32:32:3 14dBm   Nov 18,   201816:34:35.986129000 7
               717.21639132:32:32:32:32:3 13dBm   Nov 18,   201816:34:36.051949000 7
               727.26312832:32:32:32:32:3 12dBm   Nov 18,   201816:34:36.098686000 7
               737.28343432:32:32:32:32:3 12dBm   Nov 18,   201816:34:36.118992000 7
               747.30040532:32:32:32:32:3 12dBm   Nov 18,   201816:34:36.135963000 7
               75 7.3152832:32:32:32:32:3  9Bm N  ov 18, 2018 1 6:34:36.150838000  7
               767.37160332:32:32:32:32:3 13dBm   Nov 18,   201816:34:36.207161000 7
               777.38249632:32:32:32:32:3  8Bm N  ov 18, 2018 1 6:34:36.218054000  7
               787.45375132:32:32:32:32:3 14dBm   Nov 18,   201816:34:36.289309000 7
               797.47342632:32:32:32:32:3 10dBm   Nov 18,   201816:34:36.308984000 7
               807.51080432:32:32:32:32:3 12dBm   Nov 18,   201816:34:36.346362000 7
               817.60153432:32:32:32:32:3 12dBm   Nov 18,   201816:34:36.437092000 7
               827.61709332:32:32:32:32:3 13dBm   Nov 18,   201816:34:36.452651000 7
               83 7.6427932:32:32:32:32:3 11dBm   Nov 18,   201816:34:36.478348000 7
               847.89913732:32:32:32:32:3 15dBm   Nov 18,   201816:34:36.734695000 7
               858.10111232:32:32:32:32:3 15dBm   Nov 18,   201816:34:36.936670000 7
               868.11865932:32:32:32:32:3 15dBm   Nov 18,   201816:34:36.954217000 7
               878.59268732:32:32:32:32:3 14dBm   Nov 18,   201816:34:37.428245000 7
               888.60693432:32:32:32:32:3 12dBm   Nov 18,   201816:34:37.442492000 7
               898.62078232:32:32:32:32:3  9Bm N  ov 18, 2018 1 6:34:37.456340000  7
               908.63436432:32:32:32:32:3 12dBm   Nov 18,   201816:34:37.469922000 7
               918.74362432:32:32:32:32:3 12dBm   Nov 18,   201816:34:37.579182000 7
               928.77210532:32:32:32:32:3 13dBm   Nov 18,   201816:34:37.607663000 7
               938.79515532:32:32:32:32:3 14dBm   Nov 18,   201816:34:37.630713000 7
               948.88421832:32:32:32:32:3 13dBm   Nov 18,   201816:34:37.719776000 7
               958.98580932:32:32:32:32:3 13dBm   Nov 18,   201816:34:37.821367000 7
               969.04457132:32:32:32:32:3 13dBm   Nov 18,   201816:34:37.880129000 7
               979.11604932:32:32:32:32:3 13dBm   Nov 18,   201816:34:37.951607000 7
               989.13823532:32:32:32:32:3 14dBm   Nov 18,   201816:34:37.973793000 7
               999.24778832:32:32:32:32:3 14dBm   Nov 18,   201816:34:38.083346000 7
              100 9.5727932:32:32:32:32:3 13dBm   Nov 18,   201816:34:38.408348000 7
              1019.60474932:32:32:32:32:3 14dBm   Nov 18,   201816:34:38.440307000 7
              1029.75614232:32:32:32:32:3 14dBm   Nov 18,   201816:34:38.591700000 7
              1039.78958532:32:32:32:32:3 12dBm   Nov 18,   201816:34:38.625143000 7
              1049.82132832:32:32:32:32:3 11dBm   Nov 18,   201816:34:38.656886000 7
              1059.85590432:32:32:32:32:3 13dBm   Nov 18,   201816:34:38.691462000 7
           106  10.17084432:32:32:32:32:3 12dBm   Nov 18,   201816:34:39.006402000 7
           107  10.22476432:32:32:32:32:3 12dBm   Nov 18,   201816:34:39.060322000 7
           108  10.32210632:32:32:32:32:3 11dBm   Nov 18,   201816:34:39.157664000 7
           109  10.36878232:32:32:32:32:3 14dBm   Nov 18,   201816:34:39.204340000 7
           110  1 0.3808932:32:32:32:32:3 12dBm   Nov 18,   201816:34:39.216448000 7
           111  10.50078232:32:32:32:32:3 14dBm   Nov 18,   201816:34:39.336340000 7
           112  10.54016132:32:32:32:32:3 12dBm   Nov 18,   201816:34:39.375719000 7
           113  1 0.6186932:32:32:32:32:3 14dBm   Nov 18,   201816:34:39.454248000 7
           114  10.76684532:32:32:32:32:3 14dBm   Nov 18,   201816:34:39.602403000 7
           115  1 0.8892532:32:32:32:32:3 13dBm   Nov 18,   201816:34:39.724808000 7
           116  10.91464732:32:32:32:32:3 14dBm   Nov 18,   201816:34:39.750205000 7
           117  10.92246432:32:32:32:32:3 12dBm   Nov 18,   201816:34:39.758022000 7
           118  10.97137532:32:32:32:32:3 12dBm   Nov 18,   201816:34:39.806933000 7
           119  11.06909532:32:32:32:32:3 13dBm   Nov 18,   201816:34:39.904653000 7
           120  11.21847832:32:32:32:32:3 11dBm   Nov 18,   201816:34:40.054036000 7
           121  11.27498432:32:32:32:32:3  9Bm N  ov 18, 2018 1 6:34:40.110542000  7
           122  11.29507532:32:32:32:32:3 12dBm   Nov 18,   201816:34:40.130633000 7
           123  11.31398432:32:32:32:32:3  7Bm N  ov 18, 2018 1 6:34:40.149542000  7
           124  11.32444332:32:32:32:32:3 12dBm   Nov 18,   201816:34:40.160001000 7
           125  11.71607832:32:32:32:32:3 14dBm   Nov 18,   201816:34:40.551636000 7
           126  1 1.7387132:32:32:32:32:3  8Bm N  ov 18, 2018 1 6:34:40.574268000  7
           127  11.85907532:32:32:32:32:3 12dBm   Nov 18,   201816:34:40.694633000 7
           128  11.92481332:32:32:32:32:3 13dBm   Nov 18,   201816:34:40.760371000 7
           129  11.93670932:32:32:32:32:3 14dBm   Nov 18,   201816:34:40.772267000 7
           130  11.95925532:32:32:32:32:3  9Bm N  ov 18, 2018 1 6:34:40.794813000  7
           131  12.06436132:32:32:32:32:3 12dBm   Nov 18,   201816:34:40.899919000 7
           132  12.16565732:32:32:32:32:3 14dBm   Nov 18,   201816:34:41.001215000 7
           133  12.20166732:32:32:32:32:3 13dBm   Nov 18,   201816:34:41.037225000 7
           134  12.23150632:32:32:32:32:3 13dBm   Nov 18,   201816:34:41.067064000 7
           135  12.25562932:32:32:32:32:3 10dBm   Nov 18,   201816:34:41.091187000 7
           136  12.35109832:32:32:32:32:3 11dBm   Nov 18,   201816:34:41.186656000 7
           137  12.43117932:32:32:32:32:3 11dBm   Nov 18,   201816:34:41.266737000 7
           138  12.48295732:32:32:32:32:3 15dBm   Nov 18,   201816:34:41.318515000 7
           139  12.53922232:32:32:32:32:3 12dBm   Nov 18,   201816:34:41.374780000 7
           140  12.57172432:32:32:32:32:3 11dBm   Nov 18,   201816:34:41.407282000 7
           141  1 2.5978932:32:32:32:32:3 11dBm   Nov 18,   201816:34:41.433448000 7
           142  12.61365832:32:32:32:32:3 13dBm   Nov 18,   201816:34:41.449216000 7
           143  12.65182932:32:32:32:32:3 15dBm   Nov 18,   201816:34:41.487387000 7
           144  12.94308432:32:32:32:32:3 15dBm   Nov 18,   201816:34:41.778642000 7
           145  13.11971332:32:32:32:32:3 11dBm   Nov 18,   201816:34:41.955271000 7
           146  1 3.2327132:32:32:32:32:3 14dBm   Nov 18,   201816:34:42.068268000 7
           147  13.30462932:32:32:32:32:3 14dBm   Nov 18,   201816:34:42.140187000 7
           148  13.33385732:32:32:32:32:3 11dBm   Nov 18,   201816:34:42.169415000 7
           149  13.53112932:32:32:32:32:3 14dBm   Nov 18,   201816:34:42.366687000 7
           150  13.62183832:32:32:32:32:3 13dBm   Nov 18,   201816:34:42.457396000 7
           151  13.64483332:32:32:32:32:3 15dBm   Nov 18,   201816:34:42.480391000 7
           152  13.64850132:32:32:32:32:3 13dBm   Nov 18,   201816:34:42.484059000 7
           153  13.68092532:32:32:32:32:3 13dBm   Nov 18,   201816:34:42.516483000 7
           154  13.70556132:32:32:32:32:3 13dBm   Nov 18,   201816:34:42.541119000 7
           155  13.71973432:32:32:32:32:3 13dBm   Nov 18,   201816:34:42.555292000 7
           156  13.86083832:32:32:32:32:3 11dBm   Nov 18,   201816:34:42.696396000 7
           157  13.88562132:32:32:32:32:3 11dBm   Nov 18,   201816:34:42.721179000 7
           158  14.09310732:32:32:32:32:3 14dBm   Nov 18,   201816:34:42.928665000 7
           159  14.12851132:32:32:32:32:3 13dBm   Nov 18,   201816:34:42.964069000 7
           160  14.37137332:32:32:32:32:3  9Bm N  ov 18, 2018 1 6:34:43.206931000  7
           161  14.49837232:32:32:32:32:3 14dBm   Nov 18,   201816:34:43.333930000 7
           162  14.55673232:32:32:32:32:3 12dBm   Nov 18,   201816:34:43.392290000 7
           163  14.65033732:32:32:32:32:3 14dBm   Nov 18,   201816:34:43.485895000 7
           164  14.74938132:32:32:32:32:3 13dBm   Nov 18,   201816:34:43.584939000 7
           165  14.78258232:32:32:32:32:3 13dBm   Nov 18,   201816:34:43.618140000 7
           166  14.91722232:32:32:32:32:3 11dBm   Nov 18,   201816:34:43.752780000 7
           167  14.96618132:32:32:32:32:3 12dBm   Nov 18,   201816:34:43.801739000 7
           168  1 5.0266732:32:32:32:32:3 10dBm   Nov 18,   201816:34:43.862228000 7
           169  15.08503832:32:32:32:32:3 10dBm   Nov 18,   201816:34:43.920596000 7
           170  15.33025532:32:32:32:32:3 13dBm   Nov 18,   201816:34:44.165813000 7
           171  15.38380632:32:32:32:32:3 14dBm   Nov 18,   201816:34:44.219364000 7
           172  15.48337732:32:32:32:32:3 13dBm   Nov 18,   201816:34:44.318935000 7
           173  15.56324732:32:32:32:32:3 12dBm   Nov 18,   201816:34:44.398805000 7
           174  15.68959732:32:32:32:32:3 12dBm   Nov 18,   201816:34:44.525155000 7
           175  15.93684432:32:32:32:32:3 14dBm   Nov 18,   201816:34:44.772402000 7
           176  16.09949132:32:32:32:32:3 14dBm   Nov 18,   201816:34:44.935049000 7
           177  16.14454832:32:32:32:32:3 12dBm   Nov 18,   201816:34:44.980106000 7
           178  16.31136532:32:32:32:32:3  8Bm N  ov 18, 2018 1 6:34:45.146923000  7
           179  16.34394632:32:32:32:32:3 10dBm   Nov 18,   201816:34:45.179504000 7
           180  16.41017332:32:32:32:32:3 12dBm   Nov 18,   201816:34:45.245731000 7
           181  16.53169132:32:32:32:32:3 15dBm   Nov 18,   201816:34:45.367249000 7
           182  16.59975932:32:32:32:32:3 14dBm   Nov 18,   201816:34:45.435317000 7
           183  16.61877232:32:32:32:32:3 15dBm   Nov 18,   201816:34:45.454330000 7
           184  16.65982932:32:32:32:32:3 14dBm   Nov 18,   201816:34:45.495387000 7
           185  16.67722632:32:32:32:32:3 14dBm   Nov 18,   201816:34:45.512784000 7
           186  16.70607332:32:32:32:32:3 13dBm   Nov 18,   201816:34:45.541631000 7
           187  16.73850232:32:32:32:32:3 12dBm   Nov 18,   201816:34:45.574060000 7
           188  16.76078532:32:32:32:32:3 12dBm   Nov 18,   201816:34:45.596343000 7
           189  16.87529232:32:32:32:32:3 14dBm   Nov 18,   201816:34:45.710850000 7
           190  16.96551932:32:32:32:32:3 13dBm   Nov 18,   201816:34:45.801077000 7
           191  17.02525332:32:32:32:32:3 14dBm   Nov 18,   201816:34:45.860811000 7
           192  17.32689532:32:32:32:32:3 14dBm   Nov 18,   201816:34:46.162453000 7
           193  17.48017432:32:32:32:32:3 12dBm   Nov 18,   201816:34:46.315732000 7
           194  17.57385432:32:32:32:32:3 12dBm   Nov 18,   201816:34:46.409412000 7
           195  17.61897732:32:32:32:32:3 12dBm   Nov 18,   201816:34:46.454535000 7
           196  17.63828832:32:32:32:32:3  8Bm N  ov 18, 2018 1 6:34:46.473846000  7
           197  17.72236832:32:32:32:32:3 10dBm   Nov 18,   201816:34:46.557926000 7
           198  17.77902632:32:32:32:32:3 13dBm   Nov 18,   201816:34:46.614584000 7
           199  1 7.7997832:32:32:32:32:3 12dBm   Nov 18,   201816:34:46.635338000 7
           200  17.91086332:32:32:32:32:3  8Bm N  ov 18, 2018 1 6:34:46.746421000  7
           201  18.00101232:32:32:32:32:3 15dBm   Nov 18,   201816:34:46.836570000 7
           202  18.01906832:32:32:32:32:3 11dBm   Nov 18,   201816:34:46.854626000 7
           203  18.02782532:32:32:32:32:3 13dBm   Nov 18,   201816:34:46.863383000 7
           204  18.05362732:32:32:32:32:3 12dBm   Nov 18,   201816:34:46.889185000 7
           205  18.06512932:32:32:32:32:3 12dBm   Nov 18,   201816:34:46.900687000 7
           206  18.11152632:32:32:32:32:3 15dBm   Nov 18,   201816:34:46.947084000 7
           207  18.16005632:32:32:32:32:3 13dBm   Nov 18,   201816:34:46.995614000 7
           208  18.17746832:32:32:32:32:3 14dBm   Nov 18,   201816:34:47.013026000 7
           209  18.19739732:32:32:32:32:3 14dBm   Nov 18,   201816:34:47.032955000 7
           210  18.23239632:32:32:32:32:3 13dBm   Nov 18,   201816:34:47.067954000 7
           211  18.48397632:32:32:32:32:3 13dBm   Nov 18,   201816:34:47.319534000 7
           212  18.56581732:32:32:32:32:3 14dBm   Nov 18,   201816:34:47.401375000 7
           213  18.70130132:32:32:32:32:3 13dBm   Nov 18,   201816:34:47.536859000 7
           214  18.90797432:32:32:32:32:3 13dBm   Nov 18,   201816:34:47.743532000 7
           215  19.00007332:32:32:32:32:3 10dBm   Nov 18,   201816:34:47.835631000 7
           216  19.01676532:32:32:32:32:3 11dBm   Nov 18,   201816:34:47.852323000 7
           217  1 9.1187732:32:32:32:32:3 14dBm   Nov 18,   201816:34:47.954328000 7
           218  19.34730532:32:32:32:32:3 11dBm   Nov 18,   201816:34:48.182863000 7
           219  1 9.3876932:32:32:32:32:3 13dBm   Nov 18,   201816:34:48.223248000 7
           220  19.41512532:32:32:32:32:3 12dBm   Nov 18,   201816:34:48.250683000 7
           221  1 9.4431332:32:32:32:32:3 13dBm   Nov 18,   201816:34:48.278688000 7
           222  19.59870332:32:32:32:32:3 14dBm   Nov 18,   201816:34:48.434261000 7
           223  1 9.6783932:32:32:32:32:3 12dBm   Nov 18,   201816:34:48.513948000 7
           224  1 9.8070932:32:32:32:32:3 11dBm   Nov 18,   201816:34:48.642648000 7
           225  1 9.9164632:32:32:32:32:3 14dBm   Nov 18,   201816:34:48.752018000 7
           226  1 9.9570332:32:32:32:32:3 15dBm   Nov 18,   201816:34:48.792588000 7
           227  20.41908732:32:32:32:32:3 13dBm   Nov 18,   201816:34:49.254645000 7
           228  2 0.5147732:32:32:32:32:3 12dBm   Nov 18,   201816:34:49.350328000 7
           229  20.53673632:32:32:32:32:3 13dBm   Nov 18,   201816:34:49.372294000 7
           230  20.59015632:32:32:32:32:3 14dBm   Nov 18,   201816:34:49.425714000 7
           231  20.77903932:32:32:32:32:3 13dBm   Nov 18,   201816:34:49.614597000 7
           232  20.88921732:32:32:32:32:3 14dBm   Nov 18,   201816:34:49.724775000 7
           233  21.11363432:32:32:32:32:3 12dBm   Nov 18,   201816:34:49.949192000 7
           234  21.19941132:32:32:32:32:3 10dBm   Nov 18,   201816:34:50.034969000 7
           235  21.29356732:32:32:32:32:3 14dBm   Nov 18,   201816:34:50.129125000 7
           236  21.32803832:32:32:32:32:3 15dBm   Nov 18,   201816:34:50.163596000 7
           237  21.36935532:32:32:32:32:3 13dBm   Nov 18,   201816:34:50.204913000 7
           238  21.40655332:32:32:32:32:3  9Bm N  ov 18, 2018 1 6:34:50.242111000  7
           239  21.44187232:32:32:32:32:3 10dBm   Nov 18,   201816:34:50.277430000 7
           240  21.45877232:32:32:32:32:3 11dBm   Nov 18,   201816:34:50.294330000 7
           241  21.59506932:32:32:32:32:3 15dBm   Nov 18,   201816:34:50.430627000 7
           242  21.95398432:32:32:32:32:3 15dBm   Nov 18,   201816:34:50.789542000 7
           243  21.97888232:32:32:32:32:3 13dBm   Nov 18,   201816:34:50.814440000 7
           244  21.99408232:32:32:32:32:3 12dBm   Nov 18,   201816:34:50.829640000 7
           245  22.02735432:32:32:32:32:3 14dBm   Nov 18,   201816:34:50.862912000 7
           246  22.11942932:32:32:32:32:3 14dBm   Nov 18,   201816:34:50.954987000 7
           247  22.31267732:32:32:32:32:3 11dBm   Nov 18,   201816:34:51.148235000 7
           248  22.40105132:32:32:32:32:3 14dBm   Nov 18,   201816:34:51.236609000 7
           249  22.54340532:32:32:32:32:3 15dBm   Nov 18,   201816:34:51.378963000 7
           250  22.68884532:32:32:32:32:3 14dBm   Nov 18,   201816:34:51.524403000 7
           251  22.72208732:32:32:32:32:3 14dBm   Nov 18,   201816:34:51.557645000 7
           252  22.73529332:32:32:32:32:3 15dBm   Nov 18,   201816:34:51.570851000 7
           253  22.74750332:32:32:32:32:3 12dBm   Nov 18,   201816:34:51.583061000 7
           254  22.87727632:32:32:32:32:3 13dBm   Nov 18,   201816:34:51.712834000 7
           255  22.90495132:32:32:32:32:3 13dBm   Nov 18,   201816:34:51.740509000 7
           256  23.01317732:32:32:32:32:3 12dBm   Nov 18,   201816:34:51.848735000 7
           257  23.16347832:32:32:32:32:3 11dBm   Nov 18,   201816:34:51.999036000 7
           258  23.31800832:32:32:32:32:3 14dBm   Nov 18,   201816:34:52.153566000 7
           259  23.37190532:32:32:32:32:3 15dBm   Nov 18,   201816:34:52.207463000 7
           260  23.37618632:32:32:32:32:3 12dBm   Nov 18,   201816:34:52.211744000 7
           261  23.55212232:32:32:32:32:3 14dBm   Nov 18,   201816:34:52.387680000 7
           262  23.63737232:32:32:32:32:3 16dBm   Nov 18,   201816:34:52.472930000 7
           263  23.66286132:32:32:32:32:3 16dBm   Nov 18,   201816:34:52.498419000 7
           264  2 3.9914132:32:32:32:32:3 13dBm   Nov 18,   201816:34:52.826968000 7
           265  24.08573132:32:32:32:32:3 11dBm   Nov 18,   201816:34:52.921289000 7
           266  24.11598932:32:32:32:32:3  9Bm N  ov 18, 2018 1 6:34:52.951547000  7
           267  24.20609132:32:32:32:32:3 12dBm   Nov 18,   201816:34:53.041649000 7
           268  24.39429432:32:32:32:32:3 13dBm   Nov 18,   201816:34:53.229852000 7
           269  24.48255232:32:32:32:32:3 12dBm   Nov 18,   201816:34:53.318110000 7
           270  24.50562432:32:32:32:32:3 14dBm   Nov 18,   201816:34:53.341182000 7
           271  24.59407832:32:32:32:32:3 14dBm   Nov 18,   201816:34:53.429636000 7
           272  24.61277932:32:32:32:32:3 13dBm   Nov 18,   201816:34:53.448337000 7
           273  24.79716432:32:32:32:32:3 13dBm   Nov 18,   201816:34:53.632722000 7
           274  24.81423132:32:32:32:32:3 14dBm   Nov 18,   201816:34:53.649789000 7
           275  24.85145532:32:32:32:32:3 15dBm   Nov 18,   201816:34:53.687013000 7
           276  24.92149332:32:32:32:32:3 15dBm   Nov 18,   201816:34:53.757051000 7
           277  25.06280332:32:32:32:32:3 12dBm   Nov 18,   201816:34:53.898361000 7
           278  25.09115132:32:32:32:32:3 13dBm   Nov 18,   201816:34:53.926709000 7
           279  25.28335732:32:32:32:32:3 14dBm   Nov 18,   201816:34:54.118915000 7
           280  2 5.3065232:32:32:32:32:3 14dBm   Nov 18,   201816:34:54.142078000 7
           281  25.33801332:32:32:32:32:3 12dBm   Nov 18,   201816:34:54.173571000 7
           282  25.69392732:32:32:32:32:3 13dBm   Nov 18,   201816:34:54.529485000 7
           283  25.87188732:32:32:32:32:3 14dBm   Nov 18,   201816:34:54.707445000 7
           284  2 5.9496932:32:32:32:32:3 16dBm   Nov 18,   201816:34:54.785248000 7
           285  25.96492332:32:32:32:32:3 12dBm   Nov 18,   201816:34:54.800481000 7
           286  26.00999832:32:32:32:32:3 13dBm   Nov 18,   201816:34:54.845556000 7
           287  26.05272732:32:32:32:32:3 14dBm   Nov 18,   201816:34:54.888285000 7
           288  26.12229832:32:32:32:32:3 13dBm   Nov 18,   201816:34:54.957856000 7
           289  26.16650132:32:32:32:32:3 14dBm   Nov 18,   201816:34:55.002059000 7
           290  26.20480332:32:32:32:32:3 14dBm   Nov 18,   201816:34:55.040361000 7
           291  26.42841832:32:32:32:32:3  9Bm N  ov 18, 2018 1 6:34:55.263976000  7
           292  26.53618632:32:32:32:32:3 12dBm   Nov 18,   201816:34:55.371744000 7
           293  26.56549632:32:32:32:32:3 14dBm   Nov 18,   201816:34:55.401054000 7
           294  2   6.59532:32:32:32:32:3 14dBm   Nov 18,   201816:34:55.430558000 7
           295  26.77795132:32:32:32:32:3 15dBm   Nov 18,   201816:34:55.613509000 7
           296  26.80717932:32:32:32:32:3 10dBm   Nov 18,   201816:34:55.642737000 7
           297  26.82361732:32:32:32:32:3 10dBm   Nov 18,   201816:34:55.659175000 7
           298  26.88153232:32:32:32:32:3 14dBm   Nov 18,   201816:34:55.717090000 7
           299  26.92601332:32:32:32:32:3 12dBm   Nov 18,   201816:34:55.761571000 7
           300  27.12230132:32:32:32:32:3 12dBm   Nov 18,   201816:34:55.957859000 7
           301  27.19712932:32:32:32:32:3 13dBm   Nov 18,   201816:34:56.032687000 7
           302  27.29701932:32:32:32:32:3 11dBm   Nov 18,   201816:34:56.132577000 7
           303  27.37217532:32:32:32:32:3 10dBm   Nov 18,   201816:34:56.207733000 7
           304  27.56331832:32:32:32:32:3 13dBm   Nov 18,   201816:34:56.398876000 7
           305  27.57243732:32:32:32:32:3 12dBm   Nov 18,   201816:34:56.407995000 7
           306  27.58454632:32:32:32:32:3  9Bm N  ov 18, 2018 1 6:34:56.420104000  7
           307  2 7.6099232:32:32:32:32:3 15dBm   Nov 18,   201816:34:56.445478000 7
           308  27.76729332:32:32:32:32:3 15dBm   Nov 18,   201816:34:56.602851000 7
           309  27.79481632:32:32:32:32:3 12dBm   Nov 18,   201816:34:56.630374000 7
           310  2 7.8135832:32:32:32:32:3 10dBm   Nov 18,   201816:34:56.649138000 7
           311  27.94834532:32:32:32:32:3 12dBm   Nov 18,   201816:34:56.783903000 7
           312  28.00026532:32:32:32:32:3 12dBm   Nov 18,   201816:34:56.835823000 7
           313  28.01646732:32:32:32:32:3  5Bm N  ov 18, 2018 1 6:34:56.852025000  7
           314  28.10737532:32:32:32:32:3 14dBm   Nov 18,   201816:34:56.942933000 7
           315  28.12605632:32:32:32:32:3 10dBm   Nov 18,   201816:34:56.961614000 7
           316  28.18589232:32:32:32:32:3 12dBm   Nov 18,   201816:34:57.021450000 7
           317  28.19896432:32:32:32:32:3 13dBm   Nov 18,   201816:34:57.034522000 7
           318  28.29530732:32:32:32:32:3 14dBm   Nov 18,   201816:34:57.130865000 7
           319  28.36075832:32:32:32:32:3  9Bm N  ov 18, 2018 1 6:34:57.196316000  7
           320  28.45270832:32:32:32:32:3 13dBm   Nov 18,   201816:34:57.288266000 7
           321  28.63508732:32:32:32:32:3 12dBm   Nov 18,   201816:34:57.470645000 7
           322  28.89868332:32:32:32:32:3 13dBm   Nov 18,   201816:34:57.734241000 7
           323  28.93720932:32:32:32:32:3 15dBm   Nov 18,   201816:34:57.772767000 7
           324  29.05357332:32:32:32:32:3 14dBm   Nov 18,   201816:34:57.889131000 7
           325  29.20741432:32:32:32:32:3 11dBm   Nov 18,   201816:34:58.042972000 7
           326  29.23986932:32:32:32:32:3 15dBm   Nov 18,   201816:34:58.075427000 7
           327  29.28763732:32:32:32:32:3 13dBm   Nov 18,   201816:34:58.123195000 7
           328  29.40424832:32:32:32:32:3 14dBm   Nov 18,   201816:34:58.239806000 7
           329  29.51820132:32:32:32:32:3 13dBm   Nov 18,   201816:34:58.353759000 7
           330  29.79932532:32:32:32:32:3 14dBm   Nov 18,   201816:34:58.634883000 7
           331  29.92910732:32:32:32:32:3 15dBm   Nov 18,   201816:34:58.764665000 7
           332  30.05247232:32:32:32:32:3 14dBm   Nov 18,   201816:34:58.888030000 7
           333  30.36864232:32:32:32:32:3 16dBm   Nov 18,   201816:34:59.204200000 7
           334  30.95020132:32:32:32:32:3 12dBm   Nov 18,   201816:34:59.785759000 7
           335  31.03197232:32:32:32:32:3 14dBm   Nov 18,   201816:34:59.867530000 7
           336  31.13492632:32:32:32:32:3 14dBm   Nov 18,   201816:34:59.970484000 7
           337  31.51219932:32:32:32:32:3 15dBm   Nov 18,   201816:35:00.347757000 7
           338  31.57151632:32:32:32:32:3 14dBm   Nov 18,   201816:35:00.407074000 7
           339  31.60382832:32:32:32:32:3 12dBm   Nov 18,   201816:35:00.439386000 7
           340  31.61699632:32:32:32:32:3 15dBm   Nov 18,   201816:35:00.452554000 7
           341  3 1.6352332:32:32:32:32:3 12dBm   Nov 18,   201816:35:00.470788000 7
           342  31.67036832:32:32:32:32:3 11dBm   Nov 18,   201816:35:00.505926000 7
           343  31.74556832:32:32:32:32:3 15dBm   Nov 18,   201816:35:00.581126000 7
           344  31.83818932:32:32:32:32:3 15dBm   Nov 18,   201816:35:00.673747000 7
           345  31.90282332:32:32:32:32:3 14dBm   Nov 18,   201816:35:00.738381000 7
           346  31.95308432:32:32:32:32:3 15dBm   Nov 18,   201816:35:00.788642000 7
           347  31.98628432:32:32:32:32:3 15dBm   Nov 18,   201816:35:00.821842000 7
           348  32.17079632:32:32:32:32:3 16dBm   Nov 18,   201816:35:01.006354000 7
           349  32.21921432:32:32:32:32:3 13dBm   Nov 18,   201816:35:01.054772000 7
           350  32.35618532:32:32:32:32:3 14dBm   Nov 18,   201816:35:01.191743000 7
           351  32.42809332:32:32:32:32:3 12dBm   Nov 18,   201816:35:01.263651000 7
           352  32.60636332:32:32:32:32:3 15dBm   Nov 18,   201816:35:01.441921000 7
           353  32.66748332:32:32:32:32:3 15dBm   Nov 18,   201816:35:01.503041000 7
           354  32.89350932:32:32:32:32:3 15dBm   Nov 18,   201816:35:01.729067000 7
           355  32.98874132:32:32:32:32:3 13dBm   Nov 18,   201816:35:01.824299000 7
           356  3 3.2823332:32:32:32:32:3 15dBm   Nov 18,   201816:35:02.117888000 7
           357  33.33139932:32:32:32:32:3 16dBm   Nov 18,   201816:35:02.166957000 7
           358  3 3.4663432:32:32:32:32:3 15dBm   Nov 18,   201816:35:02.301898000 7
           359  33.62362632:32:32:32:32:3 15dBm   Nov 18,   201816:35:02.459184000 7
           360  3 3.6703832:32:32:32:32:3 11dBm   Nov 18,   201816:35:02.505938000 7
           361  33.69483632:32:32:32:32:3 12dBm   Nov 18,   201816:35:02.530394000 7
           362  3 3.7114632:32:32:32:32:3 12dBm   Nov 18,   201816:35:02.547018000 7
           363  33.77561532:32:32:32:32:3 15dBm   Nov 18,   201816:35:02.611173000 7
           364  33.79976332:32:32:32:32:3 14dBm   Nov 18,   201816:35:02.635321000 7
           365  33.84157832:32:32:32:32:3 14dBm   Nov 18,   201816:35:02.677136000 7
           366  34.02977632:32:32:32:32:3 15dBm   Nov 18,   201816:35:02.865334000 7
           367  34.10251932:32:32:32:32:3 13dBm   Nov 18,   201816:35:02.938077000 7
           368  34.12287332:32:32:32:32:3 15dBm   Nov 18,   201816:35:02.958431000 7
           369  3  4.242832:32:32:32:32:3 15dBm   Nov 18,   201816:35:03.078358000 7
           370  34.35014532:32:32:32:32:3 12dBm   Nov 18,   201816:35:03.185703000 7
           371  34.45580532:32:32:32:32:3 15dBm   Nov 18,   201816:35:03.291363000 7
           372  34.50682732:32:32:32:32:3 14dBm   Nov 18,   201816:35:03.342385000 7
           373  34.51993732:32:32:32:32:3 14dBm   Nov 18,   201816:35:03.355495000 7
           374  34.53948132:32:32:32:32:3 11dBm   Nov 18,   201816:35:03.375039000 7
           375  34.65928732:32:32:32:32:3 15dBm   Nov 18,   201816:35:03.494845000 7
           376  34.68608532:32:32:32:32:3 14dBm   Nov 18,   201816:35:03.521643000 7
           377  3 4.7447632:32:32:32:32:3 17dBm   Nov 18,   201816:35:03.580318000 7
           378  34.79938532:32:32:32:32:3 13dBm   Nov 18,   201816:35:03.634943000 7
           379  34.83577332:32:32:32:32:3 13dBm   Nov 18,   201816:35:03.671331000 7
           380  34.85650432:32:32:32:32:3 13dBm   Nov 18,   201816:35:03.692062000 7
           381  34.87140132:32:32:32:32:3 15dBm   Nov 18,   201816:35:03.706959000 7
           382  3  5.075732:32:32:32:32:3 13dBm   Nov 18,   201816:35:03.911258000 7
           383  35.14241232:32:32:32:32:3 13dBm   Nov 18,   201816:35:03.977970000 7
           384  35.33926132:32:32:32:32:3 14dBm   Nov 18,   201816:35:04.174819000 7
           385  35.58185732:32:32:32:32:3 14dBm   Nov 18,   201816:35:04.417415000 7
           386  3 5.6375632:32:32:32:32:3 14dBm   Nov 18,   201816:35:04.473118000 7
           387  3 5.6949832:32:32:32:32:3 10dBm   Nov 18,   201816:35:04.530538000 7
           388  35.76327932:32:32:32:32:3 11dBm   Nov 18,   201816:35:04.598837000 7
           389  35.81224332:32:32:32:32:3 13dBm   Nov 18,   201816:35:04.647801000 7
           390  3 5.8570532:32:32:32:32:3 15dBm   Nov 18,   201816:35:04.692608000 7
           391  35.91122932:32:32:32:32:3 13dBm   Nov 18,   201816:35:04.746787000 7
           392  35.94838332:32:32:32:32:3 15dBm   Nov 18,   201816:35:04.783941000 7
           393  35.98451732:32:32:32:32:3 14dBm   Nov 18,   201816:35:04.820075000 7
           394  36.43565532:32:32:32:32:3 11dBm   Nov 18,   201816:35:05.271213000 7
           395  36.45893832:32:32:32:32:3 13dBm   Nov 18,   201816:35:05.294496000 7
           396  36.50810632:32:32:32:32:3 15dBm   Nov 18,   201816:35:05.343664000 7
           397  36.63023832:32:32:32:32:3 14dBm   Nov 18,   201816:35:05.465796000 7
           398  36.86305332:32:32:32:32:3 14dBm   Nov 18,   201816:35:05.698611000 7
           399  37.09285232:32:32:32:32:3 14dBm   Nov 18,   201816:35:05.928410000 7
           400  37.17716932:32:32:32:32:3 12dBm   Nov 18,   201816:35:06.012727000 7
           401  37.38571432:32:32:32:32:3 13dBm   Nov 18,   201816:35:06.221272000 7
           402  37.53484932:32:32:32:32:3 15dBm   Nov 18,   201816:35:06.370407000 7
           403  37.89222532:32:32:32:32:3 14dBm   Nov 18,   201816:35:06.727783000 7
           404  37.91232632:32:32:32:32:3 11dBm   Nov 18,   201816:35:06.747884000 7
           405  37.95381232:32:32:32:32:3 15dBm   Nov 18,   201816:35:06.789370000 7
           406  37.97468732:32:32:32:32:3 11dBm   Nov 18,   201816:35:06.810245000 7
           407  38.01563132:32:32:32:32:3 13dBm   Nov 18,   201816:35:06.851189000 7
           408  38.08943832:32:32:32:32:3 13dBm   Nov 18,   201816:35:06.924996000 7
           409  38.11412232:32:32:32:32:3 14dBm   Nov 18,   201816:35:06.949680000 7
           410  38.12481932:32:32:32:32:3 14dBm   Nov 18,   201816:35:06.960377000 7
           411  38.24625532:32:32:32:32:3 11dBm   Nov 18,   201816:35:07.081813000 7
           412  38.36541932:32:32:32:32:3 15dBm   Nov 18,   201816:35:07.200977000 7
           413  38.49434632:32:32:32:32:3 14dBm   Nov 18,   201816:35:07.329904000 7
           414  38.86846532:32:32:32:32:3 15dBm   Nov 18,   201816:35:07.704023000 7
           415  39.01501532:32:32:32:32:3 13dBm   Nov 18,   201816:35:07.850573000 7
           416  39.10267232:32:32:32:32:3 12dBm   Nov 18,   201816:35:07.938230000 7
           417  39.17545132:32:32:32:32:3 14dBm   Nov 18,   201816:35:08.011009000 7
           418  39.20561232:32:32:32:32:3 12dBm   Nov 18,   201816:35:08.041170000 7
           419  39.45971532:32:32:32:32:3 15dBm   Nov 18,   201816:35:08.295273000 7
           420  39.60680532:32:32:32:32:3 15dBm   Nov 18,   201816:35:08.442363000 7
           421  39.67262332:32:32:32:32:3 15dBm   Nov 18,   201816:35:08.508181000 7
           422  39.80535132:32:32:32:32:3 13dBm   Nov 18,   201816:35:08.640909000 7
           423  39.90989932:32:32:32:32:3 16dBm   Nov 18,   201816:35:08.745457000 7
           424  39.94852532:32:32:32:32:3 16dBm   Nov 18,   201816:35:08.784083000 7
           425  40.05322232:32:32:32:32:3 15dBm   Nov 18,   201816:35:08.888780000 7
           426  40.15404132:32:32:32:32:3 13dBm   Nov 18,   201816:35:08.989599000 7
           427  40.23491132:32:32:32:32:3 15dBm   Nov 18,   201816:35:09.070469000 7
           428  40.31373932:32:32:32:32:3 14dBm   Nov 18,   201816:35:09.149297000 7
           429  40.36081132:32:32:32:32:3 15dBm   Nov 18,   201816:35:09.196369000 7
           430  40.53246332:32:32:32:32:3 15dBm   Nov 18,   201816:35:09.368021000 7
           431  40.61081132:32:32:32:32:3 12dBm   Nov 18,   201816:35:09.446369000 7
           432  40.70799332:32:32:32:32:3 13dBm   Nov 18,   201816:35:09.543551000 7
           433  40.84090932:32:32:32:32:3 13dBm   Nov 18,   201816:35:09.676467000 7
           434  40.88084732:32:32:32:32:3 15dBm   Nov 18,   201816:35:09.716405000 7
           435  40.90679832:32:32:32:32:3 14dBm   Nov 18,   201816:35:09.742356000 7
           436  40.94578132:32:32:32:32:3 13dBm   Nov 18,   201816:35:09.781339000 7
           437  41.02473232:32:32:32:32:3 15dBm   Nov 18,   201816:35:09.860290000 7
           438  41.10295832:32:32:32:32:3 15dBm   Nov 18,   201816:35:09.938516000 7
           439  41.15320832:32:32:32:32:3 14dBm   Nov 18,   201816:35:09.988766000 7
           440  41.23165232:32:32:32:32:3 15dBm   Nov 18,   201816:35:10.067210000 7
           441  41.25450832:32:32:32:32:3 16dBm   Nov 18,   201816:35:10.090066000 7
           442  41.39536632:32:32:32:32:3 16dBm   Nov 18,   201816:35:10.230924000 7
           443  41.40862432:32:32:32:32:3 15dBm   Nov 18,   201816:35:10.244182000 7
           444  41.48520132:32:32:32:32:3 16dBm   Nov 18,   201816:35:10.320759000 7
           445  41.63254432:32:32:32:32:3 14dBm   Nov 18,   201816:35:10.468102000 7
           446  41.67379732:32:32:32:32:3 15dBm   Nov 18,   201816:35:10.509355000 7
           447  41.70484932:32:32:32:32:3 15dBm   Nov 18,   201816:35:10.540407000 7
           448  41.73238932:32:32:32:32:3 15dBm   Nov 18,   201816:35:10.567947000 7
           449  41.77213832:32:32:32:32:3 15dBm   Nov 18,   201816:35:10.607696000 7
           450  41.78931332:32:32:32:32:3 13dBm   Nov 18,   201816:35:10.624871000 7
           451  41.90830432:32:32:32:32:3 13dBm   Nov 18,   201816:35:10.743862000 7
           452  41.96222732:32:32:32:32:3 14dBm   Nov 18,   201816:35:10.797785000 7
           453  42.06526632:32:32:32:32:3 11dBm   Nov 18,   201816:35:10.900824000 7
           454  42.18651632:32:32:32:32:3 14dBm   Nov 18,   201816:35:11.022074000 7
           455  42.24519832:32:32:32:32:3 11dBm   Nov 18,   201816:35:11.080756000 7
           456  42.38069532:32:32:32:32:3 10dBm   Nov 18,   201816:35:11.216253000 7
           457  42.42881132:32:32:32:32:3 13dBm   Nov 18,   201816:35:11.264369000 7
           458  42.52691632:32:32:32:32:3 15dBm   Nov 18,   201816:35:11.362474000 7
           459  42.57630332:32:32:32:32:3 14dBm   Nov 18,   201816:35:11.411861000 7
           460  42.74108732:32:32:32:32:3 14dBm   Nov 18,   201816:35:11.576645000 7
           461  42.87769832:32:32:32:32:3 14dBm   Nov 18,   201816:35:11.713256000 7
           462  4 2.9403932:32:32:32:32:3 14dBm   Nov 18,   201816:35:11.775948000 7
           463  43.01840332:32:32:32:32:3 15dBm   Nov 18,   201816:35:11.853961000 7
           464  43.07756132:32:32:32:32:3 12dBm   Nov 18,   201816:35:11.913119000 7
           465  43.09231432:32:32:32:32:3 15dBm   Nov 18,   201816:35:11.927872000 7
           466  43.16184132:32:32:32:32:3 15dBm   Nov 18,   201816:35:11.997399000 7
           467  43.18179332:32:32:32:32:3 15dBm   Nov 18,   201816:35:12.017351000 7
           468  43.35829232:32:32:32:32:3 15dBm   Nov 18,   201816:35:12.193850000 7
           469  43.44310532:32:32:32:32:3 14dBm   Nov 18,   201816:35:12.278663000 7
           470  43.79925932:32:32:32:32:3 13dBm   Nov 18,   201816:35:12.634817000 7
           471  4 3.9568132:32:32:32:32:3 13dBm   Nov 18,   201816:35:12.792368000 7
           472  44.22959332:32:32:32:32:3 15dBm   Nov 18,   201816:35:13.065151000 7
           473  44.26509332:32:32:32:32:3 13dBm   Nov 18,   201816:35:13.100651000 7
           474  44.40969632:32:32:32:32:3 15dBm   Nov 18,   201816:35:13.245254000 7
           475  44.45317532:32:32:32:32:3 15dBm   Nov 18,   201816:35:13.288733000 7
           476  44.60033832:32:32:32:32:3 15dBm   Nov 18,   201816:35:13.435896000 7
           477  44.66293232:32:32:32:32:3 13dBm   Nov 18,   201816:35:13.498490000 7
           478  44.68100132:32:32:32:32:3 16dBm   Nov 18,   201816:35:13.516559000 7
           479  44.79587932:32:32:32:32:3 12dBm   Nov 18,   201816:35:13.631437000 7
           480  44.93141532:32:32:32:32:3 15dBm   Nov 18,   201816:35:13.766973000 7
           481  44.95698932:32:32:32:32:3 13dBm   Nov 18,   201816:35:13.792547000 7
           482  45.03756632:32:32:32:32:3 15dBm   Nov 18,   201816:35:13.873124000 7
           483  45.23782732:32:32:32:32:3 13dBm   Nov 18,   201816:35:14.073385000 7
           484  45.47602732:32:32:32:32:3 13dBm   Nov 18,   201816:35:14.311585000 7
           485  45.51302532:32:32:32:32:3 16dBm   Nov 18,   201816:35:14.348583000 7
           486  45.60677332:32:32:32:32:3 12dBm   Nov 18,   201816:35:14.442331000 7
           487  45.90450932:32:32:32:32:3 14dBm   Nov 18,   201816:35:14.740067000 7
           488  46.10294232:32:32:32:32:3 15dBm   Nov 18,   201816:35:14.938500000 7
           489  46.11929932:32:32:32:32:3 14dBm   Nov 18,   201816:35:14.954857000 7
           490  46.30924332:32:32:32:32:3 14dBm   Nov 18,   201816:35:15.144801000 7
           491  46.39158232:32:32:32:32:3 15dBm   Nov 18,   201816:35:15.227140000 7
           492  46.46805332:32:32:32:32:3 12dBm   Nov 18,   201816:35:15.303611000 7
           493  46.51323432:32:32:32:32:3 12dBm   Nov 18,   201816:35:15.348792000 7
           494  46.57689932:32:32:32:32:3 13dBm   Nov 18,   201816:35:15.412457000 7
           495  46.63726432:32:32:32:32:3 11dBm   Nov 18,   201816:35:15.472822000 7
           496  46.65596932:32:32:32:32:3 14dBm   Nov 18,   201816:35:15.491527000 7
           497  46.96326832:32:32:32:32:3 14dBm   Nov 18,   201816:35:15.798826000 7
           498  47.05685832:32:32:32:32:3 16dBm   Nov 18,   201816:35:15.892416000 7
           499  47.35733732:32:32:32:32:3 15dBm   Nov 18,   201816:35:16.192895000 7
           500  47.38446632:32:32:32:32:3 17dBm   Nov 18,   201816:35:16.220024000 7
           501  47.53078732:32:32:32:32:3 13dBm   Nov 18,   201816:35:16.366345000 7
           502  47.54790132:32:32:32:32:3 16dBm   Nov 18,   201816:35:16.383459000 7
           503  47.66572232:32:32:32:32:3  9Bm N  ov 18, 2018 1 6:35:16.501280000  7
           504  47.70688132:32:32:32:32:3 13dBm   Nov 18,   201816:35:16.542439000 7
           505  47.72480732:32:32:32:32:3 13dBm   Nov 18,   201816:35:16.560365000 7
           506  47.90075332:32:32:32:32:3 16dBm   Nov 18,   201816:35:16.736311000 7
           507  47.99342932:32:32:32:32:3 15dBm   Nov 18,   201816:35:16.828987000 7
           508  48.02207332:32:32:32:32:3 15dBm   Nov 18,   201816:35:16.857631000 7
           509  4 8.0375232:32:32:32:32:3 15dBm   Nov 18,   201816:35:16.873078000 7
           510  4 8.0734432:32:32:32:32:3 15dBm   Nov 18,   201816:35:16.908998000 7
           511  48.11633832:32:32:32:32:3 16dBm   Nov 18,   201816:35:16.951896000 7
           512  48.17517932:32:32:32:32:3 14dBm   Nov 18,   201816:35:17.010737000 7
           513  48.29506232:32:32:32:32:3 16dBm   Nov 18,   201816:35:17.130620000 7
           514  48.44151132:32:32:32:32:3 11dBm   Nov 18,   201816:35:17.277069000 7
           515  48.50749932:32:32:32:32:3 13dBm   Nov 18,   201816:35:17.343057000 7
           516  48.53862632:32:32:32:32:3 14dBm   Nov 18,   201816:35:17.374184000 7
           517  48.56257932:32:32:32:32:3 14dBm   Nov 18,   201816:35:17.398137000 7
           518  48.58188532:32:32:32:32:3 15dBm   Nov 18,   201816:35:17.417443000 7
           519  48.86117532:32:32:32:32:3 13dBm   Nov 18,   201816:35:17.696733000 7
           520  4 8.8725932:32:32:32:32:3 14dBm   Nov 18,   201816:35:17.708148000 7
           521  48.88578732:32:32:32:32:3 16dBm   Nov 18,   201816:35:17.721345000 7
           522  49.22914332:32:32:32:32:3 11dBm   Nov 18,   201816:35:18.064701000 7
           523  49.24801332:32:32:32:32:3 13dBm   Nov 18,   201816:35:18.083571000 7
           524  49.44604532:32:32:32:32:3 16dBm   Nov 18,   201816:35:18.281603000 7
           525  49.65032432:32:32:32:32:3 14dBm   Nov 18,   201816:35:18.485882000 7
           526  49.79683932:32:32:32:32:3 12dBm   Nov 18,   201816:35:18.632397000 7
           527  50.04831732:32:32:32:32:3 15dBm   Nov 18,   201816:35:18.883875000 7
           528  50.07752732:32:32:32:32:3 11dBm   Nov 18,   201816:35:18.913085000 7
           529  50.09621732:32:32:32:32:3 10dBm   Nov 18,   201816:35:18.931775000 7
           530  50.33824832:32:32:32:32:3 15dBm   Nov 18,   201816:35:19.173806000 7
           531  50.60664732:32:32:32:32:3 10dBm   Nov 18,   201816:35:19.442205000 7
           532  50.63526132:32:32:32:32:3 15dBm   Nov 18,   201816:35:19.470819000 7
           533  50.78444132:32:32:32:32:3 11dBm   Nov 18,   201816:35:19.619999000 7
           534  50.83179632:32:32:32:32:3 13dBm   Nov 18,   201816:35:19.667354000 7
           535  50.87143132:32:32:32:32:3 14dBm   Nov 18,   201816:35:19.706989000 7
           536  50.92776532:32:32:32:32:3 16dBm   Nov 18,   201816:35:19.763323000 7
           537  51.15372432:32:32:32:32:3 16dBm   Nov 18,   201816:35:19.989282000 7
           538  51.25622732:32:32:32:32:3 14dBm   Nov 18,   201816:35:20.091785000 7
           539  51.46357432:32:32:32:32:3 15dBm   Nov 18,   201816:35:20.299132000 7
           540  5  1.518832:32:32:32:32:3 14dBm   Nov 18,   201816:35:20.354358000 7
           541  51.53293732:32:32:32:32:3 15dBm   Nov 18,   201816:35:20.368495000 7
           542  51.67368132:32:32:32:32:3 15dBm   Nov 18,   201816:35:20.509239000 7
           543  51.70579132:32:32:32:32:3 11dBm   Nov 18,   201816:35:20.541349000 7
           544  51.74445932:32:32:32:32:3 14dBm   Nov 18,   201816:35:20.580017000 7
           545  52.21647632:32:32:32:32:3  8Bm N  ov 18, 2018 1 6:35:21.052034000  7
           546  52.28883932:32:32:32:32:3 10dBm   Nov 18,   201816:35:21.124397000 7
           547  52.31893932:32:32:32:32:3 10dBm   Nov 18,   201816:35:21.154497000 7
           548  52.35584832:32:32:32:32:3 11dBm   Nov 18,   201816:35:21.191406000 7
           549  52.37299832:32:32:32:32:3 13dBm   Nov 18,   201816:35:21.208556000 7
           550  52.39599132:32:32:32:32:3 14dBm   Nov 18,   201816:35:21.231549000 7
           551  52.45553532:32:32:32:32:3 11dBm   Nov 18,   201816:35:21.291093000 7
           552  52.55094832:32:32:32:32:3 10dBm   Nov 18,   201816:35:21.386506000 7
           553  5 2.5896932:32:32:32:32:3 13dBm   Nov 18,   201816:35:21.425248000 7
           554  52.65523932:32:32:32:32:3 11dBm   Nov 18,   201816:35:21.490797000 7
           555  52.68460632:32:32:32:32:3 13dBm   Nov 18,   201816:35:21.520164000 7
           556  5 2.7182832:32:32:32:32:3 11dBm   Nov 18,   201816:35:21.553838000 7
           557  52.88779132:32:32:32:32:3 14dBm   Nov 18,   201816:35:21.723349000 7
           558  52.96183732:32:32:32:32:3 15dBm   Nov 18,   201816:35:21.797395000 7
           559  53.04216132:32:32:32:32:3 14dBm   Nov 18,   201816:35:21.877719000 7
           560  53.11942232:32:32:32:32:3 15dBm   Nov 18,   201816:35:21.954980000 7
           561  53.18422732:32:32:32:32:3 12dBm   Nov 18,   201816:35:22.019785000 7
           562  53.22186932:32:32:32:32:3 14dBm   Nov 18,   201816:35:22.057427000 7
           563  53.23723932:32:32:32:32:3 15dBm   Nov 18,   201816:35:22.072797000 7
           564  5 3.2558132:32:32:32:32:3 15dBm   Nov 18,   201816:35:22.091368000 7
           565  53.27586232:32:32:32:32:3 14dBm   Nov 18,   201816:35:22.111420000 7
           566  53.39848632:32:32:32:32:3 15dBm   Nov 18,   201816:35:22.234044000 7
           567  53.46538332:32:32:32:32:3 12dBm   Nov 18,   201816:35:22.300941000 7
           568  53.48348832:32:32:32:32:3 13dBm   Nov 18,   201816:35:22.319046000 7
           569  53.58120132:32:32:32:32:3 13dBm   Nov 18,   201816:35:22.416759000 7
           570  53.74249532:32:32:32:32:3 14dBm   Nov 18,   201816:35:22.578053000 7
           571  54.04747532:32:32:32:32:3 12dBm   Nov 18,   201816:35:22.883033000 7
           572  5 4.0636832:32:32:32:32:3  8Bm N  ov 18, 2018 1 6:35:22.899238000  7
           573  54.08165532:32:32:32:32:3  8Bm N  ov 18, 2018 1 6:35:22.917213000  7
           574  54.10396132:32:32:32:32:3 11dBm   Nov 18,   201816:35:22.939519000 7
           575  54.29214532:32:32:32:32:3 12dBm   Nov 18,   201816:35:23.127703000 7
           576  54.32597132:32:32:32:32:3  9Bm N  ov 18, 2018 1 6:35:23.161529000  7
           577  54.40415532:32:32:32:32:3 11dBm   Nov 18,   201816:35:23.239713000 7
           578  54.43997132:32:32:32:32:3 14dBm   Nov 18,   201816:35:23.275529000 7
           579  54.46487332:32:32:32:32:3 14dBm   Nov 18,   201816:35:23.300431000 7
           580  54.64988332:32:32:32:32:3 16dBm   Nov 18,   201816:35:23.485441000 7
           581  54.76240532:32:32:32:32:3 13dBm   Nov 18,   201816:35:23.597963000 7
           582  54.78728332:32:32:32:32:3 11dBm   Nov 18,   201816:35:23.622841000 7
           583  54.79612232:32:32:32:32:3 13dBm   Nov 18,   201816:35:23.631680000 7
           584  54.82078532:32:32:32:32:3 12dBm   Nov 18,   201816:35:23.656343000 7
           585  54.89487132:32:32:32:32:3 11dBm   Nov 18,   201816:35:23.730429000 7
           586  55.08381932:32:32:32:32:3 12dBm   Nov 18,   201816:35:23.919377000 7
           587  55.15922832:32:32:32:32:3 12dBm   Nov 18,   201816:35:23.994786000 7
           588  55.38017732:32:32:32:32:3 17dBm   Nov 18,   201816:35:24.215735000 7
           589  55.45613832:32:32:32:32:3 12dBm   Nov 18,   201816:35:24.291696000 7
           590  55.47577232:32:32:32:32:3 13dBm   Nov 18,   201816:35:24.311330000 7
           591  56.14379632:32:32:32:32:3 17dBm   Nov 18,   201816:35:24.979354000 7
           592  56.40041732:32:32:32:32:3  6Bm N  ov 18, 2018 1 6:35:25.235975000  7
           593  56.57223932:32:32:32:32:3  8Bm N  ov 18, 2018 1 6:35:25.407797000  7
           594  56.71574732:32:32:32:32:3  6Bm N  ov 18, 2018 1 6:35:25.551305000  7
           595  56.75051932:32:32:32:32:3 12dBm   Nov 18,   201816:35:25.586077000 7
           596  56.80180932:32:32:32:32:3 13dBm   Nov 18,   201816:35:25.637367000 7
           597  56.82287732:32:32:32:32:3 11dBm   Nov 18,   201816:35:25.658435000 7
           598  56.84188632:32:32:32:32:3 15dBm   Nov 18,   201816:35:25.677444000 7
           599  56.86093132:32:32:32:32:3 14dBm   Nov 18,   201816:35:25.696489000 7
           600  56.90168232:32:32:32:32:3 15dBm   Nov 18,   201816:35:25.737240000 7
           601  56.99622732:32:32:32:32:3 14dBm   Nov 18,   201816:35:25.831785000 7
           602  5 7.1055232:32:32:32:32:3 13dBm   Nov 18,   201816:35:25.941078000 7
           603  57.16075632:32:32:32:32:3 13dBm   Nov 18,   201816:35:25.996314000 7
           604  57.19964732:32:32:32:32:3 15dBm   Nov 18,   201816:35:26.035205000 7
           605  57.22141732:32:32:32:32:3 15dBm   Nov 18,   201816:35:26.056975000 7
           606  57.32301232:32:32:32:32:3 13dBm   Nov 18,   201816:35:26.158570000 7
           607  5 7.4822932:32:32:32:32:3 14dBm   Nov 18,   201816:35:26.317848000 7
           608  57.50429132:32:32:32:32:3 13dBm   Nov 18,   201816:35:26.339849000 7
           609  57.65056132:32:32:32:32:3 15dBm   Nov 18,   201816:35:26.486119000 7
           610  57.75041532:32:32:32:32:3 15dBm   Nov 18,   201816:35:26.585973000 7
           611  57.81492232:32:32:32:32:3 16dBm   Nov 18,   201816:35:26.650480000 7
           612  57.85725932:32:32:32:32:3 16dBm   Nov 18,   201816:35:26.692817000 7
           613  57.91460132:32:32:32:32:3 14dBm   Nov 18,   201816:35:26.750159000 7
           614  58.15036532:32:32:32:32:3 14dBm   Nov 18,   201816:35:26.985923000 7
           615  5 8.1734632:32:32:32:32:3 12dBm   Nov 18,   201816:35:27.009018000 7
           616  58.19012932:32:32:32:32:3 15dBm   Nov 18,   201816:35:27.025687000 7
           617  5 8.3506232:32:32:32:32:3 12dBm   Nov 18,   201816:35:27.186178000 7
           618  58.44934832:32:32:32:32:3 12dBm   Nov 18,   201816:35:27.284906000 7
           619  58.53428532:32:32:32:32:3 13dBm   Nov 18,   201816:35:27.369843000 7
           620  58.95383632:32:32:32:32:3  8Bm N  ov 18, 2018 1 6:35:27.789394000  7
           621  59.43178232:32:32:32:32:3 13dBm   Nov 18,   201816:35:28.267340000 7
           622  59.49298332:32:32:32:32:3 14dBm   Nov 18,   201816:35:28.328541000 7
           623  59.54689832:32:32:32:32:3 13dBm   Nov 18,   201816:35:28.382456000 7
           624  5 9.6651532:32:32:32:32:3 10dBm   Nov 18,   201816:35:28.500708000 7
           625  59.80588832:32:32:32:32:3 15dBm   Nov 18,   201816:35:28.641446000 7
           626  59.84072232:32:32:32:32:3 15dBm   Nov 18,   201816:35:28.676280000 7
           627  59.87887432:32:32:32:32:3 14dBm   Nov 18,   201816:35:28.714432000 7
           628  5 9.9095132:32:32:32:32:3 16dBm   Nov 18,   201816:35:28.745068000 7
           629  59.93289432:32:32:32:32:3 15dBm   Nov 18,   201816:35:28.768452000 7
           630  5 9.9731632:32:32:32:32:3 13dBm   Nov 18,   201816:35:28.808718000 7
           631  60.09779832:32:32:32:32:3 14dBm   Nov 18,   201816:35:28.933356000 7
           632  60.29561132:32:32:32:32:3 12dBm   Nov 18,   201816:35:29.131169000 7
           633  60.36671832:32:32:32:32:3 12dBm   Nov 18,   201816:35:29.202276000 7
           634  60.39194832:32:32:32:32:3 14dBm   Nov 18,   201816:35:29.227506000 7
           635  60.40689332:32:32:32:32:3 16dBm   Nov 18,   201816:35:29.242451000 7
           636  60.47034732:32:32:32:32:3 14dBm   Nov 18,   201816:35:29.305905000 7
           637  60.53761832:32:32:32:32:3 15dBm   Nov 18,   201816:35:29.373176000 7
           638  60.68405332:32:32:32:32:3 15dBm   Nov 18,   201816:35:29.519611000 7
           639  60.86457132:32:32:32:32:3 14dBm   Nov 18,   201816:35:29.700129000 7
           640  60.92447732:32:32:32:32:3 14dBm   Nov 18,   201816:35:29.760035000 7
           641  6 0.9842332:32:32:32:32:3 13dBm   Nov 18,   201816:35:29.819788000 7
           642  61.15281332:32:32:32:32:3 11dBm   Nov 18,   201816:35:29.988371000 7
           643  61.29448632:32:32:32:32:3 13dBm   Nov 18,   201816:35:30.130044000 7
           644  61.33308532:32:32:32:32:3 14dBm   Nov 18,   201816:35:30.168643000 7
           645  61.35768632:32:32:32:32:3 15dBm   Nov 18,   201816:35:30.193244000 7
           646  61.59980232:32:32:32:32:3  9Bm N  ov 18, 2018 1 6:35:30.435360000  7
           647  61.68247532:32:32:32:32:3 11dBm   Nov 18,   201816:35:30.518033000 7
           648  61.75081632:32:32:32:32:3 11dBm   Nov 18,   201816:35:30.586374000 7
           649  6 1.8212132:32:32:32:32:3  9Bm N  ov 18, 2018 1 6:35:30.656768000  7
           650  62.12669332:32:32:32:32:3 15dBm   Nov 18,   201816:35:30.962251000 7
           651  62.38031432:32:32:32:32:3 12dBm   Nov 18,   201816:35:31.215872000 7
           652  62.42940732:32:32:32:32:3 11dBm   Nov 18,   201816:35:31.264965000 7
           653  62.45115932:32:32:32:32:3 14dBm   Nov 18,   201816:35:31.286717000 7
           654  62.47312932:32:32:32:32:3 15dBm   Nov 18,   201816:35:31.308687000 7
           655  62.49263532:32:32:32:32:3 15dBm   Nov 18,   201816:35:31.328193000 7
           656  6 2.5090732:32:32:32:32:3 15dBm   Nov 18,   201816:35:31.344628000 7
           657  62.52803432:32:32:32:32:3 14dBm   Nov 18,   201816:35:31.363592000 7
           658  62.59147432:32:32:32:32:3 12dBm   Nov 18,   201816:35:31.427032000 7
           659  62.98763432:32:32:32:32:3 13dBm   Nov 18,   201816:35:31.823192000 7
           660  63.02093932:32:32:32:32:3 11dBm   Nov 18,   201816:35:31.856497000 7
           661  63.03801232:32:32:32:32:3 14dBm   Nov 18,   201816:35:31.873570000 7
           662  63.15112232:32:32:32:32:3 12dBm   Nov 18,   201816:35:31.986680000 7
           663  6 3.1731232:32:32:32:32:3 13dBm   Nov 18,   201816:35:32.008678000 7
           664  63.27762132:32:32:32:32:3 12dBm   Nov 18,   201816:35:32.113179000 7
           665  63.34358832:32:32:32:32:3 13dBm   Nov 18,   201816:35:32.179146000 7
           666  63.38964232:32:32:32:32:3 14dBm   Nov 18,   201816:35:32.225200000 7
           667  63.46064632:32:32:32:32:3 16dBm   Nov 18,   201816:35:32.296204000 7
           668  63.53877632:32:32:32:32:3 14dBm   Nov 18,   201816:35:32.374334000 7
           669  63.60572432:32:32:32:32:3 15dBm   Nov 18,   201816:35:32.441282000 7
           670  63.68681132:32:32:32:32:3 16dBm   Nov 18,   201816:35:32.522369000 7
           671  63.73854932:32:32:32:32:3 15dBm   Nov 18,   201816:35:32.574107000 7
           672  63.92558132:32:32:32:32:3 16dBm   Nov 18,   201816:35:32.761139000 7
           673  63.99923932:32:32:32:32:3 16dBm   Nov 18,   201816:35:32.834797000 7
           674  6 4.0857932:32:32:32:32:3 14dBm   Nov 18,   201816:35:32.921348000 7
           675  64.11859432:32:32:32:32:3 15dBm   Nov 18,   201816:35:32.954152000 7
           676  64.15327732:32:32:32:32:3 14dBm   Nov 18,   201816:35:32.988835000 7
           677  64.16984732:32:32:32:32:3 14dBm   Nov 18,   201816:35:33.005405000 7
           678  64.62159932:32:32:32:32:3 13dBm   Nov 18,   201816:35:33.457157000 7
           679  64.65931232:32:32:32:32:3 15dBm   Nov 18,   201816:35:33.494870000 7
           680  64.67768232:32:32:32:32:3 14dBm   Nov 18,   201816:35:33.513240000 7
           681  64.69562332:32:32:32:32:3 15dBm   Nov 18,   201816:35:33.531181000 7
           682  64.70802432:32:32:32:32:3 11dBm   Nov 18,   201816:35:33.543582000 7
           683  64.74454832:32:32:32:32:3 13dBm   Nov 18,   201816:35:33.580106000 7
           684  64.77011232:32:32:32:32:3  8Bm N  ov 18, 2018 1 6:35:33.605670000  7
           685  65.07805532:32:32:32:32:3  8Bm N  ov 18, 2018 1 6:35:33.913613000  7
           686  65.10756732:32:32:32:32:3 14dBm   Nov 18,   201816:35:33.943125000 7
           687  6 5.1875532:32:32:32:32:3 15dBm   Nov 18,   201816:35:34.023108000 7
           688  6 5.3976232:32:32:32:32:3 12dBm   Nov 18,   201816:35:34.233178000 7
           689  6 5.5163232:32:32:32:32:3 13dBm   Nov 18,   201816:35:34.351878000 7
           690  65.58615632:32:32:32:32:3 11dBm   Nov 18,   201816:35:34.421714000 7
           691  65.61704632:32:32:32:32:3 15dBm   Nov 18,   201816:35:34.452604000 7
           692  65.73965132:32:32:32:32:3 11dBm   Nov 18,   201816:35:34.575209000 7
           693  65.76111432:32:32:32:32:3 15dBm   Nov 18,   201816:35:34.596672000 7
           694  65.77318332:32:32:32:32:3 11dBm   Nov 18,   201816:35:34.608741000 7
           695  65.87184232:32:32:32:32:3 13dBm   Nov 18,   201816:35:34.707400000 7
           696  65.92736932:32:32:32:32:3 10dBm   Nov 18,   201816:35:34.762927000 7
           697  66.17470232:32:32:32:32:3 13dBm   Nov 18,   201816:35:35.010260000 7
           698  66.25641232:32:32:32:32:3 13dBm   Nov 18,   201816:35:35.091970000 7
           699  66.32912132:32:32:32:32:3 12dBm   Nov 18,   201816:35:35.164679000 7
           700  66.35342332:32:32:32:32:3 14dBm   Nov 18,   201816:35:35.188981000 7
           701  66.36229132:32:32:32:32:3 13dBm   Nov 18,   201816:35:35.197849000 7
           702  66.38946732:32:32:32:32:3 14dBm   Nov 18,   201816:35:35.225025000 7
           703  66.40629532:32:32:32:32:3 14dBm   Nov 18,   201816:35:35.241853000 7
           704  66.65145932:32:32:32:32:3 15dBm   Nov 18,   201816:35:35.487017000 7
           705  66.68336632:32:32:32:32:3 14dBm   Nov 18,   201816:35:35.518924000 7
           706  66.81018932:32:32:32:32:3 10dBm   Nov 18,   201816:35:35.645747000 7
           707  66.85029232:32:32:32:32:3 11dBm   Nov 18,   201816:35:35.685850000 7
           708  66.86948132:32:32:32:32:3 11dBm   Nov 18,   201816:35:35.705039000 7
           709  66.89849132:32:32:32:32:3 12dBm   Nov 18,   201816:35:35.734049000 7
           710  66.95926632:32:32:32:32:3 11dBm   Nov 18,   201816:35:35.794824000 7
           711  67.04814332:32:32:32:32:3 12dBm   Nov 18,   201816:35:35.883701000 7
           712  67.10493232:32:32:32:32:3 12dBm   Nov 18,   201816:35:35.940490000 7
           713  67.20737532:32:32:32:32:3 10dBm   Nov 18,   201816:35:36.042933000 7
           714  67.32837232:32:32:32:32:3 12dBm   Nov 18,   201816:35:36.163930000 7
           715  67.32971232:32:32:32:32:3 16dBm   Nov 18,   201816:35:36.165270000 7
           716  67.40315932:32:32:32:32:3 16dBm   Nov 18,   201816:35:36.238717000 7
           717  67.43954832:32:32:32:32:3 13dBm   Nov 18,   201816:35:36.275106000 7
           718  6 7.4525132:32:32:32:32:3 13dBm   Nov 18,   201816:35:36.288068000 7
           719  67.66372532:32:32:32:32:3 12dBm   Nov 18,   201816:35:36.499283000 7
           720  67.77696132:32:32:32:32:3  9Bm N  ov 18, 2018 1 6:35:36.612519000  7
           721  6 7.8192232:32:32:32:32:3 14dBm   Nov 18,   201816:35:36.654778000 7
           722  67.83421632:32:32:32:32:3 10dBm   Nov 18,   201816:35:36.669774000 7
           723  67.96172932:32:32:32:32:3 14dBm   Nov 18,   201816:35:36.797287000 7
           724  68.02073732:32:32:32:32:3 14dBm   Nov 18,   201816:35:36.856295000 7
           725  68.07240232:32:32:32:32:3 13dBm   Nov 18,   201816:35:36.907960000 7
           726  68.23727832:32:32:32:32:3 14dBm   Nov 18,   201816:35:37.072836000 7
           727  68.26716132:32:32:32:32:3 13dBm   Nov 18,   201816:35:37.102719000 7
           728  68.27251132:32:32:32:32:3 11dBm   Nov 18,   201816:35:37.108069000 7
           729  6 8.4425332:32:32:32:32:3 14dBm   Nov 18,   201816:35:37.278088000 7
           730  6 8.4628932:32:32:32:32:3 14dBm   Nov 18,   201816:35:37.298448000 7
           731  68.48852232:32:32:32:32:3 12dBm   Nov 18,   201816:35:37.324080000 7
           732  6  8.534732:32:32:32:32:3 13dBm   Nov 18,   201816:35:37.370258000 7
           733  68.58809332:32:32:32:32:3 11dBm   Nov 18,   201816:35:37.423651000 7
           734  68.69144132:32:32:32:32:3 11dBm   Nov 18,   201816:35:37.526999000 7
           735  68.74162232:32:32:32:32:3 12dBm   Nov 18,   201816:35:37.577180000 7
           736  68.75478832:32:32:32:32:3 12dBm   Nov 18,   201816:35:37.590346000 7
           737  6 8.7646732:32:32:32:32:3 12dBm   Nov 18,   201816:35:37.600228000 7
           738  68.83867232:32:32:32:32:3 14dBm   Nov 18,   201816:35:37.674230000 7
           739  68.90425432:32:32:32:32:3 11dBm   Nov 18,   201816:35:37.739812000 7
           740  68.93115432:32:32:32:32:3 15dBm   Nov 18,   201816:35:37.766712000 7
           741  69.22757332:32:32:32:32:3 15dBm   Nov 18,   201816:35:38.063131000 7
           742  69.35384632:32:32:32:32:3 12dBm   Nov 18,   201816:35:38.189404000 7
           743  69.42057432:32:32:32:32:3 14dBm   Nov 18,   201816:35:38.256132000 7
           744  69.55969932:32:32:32:32:3 13dBm   Nov 18,   201816:35:38.395257000 7
           745  69.73533132:32:32:32:32:3 15dBm   Nov 18,   201816:35:38.570889000 7
           746  69.92654932:32:32:32:32:3 11dBm   Nov 18,   201816:35:38.762107000 7
           747  69.98415432:32:32:32:32:3 10dBm   Nov 18,   201816:35:38.819712000 7
           748  70.19049132:32:32:32:32:3 15dBm   Nov 18,   201816:35:39.026049000 7
           749  70.27960132:32:32:32:32:3 16dBm   Nov 18,   201816:35:39.115159000 7
           750  70.51556632:32:32:32:32:3 15dBm   Nov 18,   201816:35:39.351124000 7
           751  70.59994132:32:32:32:32:3 11dBm   Nov 18,   201816:35:39.435499000 7
           752  70.74258832:32:32:32:32:3 15dBm   Nov 18,   201816:35:39.578146000 7
           753  7 0.7834332:32:32:32:32:3 13dBm   Nov 18,   201816:35:39.618988000 7
           754  71.07555532:32:32:32:32:3  8Bm N  ov 18, 2018 1 6:35:39.911113000  7
           755  71.29790732:32:32:32:32:3 13dBm   Nov 18,   201816:35:40.133465000 7
           756  71.34873532:32:32:32:32:3 14dBm   Nov 18,   201816:35:40.184293000 7
           757  71.43401432:32:32:32:32:3 15dBm   Nov 18,   201816:35:40.269572000 7
           758  71.51819932:32:32:32:32:3 13dBm   Nov 18,   201816:35:40.353757000 7
           759  71.73381232:32:32:32:32:3 14dBm   Nov 18,   201816:35:40.569370000 7
           760  71.88519332:32:32:32:32:3  9Bm N  ov 18, 2018 1 6:35:40.720751000  7
           761  71.99270332:32:32:32:32:3 13dBm   Nov 18,   201816:35:40.828261000 7
           762  72.00971232:32:32:32:32:3 11dBm   Nov 18,   201816:35:40.845270000 7
           763  72.02860532:32:32:32:32:3 13dBm   Nov 18,   201816:35:40.864163000 7
           764  72.04688832:32:32:32:32:3 12dBm   Nov 18,   201816:35:40.882446000 7
           765  7  2.489432:32:32:32:32:3 14dBm   Nov 18,   201816:35:41.324958000 7
           766  72.56717632:32:32:32:32:3 11dBm   Nov 18,   201816:35:41.402734000 7
           767  72.61543532:32:32:32:32:3 14dBm   Nov 18,   201816:35:41.450993000 7
           768  72.77330632:32:32:32:32:3 13dBm   Nov 18,   201816:35:41.608864000 7
           769  7 2.8011532:32:32:32:32:3 14dBm   Nov 18,   201816:35:41.636708000 7
           770  72.83868832:32:32:32:32:3 15dBm   Nov 18,   201816:35:41.674246000 7
           771  72.96171332:32:32:32:32:3 15dBm   Nov 18,   201816:35:41.797271000 7
           772  73.05193432:32:32:32:32:3 13dBm   Nov 18,   201816:35:41.887492000 7
           773  73.10438432:32:32:32:32:3 14dBm   Nov 18,   201816:35:41.939942000 7
           774  73.16397632:32:32:32:32:3 12dBm   Nov 18,   201816:35:41.999534000 7
           775  73.20521432:32:32:32:32:3 13dBm   Nov 18,   201816:35:42.040772000 7
           776  73.54697932:32:32:32:32:3 11dBm   Nov 18,   201816:35:42.382537000 7
           777  73.63776532:32:32:32:32:3 11dBm   Nov 18,   201816:35:42.473323000 7
           778  73.76551232:32:32:32:32:3 15dBm   Nov 18,   201816:35:42.601070000 7
           779  73.85675132:32:32:32:32:3 15dBm   Nov 18,   201816:35:42.692309000 7
           780  74.11368932:32:32:32:32:3 15dBm   Nov 18,   201816:35:42.949247000 7
           781  74.12049532:32:32:32:32:3 14dBm   Nov 18,   201816:35:42.956053000 7
           782  74.14053832:32:32:32:32:3 15dBm   Nov 18,   201816:35:42.976096000 7
           783  74.21937932:32:32:32:32:3 14dBm   Nov 18,   201816:35:43.054937000 7
           784  74.38307632:32:32:32:32:3 12dBm   Nov 18,   201816:35:43.218634000 7
           785  74.41075932:32:32:32:32:3 13dBm   Nov 18,   201816:35:43.246317000 7
           786  74.43340632:32:32:32:32:3 13dBm   Nov 18,   201816:35:43.268964000 7
           787  74.76082632:32:32:32:32:3 14dBm   Nov 18,   201816:35:43.596384000 7
           788  7 4.8329232:32:32:32:32:3 14dBm   Nov 18,   201816:35:43.668478000 7
           789  74.85597132:32:32:32:32:3 13dBm   Nov 18,   201816:35:43.691529000 7
           790  74.92708132:32:32:32:32:3 14dBm   Nov 18,   201816:35:43.762639000 7
           791  74.95766732:32:32:32:32:3 13dBm   Nov 18,   201816:35:43.793225000 7
           792  75.15553532:32:32:32:32:3 13dBm   Nov 18,   201816:35:43.991093000 7
           793  75.20023732:32:32:32:32:3 12dBm   Nov 18,   201816:35:44.035795000 7
           794  75.50783932:32:32:32:32:3 10dBm   Nov 18,   201816:35:44.343397000 7
           795  75.52817732:32:32:32:32:3 11dBm   Nov 18,   201816:35:44.363735000 7
           796  75.84246832:32:32:32:32:3 10dBm   Nov 18,   201816:35:44.678026000 7
           797  76.19741432:32:32:32:32:3 10dBm   Nov 18,   201816:35:45.032972000 7
           798  76.22770632:32:32:32:32:3  9Bm N  ov 18, 2018 1 6:35:45.063264000  7
           799  76.23330232:32:32:32:32:3 10dBm   Nov 18,   201816:35:45.068860000 7
           800  7 6.2473232:32:32:32:32:3 12dBm   Nov 18,   201816:35:45.082878000 7
           801  76.59068932:32:32:32:32:3 11dBm   Nov 18,   201816:35:45.426247000 7
           802  76.74188932:32:32:32:32:3  8Bm N  ov 18, 2018 1 6:35:45.577447000  7
           803  76.76702232:32:32:32:32:3 10dBm   Nov 18,   201816:35:45.602580000 7
           804  76.79287332:32:32:32:32:3 13dBm   Nov 18,   201816:35:45.628431000 7
           805  76.87382432:32:32:32:32:3 11dBm   Nov 18,   201816:35:45.709382000 7
           806  77.12953832:32:32:32:32:3  9Bm N  ov 18, 2018 1 6:35:45.965096000  7
           807  77.18898832:32:32:32:32:3 12dBm   Nov 18,   201816:35:46.024546000 7
           808  77.21739832:32:32:32:32:3 11dBm   Nov 18,   201816:35:46.052956000 7
           809  77.27603132:32:32:32:32:3 14dBm   Nov 18,   201816:35:46.111589000 7
           810  77.44985932:32:32:32:32:3  8Bm N  ov 18, 2018 1 6:35:46.285417000  7
           811  7 7.5260832:32:32:32:32:3 13dBm   Nov 18,   201816:35:46.361638000 7
           812  77.55444932:32:32:32:32:3 11dBm   Nov 18,   201816:35:46.390007000 7
           813  77.58569432:32:32:32:32:3 12dBm   Nov 18,   201816:35:46.421252000 7
           814  77.93370832:32:32:32:32:3 11dBm   Nov 18,   201816:35:46.769266000 7
           815  77.99971832:32:32:32:32:3  9Bm N  ov 18, 2018 1 6:35:46.835276000  7
           816  78.11213732:32:32:32:32:3 10dBm   Nov 18,   201816:35:46.947695000 7
           817  78.17358432:32:32:32:32:3  9Bm N  ov 18, 2018 1 6:35:47.009142000  7
           818  78.48176132:32:32:32:32:3 11dBm   Nov 18,   201816:35:47.317319000 7
           819  7 8.6423932:32:32:32:32:3 11dBm   Nov 18,   201816:35:47.477948000 7
           820  78.70660332:32:32:32:32:3 10dBm   Nov 18,   201816:35:47.542161000 7
           821  78.72127132:32:32:32:32:3 11dBm   Nov 18,   201816:35:47.556829000 7
           822  78.92500332:32:32:32:32:3 11dBm   Nov 18,   201816:35:47.760561000 7
           823  78.95692132:32:32:32:32:3 11dBm   Nov 18,   201816:35:47.792479000 7
           824  79.09238932:32:32:32:32:3 11dBm   Nov 18,   201816:35:47.927947000 7
           825  79.37982732:32:32:32:32:3 12dBm   Nov 18,   201816:35:48.215385000 7
           826  79.53551932:32:32:32:32:3 13dBm   Nov 18,   201816:35:48.371077000 7
           827  79.59974932:32:32:32:32:3 13dBm   Nov 18,   201816:35:48.435307000 7
           828  79.72032632:32:32:32:32:3 10dBm   Nov 18,   201816:35:48.555884000 7
           829  79.85767132:32:32:32:32:3 11dBm   Nov 18,   201816:35:48.693229000 7
           830  79.91031632:32:32:32:32:3 12dBm   Nov 18,   201816:35:48.745874000 7
           831  80.07861332:32:32:32:32:3 10dBm   Nov 18,   201816:35:48.914171000 7
           832  80.13544732:32:32:32:32:3 10dBm   Nov 18,   201816:35:48.971005000 7
           833  80.29803132:32:32:32:32:3 10dBm   Nov 18,   201816:35:49.133589000 7
           834  80.52279132:32:32:32:32:3 11dBm   Nov 18,   201816:35:49.358349000 7
           835  80.54274932:32:32:32:32:3 11dBm   Nov 18,   201816:35:49.378307000 7
           836  8 0.5638932:32:32:32:32:3 10dBm   Nov 18,   201816:35:49.399448000 7
           837  80.58912832:32:32:32:32:3 11dBm   Nov 18,   201816:35:49.424686000 7
           838  80.73715732:32:32:32:32:3  9Bm N  ov 18, 2018 1 6:35:49.572715000  7
           839  81.14827632:32:32:32:32:3 13dBm   Nov 18,   201816:35:49.983834000 7
           840  81.20796332:32:32:32:32:3 13dBm   Nov 18,   201816:35:50.043521000 7
           841  81.24276332:32:32:32:32:3 16dBm   Nov 18,   201816:35:50.078321000 7
           842  81.25840332:32:32:32:32:3  9Bm N  ov 18, 2018 1 6:35:50.093961000  7
           843  81.63911232:32:32:32:32:3  9Bm N  ov 18, 2018 1 6:35:50.474670000  7
           844  81.84098532:32:32:32:32:3  8Bm N  ov 18, 2018 1 6:35:50.676543000  7
           845  81.93237832:32:32:32:32:3 12dBm   Nov 18,   201816:35:50.767936000 7
           846  82.03792932:32:32:32:32:3 12dBm   Nov 18,   201816:35:50.873487000 7
           847  82.08196832:32:32:32:32:3 13dBm   Nov 18,   201816:35:50.917526000 7
           848  8 2.0981632:32:32:32:32:3 15dBm   Nov 18,   201816:35:50.933718000 7
           849  8 2.3482932:32:32:32:32:3 15dBm   Nov 18,   201816:35:51.183848000 7
           850  82.47593632:32:32:32:32:3 14dBm   Nov 18,   201816:35:51.311494000 7
           851  82.49907732:32:32:32:32:3 15dBm   Nov 18,   201816:35:51.334635000 7
           852  82.52714532:32:32:32:32:3 14dBm   Nov 18,   201816:35:51.362703000 7
           853  82.77103732:32:32:32:32:3 15dBm   Nov 18,   201816:35:51.606595000 7
           854  82.84072832:32:32:32:32:3 13dBm   Nov 18,   201816:35:51.676286000 7
           855  82.87077532:32:32:32:32:3 15dBm   Nov 18,   201816:35:51.706333000 7
           856  83.01159732:32:32:32:32:3 14dBm   Nov 18,   201816:35:51.847155000 7
           857  83.12652432:32:32:32:32:3 13dBm   Nov 18,   201816:35:51.962082000 7
           858  83.38257632:32:32:32:32:3 13dBm   Nov 18,   201816:35:52.218134000 7
           859  83.46166732:32:32:32:32:3 14dBm   Nov 18,   201816:35:52.297225000 7
           860  83.51865132:32:32:32:32:3 15dBm   Nov 18,   201816:35:52.354209000 7
           861  83.54299232:32:32:32:32:3 15dBm   Nov 18,   201816:35:52.378550000 7
           862  83.67268732:32:32:32:32:3 15dBm   Nov 18,   201816:35:52.508245000 7
           863  83.68693632:32:32:32:32:3 14dBm   Nov 18,   201816:35:52.522494000 7
           864  83.75432132:32:32:32:32:3 14dBm   Nov 18,   201816:35:52.589879000 7
           865  83.83466532:32:32:32:32:3 13dBm   Nov 18,   201816:35:52.670223000 7
           866  83.87135732:32:32:32:32:3 14dBm   Nov 18,   201816:35:52.706915000 7
           867  83.88831232:32:32:32:32:3 15dBm   Nov 18,   201816:35:52.723870000 7
           868  84.59748632:32:32:32:32:3 14dBm   Nov 18,   201816:35:53.433044000 7
           869  84.61917332:32:32:32:32:3 14dBm   Nov 18,   201816:35:53.454731000 7
           870  85.27498532:32:32:32:32:3 14dBm   Nov 18,   201816:35:54.110543000 7
           871  85.35911432:32:32:32:32:3 13dBm   Nov 18,   201816:35:54.194672000 7
           872  85.69821232:32:32:32:32:3 13dBm   Nov 18,   201816:35:54.533770000 7
           873  85.73628732:32:32:32:32:3 14dBm   Nov 18,   201816:35:54.571845000 7
           874  85.80918432:32:32:32:32:3 14dBm   Nov 18,   201816:35:54.644742000 7
           875  86.03661632:32:32:32:32:3 14dBm   Nov 18,   201816:35:54.872174000 7
           876  86.13411132:32:32:32:32:3 13dBm   Nov 18,   201816:35:54.969669000 7
           877  86.15461632:32:32:32:32:3 14dBm   Nov 18,   201816:35:54.990174000 7
           878  86.21578932:32:32:32:32:3 13dBm   Nov 18,   201816:35:55.051347000 7
           879  8 6.3454532:32:32:32:32:3 12dBm   Nov 18,   201816:35:55.181008000 7
           880  86.36242432:32:32:32:32:3 13dBm   Nov 18,   201816:35:55.197982000 7
           881  86.47568232:32:32:32:32:3 13dBm   Nov 18,   201816:35:55.311240000 7
           882  86.52784132:32:32:32:32:3 13dBm   Nov 18,   201816:35:55.363399000 7
           883  86.63250332:32:32:32:32:3 14dBm   Nov 18,   201816:35:55.468061000 7
           884  86.66940332:32:32:32:32:3 12dBm   Nov 18,   201816:35:55.504961000 7
           885  86.73090532:32:32:32:32:3 15dBm   Nov 18,   201816:35:55.566463000 7
           886  86.79921732:32:32:32:32:3 15dBm   Nov 18,   201816:35:55.634775000 7
           887  86.81010232:32:32:32:32:3 13dBm   Nov 18,   201816:35:55.645660000 7
           888  87.25179932:32:32:32:32:3 12dBm   Nov 18,   201816:35:56.087357000 7
           889  87.32978532:32:32:32:32:3 14dBm   Nov 18,   201816:35:56.165343000 7
           890  87.35068732:32:32:32:32:3 13dBm   Nov 18,   201816:35:56.186245000 7
           891  87.47391632:32:32:32:32:3 13dBm   Nov 18,   201816:35:56.309474000 7
           892  8 7.6115832:32:32:32:32:3 13dBm   Nov 18,   201816:35:56.447138000 7
           893  87.67987132:32:32:32:32:3 14dBm   Nov 18,   201816:35:56.515429000 7
           894  87.78967632:32:32:32:32:3 12dBm   Nov 18,   201816:35:56.625234000 7
           895  87.88722332:32:32:32:32:3 14dBm   Nov 18,   201816:35:56.722781000 7
           896  87.95118532:32:32:32:32:3 11dBm   Nov 18,   201816:35:56.786743000 7
           897  88.03513832:32:32:32:32:3 14dBm   Nov 18,   201816:35:56.870696000 7
           898  88.04576632:32:32:32:32:3 15dBm   Nov 18,   201816:35:56.881324000 7
           899  88.76004732:32:32:32:32:3 14dBm   Nov 18,   201816:35:57.595605000 7
           900  89.03932132:32:32:32:32:3 16dBm   Nov 18,   201816:35:57.874879000 7
           901  89.18613132:32:32:32:32:3 13dBm   Nov 18,   201816:35:58.021689000 7
           902  89.22329532:32:32:32:32:3 14dBm   Nov 18,   201816:35:58.058853000 7
           903  89.29680232:32:32:32:32:3 14dBm   Nov 18,   201816:35:58.132360000 7
           904  89.53014632:32:32:32:32:3 15dBm   Nov 18,   201816:35:58.365704000 7
           905  89.59318232:32:32:32:32:3 13dBm   Nov 18,   201816:35:58.428740000 7
