       1       032:32:32:32:32:3 20dBm  Nov 18, 201816:32:08.71295500 7         12
       20.03983132:32:32:32:32:3 19dBm  Nov 18, 201816:32:08.75278600 7         23
       30.10368232:32:32:32:32:3 18dBm  Nov 18, 201816:32:08.81663700 7        ###
       40.43086932:32:32:32:32:3 18dBm  Nov 18, 201816:32:09.14382400 7        ###
       50.55197232:32:32:32:32:3 19dBm  Nov 18, 201816:32:09.26492700 7        ###
       60.60739432:32:32:32:32:3 18dBm  Nov 18, 201816:32:09.32034900 7
       70.80029832:32:32:32:32:3 20dBm  Nov 18, 201816:32:09.51325300 7
       80.87967132:32:32:32:32:3 18dBm  Nov 18, 201816:32:09.59262600 7
       9 1.0334232:32:32:32:32:3 20dBm  Nov 18, 201816:32:09.74637500 7
      101.27056332:32:32:32:32:3 19dBm  Nov 18, 201816:32:09.98351800 7
      111.28750732:32:32:32:32:3 21dBm  Nov 18, 201816:32:10.00046200 7
      121.29244932:32:32:32:32:3 19dBm  Nov 18, 201816:32:10.00540400 7
      131.31692932:32:32:32:32:3 19dBm  Nov 18, 201816:32:10.02988400 7
      141.33886232:32:32:32:32:3 17dBm  Nov 18, 201816:32:10.05181700 7
      151.45524732:32:32:32:32:3 21dBm  Nov 18, 201816:32:10.16820200 7
      161.54067732:32:32:32:32:3 20dBm  Nov 18, 201816:32:10.25363200 7
      171.54949432:32:32:32:32:3 21dBm  Nov 18, 201816:32:10.26244900 7
      181.69623332:32:32:32:32:3 17dBm  Nov 18, 201816:32:10.40918800 7
      191.75455532:32:32:32:32:3 20dBm  Nov 18, 201816:32:10.46751000 7
      201.83686632:32:32:32:32:3 21dBm  Nov 18, 201816:32:10.54982100 7
      212.05386732:32:32:32:32:3 19dBm  Nov 18, 201816:32:10.76682200 7
      222.07562332:32:32:32:32:3 21dBm  Nov 18, 201816:32:10.78857800 7
      232.12646232:32:32:32:32:3 21dBm  Nov 18, 201816:32:10.83941700 7
      242.20363732:32:32:32:32:3 21dBm  Nov 18, 201816:32:10.91659200 7
      252.24888332:32:32:32:32:3 18dBm  Nov 18, 201816:32:10.96183800 7
      262.33061332:32:32:32:32:3 17dBm  Nov 18, 201816:32:11.04356800 7
      272.47007432:32:32:32:32:3 18dBm  Nov 18, 201816:32:11.18302900 7
      282.49483632:32:32:32:32:3 18dBm  Nov 18, 201816:32:11.20779100 7
      292.62275632:32:32:32:32:3 17dBm  Nov 18, 201816:32:11.33571100 7
      302.69470732:32:32:32:32:3 17dBm  Nov 18, 201816:32:11.40766200 7
      31 2.8041332:32:32:32:32:3 17dBm  Nov 18, 201816:32:11.51708500 7
      32 2.8773332:32:32:32:32:3 15dBm  Nov 18, 201816:32:11.59028500 7
      332.91795232:32:32:32:32:3 17dBm  Nov 18, 201816:32:11.63090700 7
      342.93296132:32:32:32:32:3 18dBm  Nov 18, 201816:32:11.64591600 7
      352.96340932:32:32:32:32:3 16dBm  Nov 18, 201816:32:11.67636400 7
      363.00949232:32:32:32:32:3 18dBm  Nov 18, 201816:32:11.72244700 7
      373.05722932:32:32:32:32:3 17dBm  Nov 18, 201816:32:11.77018400 7
      383.08837332:32:32:32:32:3 15dBm  Nov 18, 201816:32:11.80132800 7
      393.24908732:32:32:32:32:3 18dBm  Nov 18, 201816:32:11.96204200 7
      403.45143832:32:32:32:32:3 19dBm  Nov 18, 201816:32:12.16439300 7
      413.63824232:32:32:32:32:3 17dBm  Nov 18, 201816:32:12.35119700 7
      423.65929232:32:32:32:32:3 19dBm  Nov 18, 201816:32:12.37224700 7
      43 3.7292932:32:32:32:32:3 14dBm  Nov 18, 201816:32:12.44224500 7
      443.96207532:32:32:32:32:3 17dBm  Nov 18, 201816:32:12.67503000 7
      454.04666732:32:32:32:32:3 17dBm  Nov 18, 201816:32:12.75962200 7
      464.09320932:32:32:32:32:3 17dBm  Nov 18, 201816:32:12.80616400 7
      474.11816432:32:32:32:32:3 19dBm  Nov 18, 201816:32:12.83111900 7
      484.15562932:32:32:32:32:3 17dBm  Nov 18, 201816:32:12.86858400 7
      494.26192232:32:32:32:32:3 15dBm  Nov 18, 201816:32:12.97487700 7
      504.29550832:32:32:32:32:3 16dBm  Nov 18, 201816:32:13.00846300 7
      514.33740232:32:32:32:32:3 20dBm  Nov 18, 201816:32:13.05035700 7
      524.62090532:32:32:32:32:3 17dBm  Nov 18, 201816:32:13.33386000 7
      534.67079332:32:32:32:32:3 17dBm  Nov 18, 201816:32:13.38374800 7
      544.72223232:32:32:32:32:3 17dBm  Nov 18, 201816:32:13.43518700 7
      554.96830532:32:32:32:32:3 17dBm  Nov 18, 201816:32:13.68126000 7
      565.19598732:32:32:32:32:3 18dBm  Nov 18, 201816:32:13.90894200 7
      57 5.2552732:32:32:32:32:3 19dBm  Nov 18, 201816:32:13.96822500 7
      58 5.2811832:32:32:32:32:3 18dBm  Nov 18, 201816:32:13.99413500 7
      595.39190132:32:32:32:32:3 13dBm  Nov 18, 201816:32:14.10485600 7
      605.41222132:32:32:32:32:3 14dBm  Nov 18, 201816:32:14.12517600 7
      615.76714132:32:32:32:32:3 15dBm  Nov 18, 201816:32:14.48009600 7
      625.83609532:32:32:32:32:3 17dBm  Nov 18, 201816:32:14.54905000 7
      63 5.9037432:32:32:32:32:3 20dBm  Nov 18, 201816:32:14.61669500 7
      64 5.9339832:32:32:32:32:3 16dBm  Nov 18, 201816:32:14.64693500 7
      655.96353732:32:32:32:32:3 17dBm  Nov 18, 201816:32:14.67649200 7
      666.03130132:32:32:32:32:3 16dBm  Nov 18, 201816:32:14.74425600 7
      676.04762332:32:32:32:32:3 20dBm  Nov 18, 201816:32:14.76057800 7
      686.05899732:32:32:32:32:3 18dBm  Nov 18, 201816:32:14.77195200 7
      696.28362232:32:32:32:32:3 17dBm  Nov 18, 201816:32:14.99657700 7
      706.37470732:32:32:32:32:3 16dBm  Nov 18, 201816:32:15.08766200 7
      716.39620932:32:32:32:32:3 18dBm  Nov 18, 201816:32:15.10916400 7
      726.54636832:32:32:32:32:3 19dBm  Nov 18, 201816:32:15.25932300 7
      736.62213132:32:32:32:32:3 18dBm  Nov 18, 201816:32:15.33508600 7
      746.63669732:32:32:32:32:3 18dBm  Nov 18, 201816:32:15.34965200 7
      756.66270432:32:32:32:32:3 18dBm  Nov 18, 201816:32:15.37565900 7
      767.13511432:32:32:32:32:3 18dBm  Nov 18, 201816:32:15.84806900 7
      777.20836432:32:32:32:32:3 18dBm  Nov 18, 201816:32:15.92131900 7
      787.32177232:32:32:32:32:3 18dBm  Nov 18, 201816:32:16.03472700 7
      797.42519232:32:32:32:32:3 19dBm  Nov 18, 201816:32:16.13814700 7
      807.42919432:32:32:32:32:3 20dBm  Nov 18, 201816:32:16.14214900 7
      81 7.4502232:32:32:32:32:3 15dBm  Nov 18, 201816:32:16.16317500 7
      827.47178532:32:32:32:32:3 19dBm  Nov 18, 201816:32:16.18474000 7
      837.66663332:32:32:32:32:3 18dBm  Nov 18, 201816:32:16.37958800 7
      847.68895532:32:32:32:32:3 17dBm  Nov 18, 201816:32:16.40191000 7
      857.70301632:32:32:32:32:3 17dBm  Nov 18, 201816:32:16.41597100 7
      867.72961532:32:32:32:32:3 17dBm  Nov 18, 201816:32:16.44257000 7
      877.84518432:32:32:32:32:3 17dBm  Nov 18, 201816:32:16.55813900 7
      887.89545932:32:32:32:32:3 17dBm  Nov 18, 201816:32:16.60841400 7
      897.98326432:32:32:32:32:3 16dBm  Nov 18, 201816:32:16.69621900 7
      908.15912432:32:32:32:32:3 18dBm  Nov 18, 201816:32:16.87207900 7
      918.35642632:32:32:32:32:3 18dBm  Nov 18, 201816:32:17.06938100 7
      928.40701532:32:32:32:32:3 17dBm  Nov 18, 201816:32:17.11997000 7
      938.61170532:32:32:32:32:3 17dBm  Nov 18, 201816:32:17.32466000 7
      948.62543732:32:32:32:32:3 19dBm  Nov 18, 201816:32:17.33839200 7
      958.76743132:32:32:32:32:3 18dBm  Nov 18, 201816:32:17.48038600 7
      968.83878632:32:32:32:32:3 18dBm  Nov 18, 201816:32:17.55174100 7
      978.89641532:32:32:32:32:3 19dBm  Nov 18, 201816:32:17.60937000 7
      988.97455832:32:32:32:32:3 16dBm  Nov 18, 201816:32:17.68751300 7
      999.02626932:32:32:32:32:3 18dBm  Nov 18, 201816:32:17.73922400 7
     1009.04561932:32:32:32:32:3 20dBm  Nov 18, 201816:32:17.75857400 7
     1019.08628832:32:32:32:32:3 19dBm  Nov 18, 201816:32:17.79924300 7
     1029.18514232:32:32:32:32:3 19dBm  Nov 18, 201816:32:17.89809700 7
     1039.24819532:32:32:32:32:3 18dBm  Nov 18, 201816:32:17.96115000 7
     1049.34802332:32:32:32:32:3 19dBm  Nov 18, 201816:32:18.06097800 7
     1059.41271932:32:32:32:32:3 20dBm  Nov 18, 201816:32:18.12567400 7
     1069.45690932:32:32:32:32:3 17dBm  Nov 18, 201816:32:18.16986400 7
     1079.46850132:32:32:32:32:3 19dBm  Nov 18, 201816:32:18.18145600 7
     1089.50790132:32:32:32:32:3 19dBm  Nov 18, 201816:32:18.22085600 7
     109  9.553532:32:32:32:32:3 18dBm  Nov 18, 201816:32:18.26645500 7
     1109.61399732:32:32:32:32:3 18dBm  Nov 18, 201816:32:18.32695200 7
     1119.61781632:32:32:32:32:3 19dBm  Nov 18, 201816:32:18.33077100 7
     112 9.7666732:32:32:32:32:3 19dBm  Nov 18, 201816:32:18.47962500 7
     1139.81128532:32:32:32:32:3 19dBm  Nov 18, 201816:32:18.52424000 7
     114 9.8654432:32:32:32:32:3 19dBm  Nov 18, 201816:32:18.57839500 7
     1159.92698132:32:32:32:32:3 19dBm  Nov 18, 201816:32:18.63993600 7
  116  10.09293632:32:32:32:32:3 18dBm  Nov 18, 201816:32:18.80589100 7
  117  10.11763932:32:32:32:32:3 18dBm  Nov 18, 201816:32:18.83059400 7
  118  10.47873332:32:32:32:32:3 17dBm  Nov 18, 201816:32:19.19168800 7
  119  10.64259432:32:32:32:32:3 18dBm  Nov 18, 201816:32:19.35554900 7
  120  10.75332432:32:32:32:32:3 18dBm  Nov 18, 201816:32:19.46627900 7
  121  10.79565932:32:32:32:32:3 17dBm  Nov 18, 201816:32:19.50861400 7
  122  10.88793532:32:32:32:32:3 19dBm  Nov 18, 201816:32:19.60089000 7
  123  10.92412732:32:32:32:32:3 19dBm  Nov 18, 201816:32:19.63708200 7
  124  11.13861632:32:32:32:32:3 19dBm  Nov 18, 201816:32:19.85157100 7
  125  11.17983232:32:32:32:32:3 18dBm  Nov 18, 201816:32:19.89278700 7
  126  11.21566732:32:32:32:32:3 20dBm  Nov 18, 201816:32:19.92862200 7
  127  1  1.310632:32:32:32:32:3 17dBm  Nov 18, 201816:32:20.02355500 7
  128  11.57527832:32:32:32:32:3 20dBm  Nov 18, 201816:32:20.28823300 7
  129  1 1.5906332:32:32:32:32:3 18dBm  Nov 18, 201816:32:20.30358500 7
  130  11.59778432:32:32:32:32:3 19dBm  Nov 18, 201816:32:20.31073900 7
  131  11.63020832:32:32:32:32:3 17dBm  Nov 18, 201816:32:20.34316300 7
  132  11.97600932:32:32:32:32:3 19dBm  Nov 18, 201816:32:20.68896400 7
  133  12.18539932:32:32:32:32:3 19dBm  Nov 18, 201816:32:20.89835400 7
  134  12.22992532:32:32:32:32:3 18dBm  Nov 18, 201816:32:20.94288000 7
  135  12.27130432:32:32:32:32:3 19dBm  Nov 18, 201816:32:20.98425900 7
  136  12.29191332:32:32:32:32:3 18dBm  Nov 18, 201816:32:21.00486800 7
  137  12.30678932:32:32:32:32:3 18dBm  Nov 18, 201816:32:21.01974400 7
  138  12.32762332:32:32:32:32:3 18dBm  Nov 18, 201816:32:21.04057800 7
  139  12.42619932:32:32:32:32:3 18dBm  Nov 18, 201816:32:21.13915400 7
  140  12.69944932:32:32:32:32:3 18dBm  Nov 18, 201816:32:21.41240400 7
  141  12.72201132:32:32:32:32:3 18dBm  Nov 18, 201816:32:21.43496600 7
  142  12.73008532:32:32:32:32:3 20dBm  Nov 18, 201816:32:21.44304000 7
  143  12.78565332:32:32:32:32:3 21dBm  Nov 18, 201816:32:21.49860800 7
  144  13.11210432:32:32:32:32:3 18dBm  Nov 18, 201816:32:21.82505900 7
  145  13.15657332:32:32:32:32:3 19dBm  Nov 18, 201816:32:21.86952800 7
  146  13.28124132:32:32:32:32:3 16dBm  Nov 18, 201816:32:21.99419600 7
  147  13.33885732:32:32:32:32:3 21dBm  Nov 18, 201816:32:22.05181200 7
  148  13.38825532:32:32:32:32:3 18dBm  Nov 18, 201816:32:22.10121000 7
  149  13.42722532:32:32:32:32:3 17dBm  Nov 18, 201816:32:22.14018000 7
  150  13.54122732:32:32:32:32:3 20dBm  Nov 18, 201816:32:22.25418200 7
  151  13.59645732:32:32:32:32:3 19dBm  Nov 18, 201816:32:22.30941200 7
  152  13.71128932:32:32:32:32:3 18dBm  Nov 18, 201816:32:22.42424400 7
  153  14.03881532:32:32:32:32:3 19dBm  Nov 18, 201816:32:22.75177000 7
  154  14.15001932:32:32:32:32:3 18dBm  Nov 18, 201816:32:22.86297400 7
  155  14.25447832:32:32:32:32:3 18dBm  Nov 18, 201816:32:22.96743300 7
  156  14.50823532:32:32:32:32:3 19dBm  Nov 18, 201816:32:23.22119000 7
  157  14.56809432:32:32:32:32:3 19dBm  Nov 18, 201816:32:23.28104900 7
  158  14.67199432:32:32:32:32:3 19dBm  Nov 18, 201816:32:23.38494900 7
  159  14.71536332:32:32:32:32:3 17dBm  Nov 18, 201816:32:23.42831800 7
  160  14.77987232:32:32:32:32:3 18dBm  Nov 18, 201816:32:23.49282700 7
  161  14.90678132:32:32:32:32:3 19dBm  Nov 18, 201816:32:23.61973600 7
  162  15.00630532:32:32:32:32:3 17dBm  Nov 18, 201816:32:23.71926000 7
  163  15.16687332:32:32:32:32:3 18dBm  Nov 18, 201816:32:23.87982800 7
  164  15.20242332:32:32:32:32:3 18dBm  Nov 18, 201816:32:23.91537800 7
  165  15.31651532:32:32:32:32:3 19dBm  Nov 18, 201816:32:24.02947000 7
  166  15.52102932:32:32:32:32:3 19dBm  Nov 18, 201816:32:24.23398400 7
  167  15.69475932:32:32:32:32:3 18dBm  Nov 18, 201816:32:24.40771400 7
  168  15.73326632:32:32:32:32:3 16dBm  Nov 18, 201816:32:24.44622100 7
  169  15.98904632:32:32:32:32:3 16dBm  Nov 18, 201816:32:24.70200100 7
  170  16.03583332:32:32:32:32:3 18dBm  Nov 18, 201816:32:24.74878800 7
  171  1 6.1080532:32:32:32:32:3 19dBm  Nov 18, 201816:32:24.82100500 7
  172  1 6.2053232:32:32:32:32:3 18dBm  Nov 18, 201816:32:24.91827500 7
  173  16.27232932:32:32:32:32:3 18dBm  Nov 18, 201816:32:24.98528400 7
  174  1 6.3664932:32:32:32:32:3 20dBm  Nov 18, 201816:32:25.07944500 7
  175  16.46962232:32:32:32:32:3 19dBm  Nov 18, 201816:32:25.18257700 7
  176  16.52159632:32:32:32:32:3 19dBm  Nov 18, 201816:32:25.23455100 7
  177  16.58111232:32:32:32:32:3 19dBm  Nov 18, 201816:32:25.29406700 7
  178  16.69334832:32:32:32:32:3 19dBm  Nov 18, 201816:32:25.40630300 7
  179  16.84113732:32:32:32:32:3 20dBm  Nov 18, 201816:32:25.55409200 7
  180  17.14379732:32:32:32:32:3 18dBm  Nov 18, 201816:32:25.85675200 7
  181  17.24815332:32:32:32:32:3 19dBm  Nov 18, 201816:32:25.96110800 7
  182  17.29665432:32:32:32:32:3 18dBm  Nov 18, 201816:32:26.00960900 7
  183  17.47797332:32:32:32:32:3 19dBm  Nov 18, 201816:32:26.19092800 7
  184  17.48533632:32:32:32:32:3 19dBm  Nov 18, 201816:32:26.19829100 7
  185  17.64437432:32:32:32:32:3 19dBm  Nov 18, 201816:32:26.35732900 7
  186  17.71869332:32:32:32:32:3 20dBm  Nov 18, 201816:32:26.43164800 7
  187  17.76446832:32:32:32:32:3 18dBm  Nov 18, 201816:32:26.47742300 7
  188  1  7.810732:32:32:32:32:3 19dBm  Nov 18, 201816:32:26.52365500 7
  189  17.90613532:32:32:32:32:3 20dBm  Nov 18, 201816:32:26.61909000 7
  190  17.95509432:32:32:32:32:3 20dBm  Nov 18, 201816:32:26.66804900 7
  191  18.07227632:32:32:32:32:3 20dBm  Nov 18, 201816:32:26.78523100 7
  192  18.14660232:32:32:32:32:3 18dBm  Nov 18, 201816:32:26.85955700 7
  193  18.19596332:32:32:32:32:3 18dBm  Nov 18, 201816:32:26.90891800 7
  194  18.23644432:32:32:32:32:3 18dBm  Nov 18, 201816:32:26.94939900 7
  195  18.31058632:32:32:32:32:3 18dBm  Nov 18, 201816:32:27.02354100 7
  196  18.37239732:32:32:32:32:3 18dBm  Nov 18, 201816:32:27.08535200 7
  197  18.40806432:32:32:32:32:3 18dBm  Nov 18, 201816:32:27.12101900 7
  198  18.48337732:32:32:32:32:3 19dBm  Nov 18, 201816:32:27.19633200 7
  199  1 8.5260632:32:32:32:32:3 20dBm  Nov 18, 201816:32:27.23901500 7
  200  18.68743832:32:32:32:32:3 17dBm  Nov 18, 201816:32:27.40039300 7
  201  18.75739932:32:32:32:32:3 20dBm  Nov 18, 201816:32:27.47035400 7
  202  18.79215632:32:32:32:32:3 18dBm  Nov 18, 201816:32:27.50511100 7
  203  18.87492832:32:32:32:32:3 18dBm  Nov 18, 201816:32:27.58788300 7
  204  19.27123632:32:32:32:32:3 18dBm  Nov 18, 201816:32:27.98419100 7
  205  19.38183632:32:32:32:32:3 19dBm  Nov 18, 201816:32:28.09479100 7
  206  19.39843532:32:32:32:32:3 16dBm  Nov 18, 201816:32:28.11139000 7
  207  19.41859832:32:32:32:32:3 19dBm  Nov 18, 201816:32:28.13155300 7
  208  19.49829732:32:32:32:32:3 17dBm  Nov 18, 201816:32:28.21125200 7
  209  19.58565332:32:32:32:32:3 18dBm  Nov 18, 201816:32:28.29860800 7
  210  19.60080732:32:32:32:32:3 18dBm  Nov 18, 201816:32:28.31376200 7
  211  19.63094332:32:32:32:32:3 19dBm  Nov 18, 201816:32:28.34389800 7
  212  1 9.6783132:32:32:32:32:3 17dBm  Nov 18, 201816:32:28.39126500 7
  213  19.79769232:32:32:32:32:3 17dBm  Nov 18, 201816:32:28.51064700 7
  214  19.89337532:32:32:32:32:3 17dBm  Nov 18, 201816:32:28.60633000 7
  215  19.91679732:32:32:32:32:3 19dBm  Nov 18, 201816:32:28.62975200 7
  216  1 9.9564632:32:32:32:32:3 18dBm  Nov 18, 201816:32:28.66941500 7
  217  20.13751532:32:32:32:32:3 17dBm  Nov 18, 201816:32:28.85047000 7
  218  20.17278732:32:32:32:32:3 17dBm  Nov 18, 201816:32:28.88574200 7
  219  20.39087232:32:32:32:32:3 19dBm  Nov 18, 201816:32:29.10382700 7
  220  20.49080732:32:32:32:32:3 18dBm  Nov 18, 201816:32:29.20376200 7
  221  20.59518532:32:32:32:32:3 18dBm  Nov 18, 201816:32:29.30814000 7
  222  20.68205832:32:32:32:32:3 20dBm  Nov 18, 201816:32:29.39501300 7
  223  20.72618832:32:32:32:32:3 17dBm  Nov 18, 201816:32:29.43914300 7
  224  20.86124132:32:32:32:32:3 18dBm  Nov 18, 201816:32:29.57419600 7
  225  21.00155332:32:32:32:32:3 19dBm  Nov 18, 201816:32:29.71450800 7
  226  21.05179532:32:32:32:32:3 17dBm  Nov 18, 201816:32:29.76475000 7
  227  2 1.0699932:32:32:32:32:3 18dBm  Nov 18, 201816:32:29.78294500 7
  228  21.09380832:32:32:32:32:3 18dBm  Nov 18, 201816:32:29.80676300 7
  229  21.14242932:32:32:32:32:3 17dBm  Nov 18, 201816:32:29.85538400 7
  230  21.37680332:32:32:32:32:3 20dBm  Nov 18, 201816:32:30.08975800 7
  231  2 1.4235832:32:32:32:32:3 20dBm  Nov 18, 201816:32:30.13653500 7
  232  21.49917732:32:32:32:32:3 18dBm  Nov 18, 201816:32:30.21213200 7
  233  21.60995132:32:32:32:32:3 17dBm  Nov 18, 201816:32:30.32290600 7
  234  21.80820132:32:32:32:32:3 19dBm  Nov 18, 201816:32:30.52115600 7
  235  21.83687132:32:32:32:32:3 19dBm  Nov 18, 201816:32:30.54982600 7
  236  21.87769732:32:32:32:32:3 18dBm  Nov 18, 201816:32:30.59065200 7
  237  2 1.9746832:32:32:32:32:3 17dBm  Nov 18, 201816:32:30.68763500 7
  238  22.01599932:32:32:32:32:3 18dBm  Nov 18, 201816:32:30.72895400 7
  239  22.17043232:32:32:32:32:3 18dBm  Nov 18, 201816:32:30.88338700 7
  240  2 2.2883932:32:32:32:32:3 18dBm  Nov 18, 201816:32:31.00134500 7
  241  22.31402632:32:32:32:32:3 19dBm  Nov 18, 201816:32:31.02698100 7
  242  22.35025132:32:32:32:32:3 17dBm  Nov 18, 201816:32:31.06320600 7
  243  22.40373432:32:32:32:32:3 18dBm  Nov 18, 201816:32:31.11668900 7
  244  22.46886632:32:32:32:32:3 17dBm  Nov 18, 201816:32:31.18182100 7
  245  22.62940332:32:32:32:32:3 19dBm  Nov 18, 201816:32:31.34235800 7
  246  22.65066832:32:32:32:32:3 18dBm  Nov 18, 201816:32:31.36362300 7
  247  22.89754332:32:32:32:32:3 18dBm  Nov 18, 201816:32:31.61049800 7
  248  22.91711932:32:32:32:32:3 18dBm  Nov 18, 201816:32:31.63007400 7
  249  22.94039232:32:32:32:32:3 17dBm  Nov 18, 201816:32:31.65334700 7
  250  23.02233432:32:32:32:32:3 17dBm  Nov 18, 201816:32:31.73528900 7
  251  23.05655932:32:32:32:32:3 18dBm  Nov 18, 201816:32:31.76951400 7
  252  23.07845232:32:32:32:32:3 18dBm  Nov 18, 201816:32:31.79140700 7
  253  23.09713432:32:32:32:32:3 18dBm  Nov 18, 201816:32:31.81008900 7
  254  23.17617232:32:32:32:32:3 18dBm  Nov 18, 201816:32:31.88912700 7
  255  23.25205432:32:32:32:32:3 16dBm  Nov 18, 201816:32:31.96500900 7
  256  23.33031232:32:32:32:32:3 16dBm  Nov 18, 201816:32:32.04326700 7
  257  23.38544332:32:32:32:32:3 18dBm  Nov 18, 201816:32:32.09839800 7
  258  23.41618532:32:32:32:32:3 18dBm  Nov 18, 201816:32:32.12914000 7
  259  23.66682332:32:32:32:32:3 16dBm  Nov 18, 201816:32:32.37977800 7
  260  23.74730132:32:32:32:32:3 18dBm  Nov 18, 201816:32:32.46025600 7
  261  24.09482132:32:32:32:32:3 19dBm  Nov 18, 201816:32:32.80777600 7
  262  24.18337832:32:32:32:32:3 16dBm  Nov 18, 201816:32:32.89633300 7
  263  24.30245132:32:32:32:32:3 18dBm  Nov 18, 201816:32:33.01540600 7
  264  24.38303932:32:32:32:32:3 18dBm  Nov 18, 201816:32:33.09599400 7
  265  24.63097232:32:32:32:32:3 18dBm  Nov 18, 201816:32:33.34392700 7
  266  24.76864732:32:32:32:32:3 17dBm  Nov 18, 201816:32:33.48160200 7
  267  24.79507232:32:32:32:32:3 17dBm  Nov 18, 201816:32:33.50802700 7
  268  24.80833432:32:32:32:32:3 20dBm  Nov 18, 201816:32:33.52128900 7
  269  24.87084932:32:32:32:32:3 18dBm  Nov 18, 201816:32:33.58380400 7
  270  25.04778932:32:32:32:32:3 19dBm  Nov 18, 201816:32:33.76074400 7
  271  25.17023132:32:32:32:32:3 20dBm  Nov 18, 201816:32:33.88318600 7
  272  25.49099132:32:32:32:32:3 18dBm  Nov 18, 201816:32:34.20394600 7
  273  25.93537632:32:32:32:32:3 17dBm  Nov 18, 201816:32:34.64833100 7
  274  25.94897332:32:32:32:32:3 17dBm  Nov 18, 201816:32:34.66192800 7
  275  25.99093732:32:32:32:32:3 17dBm  Nov 18, 201816:32:34.70389200 7
  276  26.16978132:32:32:32:32:3 18dBm  Nov 18, 201816:32:34.88273600 7
  277  26.28557632:32:32:32:32:3 20dBm  Nov 18, 201816:32:34.99853100 7
  278  26.30969632:32:32:32:32:3 17dBm  Nov 18, 201816:32:35.02265100 7
  279  26.42861232:32:32:32:32:3 17dBm  Nov 18, 201816:32:35.14156700 7
  280  26.49074232:32:32:32:32:3 19dBm  Nov 18, 201816:32:35.20369700 7
  281  26.54708932:32:32:32:32:3 17dBm  Nov 18, 201816:32:35.26004400 7
  282  26.63578432:32:32:32:32:3 19dBm  Nov 18, 201816:32:35.34873900 7
  283  2 6.7275232:32:32:32:32:3 19dBm  Nov 18, 201816:32:35.44047500 7
  284  26.75296532:32:32:32:32:3 17dBm  Nov 18, 201816:32:35.46592000 7
  285  26.76835432:32:32:32:32:3 19dBm  Nov 18, 201816:32:35.48130900 7
  286  26.78385832:32:32:32:32:3 19dBm  Nov 18, 201816:32:35.49681300 7
  287  26.80489532:32:32:32:32:3 18dBm  Nov 18, 201816:32:35.51785000 7
  288  27.23602132:32:32:32:32:3 17dBm  Nov 18, 201816:32:35.94897600 7
  289  2 7.2970632:32:32:32:32:3 20dBm  Nov 18, 201816:32:36.01001500 7
  290  27.32244432:32:32:32:32:3 19dBm  Nov 18, 201816:32:36.03539900 7
  291  27.36195632:32:32:32:32:3 19dBm  Nov 18, 201816:32:36.07491100 7
  292  27.62939332:32:32:32:32:3 18dBm  Nov 18, 201816:32:36.34234800 7
  293  27.65908332:32:32:32:32:3 17dBm  Nov 18, 201816:32:36.37203800 7
  294  27.86224532:32:32:32:32:3 17dBm  Nov 18, 201816:32:36.57520000 7
  295  27.88463132:32:32:32:32:3 18dBm  Nov 18, 201816:32:36.59758600 7
  296  27.93020232:32:32:32:32:3 21dBm  Nov 18, 201816:32:36.64315700 7
  297  28.03860232:32:32:32:32:3 15dBm  Nov 18, 201816:32:36.75155700 7
  298  2 8.1054332:32:32:32:32:3 20dBm  Nov 18, 201816:32:36.81838500 7
  299  28.12350732:32:32:32:32:3 18dBm  Nov 18, 201816:32:36.83646200 7
  300  28.15308932:32:32:32:32:3 19dBm  Nov 18, 201816:32:36.86604400 7
  301  28.17159832:32:32:32:32:3 20dBm  Nov 18, 201816:32:36.88455300 7
  302  2 8.1757932:32:32:32:32:3 20dBm  Nov 18, 201816:32:36.88874500 7
  303  28.19783232:32:32:32:32:3 18dBm  Nov 18, 201816:32:36.91078700 7
  304  28.33748932:32:32:32:32:3 19dBm  Nov 18, 201816:32:37.05044400 7
  305  28.37434932:32:32:32:32:3 19dBm  Nov 18, 201816:32:37.08730400 7
  306  28.44782732:32:32:32:32:3 15dBm  Nov 18, 201816:32:37.16078200 7
  307  28.47003832:32:32:32:32:3 16dBm  Nov 18, 201816:32:37.18299300 7
  308  28.48787632:32:32:32:32:3 18dBm  Nov 18, 201816:32:37.20083100 7
  309  28.53132832:32:32:32:32:3 18dBm  Nov 18, 201816:32:37.24428300 7
  310  28.63835432:32:32:32:32:3 20dBm  Nov 18, 201816:32:37.35130900 7
  311  28.70479932:32:32:32:32:3 19dBm  Nov 18, 201816:32:37.41775400 7
  312  28.81787532:32:32:32:32:3 19dBm  Nov 18, 201816:32:37.53083000 7
  313  28.92234332:32:32:32:32:3 17dBm  Nov 18, 201816:32:37.63529800 7
  314  29.02697532:32:32:32:32:3 18dBm  Nov 18, 201816:32:37.73993000 7
  315  29.22066332:32:32:32:32:3 18dBm  Nov 18, 201816:32:37.93361800 7
  316  2 9.2410632:32:32:32:32:3 16dBm  Nov 18, 201816:32:37.95401500 7
  317  2 9.3350832:32:32:32:32:3 16dBm  Nov 18, 201816:32:38.04803500 7
  318  29.43884232:32:32:32:32:3 18dBm  Nov 18, 201816:32:38.15179700 7
  319  29.47220132:32:32:32:32:3 12dBm  Nov 18, 201816:32:38.18515600 7
  320  2 9.4983532:32:32:32:32:3 17dBm  Nov 18, 201816:32:38.21130500 7
  321  29.60327432:32:32:32:32:3 16dBm  Nov 18, 201816:32:38.31622900 7
  322  29.63575232:32:32:32:32:3 16dBm  Nov 18, 201816:32:38.34870700 7
  323  29.72977832:32:32:32:32:3 17dBm  Nov 18, 201816:32:38.44273300 7
  324  29.77483532:32:32:32:32:3 16dBm  Nov 18, 201816:32:38.48779000 7
  325  30.01515832:32:32:32:32:3 18dBm  Nov 18, 201816:32:38.72811300 7
  326  30.03999832:32:32:32:32:3 17dBm  Nov 18, 201816:32:38.75295300 7
  327  30.07821432:32:32:32:32:3 16dBm  Nov 18, 201816:32:38.79116900 7
  328  30.09683932:32:32:32:32:3 16dBm  Nov 18, 201816:32:38.80979400 7
  329  30.13504432:32:32:32:32:3 17dBm  Nov 18, 201816:32:38.84799900 7
  330  30.22238132:32:32:32:32:3 18dBm  Nov 18, 201816:32:38.93533600 7
  331  3 0.2690532:32:32:32:32:3 18dBm  Nov 18, 201816:32:38.98200500 7
  332  30.29716932:32:32:32:32:3 15dBm  Nov 18, 201816:32:39.01012400 7
  333  30.32757632:32:32:32:32:3 16dBm  Nov 18, 201816:32:39.04053100 7
  334  3 0.4743232:32:32:32:32:3 17dBm  Nov 18, 201816:32:39.18727500 7
  335  30.50378632:32:32:32:32:3 17dBm  Nov 18, 201816:32:39.21674100 7
  336  30.59043232:32:32:32:32:3 17dBm  Nov 18, 201816:32:39.30338700 7
  337  30.68327632:32:32:32:32:3 16dBm  Nov 18, 201816:32:39.39623100 7
  338  30.88498932:32:32:32:32:3 17dBm  Nov 18, 201816:32:39.59794400 7
  339  30.90644632:32:32:32:32:3 18dBm  Nov 18, 201816:32:39.61940100 7
  340  30.96226132:32:32:32:32:3 18dBm  Nov 18, 201816:32:39.67521600 7
  341  31.13415732:32:32:32:32:3 19dBm  Nov 18, 201816:32:39.84711200 7
  342  31.26683732:32:32:32:32:3 16dBm  Nov 18, 201816:32:39.97979200 7
  343  31.35377332:32:32:32:32:3 18dBm  Nov 18, 201816:32:40.06672800 7
  344  31.37735532:32:32:32:32:3 15dBm  Nov 18, 201816:32:40.09031000 7
  345  31.40308832:32:32:32:32:3 18dBm  Nov 18, 201816:32:40.11604300 7
  346  31.43483432:32:32:32:32:3 17dBm  Nov 18, 201816:32:40.14778900 7
  347  31.44974632:32:32:32:32:3 15dBm  Nov 18, 201816:32:40.16270100 7
  348  31.70278732:32:32:32:32:3 18dBm  Nov 18, 201816:32:40.41574200 7
  349  3 1.7372432:32:32:32:32:3 16dBm  Nov 18, 201816:32:40.45019500 7
  350  31.86172332:32:32:32:32:3 16dBm  Nov 18, 201816:32:40.57467800 7
  351  32.01451832:32:32:32:32:3 18dBm  Nov 18, 201816:32:40.72747300 7
  352  32.08012932:32:32:32:32:3 18dBm  Nov 18, 201816:32:40.79308400 7
  353  32.17845432:32:32:32:32:3 15dBm  Nov 18, 201816:32:40.89140900 7
  354  32.27246932:32:32:32:32:3 18dBm  Nov 18, 201816:32:40.98542400 7
  355  32.31796232:32:32:32:32:3 18dBm  Nov 18, 201816:32:41.03091700 7
  356  32.40942432:32:32:32:32:3 18dBm  Nov 18, 201816:32:41.12237900 7
  357  32.45614432:32:32:32:32:3 17dBm  Nov 18, 201816:32:41.16909900 7
  358  32.54246832:32:32:32:32:3 18dBm  Nov 18, 201816:32:41.25542300 7
  359  32.58827332:32:32:32:32:3 19dBm  Nov 18, 201816:32:41.30122800 7
  360  32.62441632:32:32:32:32:3 18dBm  Nov 18, 201816:32:41.33737100 7
  361  32.70233332:32:32:32:32:3 20dBm  Nov 18, 201816:32:41.41528800 7
  362  32.74425632:32:32:32:32:3 18dBm  Nov 18, 201816:32:41.45721100 7
  363  32.74646432:32:32:32:32:3 18dBm  Nov 18, 201816:32:41.45941900 7
  364  32.83856532:32:32:32:32:3 19dBm  Nov 18, 201816:32:41.55152000 7
  365  3 2.8690832:32:32:32:32:3 17dBm  Nov 18, 201816:32:41.58203500 7
  366  33.20696532:32:32:32:32:3 17dBm  Nov 18, 201816:32:41.91992000 7
  367  33.63227232:32:32:32:32:3 17dBm  Nov 18, 201816:32:42.34522700 7
  368  33.67738132:32:32:32:32:3 19dBm  Nov 18, 201816:32:42.39033600 7
  369  33.69687332:32:32:32:32:3 20dBm  Nov 18, 201816:32:42.40982800 7
  370  33.70040432:32:32:32:32:3 19dBm  Nov 18, 201816:32:42.41335900 7
  371  33.90297732:32:32:32:32:3 18dBm  Nov 18, 201816:32:42.61593200 7
  372  34.10546332:32:32:32:32:3 18dBm  Nov 18, 201816:32:42.81841800 7
  373  34.17845832:32:32:32:32:3 20dBm  Nov 18, 201816:32:42.89141300 7
  374  34.38439432:32:32:32:32:3 16dBm  Nov 18, 201816:32:43.09734900 7
  375  34.42069532:32:32:32:32:3 17dBm  Nov 18, 201816:32:43.13365000 7
  376  34.74584732:32:32:32:32:3 16dBm  Nov 18, 201816:32:43.45880200 7
  377  34.90062732:32:32:32:32:3 18dBm  Nov 18, 201816:32:43.61358200 7
  378  35.05506132:32:32:32:32:3 13dBm  Nov 18, 201816:32:43.76801600 7
  379  35.13775832:32:32:32:32:3 18dBm  Nov 18, 201816:32:43.85071300 7
  380  35.57264532:32:32:32:32:3 17dBm  Nov 18, 201816:32:44.28560000 7
  381  35.59716632:32:32:32:32:3 17dBm  Nov 18, 201816:32:44.31012100 7
  382  3 5.6113432:32:32:32:32:3 19dBm  Nov 18, 201816:32:44.32429500 7
  383  3  5.696532:32:32:32:32:3 20dBm  Nov 18, 201816:32:44.40945500 7
  384  35.76132232:32:32:32:32:3 18dBm  Nov 18, 201816:32:44.47427700 7
  385  35.83258632:32:32:32:32:3 18dBm  Nov 18, 201816:32:44.54554100 7
  386  35.88715632:32:32:32:32:3 17dBm  Nov 18, 201816:32:44.60011100 7
  387  35.90624732:32:32:32:32:3 17dBm  Nov 18, 201816:32:44.61920200 7
  388  36.01366932:32:32:32:32:3 18dBm  Nov 18, 201816:32:44.72662400 7
  389  36.03329832:32:32:32:32:3 15dBm  Nov 18, 201816:32:44.74625300 7
  390  3 6.1577832:32:32:32:32:3 18dBm  Nov 18, 201816:32:44.87073500 7
  391  36.22356632:32:32:32:32:3 16dBm  Nov 18, 201816:32:44.93652100 7
  392  36.29177332:32:32:32:32:3 18dBm  Nov 18, 201816:32:45.00472800 7
  393  36.41207332:32:32:32:32:3 17dBm  Nov 18, 201816:32:45.12502800 7
  394  36.50056232:32:32:32:32:3 17dBm  Nov 18, 201816:32:45.21351700 7
  395  36.58416332:32:32:32:32:3 18dBm  Nov 18, 201816:32:45.29711800 7
  396  36.65824532:32:32:32:32:3 18dBm  Nov 18, 201816:32:45.37120000 7
  397  36.71252432:32:32:32:32:3 16dBm  Nov 18, 201816:32:45.42547900 7
  398  36.72520632:32:32:32:32:3 17dBm  Nov 18, 201816:32:45.43816100 7
  399  36.90158132:32:32:32:32:3 18dBm  Nov 18, 201816:32:45.61453600 7
  400  37.05846832:32:32:32:32:3 17dBm  Nov 18, 201816:32:45.77142300 7
  401  37.14365632:32:32:32:32:3 18dBm  Nov 18, 201816:32:45.85661100 7
  402  37.16418232:32:32:32:32:3 17dBm  Nov 18, 201816:32:45.87713700 7
  403  37.23874732:32:32:32:32:3 18dBm  Nov 18, 201816:32:45.95170200 7
  404  37.25526832:32:32:32:32:3 18dBm  Nov 18, 201816:32:45.96822300 7
  405  37.42254532:32:32:32:32:3 16dBm  Nov 18, 201816:32:46.13550000 7
  406  3 7.5132632:32:32:32:32:3 18dBm  Nov 18, 201816:32:46.22621500 7
  407  37.56985432:32:32:32:32:3 17dBm  Nov 18, 201816:32:46.28280900 7
  408  37.67232732:32:32:32:32:3 17dBm  Nov 18, 201816:32:46.38528200 7
  409  37.79742432:32:32:32:32:3 18dBm  Nov 18, 201816:32:46.51037900 7
  410  37.83873432:32:32:32:32:3 18dBm  Nov 18, 201816:32:46.55168900 7
  411  38.03287232:32:32:32:32:3 17dBm  Nov 18, 201816:32:46.74582700 7
  412  38.10700532:32:32:32:32:3 17dBm  Nov 18, 201816:32:46.81996000 7
  413  38.19768132:32:32:32:32:3 17dBm  Nov 18, 201816:32:46.91063600 7
  414  38.23980132:32:32:32:32:3 18dBm  Nov 18, 201816:32:46.95275600 7
  415  3 8.2470132:32:32:32:32:3 15dBm  Nov 18, 201816:32:46.95996500 7
  416  38.25734332:32:32:32:32:3 16dBm  Nov 18, 201816:32:46.97029800 7
  417  38.28033732:32:32:32:32:3 18dBm  Nov 18, 201816:32:46.99329200 7
  418  38.36975332:32:32:32:32:3 18dBm  Nov 18, 201816:32:47.08270800 7
  419  38.38321732:32:32:32:32:3 17dBm  Nov 18, 201816:32:47.09617200 7
  420  38.49281632:32:32:32:32:3 18dBm  Nov 18, 201816:32:47.20577100 7
  421  38.51487732:32:32:32:32:3 18dBm  Nov 18, 201816:32:47.22783200 7
  422  3  8.531832:32:32:32:32:3 17dBm  Nov 18, 201816:32:47.24475500 7
  423  38.83044732:32:32:32:32:3 17dBm  Nov 18, 201816:32:47.54340200 7
  424  38.88042632:32:32:32:32:3 18dBm  Nov 18, 201816:32:47.59338100 7
  425  3  9.006932:32:32:32:32:3 19dBm  Nov 18, 201816:32:47.71985500 7
  426  39.03937432:32:32:32:32:3 17dBm  Nov 18, 201816:32:47.75232900 7
  427  39.05382732:32:32:32:32:3 18dBm  Nov 18, 201816:32:47.76678200 7
  428  39.22947632:32:32:32:32:3 18dBm  Nov 18, 201816:32:47.94243100 7
  429  39.42955632:32:32:32:32:3 17dBm  Nov 18, 201816:32:48.14251100 7
  430  39.56401932:32:32:32:32:3 17dBm  Nov 18, 201816:32:48.27697400 7
  431  39.60836532:32:32:32:32:3 17dBm  Nov 18, 201816:32:48.32132000 7
  432  39.64008532:32:32:32:32:3 16dBm  Nov 18, 201816:32:48.35304000 7
  433  39.64305932:32:32:32:32:3 18dBm  Nov 18, 201816:32:48.35601400 7
  434  3 9.6896332:32:32:32:32:3 17dBm  Nov 18, 201816:32:48.40258500 7
  435  39.79178932:32:32:32:32:3 19dBm  Nov 18, 201816:32:48.50474400 7
  436  40.02291432:32:32:32:32:3 19dBm  Nov 18, 201816:32:48.73586900 7
  437  40.14357132:32:32:32:32:3 19dBm  Nov 18, 201816:32:48.85652600 7
  438  40.19813932:32:32:32:32:3 19dBm  Nov 18, 201816:32:48.91109400 7
  439  40.22525832:32:32:32:32:3 18dBm  Nov 18, 201816:32:48.93821300 7
  440  40.23417532:32:32:32:32:3 17dBm  Nov 18, 201816:32:48.94713000 7
  441  40.25156532:32:32:32:32:3 17dBm  Nov 18, 201816:32:48.96452000 7
  442  40.31718132:32:32:32:32:3 17dBm  Nov 18, 201816:32:49.03013600 7
  443  40.33687932:32:32:32:32:3 18dBm  Nov 18, 201816:32:49.04983400 7
  444  40.36361132:32:32:32:32:3 18dBm  Nov 18, 201816:32:49.07656600 7
  445  40.45224932:32:32:32:32:3 18dBm  Nov 18, 201816:32:49.16520400 7
  446  40.75661832:32:32:32:32:3 15dBm  Nov 18, 201816:32:49.46957300 7
  447  4   0.85532:32:32:32:32:3 18dBm  Nov 18, 201816:32:49.56795500 7
  448  40.96639932:32:32:32:32:3 17dBm  Nov 18, 201816:32:49.67935400 7
  449  41.02124832:32:32:32:32:3 16dBm  Nov 18, 201816:32:49.73420300 7
  450  4 1.0477832:32:32:32:32:3 16dBm  Nov 18, 201816:32:49.76073500 7
  451  41.07163232:32:32:32:32:3 17dBm  Nov 18, 201816:32:49.78458700 7
  452  41.11387532:32:32:32:32:3 19dBm  Nov 18, 201816:32:49.82683000 7
  453  4 1.1978432:32:32:32:32:3 14dBm  Nov 18, 201816:32:49.91079500 7
  454  41.28210632:32:32:32:32:3 19dBm  Nov 18, 201816:32:49.99506100 7
  455  41.33819532:32:32:32:32:3 19dBm  Nov 18, 201816:32:50.05115000 7
  456  41.39659532:32:32:32:32:3 16dBm  Nov 18, 201816:32:50.10955000 7
  457  41.41933932:32:32:32:32:3 14dBm  Nov 18, 201816:32:50.13229400 7
  458  41.47641532:32:32:32:32:3 20dBm  Nov 18, 201816:32:50.18937000 7
  459  41.96686732:32:32:32:32:3 16dBm  Nov 18, 201816:32:50.67982200 7
  460  41.98888532:32:32:32:32:3 18dBm  Nov 18, 201816:32:50.70184000 7
  461  42.02431732:32:32:32:32:3 19dBm  Nov 18, 201816:32:50.73727200 7
  462  42.26702932:32:32:32:32:3 19dBm  Nov 18, 201816:32:50.97998400 7
  463  4 2.3203932:32:32:32:32:3 18dBm  Nov 18, 201816:32:51.03334500 7
  464  42.33322232:32:32:32:32:3 18dBm  Nov 18, 201816:32:51.04617700 7
  465  4 2.3917532:32:32:32:32:3 20dBm  Nov 18, 201816:32:51.10470500 7
  466  42.52949332:32:32:32:32:3 18dBm  Nov 18, 201816:32:51.24244800 7
  467  42.54604832:32:32:32:32:3 17dBm  Nov 18, 201816:32:51.25900300 7
  468  42.57581332:32:32:32:32:3 19dBm  Nov 18, 201816:32:51.28876800 7
  469  42.59593132:32:32:32:32:3 18dBm  Nov 18, 201816:32:51.30888600 7
  470  42.92727632:32:32:32:32:3 17dBm  Nov 18, 201816:32:51.64023100 7
  471  42.94770832:32:32:32:32:3 16dBm  Nov 18, 201816:32:51.66066300 7
  472  42.98655632:32:32:32:32:3 15dBm  Nov 18, 201816:32:51.69951100 7
  473  4 3.0438132:32:32:32:32:3 18dBm  Nov 18, 201816:32:51.75676500 7
  474  4 3.1729332:32:32:32:32:3 16dBm  Nov 18, 201816:32:51.88588500 7
  475  43.21909732:32:32:32:32:3 17dBm  Nov 18, 201816:32:51.93205200 7
  476  43.50853332:32:32:32:32:3 16dBm  Nov 18, 201816:32:52.22148800 7
  477  43.55170232:32:32:32:32:3 13dBm  Nov 18, 201816:32:52.26465700 7
  478  43.75894832:32:32:32:32:3 17dBm  Nov 18, 201816:32:52.47190300 7
  479  4  3.930132:32:32:32:32:3 17dBm  Nov 18, 201816:32:52.64305500 7
  480  4 3.9500932:32:32:32:32:3 17dBm  Nov 18, 201816:32:52.66304500 7
  481  43.96484932:32:32:32:32:3 17dBm  Nov 18, 201816:32:52.67780400 7
  482  44.26890432:32:32:32:32:3 17dBm  Nov 18, 201816:32:52.98185900 7
  483  44.38572832:32:32:32:32:3 18dBm  Nov 18, 201816:32:53.09868300 7
  484  44.49792732:32:32:32:32:3 18dBm  Nov 18, 201816:32:53.21088200 7
  485  44.54738632:32:32:32:32:3 17dBm  Nov 18, 201816:32:53.26034100 7
  486  44.65734732:32:32:32:32:3 18dBm  Nov 18, 201816:32:53.37030200 7
  487  44.69564332:32:32:32:32:3 17dBm  Nov 18, 201816:32:53.40859800 7
  488  4 4.7132932:32:32:32:32:3 18dBm  Nov 18, 201816:32:53.42624500 7
  489  44.73288432:32:32:32:32:3 16dBm  Nov 18, 201816:32:53.44583900 7
  490  44.77721132:32:32:32:32:3 18dBm  Nov 18, 201816:32:53.49016600 7
  491  44.90259732:32:32:32:32:3 18dBm  Nov 18, 201816:32:53.61555200 7
  492  4 4.9639232:32:32:32:32:3 17dBm  Nov 18, 201816:32:53.67687500 7
  493  44.98073332:32:32:32:32:3 17dBm  Nov 18, 201816:32:53.69368800 7
  494  45.02884932:32:32:32:32:3 17dBm  Nov 18, 201816:32:53.74180400 7
  495  45.13196732:32:32:32:32:3 18dBm  Nov 18, 201816:32:53.84492200 7
  496  45.23563932:32:32:32:32:3 17dBm  Nov 18, 201816:32:53.94859400 7
  497  45.36187232:32:32:32:32:3 18dBm  Nov 18, 201816:32:54.07482700 7
  498  45.47523832:32:32:32:32:3 18dBm  Nov 18, 201816:32:54.18819300 7
  499  45.58056532:32:32:32:32:3 19dBm  Nov 18, 201816:32:54.29352000 7
  500  45.65024932:32:32:32:32:3 17dBm  Nov 18, 201816:32:54.36320400 7
  501  45.77366532:32:32:32:32:3 17dBm  Nov 18, 201816:32:54.48662000 7
  502  45.96172932:32:32:32:32:3 19dBm  Nov 18, 201816:32:54.67468400 7
  503  45.98029332:32:32:32:32:3 19dBm  Nov 18, 201816:32:54.69324800 7
  504  46.01172532:32:32:32:32:3 17dBm  Nov 18, 201816:32:54.72468000 7
  505  46.16038732:32:32:32:32:3 16dBm  Nov 18, 201816:32:54.87334200 7
  506  46.27239132:32:32:32:32:3 17dBm  Nov 18, 201816:32:54.98534600 7
  507  46.35277332:32:32:32:32:3 16dBm  Nov 18, 201816:32:55.06572800 7
  508  46.38239632:32:32:32:32:3 17dBm  Nov 18, 201816:32:55.09535100 7
  509  46.81219732:32:32:32:32:3 18dBm  Nov 18, 201816:32:55.52515200 7
  510  46.90827132:32:32:32:32:3 18dBm  Nov 18, 201816:32:55.62122600 7
  511  4 7.0849632:32:32:32:32:3 15dBm  Nov 18, 201816:32:55.79791500 7
  512  47.41179832:32:32:32:32:3 18dBm  Nov 18, 201816:32:56.12475300 7
  513  47.58255532:32:32:32:32:3 19dBm  Nov 18, 201816:32:56.29551000 7
  514  47.67933132:32:32:32:32:3 19dBm  Nov 18, 201816:32:56.39228600 7
  515  47.79746632:32:32:32:32:3 19dBm  Nov 18, 201816:32:56.51042100 7
  516  47.82767332:32:32:32:32:3 20dBm  Nov 18, 201816:32:56.54062800 7
  517  47.83395232:32:32:32:32:3 20dBm  Nov 18, 201816:32:56.54690700 7
  518  47.99763332:32:32:32:32:3 19dBm  Nov 18, 201816:32:56.71058800 7
  519  48.03530632:32:32:32:32:3 18dBm  Nov 18, 201816:32:56.74826100 7
  520  48.09470232:32:32:32:32:3 18dBm  Nov 18, 201816:32:56.80765700 7
  521  48.12320632:32:32:32:32:3 18dBm  Nov 18, 201816:32:56.83616100 7
  522  48.13862632:32:32:32:32:3 17dBm  Nov 18, 201816:32:56.85158100 7
  523  48.24494332:32:32:32:32:3 20dBm  Nov 18, 201816:32:56.95789800 7
  524  48.34286232:32:32:32:32:3 19dBm  Nov 18, 201816:32:57.05581700 7
  525  48.39067932:32:32:32:32:3 19dBm  Nov 18, 201816:32:57.10363400 7
  526  48.47089232:32:32:32:32:3 18dBm  Nov 18, 201816:32:57.18384700 7
  527  48.64598332:32:32:32:32:3 19dBm  Nov 18, 201816:32:57.35893800 7
  528  48.68736132:32:32:32:32:3 15dBm  Nov 18, 201816:32:57.40031600 7
  529  48.75643832:32:32:32:32:3 18dBm  Nov 18, 201816:32:57.46939300 7
  530  48.83448232:32:32:32:32:3 16dBm  Nov 18, 201816:32:57.54743700 7
  531  48.96007232:32:32:32:32:3 16dBm  Nov 18, 201816:32:57.67302700 7
  532  49.03031132:32:32:32:32:3 18dBm  Nov 18, 201816:32:57.74326600 7
  533  49.16518232:32:32:32:32:3 18dBm  Nov 18, 201816:32:57.87813700 7
  534  49.19089332:32:32:32:32:3 16dBm  Nov 18, 201816:32:57.90384800 7
  535  4 9.2649232:32:32:32:32:3 17dBm  Nov 18, 201816:32:57.97787500 7
  536  49.33008732:32:32:32:32:3 14dBm  Nov 18, 201816:32:58.04304200 7
  537  49.40523932:32:32:32:32:3 18dBm  Nov 18, 201816:32:58.11819400 7
  538  49.43462332:32:32:32:32:3 19dBm  Nov 18, 201816:32:58.14757800 7
  539  49.46960132:32:32:32:32:3 18dBm  Nov 18, 201816:32:58.18255600 7
  540  49.48890132:32:32:32:32:3 16dBm  Nov 18, 201816:32:58.20185600 7
  541  49.51243432:32:32:32:32:3 18dBm  Nov 18, 201816:32:58.22538900 7
  542  49.56769232:32:32:32:32:3 18dBm  Nov 18, 201816:32:58.28064700 7
  543  49.69088732:32:32:32:32:3 18dBm  Nov 18, 201816:32:58.40384200 7
  544  49.73282332:32:32:32:32:3 18dBm  Nov 18, 201816:32:58.44577800 7
  545  49.90847132:32:32:32:32:3 17dBm  Nov 18, 201816:32:58.62142600 7
  546  49.93116732:32:32:32:32:3 19dBm  Nov 18, 201816:32:58.64412200 7
  547  49.95984332:32:32:32:32:3 19dBm  Nov 18, 201816:32:58.67279800 7
  548  49.97209332:32:32:32:32:3 17dBm  Nov 18, 201816:32:58.68504800 7
  549  50.01209832:32:32:32:32:3 18dBm  Nov 18, 201816:32:58.72505300 7
  550  50.03143632:32:32:32:32:3 17dBm  Nov 18, 201816:32:58.74439100 7
  551  50.05052532:32:32:32:32:3 18dBm  Nov 18, 201816:32:58.76348000 7
  552  50.22160632:32:32:32:32:3 18dBm  Nov 18, 201816:32:58.93456100 7
  553  50.48717432:32:32:32:32:3 17dBm  Nov 18, 201816:32:59.20012900 7
  554  50.61181332:32:32:32:32:3 17dBm  Nov 18, 201816:32:59.32476800 7
  555  50.62411932:32:32:32:32:3 16dBm  Nov 18, 201816:32:59.33707400 7
  556  50.63693532:32:32:32:32:3 17dBm  Nov 18, 201816:32:59.34989000 7
  557  50.87781832:32:32:32:32:3 16dBm  Nov 18, 201816:32:59.59077300 7
  558  50.98232432:32:32:32:32:3 17dBm  Nov 18, 201816:32:59.69527900 7
  559  51.01408932:32:32:32:32:3 16dBm  Nov 18, 201816:32:59.72704400 7
  560  51.03062732:32:32:32:32:3 17dBm  Nov 18, 201816:32:59.74358200 7
  561  51.05265532:32:32:32:32:3 17dBm  Nov 18, 201816:32:59.76561000 7
  562  5  1.174532:32:32:32:32:3 15dBm  Nov 18, 201816:32:59.88745500 7
  563  51.23836332:32:32:32:32:3 19dBm  Nov 18, 201816:32:59.95131800 7
  564  51.29103832:32:32:32:32:3 18dBm  Nov 18, 201816:33:00.00399300 7
  565  51.30913632:32:32:32:32:3 16dBm  Nov 18, 201816:33:00.02209100 7
  566  51.32328232:32:32:32:32:3 19dBm  Nov 18, 201816:33:00.03623700 7
  567  51.39753232:32:32:32:32:3 17dBm  Nov 18, 201816:33:00.11048700 7
  568  51.49164132:32:32:32:32:3 19dBm  Nov 18, 201816:33:00.20459600 7
  569  51.54649932:32:32:32:32:3 17dBm  Nov 18, 201816:33:00.25945400 7
  570  51.56877532:32:32:32:32:3 18dBm  Nov 18, 201816:33:00.28173000 7
  571  51.59454332:32:32:32:32:3 17dBm  Nov 18, 201816:33:00.30749800 7
  572  51.65522432:32:32:32:32:3 18dBm  Nov 18, 201816:33:00.36817900 7
  573  51.67077432:32:32:32:32:3 19dBm  Nov 18, 201816:33:00.38372900 7
  574  5  1.809432:32:32:32:32:3 18dBm  Nov 18, 201816:33:00.52235500 7
  575  51.86477732:32:32:32:32:3 16dBm  Nov 18, 201816:33:00.57773200 7
  576  52.00530732:32:32:32:32:3 17dBm  Nov 18, 201816:33:00.71826200 7
  577  52.11868132:32:32:32:32:3 18dBm  Nov 18, 201816:33:00.83163600 7
  578  52.27942332:32:32:32:32:3 16dBm  Nov 18, 201816:33:00.99237800 7
  579  52.47973932:32:32:32:32:3 17dBm  Nov 18, 201816:33:01.19269400 7
  580  52.79288132:32:32:32:32:3 17dBm  Nov 18, 201816:33:01.50583600 7
  581  52.82030132:32:32:32:32:3 16dBm  Nov 18, 201816:33:01.53325600 7
  582  52.84016132:32:32:32:32:3 16dBm  Nov 18, 201816:33:01.55311600 7
  583  52.86197932:32:32:32:32:3 18dBm  Nov 18, 201816:33:01.57493400 7
  584  52.86340932:32:32:32:32:3 16dBm  Nov 18, 201816:33:01.57636400 7
  585  52.89010732:32:32:32:32:3 18dBm  Nov 18, 201816:33:01.60306200 7
  586  52.92083232:32:32:32:32:3 18dBm  Nov 18, 201816:33:01.63378700 7
  587  52.95925832:32:32:32:32:3 15dBm  Nov 18, 201816:33:01.67221300 7
  588  53.06623532:32:32:32:32:3 17dBm  Nov 18, 201816:33:01.77919000 7
  589  53.10007632:32:32:32:32:3 16dBm  Nov 18, 201816:33:01.81303100 7
  590  53.30471832:32:32:32:32:3 18dBm  Nov 18, 201816:33:02.01767300 7
  591  5 3.6258732:32:32:32:32:3 18dBm  Nov 18, 201816:33:02.33882500 7
  592  5 3.6969632:32:32:32:32:3 18dBm  Nov 18, 201816:33:02.40991500 7
  593  53.76062432:32:32:32:32:3 17dBm  Nov 18, 201816:33:02.47357900 7
  594  53.79017232:32:32:32:32:3 17dBm  Nov 18, 201816:33:02.50312700 7
  595  54.00339132:32:32:32:32:3 16dBm  Nov 18, 201816:33:02.71634600 7
  596  54.14529632:32:32:32:32:3 16dBm  Nov 18, 201816:33:02.85825100 7
  597  5 4.2357232:32:32:32:32:3 15dBm  Nov 18, 201816:33:02.94867500 7
  598  54.29542532:32:32:32:32:3 17dBm  Nov 18, 201816:33:03.00838000 7
  599  54.38144432:32:32:32:32:3 18dBm  Nov 18, 201816:33:03.09439900 7
  600  54.59992332:32:32:32:32:3 15dBm  Nov 18, 201816:33:03.31287800 7
  601  54.66626332:32:32:32:32:3 17dBm  Nov 18, 201816:33:03.37921800 7
  602  54.72171332:32:32:32:32:3 17dBm  Nov 18, 201816:33:03.43466800 7
  603  54.78409232:32:32:32:32:3 16dBm  Nov 18, 201816:33:03.49704700 7
  604  55.03591732:32:32:32:32:3 19dBm  Nov 18, 201816:33:03.74887200 7
  605  5 5.1121132:32:32:32:32:3 18dBm  Nov 18, 201816:33:03.82506500 7
  606  55.14752832:32:32:32:32:3 18dBm  Nov 18, 201816:33:03.86048300 7
  607  55.27512932:32:32:32:32:3 17dBm  Nov 18, 201816:33:03.98808400 7
  608  55.41417832:32:32:32:32:3 15dBm  Nov 18, 201816:33:04.12713300 7
  609  55.58514532:32:32:32:32:3 16dBm  Nov 18, 201816:33:04.29810000 7
  610  55.60311832:32:32:32:32:3 18dBm  Nov 18, 201816:33:04.31607300 7
  611  55.61925732:32:32:32:32:3 17dBm  Nov 18, 201816:33:04.33221200 7
  612  55.73482932:32:32:32:32:3 18dBm  Nov 18, 201816:33:04.44778400 7
  613  55.85243532:32:32:32:32:3 19dBm  Nov 18, 201816:33:04.56539000 7
  614  56.03657232:32:32:32:32:3 16dBm  Nov 18, 201816:33:04.74952700 7
  615  56.13065132:32:32:32:32:3 17dBm  Nov 18, 201816:33:04.84360600 7
  616  56.15902832:32:32:32:32:3 15dBm  Nov 18, 201816:33:04.87198300 7
  617  5 6.1751132:32:32:32:32:3 15dBm  Nov 18, 201816:33:04.88806500 7
  618  56.18743832:32:32:32:32:3 18dBm  Nov 18, 201816:33:04.90039300 7
  619  56.42231532:32:32:32:32:3 16dBm  Nov 18, 201816:33:05.13527000 7
  620  56.60279332:32:32:32:32:3 19dBm  Nov 18, 201816:33:05.31574800 7
  621  56.65337132:32:32:32:32:3 18dBm  Nov 18, 201816:33:05.36632600 7
  622  56.66746932:32:32:32:32:3 18dBm  Nov 18, 201816:33:05.38042400 7
  623  56.68817732:32:32:32:32:3 18dBm  Nov 18, 201816:33:05.40113200 7
  624  56.73808332:32:32:32:32:3 17dBm  Nov 18, 201816:33:05.45103800 7
  625  5 6.9878632:32:32:32:32:3 16dBm  Nov 18, 201816:33:05.70081500 7
  626  57.07779532:32:32:32:32:3 19dBm  Nov 18, 201816:33:05.79075000 7
  627  57.13716532:32:32:32:32:3 17dBm  Nov 18, 201816:33:05.85012000 7
  628  57.15180232:32:32:32:32:3 18dBm  Nov 18, 201816:33:05.86475700 7
  629  57.20513732:32:32:32:32:3 16dBm  Nov 18, 201816:33:05.91809200 7
  630  57.27059132:32:32:32:32:3 17dBm  Nov 18, 201816:33:05.98354600 7
  631  57.28665332:32:32:32:32:3 18dBm  Nov 18, 201816:33:05.99960800 7
  632  57.31779732:32:32:32:32:3 16dBm  Nov 18, 201816:33:06.03075200 7
  633  57.44153932:32:32:32:32:3 18dBm  Nov 18, 201816:33:06.15449400 7
  634  57.96143132:32:32:32:32:3 18dBm  Nov 18, 201816:33:06.67438600 7
  635  58.03231832:32:32:32:32:3 17dBm  Nov 18, 201816:33:06.74527300 7
  636  58.20283832:32:32:32:32:3 19dBm  Nov 18, 201816:33:06.91579300 7
  637  5 8.2419432:32:32:32:32:3 17dBm  Nov 18, 201816:33:06.95489500 7
  638  58.25152132:32:32:32:32:3 19dBm  Nov 18, 201816:33:06.96447600 7
  639  58.30784232:32:32:32:32:3 18dBm  Nov 18, 201816:33:07.02079700 7
  640  58.38127132:32:32:32:32:3 17dBm  Nov 18, 201816:33:07.09422600 7
  641  58.55029432:32:32:32:32:3 14dBm  Nov 18, 201816:33:07.26324900 7
  642  58.63759332:32:32:32:32:3 18dBm  Nov 18, 201816:33:07.35054800 7
  643  58.76778432:32:32:32:32:3 21dBm  Nov 18, 201816:33:07.48073900 7
  644  58.86662932:32:32:32:32:3 19dBm  Nov 18, 201816:33:07.57958400 7
  645  58.93725332:32:32:32:32:3 21dBm  Nov 18, 201816:33:07.65020800 7
  646  58.95420632:32:32:32:32:3 20dBm  Nov 18, 201816:33:07.66716100 7
  647  59.00323132:32:32:32:32:3 18dBm  Nov 18, 201816:33:07.71618600 7
  648  59.04189832:32:32:32:32:3 18dBm  Nov 18, 201816:33:07.75485300 7
  649  5  9.056532:32:32:32:32:3 20dBm  Nov 18, 201816:33:07.76945500 7
  650  5 9.1084232:32:32:32:32:3 20dBm  Nov 18, 201816:33:07.82137500 7
  651  59.20582832:32:32:32:32:3 20dBm  Nov 18, 201816:33:07.91878300 7
  652  5 9.2399932:32:32:32:32:3 19dBm  Nov 18, 201816:33:07.95294500 7
  653  59.26088232:32:32:32:32:3 20dBm  Nov 18, 201816:33:07.97383700 7
  654  59.28695532:32:32:32:32:3 21dBm  Nov 18, 201816:33:07.99991000 7
  655  59.39159732:32:32:32:32:3 20dBm  Nov 18, 201816:33:08.10455200 7
  656  59.41175432:32:32:32:32:3 20dBm  Nov 18, 201816:33:08.12470900 7
  657  59.45699732:32:32:32:32:3 20dBm  Nov 18, 201816:33:08.16995200 7
  658  59.50612632:32:32:32:32:3 20dBm  Nov 18, 201816:33:08.21908100 7
  659  59.63752432:32:32:32:32:3 20dBm  Nov 18, 201816:33:08.35047900 7
  660  59.66933332:32:32:32:32:3 20dBm  Nov 18, 201816:33:08.38228800 7
  661  59.77800432:32:32:32:32:3 21dBm  Nov 18, 201816:33:08.49095900 7
  662  59.96446232:32:32:32:32:3 19dBm  Nov 18, 201816:33:08.67741700 7
  663  59.98682832:32:32:32:32:3 20dBm  Nov 18, 201816:33:08.69978300 7
  664  59.99882832:32:32:32:32:3 19dBm  Nov 18, 201816:33:08.71178300 7
  665  60.00844332:32:32:32:32:3 19dBm  Nov 18, 201816:33:08.72139800 7
  666  60.13522332:32:32:32:32:3 19dBm  Nov 18, 201816:33:08.84817800 7
  667  60.47231232:32:32:32:32:3 18dBm  Nov 18, 201816:33:09.18526700 7
  668  60.62798432:32:32:32:32:3 22dBm  Nov 18, 201816:33:09.34093900 7
  669  60.72306232:32:32:32:32:3 20dBm  Nov 18, 201816:33:09.43601700 7
  670  6 0.8595732:32:32:32:32:3 19dBm  Nov 18, 201816:33:09.57252500 7
  671  60.87737232:32:32:32:32:3 21dBm  Nov 18, 201816:33:09.59032700 7
  672  61.04965732:32:32:32:32:3 18dBm  Nov 18, 201816:33:09.76261200 7
  673  61.13797232:32:32:32:32:3 20dBm  Nov 18, 201816:33:09.85092700 7
  674  61.31138332:32:32:32:32:3 19dBm  Nov 18, 201816:33:10.02433800 7
  675  61.36162432:32:32:32:32:3 22dBm  Nov 18, 201816:33:10.07457900 7
  676  61.50455132:32:32:32:32:3 21dBm  Nov 18, 201816:33:10.21750600 7
  677  61.56788332:32:32:32:32:3 21dBm  Nov 18, 201816:33:10.28083800 7
  678  61.76510432:32:32:32:32:3 19dBm  Nov 18, 201816:33:10.47805900 7
  679  61.89678632:32:32:32:32:3 21dBm  Nov 18, 201816:33:10.60974100 7
  680  61.95477932:32:32:32:32:3 21dBm  Nov 18, 201816:33:10.66773400 7
  681  61.99784832:32:32:32:32:3 21dBm  Nov 18, 201816:33:10.71080300 7
  682  62.07213732:32:32:32:32:3 20dBm  Nov 18, 201816:33:10.78509200 7
  683  62.19328132:32:32:32:32:3 20dBm  Nov 18, 201816:33:10.90623600 7
  684  62.31952232:32:32:32:32:3 18dBm  Nov 18, 201816:33:11.03247700 7
  685  62.35865532:32:32:32:32:3 18dBm  Nov 18, 201816:33:11.07161000 7
  686  62.39806332:32:32:32:32:3 21dBm  Nov 18, 201816:33:11.11101800 7
  687  62.41808332:32:32:32:32:3 19dBm  Nov 18, 201816:33:11.13103800 7
  688  62.42316432:32:32:32:32:3 22dBm  Nov 18, 201816:33:11.13611900 7
  689  62.52922732:32:32:32:32:3 19dBm  Nov 18, 201816:33:11.24218200 7
  690  62.58654932:32:32:32:32:3 21dBm  Nov 18, 201816:33:11.29950400 7
  691  62.59949332:32:32:32:32:3 21dBm  Nov 18, 201816:33:11.31244800 7
  692  62.83072932:32:32:32:32:3 21dBm  Nov 18, 201816:33:11.54368400 7
  693  62.95550732:32:32:32:32:3 21dBm  Nov 18, 201816:33:11.66846200 7
  694  62.99384732:32:32:32:32:3 21dBm  Nov 18, 201816:33:11.70680200 7
  695  63.10641532:32:32:32:32:3 19dBm  Nov 18, 201816:33:11.81937000 7
  696  63.12743532:32:32:32:32:3 21dBm  Nov 18, 201816:33:11.84039000 7
  697  63.30187132:32:32:32:32:3 21dBm  Nov 18, 201816:33:12.01482600 7
  698  63.38917732:32:32:32:32:3 21dBm  Nov 18, 201816:33:12.10213200 7
  699  63.42534832:32:32:32:32:3 20dBm  Nov 18, 201816:33:12.13830300 7
  700  63.49150532:32:32:32:32:3 22dBm  Nov 18, 201816:33:12.20446000 7
  701  63.56646432:32:32:32:32:3 22dBm  Nov 18, 201816:33:12.27941900 7
  702  63.62176732:32:32:32:32:3 21dBm  Nov 18, 201816:33:12.33472200 7
  703  63.69056632:32:32:32:32:3 19dBm  Nov 18, 201816:33:12.40352100 7
  704  6  3.827132:32:32:32:32:3 21dBm  Nov 18, 201816:33:12.54005500 7
  705  63.86045232:32:32:32:32:3 23dBm  Nov 18, 201816:33:12.57340700 7
  706  63.98746532:32:32:32:32:3 21dBm  Nov 18, 201816:33:12.70042000 7
  707  64.00926932:32:32:32:32:3 21dBm  Nov 18, 201816:33:12.72222400 7
  708  64.08510932:32:32:32:32:3 22dBm  Nov 18, 201816:33:12.79806400 7
  709  64.16461132:32:32:32:32:3 23dBm  Nov 18, 201816:33:12.87756600 7
  710  64.21563432:32:32:32:32:3 20dBm  Nov 18, 201816:33:12.92858900 7
  711  64.26897632:32:32:32:32:3 22dBm  Nov 18, 201816:33:12.98193100 7
  712  64.39223232:32:32:32:32:3 22dBm  Nov 18, 201816:33:13.10518700 7
  713  64.47282732:32:32:32:32:3 21dBm  Nov 18, 201816:33:13.18578200 7
  714  64.52127932:32:32:32:32:3 23dBm  Nov 18, 201816:33:13.23423400 7
  715  65.05883132:32:32:32:32:3 22dBm  Nov 18, 201816:33:13.77178600 7
  716  65.16179232:32:32:32:32:3 21dBm  Nov 18, 201816:33:13.87474700 7
  717  6 5.2767932:32:32:32:32:3 21dBm  Nov 18, 201816:33:13.98974500 7
  718  65.31839632:32:32:32:32:3 21dBm  Nov 18, 201816:33:14.03135100 7
  719  65.44576532:32:32:32:32:3 21dBm  Nov 18, 201816:33:14.15872000 7
  720  65.48904432:32:32:32:32:3 21dBm  Nov 18, 201816:33:14.20199900 7
  721  65.83211232:32:32:32:32:3 20dBm  Nov 18, 201816:33:14.54506700 7
  722  65.91984632:32:32:32:32:3 22dBm  Nov 18, 201816:33:14.63280100 7
  723  65.94603532:32:32:32:32:3 22dBm  Nov 18, 201816:33:14.65899000 7
  724  66.06755632:32:32:32:32:3 21dBm  Nov 18, 201816:33:14.78051100 7
  725  66.35648132:32:32:32:32:3 20dBm  Nov 18, 201816:33:15.06943600 7
  726  6 6.3834532:32:32:32:32:3 19dBm  Nov 18, 201816:33:15.09640500 7
  727  66.39643732:32:32:32:32:3 21dBm  Nov 18, 201816:33:15.10939200 7
  728  66.44170432:32:32:32:32:3 22dBm  Nov 18, 201816:33:15.15465900 7
  729  66.53003232:32:32:32:32:3 20dBm  Nov 18, 201816:33:15.24298700 7
  730  66.83189332:32:32:32:32:3 20dBm  Nov 18, 201816:33:15.54484800 7
  731  66.85266532:32:32:32:32:3 21dBm  Nov 18, 201816:33:15.56562000 7
  732  67.11334932:32:32:32:32:3 21dBm  Nov 18, 201816:33:15.82630400 7
  733  67.12709632:32:32:32:32:3 22dBm  Nov 18, 201816:33:15.84005100 7
  734  67.16174532:32:32:32:32:3 18dBm  Nov 18, 201816:33:15.87470000 7
  735  67.21290132:32:32:32:32:3 23dBm  Nov 18, 201816:33:15.92585600 7
  736  67.34606432:32:32:32:32:3 18dBm  Nov 18, 201816:33:16.05901900 7
  737  6 7.3948132:32:32:32:32:3 22dBm  Nov 18, 201816:33:16.10776500 7
  738  67.44429432:32:32:32:32:3 22dBm  Nov 18, 201816:33:16.15724900 7
  739  67.47024732:32:32:32:32:3 23dBm  Nov 18, 201816:33:16.18320200 7
  740  67.64631532:32:32:32:32:3 23dBm  Nov 18, 201816:33:16.35927000 7
  741  67.68786832:32:32:32:32:3 21dBm  Nov 18, 201816:33:16.40082300 7
  742  67.80445432:32:32:32:32:3 20dBm  Nov 18, 201816:33:16.51740900 7
  743  67.84301732:32:32:32:32:3 17dBm  Nov 18, 201816:33:16.55597200 7
  744  67.86459732:32:32:32:32:3 19dBm  Nov 18, 201816:33:16.57755200 7
  745  67.99632132:32:32:32:32:3 19dBm  Nov 18, 201816:33:16.70927600 7
  746  68.07095432:32:32:32:32:3 22dBm  Nov 18, 201816:33:16.78390900 7
  747  68.42849532:32:32:32:32:3 23dBm  Nov 18, 201816:33:17.14145000 7
  748  68.70021932:32:32:32:32:3 20dBm  Nov 18, 201816:33:17.41317400 7
  749  6 8.8423732:32:32:32:32:3 22dBm  Nov 18, 201816:33:17.55532500 7
  750  68.92224232:32:32:32:32:3 20dBm  Nov 18, 201816:33:17.63519700 7
  751  69.50605432:32:32:32:32:3 21dBm  Nov 18, 201816:33:18.21900900 7
  752  69.69825932:32:32:32:32:3 21dBm  Nov 18, 201816:33:18.41121400 7
  753  69.72860332:32:32:32:32:3 20dBm  Nov 18, 201816:33:18.44155800 7
  754  69.91824732:32:32:32:32:3 21dBm  Nov 18, 201816:33:18.63120200 7
  755  69.94879632:32:32:32:32:3 21dBm  Nov 18, 201816:33:18.66175100 7
  756  7  0.043532:32:32:32:32:3 20dBm  Nov 18, 201816:33:18.75645500 7
  757  70.16986432:32:32:32:32:3 20dBm  Nov 18, 201816:33:18.88281900 7
  758  70.32425832:32:32:32:32:3 20dBm  Nov 18, 201816:33:19.03721300 7
  759  7 0.3636932:32:32:32:32:3 20dBm  Nov 18, 201816:33:19.07664500 7
  760  70.38783432:32:32:32:32:3 17dBm  Nov 18, 201816:33:19.10078900 7
  761  70.39919332:32:32:32:32:3 21dBm  Nov 18, 201816:33:19.11214800 7
  762  7  0.474832:32:32:32:32:3 18dBm  Nov 18, 201816:33:19.18775500 7
  763  70.76060332:32:32:32:32:3 21dBm  Nov 18, 201816:33:19.47355800 7
  764  70.94164932:32:32:32:32:3 19dBm  Nov 18, 201816:33:19.65460400 7
  765  70.99171732:32:32:32:32:3 21dBm  Nov 18, 201816:33:19.70467200 7
  766  71.00872832:32:32:32:32:3 20dBm  Nov 18, 201816:33:19.72168300 7
  767  71.02161732:32:32:32:32:3 21dBm  Nov 18, 201816:33:19.73457200 7
  768  71.04482532:32:32:32:32:3 20dBm  Nov 18, 201816:33:19.75778000 7
  769  71.10879232:32:32:32:32:3 21dBm  Nov 18, 201816:33:19.82174700 7
  770  71.15094132:32:32:32:32:3 20dBm  Nov 18, 201816:33:19.86389600 7
  771  71.16510832:32:32:32:32:3 20dBm  Nov 18, 201816:33:19.87806300 7
  772  71.36690132:32:32:32:32:3 21dBm  Nov 18, 201816:33:20.07985600 7
  773  7 1.6179432:32:32:32:32:3 21dBm  Nov 18, 201816:33:20.33089500 7
  774  71.76624832:32:32:32:32:3 21dBm  Nov 18, 201816:33:20.47920300 7
  775  71.82130732:32:32:32:32:3 21dBm  Nov 18, 201816:33:20.53426200 7
  776  72.05417732:32:32:32:32:3 19dBm  Nov 18, 201816:33:20.76713200 7
  777  72.13507332:32:32:32:32:3 21dBm  Nov 18, 201816:33:20.84802800 7
  778  72.19785132:32:32:32:32:3 22dBm  Nov 18, 201816:33:20.91080600 7
  779  72.22637232:32:32:32:32:3 21dBm  Nov 18, 201816:33:20.93932700 7
  780  72.43017332:32:32:32:32:3 20dBm  Nov 18, 201816:33:21.14312800 7
  781  72.49236832:32:32:32:32:3 21dBm  Nov 18, 201816:33:21.20532300 7
  782  72.50513332:32:32:32:32:3 19dBm  Nov 18, 201816:33:21.21808800 7
  783  72.52492932:32:32:32:32:3 19dBm  Nov 18, 201816:33:21.23788400 7
  784  72.54267332:32:32:32:32:3 19dBm  Nov 18, 201816:33:21.25562800 7
  785  72.56892932:32:32:32:32:3 21dBm  Nov 18, 201816:33:21.28188400 7
  786  72.59704532:32:32:32:32:3 20dBm  Nov 18, 201816:33:21.31000000 7
  787  72.63238432:32:32:32:32:3 20dBm  Nov 18, 201816:33:21.34533900 7
  788  72.64391732:32:32:32:32:3 20dBm  Nov 18, 201816:33:21.35687200 7
  789  73.16227132:32:32:32:32:3 20dBm  Nov 18, 201816:33:21.87522600 7
  790  73.20442432:32:32:32:32:3 19dBm  Nov 18, 201816:33:21.91737900 7
  791  73.21803132:32:32:32:32:3 20dBm  Nov 18, 201816:33:21.93098600 7
  792  73.22788832:32:32:32:32:3 20dBm  Nov 18, 201816:33:21.94084300 7
  793  7 3.2530532:32:32:32:32:3 18dBm  Nov 18, 201816:33:21.96600500 7
  794  73.40685932:32:32:32:32:3 22dBm  Nov 18, 201816:33:22.11981400 7
  795  73.46579432:32:32:32:32:3 21dBm  Nov 18, 201816:33:22.17874900 7
  796  73.73057632:32:32:32:32:3 18dBm  Nov 18, 201816:33:22.44353100 7
  797  73.78623132:32:32:32:32:3 20dBm  Nov 18, 201816:33:22.49918600 7
  798  73.80401732:32:32:32:32:3 21dBm  Nov 18, 201816:33:22.51697200 7
  799  74.11549932:32:32:32:32:3 21dBm  Nov 18, 201816:33:22.82845400 7
  800  74.14562932:32:32:32:32:3 20dBm  Nov 18, 201816:33:22.85858400 7
  801  74.25334232:32:32:32:32:3 22dBm  Nov 18, 201816:33:22.96629700 7
  802  74.27923832:32:32:32:32:3 21dBm  Nov 18, 201816:33:22.99219300 7
  803  74.30697532:32:32:32:32:3 20dBm  Nov 18, 201816:33:23.01993000 7
  804  74.41239232:32:32:32:32:3 21dBm  Nov 18, 201816:33:23.12534700 7
  805  74.59410432:32:32:32:32:3 20dBm  Nov 18, 201816:33:23.30705900 7
  806  7 4.7648732:32:32:32:32:3 19dBm  Nov 18, 201816:33:23.47782500 7
  807  74.80495432:32:32:32:32:3 19dBm  Nov 18, 201816:33:23.51790900 7
  808  74.87851132:32:32:32:32:3 21dBm  Nov 18, 201816:33:23.59146600 7
  809  75.02277332:32:32:32:32:3 19dBm  Nov 18, 201816:33:23.73572800 7
  810  75.11337532:32:32:32:32:3 20dBm  Nov 18, 201816:33:23.82633000 7
  811  7 5.1562532:32:32:32:32:3 19dBm  Nov 18, 201816:33:23.86920500 7
  812  7  5.179332:32:32:32:32:3 20dBm  Nov 18, 201816:33:23.89225500 7
  813  75.24380132:32:32:32:32:3 21dBm  Nov 18, 201816:33:23.95675600 7
  814  75.35891632:32:32:32:32:3 21dBm  Nov 18, 201816:33:24.07187100 7
  815  75.42935432:32:32:32:32:3 21dBm  Nov 18, 201816:33:24.14230900 7
  816  75.47540532:32:32:32:32:3 20dBm  Nov 18, 201816:33:24.18836000 7
  817  75.49102232:32:32:32:32:3 21dBm  Nov 18, 201816:33:24.20397700 7
  818  75.73541532:32:32:32:32:3 21dBm  Nov 18, 201816:33:24.44837000 7
  819  75.78993532:32:32:32:32:3 19dBm  Nov 18, 201816:33:24.50289000 7
  820  75.80606732:32:32:32:32:3 20dBm  Nov 18, 201816:33:24.51902200 7
  821  75.84806232:32:32:32:32:3 19dBm  Nov 18, 201816:33:24.56101700 7
  822  76.07723932:32:32:32:32:3 21dBm  Nov 18, 201816:33:24.79019400 7
  823  76.12431332:32:32:32:32:3 21dBm  Nov 18, 201816:33:24.83726800 7
  824  76.15525432:32:32:32:32:3 19dBm  Nov 18, 201816:33:24.86820900 7
  825  76.17967732:32:32:32:32:3 19dBm  Nov 18, 201816:33:24.89263200 7
  826  76.20800632:32:32:32:32:3 21dBm  Nov 18, 201816:33:24.92096100 7
  827  76.28671232:32:32:32:32:3 22dBm  Nov 18, 201816:33:24.99966700 7
  828  76.30257432:32:32:32:32:3 20dBm  Nov 18, 201816:33:25.01552900 7
  829  76.31592432:32:32:32:32:3 22dBm  Nov 18, 201816:33:25.02887900 7
  830  76.46595132:32:32:32:32:3 20dBm  Nov 18, 201816:33:25.17890600 7
  831  7 6.7350632:32:32:32:32:3 17dBm  Nov 18, 201816:33:25.44801500 7
  832  76.80288332:32:32:32:32:3 20dBm  Nov 18, 201816:33:25.51583800 7
  833  76.84261232:32:32:32:32:3 20dBm  Nov 18, 201816:33:25.55556700 7
  834  76.88271232:32:32:32:32:3 21dBm  Nov 18, 201816:33:25.59566700 7
  835  76.96522532:32:32:32:32:3 19dBm  Nov 18, 201816:33:25.67818000 7
  836  77.04766632:32:32:32:32:3 17dBm  Nov 18, 201816:33:25.76062100 7
  837  77.10877532:32:32:32:32:3 21dBm  Nov 18, 201816:33:25.82173000 7
  838  7 7.3737532:32:32:32:32:3 19dBm  Nov 18, 201816:33:26.08670500 7
  839  77.41440132:32:32:32:32:3 20dBm  Nov 18, 201816:33:26.12735600 7
  840  77.45414832:32:32:32:32:3 19dBm  Nov 18, 201816:33:26.16710300 7
  841  77.47057332:32:32:32:32:3 20dBm  Nov 18, 201816:33:26.18352800 7
  842  77.48530432:32:32:32:32:3 21dBm  Nov 18, 201816:33:26.19825900 7
  843  77.51943632:32:32:32:32:3 21dBm  Nov 18, 201816:33:26.23239100 7
  844  77.53992832:32:32:32:32:3 20dBm  Nov 18, 201816:33:26.25288300 7
  845  77.57042432:32:32:32:32:3 22dBm  Nov 18, 201816:33:26.28337900 7
  846  7 7.6194432:32:32:32:32:3 21dBm  Nov 18, 201816:33:26.33239500 7
  847  77.65363932:32:32:32:32:3 21dBm  Nov 18, 201816:33:26.36659400 7
  848  77.72054532:32:32:32:32:3 21dBm  Nov 18, 201816:33:26.43350000 7
  849  77.83252132:32:32:32:32:3 20dBm  Nov 18, 201816:33:26.54547600 7
  850  77.89738332:32:32:32:32:3 21dBm  Nov 18, 201816:33:26.61033800 7
  851  77.93361232:32:32:32:32:3 20dBm  Nov 18, 201816:33:26.64656700 7
  852  78.06503932:32:32:32:32:3 20dBm  Nov 18, 201816:33:26.77799400 7
  853  78.07911832:32:32:32:32:3 22dBm  Nov 18, 201816:33:26.79207300 7
  854  78.08625432:32:32:32:32:3 22dBm  Nov 18, 201816:33:26.79920900 7
  855  78.26633732:32:32:32:32:3 21dBm  Nov 18, 201816:33:26.97929200 7
  856  78.31922532:32:32:32:32:3 21dBm  Nov 18, 201816:33:27.03218000 7
  857  78.38337232:32:32:32:32:3 20dBm  Nov 18, 201816:33:27.09632700 7
  858  78.47022332:32:32:32:32:3 21dBm  Nov 18, 201816:33:27.18317800 7
  859  78.51347332:32:32:32:32:3 18dBm  Nov 18, 201816:33:27.22642800 7
  860  78.58031332:32:32:32:32:3 20dBm  Nov 18, 201816:33:27.29326800 7
  861  78.67646532:32:32:32:32:3 21dBm  Nov 18, 201816:33:27.38942000 7
  862  78.80782832:32:32:32:32:3 19dBm  Nov 18, 201816:33:27.52078300 7
  863  78.84626532:32:32:32:32:3 20dBm  Nov 18, 201816:33:27.55922000 7
  864  78.96466632:32:32:32:32:3 20dBm  Nov 18, 201816:33:27.67762100 7
  865  79.00637632:32:32:32:32:3 19dBm  Nov 18, 201816:33:27.71933100 7
  866  79.02472232:32:32:32:32:3 20dBm  Nov 18, 201816:33:27.73767700 7
  867  79.03670332:32:32:32:32:3 21dBm  Nov 18, 201816:33:27.74965800 7
  868  79.12466232:32:32:32:32:3 20dBm  Nov 18, 201816:33:27.83761700 7
  869  79.23361332:32:32:32:32:3 22dBm  Nov 18, 201816:33:27.94656800 7
  870  79.52617432:32:32:32:32:3 22dBm  Nov 18, 201816:33:28.23912900 7
  871  79.69598832:32:32:32:32:3 22dBm  Nov 18, 201816:33:28.40894300 7
  872  79.81390432:32:32:32:32:3 21dBm  Nov 18, 201816:33:28.52685900 7
  873  79.86438532:32:32:32:32:3 20dBm  Nov 18, 201816:33:28.57734000 7
  874  80.01198832:32:32:32:32:3 20dBm  Nov 18, 201816:33:28.72494300 7
  875  80.06591632:32:32:32:32:3 20dBm  Nov 18, 201816:33:28.77887100 7
  876  80.20422632:32:32:32:32:3 20dBm  Nov 18, 201816:33:28.91718100 7
  877  80.23063532:32:32:32:32:3 20dBm  Nov 18, 201816:33:28.94359000 7
  878  80.29419332:32:32:32:32:3 20dBm  Nov 18, 201816:33:29.00714800 7
  879  80.37522232:32:32:32:32:3 21dBm  Nov 18, 201816:33:29.08817700 7
  880  80.39295532:32:32:32:32:3 21dBm  Nov 18, 201816:33:29.10591000 7
  881  80.88923632:32:32:32:32:3 19dBm  Nov 18, 201816:33:29.60219100 7
  882  81.01651732:32:32:32:32:3 22dBm  Nov 18, 201816:33:29.72947200 7
  883  81.15538932:32:32:32:32:3 18dBm  Nov 18, 201816:33:29.86834400 7
  884  81.18581632:32:32:32:32:3 20dBm  Nov 18, 201816:33:29.89877100 7
  885  81.27708732:32:32:32:32:3 22dBm  Nov 18, 201816:33:29.99004200 7
  886  81.47754632:32:32:32:32:3 18dBm  Nov 18, 201816:33:30.19050100 7
  887  81.49917832:32:32:32:32:3 20dBm  Nov 18, 201816:33:30.21213300 7
  888  8  1.582132:32:32:32:32:3 20dBm  Nov 18, 201816:33:30.29505500 7
  889  81.63080132:32:32:32:32:3 20dBm  Nov 18, 201816:33:30.34375600 7
  890  81.65067432:32:32:32:32:3 20dBm  Nov 18, 201816:33:30.36362900 7
  891  81.77404232:32:32:32:32:3 19dBm  Nov 18, 201816:33:30.48699700 7
  892  81.81999732:32:32:32:32:3 18dBm  Nov 18, 201816:33:30.53295200 7
  893  81.85152432:32:32:32:32:3 22dBm  Nov 18, 201816:33:30.56447900 7
  894  81.97820232:32:32:32:32:3 22dBm  Nov 18, 201816:33:30.69115700 7
  895  82.00431232:32:32:32:32:3 20dBm  Nov 18, 201816:33:30.71726700 7
  896  82.02259632:32:32:32:32:3 20dBm  Nov 18, 201816:33:30.73555100 7
  897  8  2.110632:32:32:32:32:3 19dBm  Nov 18, 201816:33:30.82355500 7
  898  82.13107532:32:32:32:32:3 21dBm  Nov 18, 201816:33:30.84403000 7
  899  82.15253432:32:32:32:32:3 20dBm  Nov 18, 201816:33:30.86548900 7
  900  82.19604932:32:32:32:32:3 20dBm  Nov 18, 201816:33:30.90900400 7
  901  82.22401532:32:32:32:32:3 22dBm  Nov 18, 201816:33:30.93697000 7
  902  82.41761232:32:32:32:32:3 21dBm  Nov 18, 201816:33:31.13056700 7
  903  82.55099832:32:32:32:32:3 20dBm  Nov 18, 201816:33:31.26395300 7
  904  82.64124632:32:32:32:32:3 20dBm  Nov 18, 201816:33:31.35420100 7
  905  82.72473332:32:32:32:32:3 20dBm  Nov 18, 201816:33:31.43768800 7
  906  82.81310732:32:32:32:32:3 20dBm  Nov 18, 201816:33:31.52606200 7
  907  82.86212732:32:32:32:32:3 22dBm  Nov 18, 201816:33:31.57508200 7
  908  82.94878732:32:32:32:32:3 21dBm  Nov 18, 201816:33:31.66174200 7
  909  82.98945432:32:32:32:32:3 21dBm  Nov 18, 201816:33:31.70240900 7
  910  83.16156732:32:32:32:32:3 22dBm  Nov 18, 201816:33:31.87452200 7
  911  83.23400432:32:32:32:32:3 19dBm  Nov 18, 201816:33:31.94695900 7
  912  83.30250832:32:32:32:32:3 20dBm  Nov 18, 201816:33:32.01546300 7
  913  83.57008532:32:32:32:32:3 18dBm  Nov 18, 201816:33:32.28304000 7
  914  83.64670132:32:32:32:32:3 22dBm  Nov 18, 201816:33:32.35965600 7
  915  83.66642932:32:32:32:32:3 18dBm  Nov 18, 201816:33:32.37938400 7
  916  83.87108432:32:32:32:32:3 21dBm  Nov 18, 201816:33:32.58403900 7
  917  83.92993932:32:32:32:32:3 22dBm  Nov 18, 201816:33:32.64289400 7
  918  83.97043632:32:32:32:32:3 17dBm  Nov 18, 201816:33:32.68339100 7
  919  84.00720632:32:32:32:32:3 19dBm  Nov 18, 201816:33:32.72016100 7
  920  84.11419932:32:32:32:32:3 20dBm  Nov 18, 201816:33:32.82715400 7
  921  84.12647932:32:32:32:32:3 19dBm  Nov 18, 201816:33:32.83943400 7
  922  84.15324432:32:32:32:32:3 20dBm  Nov 18, 201816:33:32.86619900 7
  923  8 4.2289132:32:32:32:32:3 20dBm  Nov 18, 201816:33:32.94186500 7
  924  84.26556132:32:32:32:32:3 18dBm  Nov 18, 201816:33:32.97851600 7
  925  8 4.3063332:32:32:32:32:3 20dBm  Nov 18, 201816:33:33.01928500 7
  926  84.53834932:32:32:32:32:3 19dBm  Nov 18, 201816:33:33.25130400 7
  927  8 4.5573432:32:32:32:32:3 19dBm  Nov 18, 201816:33:33.27029500 7
  928  84.62115832:32:32:32:32:3 19dBm  Nov 18, 201816:33:33.33411300 7
  929  84.71406332:32:32:32:32:3 21dBm  Nov 18, 201816:33:33.42701800 7
  930  85.00430132:32:32:32:32:3 22dBm  Nov 18, 201816:33:33.71725600 7
  931  85.04645632:32:32:32:32:3 22dBm  Nov 18, 201816:33:33.75941100 7
  932  85.12225932:32:32:32:32:3 22dBm  Nov 18, 201816:33:33.83521400 7
  933  85.13897232:32:32:32:32:3 22dBm  Nov 18, 201816:33:33.85192700 7
  934  85.22471332:32:32:32:32:3 20dBm  Nov 18, 201816:33:33.93766800 7
  935  85.30514132:32:32:32:32:3 19dBm  Nov 18, 201816:33:34.01809600 7
  936  85.33118932:32:32:32:32:3 18dBm  Nov 18, 201816:33:34.04414400 7
  937  85.35222732:32:32:32:32:3 19dBm  Nov 18, 201816:33:34.06518200 7
  938  85.49996932:32:32:32:32:3 19dBm  Nov 18, 201816:33:34.21292400 7
  939  85.68275332:32:32:32:32:3 14dBm  Nov 18, 201816:33:34.39570800 7
  940  85.95322232:32:32:32:32:3 16dBm  Nov 18, 201816:33:34.66617700 7
  941  86.00633332:32:32:32:32:3 17dBm  Nov 18, 201816:33:34.71928800 7
  942  86.09613132:32:32:32:32:3 18dBm  Nov 18, 201816:33:34.80908600 7
  943  86.12538932:32:32:32:32:3 17dBm  Nov 18, 201816:33:34.83834400 7
  944  86.14371632:32:32:32:32:3 20dBm  Nov 18, 201816:33:34.85667100 7
  945  86.23835532:32:32:32:32:3 19dBm  Nov 18, 201816:33:34.95131000 7
  946  86.25038832:32:32:32:32:3 22dBm  Nov 18, 201816:33:34.96334300 7
  947  8 6.6224732:32:32:32:32:3 15dBm  Nov 18, 201816:33:35.33542500 7
  948  86.65248632:32:32:32:32:3 18dBm  Nov 18, 201816:33:35.36544100 7
  949  86.67773832:32:32:32:32:3 17dBm  Nov 18, 201816:33:35.39069300 7
  950  86.68790932:32:32:32:32:3 19dBm  Nov 18, 201816:33:35.40086400 7
  951  86.77332132:32:32:32:32:3 18dBm  Nov 18, 201816:33:35.48627600 7
  952  87.13060932:32:32:32:32:3 20dBm  Nov 18, 201816:33:35.84356400 7
  953  87.20913432:32:32:32:32:3 18dBm  Nov 18, 201816:33:35.92208900 7
  954  87.23560432:32:32:32:32:3 19dBm  Nov 18, 201816:33:35.94855900 7
  955  87.33159532:32:32:32:32:3 19dBm  Nov 18, 201816:33:36.04455000 7
  956  87.44138732:32:32:32:32:3 19dBm  Nov 18, 201816:33:36.15434200 7
  957  87.54386732:32:32:32:32:3 18dBm  Nov 18, 201816:33:36.25682200 7
  958  87.55669432:32:32:32:32:3 19dBm  Nov 18, 201816:33:36.26964900 7
  959  87.82029132:32:32:32:32:3 20dBm  Nov 18, 201816:33:36.53324600 7
  960  87.87628532:32:32:32:32:3 19dBm  Nov 18, 201816:33:36.58924000 7
  961  88.24845832:32:32:32:32:3 17dBm  Nov 18, 201816:33:36.96141300 7
  962  88.36305932:32:32:32:32:3 19dBm  Nov 18, 201816:33:37.07601400 7
  963  88.53763132:32:32:32:32:3 20dBm  Nov 18, 201816:33:37.25058600 7
  964  8  8.697932:32:32:32:32:3 19dBm  Nov 18, 201816:33:37.41085500 7
  965  88.76793632:32:32:32:32:3 19dBm  Nov 18, 201816:33:37.48089100 7
  966  88.85171232:32:32:32:32:3 21dBm  Nov 18, 201816:33:37.56466700 7
  967  88.91704332:32:32:32:32:3 19dBm  Nov 18, 201816:33:37.62999800 7
  968  89.08033432:32:32:32:32:3 20dBm  Nov 18, 201816:33:37.79328900 7
  969  89.48028532:32:32:32:32:3 20dBm  Nov 18, 201816:33:38.19324000 7
  970  89.58479232:32:32:32:32:3 20dBm  Nov 18, 201816:33:38.29774700 7
  971  89.58785232:32:32:32:32:3 19dBm  Nov 18, 201816:33:38.30080700 7
  972  89.61843732:32:32:32:32:3 20dBm  Nov 18, 201816:33:38.33139200 7
  973  8 9.6824232:32:32:32:32:3 20dBm  Nov 18, 201816:33:38.39537500 7
  974  89.69886832:32:32:32:32:3 20dBm  Nov 18, 201816:33:38.41182300 7
  975  8 9.7703332:32:32:32:32:3 18dBm  Nov 18, 201816:33:38.48328500 7
  976  89.81097632:32:32:32:32:3 19dBm  Nov 18, 201816:33:38.52393100 7
  977  89.84422632:32:32:32:32:3 17dBm  Nov 18, 201816:33:38.55718100 7
  978  89.85305532:32:32:32:32:3 19dBm  Nov 18, 201816:33:38.56601000 7
  979  89.94669232:32:32:32:32:3 20dBm  Nov 18, 201816:33:38.65964700 7
  980  90.07344332:32:32:32:32:3 19dBm  Nov 18, 201816:33:38.78639800 7
  981  90.21784132:32:32:32:32:3 20dBm  Nov 18, 201816:33:38.93079600 7
  982  90.50772932:32:32:32:32:3 20dBm  Nov 18, 201816:33:39.22068400 7
  983  90.87836732:32:32:32:32:3 19dBm  Nov 18, 201816:33:39.59132200 7
  984  9 1.0102232:32:32:32:32:3 19dBm  Nov 18, 201816:33:39.72317500 7
  985  91.13158232:32:32:32:32:3 19dBm  Nov 18, 201816:33:39.84453700 7
  986  91.34756332:32:32:32:32:3 21dBm  Nov 18, 201816:33:40.06051800 7
  987  91.40802332:32:32:32:32:3 19dBm  Nov 18, 201816:33:40.12097800 7
  988  91.58825532:32:32:32:32:3 20dBm  Nov 18, 201816:33:40.30121000 7
  989  91.60851732:32:32:32:32:3 20dBm  Nov 18, 201816:33:40.32147200 7
  990  91.64380732:32:32:32:32:3 19dBm  Nov 18, 201816:33:40.35676200 7
  991  9  1.674932:32:32:32:32:3 19dBm  Nov 18, 201816:33:40.38785500 7
  992  91.72604432:32:32:32:32:3 20dBm  Nov 18, 201816:33:40.43899900 7
  993  91.74215832:32:32:32:32:3 19dBm  Nov 18, 201816:33:40.45511300 7
  994  9 1.7535132:32:32:32:32:3 16dBm  Nov 18, 201816:33:40.46646500 7
  995  9 1.7687532:32:32:32:32:3 22dBm  Nov 18, 201816:33:40.48170500 7
  996  9  1.844532:32:32:32:32:3 20dBm  Nov 18, 201816:33:40.55745500 7
  997  91.90353332:32:32:32:32:3 20dBm  Nov 18, 201816:33:40.61648800 7
  998  91.91927132:32:32:32:32:3 21dBm  Nov 18, 201816:33:40.63222600 7
  999  91.94423732:32:32:32:32:3 20dBm  Nov 18, 201816:33:40.65719200 7
 1000  91.98450332:32:32:32:32:3 19dBm  Nov 18, 201816:33:40.69745800 7
 1001  92.16121232:32:32:32:32:3 19dBm  Nov 18, 201816:33:40.87416700 7
 1002  92.41453232:32:32:32:32:3 20dBm  Nov 18, 201816:33:41.12748700 7
 1003  92.42710232:32:32:32:32:3 19dBm  Nov 18, 201816:33:41.14005700 7
 1004  92.43862632:32:32:32:32:3 17dBm  Nov 18, 201816:33:41.15158100 7
 1005  92.45740732:32:32:32:32:3 19dBm  Nov 18, 201816:33:41.17036200 7
 1006  92.54523932:32:32:32:32:3 19dBm  Nov 18, 201816:33:41.25819400 7
 1007  92.82577732:32:32:32:32:3 19dBm  Nov 18, 201816:33:41.53873200 7
 1008  92.84867932:32:32:32:32:3 21dBm  Nov 18, 201816:33:41.56163400 7
 1009  92.96402132:32:32:32:32:3 19dBm  Nov 18, 201816:33:41.67697600 7
 1010  92.98927432:32:32:32:32:3 19dBm  Nov 18, 201816:33:41.70222900 7
 1011  93.05961532:32:32:32:32:3 20dBm  Nov 18, 201816:33:41.77257000 7
 1012  93.07783332:32:32:32:32:3 18dBm  Nov 18, 201816:33:41.79078800 7
 1013  93.14840132:32:32:32:32:3 19dBm  Nov 18, 201816:33:41.86135600 7
 1014  93.18860232:32:32:32:32:3 21dBm  Nov 18, 201816:33:41.90155700 7
 1015  93.19800932:32:32:32:32:3 20dBm  Nov 18, 201816:33:41.91096400 7
 1016  93.26452532:32:32:32:32:3 19dBm  Nov 18, 201816:33:41.97748000 7
 1017  93.32641732:32:32:32:32:3 21dBm  Nov 18, 201816:33:42.03937200 7
 1018  93.52531932:32:32:32:32:3 19dBm  Nov 18, 201816:33:42.23827400 7
 1019  93.55880232:32:32:32:32:3 19dBm  Nov 18, 201816:33:42.27175700 7
 1020  93.69864332:32:32:32:32:3 18dBm  Nov 18, 201816:33:42.41159800 7
 1021  9 3.7258432:32:32:32:32:3 20dBm  Nov 18, 201816:33:42.43879500 7
 1022  93.80807132:32:32:32:32:3 19dBm  Nov 18, 201816:33:42.52102600 7
 1023  93.83047432:32:32:32:32:3 19dBm  Nov 18, 201816:33:42.54342900 7
 1024  93.94308932:32:32:32:32:3 18dBm  Nov 18, 201816:33:42.65604400 7
 1025  94.02711632:32:32:32:32:3 20dBm  Nov 18, 201816:33:42.74007100 7
 1026  94.10601332:32:32:32:32:3 20dBm  Nov 18, 201816:33:42.81896800 7
 1027  94.18226832:32:32:32:32:3 21dBm  Nov 18, 201816:33:42.89522300 7
 1028  94.20982332:32:32:32:32:3 20dBm  Nov 18, 201816:33:42.92277800 7
 1029  94.24640432:32:32:32:32:3 19dBm  Nov 18, 201816:33:42.95935900 7
 1030  94.44891732:32:32:32:32:3 20dBm  Nov 18, 201816:33:43.16187200 7
 1031  94.54967532:32:32:32:32:3 20dBm  Nov 18, 201816:33:43.26263000 7
 1032  9 4.5811232:32:32:32:32:3 21dBm  Nov 18, 201816:33:43.29407500 7
 1033  94.81524132:32:32:32:32:3 18dBm  Nov 18, 201816:33:43.52819600 7
 1034  95.03072932:32:32:32:32:3 19dBm  Nov 18, 201816:33:43.74368400 7
 1035  95.10780932:32:32:32:32:3 20dBm  Nov 18, 201816:33:43.82076400 7
 1036  95.11978732:32:32:32:32:3 20dBm  Nov 18, 201816:33:43.83274200 7
 1037  95.24557332:32:32:32:32:3 21dBm  Nov 18, 201816:33:43.95852800 7
 1038  9 5.5037432:32:32:32:32:3 21dBm  Nov 18, 201816:33:44.21669500 7
 1039  95.54727632:32:32:32:32:3 19dBm  Nov 18, 201816:33:44.26023100 7
 1040  95.75307732:32:32:32:32:3 20dBm  Nov 18, 201816:33:44.46603200 7
 1041  95.86128932:32:32:32:32:3 20dBm  Nov 18, 201816:33:44.57424400 7
 1042  95.98910332:32:32:32:32:3 20dBm  Nov 18, 201816:33:44.70205800 7
 1043  96.06926632:32:32:32:32:3 19dBm  Nov 18, 201816:33:44.78222100 7
 1044  96.09891632:32:32:32:32:3 20dBm  Nov 18, 201816:33:44.81187100 7
 1045  96.14118132:32:32:32:32:3 17dBm  Nov 18, 201816:33:44.85413600 7
 1046  96.20442132:32:32:32:32:3 19dBm  Nov 18, 201816:33:44.91737600 7
 1047  96.23629332:32:32:32:32:3 19dBm  Nov 18, 201816:33:44.94924800 7
 1048  96.27498132:32:32:32:32:3 21dBm  Nov 18, 201816:33:44.98793600 7
 1049  9 6.4163232:32:32:32:32:3 19dBm  Nov 18, 201816:33:45.12927500 7
 1050  96.49068332:32:32:32:32:3 18dBm  Nov 18, 201816:33:45.20363800 7
 1051  96.62062932:32:32:32:32:3 18dBm  Nov 18, 201816:33:45.33358400 7
 1052  96.77991432:32:32:32:32:3 19dBm  Nov 18, 201816:33:45.49286900 7
 1053  96.85282232:32:32:32:32:3 20dBm  Nov 18, 201816:33:45.56577700 7
 1054  9 6.8874932:32:32:32:32:3 20dBm  Nov 18, 201816:33:45.60044500 7
 1055  96.96080932:32:32:32:32:3 20dBm  Nov 18, 201816:33:45.67376400 7
 1056  97.00964732:32:32:32:32:3 21dBm  Nov 18, 201816:33:45.72260200 7
 1057  97.19784432:32:32:32:32:3 18dBm  Nov 18, 201816:33:45.91079900 7
 1058  97.53330932:32:32:32:32:3 19dBm  Nov 18, 201816:33:46.24626400 7
 1059  97.62588332:32:32:32:32:3 18dBm  Nov 18, 201816:33:46.33883800 7
 1060  97.68349532:32:32:32:32:3 19dBm  Nov 18, 201816:33:46.39645000 7
 1061  97.71195932:32:32:32:32:3 17dBm  Nov 18, 201816:33:46.42491400 7
 1062  97.72625632:32:32:32:32:3 16dBm  Nov 18, 201816:33:46.43921100 7
 1063  97.88222132:32:32:32:32:3 18dBm  Nov 18, 201816:33:46.59517600 7
 1064  97.99843532:32:32:32:32:3 18dBm  Nov 18, 201816:33:46.71139000 7
 1065  98.30283232:32:32:32:32:3 17dBm  Nov 18, 201816:33:47.01578700 7
 1066  98.42345232:32:32:32:32:3 20dBm  Nov 18, 201816:33:47.13640700 7
 1067  98.44740732:32:32:32:32:3 21dBm  Nov 18, 201816:33:47.16036200 7
 1068  98.46427732:32:32:32:32:3 21dBm  Nov 18, 201816:33:47.17723200 7
 1069  98.50131832:32:32:32:32:3 19dBm  Nov 18, 201816:33:47.21427300 7
 1070  98.59264932:32:32:32:32:3 20dBm  Nov 18, 201816:33:47.30560400 7
 1071  98.62088532:32:32:32:32:3 19dBm  Nov 18, 201816:33:47.33384000 7
 1072  98.77417732:32:32:32:32:3 21dBm  Nov 18, 201816:33:47.48713200 7
 1073  98.81879432:32:32:32:32:3 19dBm  Nov 18, 201816:33:47.53174900 7
 1074  98.84990632:32:32:32:32:3 20dBm  Nov 18, 201816:33:47.56286100 7
 1075  99.20906532:32:32:32:32:3 20dBm  Nov 18, 201816:33:47.92202000 7
 1076  99.24109332:32:32:32:32:3 19dBm  Nov 18, 201816:33:47.95404800 7
 1077  99.30149432:32:32:32:32:3 17dBm  Nov 18, 201816:33:48.01444900 7
 1078  99.34077132:32:32:32:32:3 20dBm  Nov 18, 201816:33:48.05372600 7
 1079  99.39094432:32:32:32:32:3 19dBm  Nov 18, 201816:33:48.10389900 7
 1080  99.42764332:32:32:32:32:3 16dBm  Nov 18, 201816:33:48.14059800 7
 1081  99.69329832:32:32:32:32:3 18dBm  Nov 18, 201816:33:48.40625300 7
 1082  99.75713332:32:32:32:32:3 18dBm  Nov 18, 201816:33:48.47008800 7
 1083  99.77291632:32:32:32:32:3 19dBm  Nov 18, 201816:33:48.48587100 7
 1084  99.83892332:32:32:32:32:3 20dBm  Nov 18, 201816:33:48.55187800 7
 1085  99.96619332:32:32:32:32:3 21dBm  Nov 18, 201816:33:48.67914800 7
 1086  99.98404332:32:32:32:32:3 18dBm  Nov 18, 201816:33:48.69699800 7
 1087 100.03141132:32:32:32:32:3 20dBm  Nov 18, 201816:33:48.74436600 7
 1088 100.11768532:32:32:32:32:3 19dBm  Nov 18, 201816:33:48.83064000 7
 1089 100.26370332:32:32:32:32:3 19dBm  Nov 18, 201816:33:48.97665800 7
 1090 100.43732232:32:32:32:32:3 19dBm  Nov 18, 201816:33:49.15027700 7
 1091 100.60392732:32:32:32:32:3 20dBm  Nov 18, 201816:33:49.31688200 7
 1092 100.74796632:32:32:32:32:3 20dBm  Nov 18, 201816:33:49.46092100 7
 1093 100.84777132:32:32:32:32:3 19dBm  Nov 18, 201816:33:49.56072600 7
 1094 100.93045932:32:32:32:32:3 20dBm  Nov 18, 201816:33:49.64341400 7
 1095 100.99367732:32:32:32:32:3 19dBm  Nov 18, 201816:33:49.70663200 7
 1096 101.03315632:32:32:32:32:3 21dBm  Nov 18, 201816:33:49.74611100 7
 1097 101.06602132:32:32:32:32:3 20dBm  Nov 18, 201816:33:49.77897600 7
 1098 101.34643532:32:32:32:32:3 20dBm  Nov 18, 201816:33:50.05939000 7
 1099 101.38743632:32:32:32:32:3 19dBm  Nov 18, 201816:33:50.10039100 7
 1100 101.40151432:32:32:32:32:3 20dBm  Nov 18, 201816:33:50.11446900 7
 1101 101.41305332:32:32:32:32:3 18dBm  Nov 18, 201816:33:50.12600800 7
 1102 101.43107332:32:32:32:32:3 19dBm  Nov 18, 201816:33:50.14402800 7
 1103 101.48484732:32:32:32:32:3 21dBm  Nov 18, 201816:33:50.19780200 7
 1104 101.50385932:32:32:32:32:3 20dBm  Nov 18, 201816:33:50.21681400 7
 1105 101.53020632:32:32:32:32:3 20dBm  Nov 18, 201816:33:50.24316100 7
 1106 101.63324732:32:32:32:32:3 20dBm  Nov 18, 201816:33:50.34620200 7
 1107 101.66815732:32:32:32:32:3 21dBm  Nov 18, 201816:33:50.38111200 7
 1108 101.69298632:32:32:32:32:3 19dBm  Nov 18, 201816:33:50.40594100 7
 1109 101.72623632:32:32:32:32:3 20dBm  Nov 18, 201816:33:50.43919100 7
 1110 101.75466432:32:32:32:32:3 19dBm  Nov 18, 201816:33:50.46761900 7
 1111 101.91006732:32:32:32:32:3 18dBm  Nov 18, 201816:33:50.62302200 7
 1112 102.17878332:32:32:32:32:3 19dBm  Nov 18, 201816:33:50.89173800 7
 1113 102.21411732:32:32:32:32:3 20dBm  Nov 18, 201816:33:50.92707200 7
 1114 102.24392132:32:32:32:32:3 20dBm  Nov 18, 201816:33:50.95687600 7
 1115 10 2.2630532:32:32:32:32:3 19dBm  Nov 18, 201816:33:50.97600500 7
 1116 10 2.3946732:32:32:32:32:3 20dBm  Nov 18, 201816:33:51.10762500 7
 1117 10 2.4407232:32:32:32:32:3 16dBm  Nov 18, 201816:33:51.15367500 7
 1118 102.51828732:32:32:32:32:3 19dBm  Nov 18, 201816:33:51.23124200 7
 1119 102.59586432:32:32:32:32:3 20dBm  Nov 18, 201816:33:51.30881900 7
 1120 102.64624232:32:32:32:32:3 19dBm  Nov 18, 201816:33:51.35919700 7
 1121 102.66743332:32:32:32:32:3 18dBm  Nov 18, 201816:33:51.38038800 7
 1122 102.70983232:32:32:32:32:3 19dBm  Nov 18, 201816:33:51.42278700 7
 1123 102.76795932:32:32:32:32:3 19dBm  Nov 18, 201816:33:51.48091400 7
