    1   0.000000 32:32:32:32:32:32 20dBm Nov 18, 2018 16:32:08.712955000 +07
    2   0.039831 32:32:32:32:32:32 19dBm Nov 18, 2018 16:32:08.752786000 +07
    3   0.103682 32:32:32:32:32:32 18dBm Nov 18, 2018 16:32:08.816637000 +07
    4   0.430869 32:32:32:32:32:32 18dBm Nov 18, 2018 16:32:09.143824000 +07
    5   0.551972 32:32:32:32:32:32 19dBm Nov 18, 2018 16:32:09.264927000 +07
    6   0.607394 32:32:32:32:32:32 18dBm Nov 18, 2018 16:32:09.320349000 +07
    7   0.800298 32:32:32:32:32:32 20dBm Nov 18, 2018 16:32:09.513253000 +07
    8   0.879671 32:32:32:32:32:32 18dBm Nov 18, 2018 16:32:09.592626000 +07
    9   1.033420 32:32:32:32:32:32 20dBm Nov 18, 2018 16:32:09.746375000 +07
   10   1.270563 32:32:32:32:32:32 19dBm Nov 18, 2018 16:32:09.983518000 +07
   11   1.287507 32:32:32:32:32:32 21dBm Nov 18, 2018 16:32:10.000462000 +07
   12   1.292449 32:32:32:32:32:32 19dBm Nov 18, 2018 16:32:10.005404000 +07
   13   1.316929 32:32:32:32:32:32 19dBm Nov 18, 2018 16:32:10.029884000 +07
   14   1.338862 32:32:32:32:32:32 17dBm Nov 18, 2018 16:32:10.051817000 +07
   15   1.455247 32:32:32:32:32:32 21dBm Nov 18, 2018 16:32:10.168202000 +07
   16   1.540677 32:32:32:32:32:32 20dBm Nov 18, 2018 16:32:10.253632000 +07
   17   1.549494 32:32:32:32:32:32 21dBm Nov 18, 2018 16:32:10.262449000 +07
   18   1.696233 32:32:32:32:32:32 17dBm Nov 18, 2018 16:32:10.409188000 +07
   19   1.754555 32:32:32:32:32:32 20dBm Nov 18, 2018 16:32:10.467510000 +07
   20   1.836866 32:32:32:32:32:32 21dBm Nov 18, 2018 16:32:10.549821000 +07
   21   2.053867 32:32:32:32:32:32 19dBm Nov 18, 2018 16:32:10.766822000 +07
   22   2.075623 32:32:32:32:32:32 21dBm Nov 18, 2018 16:32:10.788578000 +07
   23   2.126462 32:32:32:32:32:32 21dBm Nov 18, 2018 16:32:10.839417000 +07
   24   2.203637 32:32:32:32:32:32 21dBm Nov 18, 2018 16:32:10.916592000 +07
   25   2.248883 32:32:32:32:32:32 18dBm Nov 18, 2018 16:32:10.961838000 +07
   26   2.330613 32:32:32:32:32:32 17dBm Nov 18, 2018 16:32:11.043568000 +07
   27   2.470074 32:32:32:32:32:32 18dBm Nov 18, 2018 16:32:11.183029000 +07
   28   2.494836 32:32:32:32:32:32 18dBm Nov 18, 2018 16:32:11.207791000 +07
   29   2.622756 32:32:32:32:32:32 17dBm Nov 18, 2018 16:32:11.335711000 +07
   30   2.694707 32:32:32:32:32:32 17dBm Nov 18, 2018 16:32:11.407662000 +07
   31   2.804130 32:32:32:32:32:32 17dBm Nov 18, 2018 16:32:11.517085000 +07
   32   2.877330 32:32:32:32:32:32 15dBm Nov 18, 2018 16:32:11.590285000 +07
   33   2.917952 32:32:32:32:32:32 17dBm Nov 18, 2018 16:32:11.630907000 +07
   34   2.932961 32:32:32:32:32:32 18dBm Nov 18, 2018 16:32:11.645916000 +07
   35   2.963409 32:32:32:32:32:32 16dBm Nov 18, 2018 16:32:11.676364000 +07
   36   3.009492 32:32:32:32:32:32 18dBm Nov 18, 2018 16:32:11.722447000 +07
   37   3.057229 32:32:32:32:32:32 17dBm Nov 18, 2018 16:32:11.770184000 +07
   38   3.088373 32:32:32:32:32:32 15dBm Nov 18, 2018 16:32:11.801328000 +07
   39   3.249087 32:32:32:32:32:32 18dBm Nov 18, 2018 16:32:11.962042000 +07
   40   3.451438 32:32:32:32:32:32 19dBm Nov 18, 2018 16:32:12.164393000 +07
   41   3.638242 32:32:32:32:32:32 17dBm Nov 18, 2018 16:32:12.351197000 +07
   42   3.659292 32:32:32:32:32:32 19dBm Nov 18, 2018 16:32:12.372247000 +07
   43   3.729290 32:32:32:32:32:32 14dBm Nov 18, 2018 16:32:12.442245000 +07
   44   3.962075 32:32:32:32:32:32 17dBm Nov 18, 2018 16:32:12.675030000 +07
   45   4.046667 32:32:32:32:32:32 17dBm Nov 18, 2018 16:32:12.759622000 +07
   46   4.093209 32:32:32:32:32:32 17dBm Nov 18, 2018 16:32:12.806164000 +07
   47   4.118164 32:32:32:32:32:32 19dBm Nov 18, 2018 16:32:12.831119000 +07
   48   4.155629 32:32:32:32:32:32 17dBm Nov 18, 2018 16:32:12.868584000 +07
   49   4.261922 32:32:32:32:32:32 15dBm Nov 18, 2018 16:32:12.974877000 +07
   50   4.295508 32:32:32:32:32:32 16dBm Nov 18, 2018 16:32:13.008463000 +07
   51   4.337402 32:32:32:32:32:32 20dBm Nov 18, 2018 16:32:13.050357000 +07
   52   4.620905 32:32:32:32:32:32 17dBm Nov 18, 2018 16:32:13.333860000 +07
   53   4.670793 32:32:32:32:32:32 17dBm Nov 18, 2018 16:32:13.383748000 +07
   54   4.722232 32:32:32:32:32:32 17dBm Nov 18, 2018 16:32:13.435187000 +07
   55   4.968305 32:32:32:32:32:32 17dBm Nov 18, 2018 16:32:13.681260000 +07
   56   5.195987 32:32:32:32:32:32 18dBm Nov 18, 2018 16:32:13.908942000 +07
   57   5.255270 32:32:32:32:32:32 19dBm Nov 18, 2018 16:32:13.968225000 +07
   58   5.281180 32:32:32:32:32:32 18dBm Nov 18, 2018 16:32:13.994135000 +07
   59   5.391901 32:32:32:32:32:32 13dBm Nov 18, 2018 16:32:14.104856000 +07
   60   5.412221 32:32:32:32:32:32 14dBm Nov 18, 2018 16:32:14.125176000 +07
   61   5.767141 32:32:32:32:32:32 15dBm Nov 18, 2018 16:32:14.480096000 +07
   62   5.836095 32:32:32:32:32:32 17dBm Nov 18, 2018 16:32:14.549050000 +07
   63   5.903740 32:32:32:32:32:32 20dBm Nov 18, 2018 16:32:14.616695000 +07
   64   5.933980 32:32:32:32:32:32 16dBm Nov 18, 2018 16:32:14.646935000 +07
   65   5.963537 32:32:32:32:32:32 17dBm Nov 18, 2018 16:32:14.676492000 +07
   66   6.031301 32:32:32:32:32:32 16dBm Nov 18, 2018 16:32:14.744256000 +07
   67   6.047623 32:32:32:32:32:32 20dBm Nov 18, 2018 16:32:14.760578000 +07
   68   6.058997 32:32:32:32:32:32 18dBm Nov 18, 2018 16:32:14.771952000 +07
   69   6.283622 32:32:32:32:32:32 17dBm Nov 18, 2018 16:32:14.996577000 +07
   70   6.374707 32:32:32:32:32:32 16dBm Nov 18, 2018 16:32:15.087662000 +07
   71   6.396209 32:32:32:32:32:32 18dBm Nov 18, 2018 16:32:15.109164000 +07
   72   6.546368 32:32:32:32:32:32 19dBm Nov 18, 2018 16:32:15.259323000 +07
   73   6.622131 32:32:32:32:32:32 18dBm Nov 18, 2018 16:32:15.335086000 +07
   74   6.636697 32:32:32:32:32:32 18dBm Nov 18, 2018 16:32:15.349652000 +07
   75   6.662704 32:32:32:32:32:32 18dBm Nov 18, 2018 16:32:15.375659000 +07
   76   7.135114 32:32:32:32:32:32 18dBm Nov 18, 2018 16:32:15.848069000 +07
   77   7.208364 32:32:32:32:32:32 18dBm Nov 18, 2018 16:32:15.921319000 +07
   78   7.321772 32:32:32:32:32:32 18dBm Nov 18, 2018 16:32:16.034727000 +07
   79   7.425192 32:32:32:32:32:32 19dBm Nov 18, 2018 16:32:16.138147000 +07
   80   7.429194 32:32:32:32:32:32 20dBm Nov 18, 2018 16:32:16.142149000 +07
   81   7.450220 32:32:32:32:32:32 15dBm Nov 18, 2018 16:32:16.163175000 +07
   82   7.471785 32:32:32:32:32:32 19dBm Nov 18, 2018 16:32:16.184740000 +07
   83   7.666633 32:32:32:32:32:32 18dBm Nov 18, 2018 16:32:16.379588000 +07
   84   7.688955 32:32:32:32:32:32 17dBm Nov 18, 2018 16:32:16.401910000 +07
   85   7.703016 32:32:32:32:32:32 17dBm Nov 18, 2018 16:32:16.415971000 +07
   86   7.729615 32:32:32:32:32:32 17dBm Nov 18, 2018 16:32:16.442570000 +07
   87   7.845184 32:32:32:32:32:32 17dBm Nov 18, 2018 16:32:16.558139000 +07
   88   7.895459 32:32:32:32:32:32 17dBm Nov 18, 2018 16:32:16.608414000 +07
   89   7.983264 32:32:32:32:32:32 16dBm Nov 18, 2018 16:32:16.696219000 +07
   90   8.159124 32:32:32:32:32:32 18dBm Nov 18, 2018 16:32:16.872079000 +07
   91   8.356426 32:32:32:32:32:32 18dBm Nov 18, 2018 16:32:17.069381000 +07
   92   8.407015 32:32:32:32:32:32 17dBm Nov 18, 2018 16:32:17.119970000 +07
   93   8.611705 32:32:32:32:32:32 17dBm Nov 18, 2018 16:32:17.324660000 +07
   94   8.625437 32:32:32:32:32:32 19dBm Nov 18, 2018 16:32:17.338392000 +07
   95   8.767431 32:32:32:32:32:32 18dBm Nov 18, 2018 16:32:17.480386000 +07
   96   8.838786 32:32:32:32:32:32 18dBm Nov 18, 2018 16:32:17.551741000 +07
   97   8.896415 32:32:32:32:32:32 19dBm Nov 18, 2018 16:32:17.609370000 +07
   98   8.974558 32:32:32:32:32:32 16dBm Nov 18, 2018 16:32:17.687513000 +07
   99   9.026269 32:32:32:32:32:32 18dBm Nov 18, 2018 16:32:17.739224000 +07
  100   9.045619 32:32:32:32:32:32 20dBm Nov 18, 2018 16:32:17.758574000 +07
  101   9.086288 32:32:32:32:32:32 19dBm Nov 18, 2018 16:32:17.799243000 +07
  102   9.185142 32:32:32:32:32:32 19dBm Nov 18, 2018 16:32:17.898097000 +07
  103   9.248195 32:32:32:32:32:32 18dBm Nov 18, 2018 16:32:17.961150000 +07
  104   9.348023 32:32:32:32:32:32 19dBm Nov 18, 2018 16:32:18.060978000 +07
  105   9.412719 32:32:32:32:32:32 20dBm Nov 18, 2018 16:32:18.125674000 +07
  106   9.456909 32:32:32:32:32:32 17dBm Nov 18, 2018 16:32:18.169864000 +07
  107   9.468501 32:32:32:32:32:32 19dBm Nov 18, 2018 16:32:18.181456000 +07
  108   9.507901 32:32:32:32:32:32 19dBm Nov 18, 2018 16:32:18.220856000 +07
  109   9.553500 32:32:32:32:32:32 18dBm Nov 18, 2018 16:32:18.266455000 +07
  110   9.613997 32:32:32:32:32:32 18dBm Nov 18, 2018 16:32:18.326952000 +07
  111   9.617816 32:32:32:32:32:32 19dBm Nov 18, 2018 16:32:18.330771000 +07
  112   9.766670 32:32:32:32:32:32 19dBm Nov 18, 2018 16:32:18.479625000 +07
  113   9.811285 32:32:32:32:32:32 19dBm Nov 18, 2018 16:32:18.524240000 +07
  114   9.865440 32:32:32:32:32:32 19dBm Nov 18, 2018 16:32:18.578395000 +07
  115   9.926981 32:32:32:32:32:32 19dBm Nov 18, 2018 16:32:18.639936000 +07
  116  10.092936 32:32:32:32:32:32 18dBm Nov 18, 2018 16:32:18.805891000 +07
  117  10.117639 32:32:32:32:32:32 18dBm Nov 18, 2018 16:32:18.830594000 +07
  118  10.478733 32:32:32:32:32:32 17dBm Nov 18, 2018 16:32:19.191688000 +07
  119  10.642594 32:32:32:32:32:32 18dBm Nov 18, 2018 16:32:19.355549000 +07
  120  10.753324 32:32:32:32:32:32 18dBm Nov 18, 2018 16:32:19.466279000 +07
  121  10.795659 32:32:32:32:32:32 17dBm Nov 18, 2018 16:32:19.508614000 +07
  122  10.887935 32:32:32:32:32:32 19dBm Nov 18, 2018 16:32:19.600890000 +07
  123  10.924127 32:32:32:32:32:32 19dBm Nov 18, 2018 16:32:19.637082000 +07
  124  11.138616 32:32:32:32:32:32 19dBm Nov 18, 2018 16:32:19.851571000 +07
  125  11.179832 32:32:32:32:32:32 18dBm Nov 18, 2018 16:32:19.892787000 +07
  126  11.215667 32:32:32:32:32:32 20dBm Nov 18, 2018 16:32:19.928622000 +07
  127  11.310600 32:32:32:32:32:32 17dBm Nov 18, 2018 16:32:20.023555000 +07
  128  11.575278 32:32:32:32:32:32 20dBm Nov 18, 2018 16:32:20.288233000 +07
  129  11.590630 32:32:32:32:32:32 18dBm Nov 18, 2018 16:32:20.303585000 +07
  130  11.597784 32:32:32:32:32:32 19dBm Nov 18, 2018 16:32:20.310739000 +07
  131  11.630208 32:32:32:32:32:32 17dBm Nov 18, 2018 16:32:20.343163000 +07
  132  11.976009 32:32:32:32:32:32 19dBm Nov 18, 2018 16:32:20.688964000 +07
  133  12.185399 32:32:32:32:32:32 19dBm Nov 18, 2018 16:32:20.898354000 +07
  134  12.229925 32:32:32:32:32:32 18dBm Nov 18, 2018 16:32:20.942880000 +07
  135  12.271304 32:32:32:32:32:32 19dBm Nov 18, 2018 16:32:20.984259000 +07
  136  12.291913 32:32:32:32:32:32 18dBm Nov 18, 2018 16:32:21.004868000 +07
  137  12.306789 32:32:32:32:32:32 18dBm Nov 18, 2018 16:32:21.019744000 +07
  138  12.327623 32:32:32:32:32:32 18dBm Nov 18, 2018 16:32:21.040578000 +07
  139  12.426199 32:32:32:32:32:32 18dBm Nov 18, 2018 16:32:21.139154000 +07
  140  12.699449 32:32:32:32:32:32 18dBm Nov 18, 2018 16:32:21.412404000 +07
  141  12.722011 32:32:32:32:32:32 18dBm Nov 18, 2018 16:32:21.434966000 +07
  142  12.730085 32:32:32:32:32:32 20dBm Nov 18, 2018 16:32:21.443040000 +07
  143  12.785653 32:32:32:32:32:32 21dBm Nov 18, 2018 16:32:21.498608000 +07
  144  13.112104 32:32:32:32:32:32 18dBm Nov 18, 2018 16:32:21.825059000 +07
  145  13.156573 32:32:32:32:32:32 19dBm Nov 18, 2018 16:32:21.869528000 +07
  146  13.281241 32:32:32:32:32:32 16dBm Nov 18, 2018 16:32:21.994196000 +07
  147  13.338857 32:32:32:32:32:32 21dBm Nov 18, 2018 16:32:22.051812000 +07
  148  13.388255 32:32:32:32:32:32 18dBm Nov 18, 2018 16:32:22.101210000 +07
  149  13.427225 32:32:32:32:32:32 17dBm Nov 18, 2018 16:32:22.140180000 +07
  150  13.541227 32:32:32:32:32:32 20dBm Nov 18, 2018 16:32:22.254182000 +07
  151  13.596457 32:32:32:32:32:32 19dBm Nov 18, 2018 16:32:22.309412000 +07
  152  13.711289 32:32:32:32:32:32 18dBm Nov 18, 2018 16:32:22.424244000 +07
  153  14.038815 32:32:32:32:32:32 19dBm Nov 18, 2018 16:32:22.751770000 +07
  154  14.150019 32:32:32:32:32:32 18dBm Nov 18, 2018 16:32:22.862974000 +07
  155  14.254478 32:32:32:32:32:32 18dBm Nov 18, 2018 16:32:22.967433000 +07
  156  14.508235 32:32:32:32:32:32 19dBm Nov 18, 2018 16:32:23.221190000 +07
  157  14.568094 32:32:32:32:32:32 19dBm Nov 18, 2018 16:32:23.281049000 +07
  158  14.671994 32:32:32:32:32:32 19dBm Nov 18, 2018 16:32:23.384949000 +07
  159  14.715363 32:32:32:32:32:32 17dBm Nov 18, 2018 16:32:23.428318000 +07
  160  14.779872 32:32:32:32:32:32 18dBm Nov 18, 2018 16:32:23.492827000 +07
  161  14.906781 32:32:32:32:32:32 19dBm Nov 18, 2018 16:32:23.619736000 +07
  162  15.006305 32:32:32:32:32:32 17dBm Nov 18, 2018 16:32:23.719260000 +07
  163  15.166873 32:32:32:32:32:32 18dBm Nov 18, 2018 16:32:23.879828000 +07
  164  15.202423 32:32:32:32:32:32 18dBm Nov 18, 2018 16:32:23.915378000 +07
  165  15.316515 32:32:32:32:32:32 19dBm Nov 18, 2018 16:32:24.029470000 +07
  166  15.521029 32:32:32:32:32:32 19dBm Nov 18, 2018 16:32:24.233984000 +07
  167  15.694759 32:32:32:32:32:32 18dBm Nov 18, 2018 16:32:24.407714000 +07
  168  15.733266 32:32:32:32:32:32 16dBm Nov 18, 2018 16:32:24.446221000 +07
  169  15.989046 32:32:32:32:32:32 16dBm Nov 18, 2018 16:32:24.702001000 +07
  170  16.035833 32:32:32:32:32:32 18dBm Nov 18, 2018 16:32:24.748788000 +07
  171  16.108050 32:32:32:32:32:32 19dBm Nov 18, 2018 16:32:24.821005000 +07
  172  16.205320 32:32:32:32:32:32 18dBm Nov 18, 2018 16:32:24.918275000 +07
  173  16.272329 32:32:32:32:32:32 18dBm Nov 18, 2018 16:32:24.985284000 +07
  174  16.366490 32:32:32:32:32:32 20dBm Nov 18, 2018 16:32:25.079445000 +07
  175  16.469622 32:32:32:32:32:32 19dBm Nov 18, 2018 16:32:25.182577000 +07
  176  16.521596 32:32:32:32:32:32 19dBm Nov 18, 2018 16:32:25.234551000 +07
  177  16.581112 32:32:32:32:32:32 19dBm Nov 18, 2018 16:32:25.294067000 +07
  178  16.693348 32:32:32:32:32:32 19dBm Nov 18, 2018 16:32:25.406303000 +07
  179  16.841137 32:32:32:32:32:32 20dBm Nov 18, 2018 16:32:25.554092000 +07
  180  17.143797 32:32:32:32:32:32 18dBm Nov 18, 2018 16:32:25.856752000 +07
  181  17.248153 32:32:32:32:32:32 19dBm Nov 18, 2018 16:32:25.961108000 +07
  182  17.296654 32:32:32:32:32:32 18dBm Nov 18, 2018 16:32:26.009609000 +07
  183  17.477973 32:32:32:32:32:32 19dBm Nov 18, 2018 16:32:26.190928000 +07
  184  17.485336 32:32:32:32:32:32 19dBm Nov 18, 2018 16:32:26.198291000 +07
  185  17.644374 32:32:32:32:32:32 19dBm Nov 18, 2018 16:32:26.357329000 +07
  186  17.718693 32:32:32:32:32:32 20dBm Nov 18, 2018 16:32:26.431648000 +07
  187  17.764468 32:32:32:32:32:32 18dBm Nov 18, 2018 16:32:26.477423000 +07
  188  17.810700 32:32:32:32:32:32 19dBm Nov 18, 2018 16:32:26.523655000 +07
  189  17.906135 32:32:32:32:32:32 20dBm Nov 18, 2018 16:32:26.619090000 +07
  190  17.955094 32:32:32:32:32:32 20dBm Nov 18, 2018 16:32:26.668049000 +07
  191  18.072276 32:32:32:32:32:32 20dBm Nov 18, 2018 16:32:26.785231000 +07
  192  18.146602 32:32:32:32:32:32 18dBm Nov 18, 2018 16:32:26.859557000 +07
  193  18.195963 32:32:32:32:32:32 18dBm Nov 18, 2018 16:32:26.908918000 +07
  194  18.236444 32:32:32:32:32:32 18dBm Nov 18, 2018 16:32:26.949399000 +07
  195  18.310586 32:32:32:32:32:32 18dBm Nov 18, 2018 16:32:27.023541000 +07
  196  18.372397 32:32:32:32:32:32 18dBm Nov 18, 2018 16:32:27.085352000 +07
  197  18.408064 32:32:32:32:32:32 18dBm Nov 18, 2018 16:32:27.121019000 +07
  198  18.483377 32:32:32:32:32:32 19dBm Nov 18, 2018 16:32:27.196332000 +07
  199  18.526060 32:32:32:32:32:32 20dBm Nov 18, 2018 16:32:27.239015000 +07
  200  18.687438 32:32:32:32:32:32 17dBm Nov 18, 2018 16:32:27.400393000 +07
  201  18.757399 32:32:32:32:32:32 20dBm Nov 18, 2018 16:32:27.470354000 +07
  202  18.792156 32:32:32:32:32:32 18dBm Nov 18, 2018 16:32:27.505111000 +07
  203  18.874928 32:32:32:32:32:32 18dBm Nov 18, 2018 16:32:27.587883000 +07
  204  19.271236 32:32:32:32:32:32 18dBm Nov 18, 2018 16:32:27.984191000 +07
  205  19.381836 32:32:32:32:32:32 19dBm Nov 18, 2018 16:32:28.094791000 +07
  206  19.398435 32:32:32:32:32:32 16dBm Nov 18, 2018 16:32:28.111390000 +07
  207  19.418598 32:32:32:32:32:32 19dBm Nov 18, 2018 16:32:28.131553000 +07
  208  19.498297 32:32:32:32:32:32 17dBm Nov 18, 2018 16:32:28.211252000 +07
  209  19.585653 32:32:32:32:32:32 18dBm Nov 18, 2018 16:32:28.298608000 +07
  210  19.600807 32:32:32:32:32:32 18dBm Nov 18, 2018 16:32:28.313762000 +07
  211  19.630943 32:32:32:32:32:32 19dBm Nov 18, 2018 16:32:28.343898000 +07
  212  19.678310 32:32:32:32:32:32 17dBm Nov 18, 2018 16:32:28.391265000 +07
  213  19.797692 32:32:32:32:32:32 17dBm Nov 18, 2018 16:32:28.510647000 +07
  214  19.893375 32:32:32:32:32:32 17dBm Nov 18, 2018 16:32:28.606330000 +07
  215  19.916797 32:32:32:32:32:32 19dBm Nov 18, 2018 16:32:28.629752000 +07
  216  19.956460 32:32:32:32:32:32 18dBm Nov 18, 2018 16:32:28.669415000 +07
  217  20.137515 32:32:32:32:32:32 17dBm Nov 18, 2018 16:32:28.850470000 +07
  218  20.172787 32:32:32:32:32:32 17dBm Nov 18, 2018 16:32:28.885742000 +07
  219  20.390872 32:32:32:32:32:32 19dBm Nov 18, 2018 16:32:29.103827000 +07
  220  20.490807 32:32:32:32:32:32 18dBm Nov 18, 2018 16:32:29.203762000 +07
  221  20.595185 32:32:32:32:32:32 18dBm Nov 18, 2018 16:32:29.308140000 +07
  222  20.682058 32:32:32:32:32:32 20dBm Nov 18, 2018 16:32:29.395013000 +07
  223  20.726188 32:32:32:32:32:32 17dBm Nov 18, 2018 16:32:29.439143000 +07
  224  20.861241 32:32:32:32:32:32 18dBm Nov 18, 2018 16:32:29.574196000 +07
  225  21.001553 32:32:32:32:32:32 19dBm Nov 18, 2018 16:32:29.714508000 +07
  226  21.051795 32:32:32:32:32:32 17dBm Nov 18, 2018 16:32:29.764750000 +07
  227  21.069990 32:32:32:32:32:32 18dBm Nov 18, 2018 16:32:29.782945000 +07
  228  21.093808 32:32:32:32:32:32 18dBm Nov 18, 2018 16:32:29.806763000 +07
  229  21.142429 32:32:32:32:32:32 17dBm Nov 18, 2018 16:32:29.855384000 +07
  230  21.376803 32:32:32:32:32:32 20dBm Nov 18, 2018 16:32:30.089758000 +07
  231  21.423580 32:32:32:32:32:32 20dBm Nov 18, 2018 16:32:30.136535000 +07
  232  21.499177 32:32:32:32:32:32 18dBm Nov 18, 2018 16:32:30.212132000 +07
  233  21.609951 32:32:32:32:32:32 17dBm Nov 18, 2018 16:32:30.322906000 +07
  234  21.808201 32:32:32:32:32:32 19dBm Nov 18, 2018 16:32:30.521156000 +07
  235  21.836871 32:32:32:32:32:32 19dBm Nov 18, 2018 16:32:30.549826000 +07
  236  21.877697 32:32:32:32:32:32 18dBm Nov 18, 2018 16:32:30.590652000 +07
  237  21.974680 32:32:32:32:32:32 17dBm Nov 18, 2018 16:32:30.687635000 +07
  238  22.015999 32:32:32:32:32:32 18dBm Nov 18, 2018 16:32:30.728954000 +07
  239  22.170432 32:32:32:32:32:32 18dBm Nov 18, 2018 16:32:30.883387000 +07
  240  22.288390 32:32:32:32:32:32 18dBm Nov 18, 2018 16:32:31.001345000 +07
  241  22.314026 32:32:32:32:32:32 19dBm Nov 18, 2018 16:32:31.026981000 +07
  242  22.350251 32:32:32:32:32:32 17dBm Nov 18, 2018 16:32:31.063206000 +07
  243  22.403734 32:32:32:32:32:32 18dBm Nov 18, 2018 16:32:31.116689000 +07
  244  22.468866 32:32:32:32:32:32 17dBm Nov 18, 2018 16:32:31.181821000 +07
  245  22.629403 32:32:32:32:32:32 19dBm Nov 18, 2018 16:32:31.342358000 +07
  246  22.650668 32:32:32:32:32:32 18dBm Nov 18, 2018 16:32:31.363623000 +07
  247  22.897543 32:32:32:32:32:32 18dBm Nov 18, 2018 16:32:31.610498000 +07
  248  22.917119 32:32:32:32:32:32 18dBm Nov 18, 2018 16:32:31.630074000 +07
  249  22.940392 32:32:32:32:32:32 17dBm Nov 18, 2018 16:32:31.653347000 +07
  250  23.022334 32:32:32:32:32:32 17dBm Nov 18, 2018 16:32:31.735289000 +07
  251  23.056559 32:32:32:32:32:32 18dBm Nov 18, 2018 16:32:31.769514000 +07
  252  23.078452 32:32:32:32:32:32 18dBm Nov 18, 2018 16:32:31.791407000 +07
  253  23.097134 32:32:32:32:32:32 18dBm Nov 18, 2018 16:32:31.810089000 +07
  254  23.176172 32:32:32:32:32:32 18dBm Nov 18, 2018 16:32:31.889127000 +07
  255  23.252054 32:32:32:32:32:32 16dBm Nov 18, 2018 16:32:31.965009000 +07
  256  23.330312 32:32:32:32:32:32 16dBm Nov 18, 2018 16:32:32.043267000 +07
  257  23.385443 32:32:32:32:32:32 18dBm Nov 18, 2018 16:32:32.098398000 +07
  258  23.416185 32:32:32:32:32:32 18dBm Nov 18, 2018 16:32:32.129140000 +07
  259  23.666823 32:32:32:32:32:32 16dBm Nov 18, 2018 16:32:32.379778000 +07
  260  23.747301 32:32:32:32:32:32 18dBm Nov 18, 2018 16:32:32.460256000 +07
  261  24.094821 32:32:32:32:32:32 19dBm Nov 18, 2018 16:32:32.807776000 +07
  262  24.183378 32:32:32:32:32:32 16dBm Nov 18, 2018 16:32:32.896333000 +07
  263  24.302451 32:32:32:32:32:32 18dBm Nov 18, 2018 16:32:33.015406000 +07
  264  24.383039 32:32:32:32:32:32 18dBm Nov 18, 2018 16:32:33.095994000 +07
  265  24.630972 32:32:32:32:32:32 18dBm Nov 18, 2018 16:32:33.343927000 +07
  266  24.768647 32:32:32:32:32:32 17dBm Nov 18, 2018 16:32:33.481602000 +07
  267  24.795072 32:32:32:32:32:32 17dBm Nov 18, 2018 16:32:33.508027000 +07
  268  24.808334 32:32:32:32:32:32 20dBm Nov 18, 2018 16:32:33.521289000 +07
  269  24.870849 32:32:32:32:32:32 18dBm Nov 18, 2018 16:32:33.583804000 +07
  270  25.047789 32:32:32:32:32:32 19dBm Nov 18, 2018 16:32:33.760744000 +07
  271  25.170231 32:32:32:32:32:32 20dBm Nov 18, 2018 16:32:33.883186000 +07
  272  25.490991 32:32:32:32:32:32 18dBm Nov 18, 2018 16:32:34.203946000 +07
  273  25.935376 32:32:32:32:32:32 17dBm Nov 18, 2018 16:32:34.648331000 +07
  274  25.948973 32:32:32:32:32:32 17dBm Nov 18, 2018 16:32:34.661928000 +07
  275  25.990937 32:32:32:32:32:32 17dBm Nov 18, 2018 16:32:34.703892000 +07
  276  26.169781 32:32:32:32:32:32 18dBm Nov 18, 2018 16:32:34.882736000 +07
  277  26.285576 32:32:32:32:32:32 20dBm Nov 18, 2018 16:32:34.998531000 +07
  278  26.309696 32:32:32:32:32:32 17dBm Nov 18, 2018 16:32:35.022651000 +07
  279  26.428612 32:32:32:32:32:32 17dBm Nov 18, 2018 16:32:35.141567000 +07
  280  26.490742 32:32:32:32:32:32 19dBm Nov 18, 2018 16:32:35.203697000 +07
  281  26.547089 32:32:32:32:32:32 17dBm Nov 18, 2018 16:32:35.260044000 +07
  282  26.635784 32:32:32:32:32:32 19dBm Nov 18, 2018 16:32:35.348739000 +07
  283  26.727520 32:32:32:32:32:32 19dBm Nov 18, 2018 16:32:35.440475000 +07
  284  26.752965 32:32:32:32:32:32 17dBm Nov 18, 2018 16:32:35.465920000 +07
  285  26.768354 32:32:32:32:32:32 19dBm Nov 18, 2018 16:32:35.481309000 +07
  286  26.783858 32:32:32:32:32:32 19dBm Nov 18, 2018 16:32:35.496813000 +07
  287  26.804895 32:32:32:32:32:32 18dBm Nov 18, 2018 16:32:35.517850000 +07
  288  27.236021 32:32:32:32:32:32 17dBm Nov 18, 2018 16:32:35.948976000 +07
  289  27.297060 32:32:32:32:32:32 20dBm Nov 18, 2018 16:32:36.010015000 +07
  290  27.322444 32:32:32:32:32:32 19dBm Nov 18, 2018 16:32:36.035399000 +07
  291  27.361956 32:32:32:32:32:32 19dBm Nov 18, 2018 16:32:36.074911000 +07
  292  27.629393 32:32:32:32:32:32 18dBm Nov 18, 2018 16:32:36.342348000 +07
  293  27.659083 32:32:32:32:32:32 17dBm Nov 18, 2018 16:32:36.372038000 +07
  294  27.862245 32:32:32:32:32:32 17dBm Nov 18, 2018 16:32:36.575200000 +07
  295  27.884631 32:32:32:32:32:32 18dBm Nov 18, 2018 16:32:36.597586000 +07
  296  27.930202 32:32:32:32:32:32 21dBm Nov 18, 2018 16:32:36.643157000 +07
  297  28.038602 32:32:32:32:32:32 15dBm Nov 18, 2018 16:32:36.751557000 +07
  298  28.105430 32:32:32:32:32:32 20dBm Nov 18, 2018 16:32:36.818385000 +07
  299  28.123507 32:32:32:32:32:32 18dBm Nov 18, 2018 16:32:36.836462000 +07
  300  28.153089 32:32:32:32:32:32 19dBm Nov 18, 2018 16:32:36.866044000 +07
  301  28.171598 32:32:32:32:32:32 20dBm Nov 18, 2018 16:32:36.884553000 +07
  302  28.175790 32:32:32:32:32:32 20dBm Nov 18, 2018 16:32:36.888745000 +07
  303  28.197832 32:32:32:32:32:32 18dBm Nov 18, 2018 16:32:36.910787000 +07
  304  28.337489 32:32:32:32:32:32 19dBm Nov 18, 2018 16:32:37.050444000 +07
  305  28.374349 32:32:32:32:32:32 19dBm Nov 18, 2018 16:32:37.087304000 +07
  306  28.447827 32:32:32:32:32:32 15dBm Nov 18, 2018 16:32:37.160782000 +07
  307  28.470038 32:32:32:32:32:32 16dBm Nov 18, 2018 16:32:37.182993000 +07
  308  28.487876 32:32:32:32:32:32 18dBm Nov 18, 2018 16:32:37.200831000 +07
  309  28.531328 32:32:32:32:32:32 18dBm Nov 18, 2018 16:32:37.244283000 +07
  310  28.638354 32:32:32:32:32:32 20dBm Nov 18, 2018 16:32:37.351309000 +07
  311  28.704799 32:32:32:32:32:32 19dBm Nov 18, 2018 16:32:37.417754000 +07
  312  28.817875 32:32:32:32:32:32 19dBm Nov 18, 2018 16:32:37.530830000 +07
  313  28.922343 32:32:32:32:32:32 17dBm Nov 18, 2018 16:32:37.635298000 +07
  314  29.026975 32:32:32:32:32:32 18dBm Nov 18, 2018 16:32:37.739930000 +07
  315  29.220663 32:32:32:32:32:32 18dBm Nov 18, 2018 16:32:37.933618000 +07
  316  29.241060 32:32:32:32:32:32 16dBm Nov 18, 2018 16:32:37.954015000 +07
  317  29.335080 32:32:32:32:32:32 16dBm Nov 18, 2018 16:32:38.048035000 +07
  318  29.438842 32:32:32:32:32:32 18dBm Nov 18, 2018 16:32:38.151797000 +07
  319  29.472201 32:32:32:32:32:32 12dBm Nov 18, 2018 16:32:38.185156000 +07
  320  29.498350 32:32:32:32:32:32 17dBm Nov 18, 2018 16:32:38.211305000 +07
  321  29.603274 32:32:32:32:32:32 16dBm Nov 18, 2018 16:32:38.316229000 +07
  322  29.635752 32:32:32:32:32:32 16dBm Nov 18, 2018 16:32:38.348707000 +07
  323  29.729778 32:32:32:32:32:32 17dBm Nov 18, 2018 16:32:38.442733000 +07
  324  29.774835 32:32:32:32:32:32 16dBm Nov 18, 2018 16:32:38.487790000 +07
  325  30.015158 32:32:32:32:32:32 18dBm Nov 18, 2018 16:32:38.728113000 +07
  326  30.039998 32:32:32:32:32:32 17dBm Nov 18, 2018 16:32:38.752953000 +07
  327  30.078214 32:32:32:32:32:32 16dBm Nov 18, 2018 16:32:38.791169000 +07
  328  30.096839 32:32:32:32:32:32 16dBm Nov 18, 2018 16:32:38.809794000 +07
  329  30.135044 32:32:32:32:32:32 17dBm Nov 18, 2018 16:32:38.847999000 +07
  330  30.222381 32:32:32:32:32:32 18dBm Nov 18, 2018 16:32:38.935336000 +07
  331  30.269050 32:32:32:32:32:32 18dBm Nov 18, 2018 16:32:38.982005000 +07
  332  30.297169 32:32:32:32:32:32 15dBm Nov 18, 2018 16:32:39.010124000 +07
  333  30.327576 32:32:32:32:32:32 16dBm Nov 18, 2018 16:32:39.040531000 +07
  334  30.474320 32:32:32:32:32:32 17dBm Nov 18, 2018 16:32:39.187275000 +07
  335  30.503786 32:32:32:32:32:32 17dBm Nov 18, 2018 16:32:39.216741000 +07
  336  30.590432 32:32:32:32:32:32 17dBm Nov 18, 2018 16:32:39.303387000 +07
  337  30.683276 32:32:32:32:32:32 16dBm Nov 18, 2018 16:32:39.396231000 +07
  338  30.884989 32:32:32:32:32:32 17dBm Nov 18, 2018 16:32:39.597944000 +07
  339  30.906446 32:32:32:32:32:32 18dBm Nov 18, 2018 16:32:39.619401000 +07
  340  30.962261 32:32:32:32:32:32 18dBm Nov 18, 2018 16:32:39.675216000 +07
  341  31.134157 32:32:32:32:32:32 19dBm Nov 18, 2018 16:32:39.847112000 +07
  342  31.266837 32:32:32:32:32:32 16dBm Nov 18, 2018 16:32:39.979792000 +07
  343  31.353773 32:32:32:32:32:32 18dBm Nov 18, 2018 16:32:40.066728000 +07
  344  31.377355 32:32:32:32:32:32 15dBm Nov 18, 2018 16:32:40.090310000 +07
  345  31.403088 32:32:32:32:32:32 18dBm Nov 18, 2018 16:32:40.116043000 +07
  346  31.434834 32:32:32:32:32:32 17dBm Nov 18, 2018 16:32:40.147789000 +07
  347  31.449746 32:32:32:32:32:32 15dBm Nov 18, 2018 16:32:40.162701000 +07
  348  31.702787 32:32:32:32:32:32 18dBm Nov 18, 2018 16:32:40.415742000 +07
  349  31.737240 32:32:32:32:32:32 16dBm Nov 18, 2018 16:32:40.450195000 +07
  350  31.861723 32:32:32:32:32:32 16dBm Nov 18, 2018 16:32:40.574678000 +07
  351  32.014518 32:32:32:32:32:32 18dBm Nov 18, 2018 16:32:40.727473000 +07
  352  32.080129 32:32:32:32:32:32 18dBm Nov 18, 2018 16:32:40.793084000 +07
  353  32.178454 32:32:32:32:32:32 15dBm Nov 18, 2018 16:32:40.891409000 +07
  354  32.272469 32:32:32:32:32:32 18dBm Nov 18, 2018 16:32:40.985424000 +07
  355  32.317962 32:32:32:32:32:32 18dBm Nov 18, 2018 16:32:41.030917000 +07
  356  32.409424 32:32:32:32:32:32 18dBm Nov 18, 2018 16:32:41.122379000 +07
  357  32.456144 32:32:32:32:32:32 17dBm Nov 18, 2018 16:32:41.169099000 +07
  358  32.542468 32:32:32:32:32:32 18dBm Nov 18, 2018 16:32:41.255423000 +07
  359  32.588273 32:32:32:32:32:32 19dBm Nov 18, 2018 16:32:41.301228000 +07
  360  32.624416 32:32:32:32:32:32 18dBm Nov 18, 2018 16:32:41.337371000 +07
  361  32.702333 32:32:32:32:32:32 20dBm Nov 18, 2018 16:32:41.415288000 +07
  362  32.744256 32:32:32:32:32:32 18dBm Nov 18, 2018 16:32:41.457211000 +07
  363  32.746464 32:32:32:32:32:32 18dBm Nov 18, 2018 16:32:41.459419000 +07
  364  32.838565 32:32:32:32:32:32 19dBm Nov 18, 2018 16:32:41.551520000 +07
  365  32.869080 32:32:32:32:32:32 17dBm Nov 18, 2018 16:32:41.582035000 +07
  366  33.206965 32:32:32:32:32:32 17dBm Nov 18, 2018 16:32:41.919920000 +07
  367  33.632272 32:32:32:32:32:32 17dBm Nov 18, 2018 16:32:42.345227000 +07
  368  33.677381 32:32:32:32:32:32 19dBm Nov 18, 2018 16:32:42.390336000 +07
  369  33.696873 32:32:32:32:32:32 20dBm Nov 18, 2018 16:32:42.409828000 +07
  370  33.700404 32:32:32:32:32:32 19dBm Nov 18, 2018 16:32:42.413359000 +07
  371  33.902977 32:32:32:32:32:32 18dBm Nov 18, 2018 16:32:42.615932000 +07
  372  34.105463 32:32:32:32:32:32 18dBm Nov 18, 2018 16:32:42.818418000 +07
  373  34.178458 32:32:32:32:32:32 20dBm Nov 18, 2018 16:32:42.891413000 +07
  374  34.384394 32:32:32:32:32:32 16dBm Nov 18, 2018 16:32:43.097349000 +07
  375  34.420695 32:32:32:32:32:32 17dBm Nov 18, 2018 16:32:43.133650000 +07
  376  34.745847 32:32:32:32:32:32 16dBm Nov 18, 2018 16:32:43.458802000 +07
  377  34.900627 32:32:32:32:32:32 18dBm Nov 18, 2018 16:32:43.613582000 +07
  378  35.055061 32:32:32:32:32:32 13dBm Nov 18, 2018 16:32:43.768016000 +07
  379  35.137758 32:32:32:32:32:32 18dBm Nov 18, 2018 16:32:43.850713000 +07
  380  35.572645 32:32:32:32:32:32 17dBm Nov 18, 2018 16:32:44.285600000 +07
  381  35.597166 32:32:32:32:32:32 17dBm Nov 18, 2018 16:32:44.310121000 +07
  382  35.611340 32:32:32:32:32:32 19dBm Nov 18, 2018 16:32:44.324295000 +07
  383  35.696500 32:32:32:32:32:32 20dBm Nov 18, 2018 16:32:44.409455000 +07
  384  35.761322 32:32:32:32:32:32 18dBm Nov 18, 2018 16:32:44.474277000 +07
  385  35.832586 32:32:32:32:32:32 18dBm Nov 18, 2018 16:32:44.545541000 +07
  386  35.887156 32:32:32:32:32:32 17dBm Nov 18, 2018 16:32:44.600111000 +07
  387  35.906247 32:32:32:32:32:32 17dBm Nov 18, 2018 16:32:44.619202000 +07
  388  36.013669 32:32:32:32:32:32 18dBm Nov 18, 2018 16:32:44.726624000 +07
  389  36.033298 32:32:32:32:32:32 15dBm Nov 18, 2018 16:32:44.746253000 +07
  390  36.157780 32:32:32:32:32:32 18dBm Nov 18, 2018 16:32:44.870735000 +07
  391  36.223566 32:32:32:32:32:32 16dBm Nov 18, 2018 16:32:44.936521000 +07
  392  36.291773 32:32:32:32:32:32 18dBm Nov 18, 2018 16:32:45.004728000 +07
  393  36.412073 32:32:32:32:32:32 17dBm Nov 18, 2018 16:32:45.125028000 +07
  394  36.500562 32:32:32:32:32:32 17dBm Nov 18, 2018 16:32:45.213517000 +07
  395  36.584163 32:32:32:32:32:32 18dBm Nov 18, 2018 16:32:45.297118000 +07
  396  36.658245 32:32:32:32:32:32 18dBm Nov 18, 2018 16:32:45.371200000 +07
  397  36.712524 32:32:32:32:32:32 16dBm Nov 18, 2018 16:32:45.425479000 +07
  398  36.725206 32:32:32:32:32:32 17dBm Nov 18, 2018 16:32:45.438161000 +07
  399  36.901581 32:32:32:32:32:32 18dBm Nov 18, 2018 16:32:45.614536000 +07
  400  37.058468 32:32:32:32:32:32 17dBm Nov 18, 2018 16:32:45.771423000 +07
  401  37.143656 32:32:32:32:32:32 18dBm Nov 18, 2018 16:32:45.856611000 +07
  402  37.164182 32:32:32:32:32:32 17dBm Nov 18, 2018 16:32:45.877137000 +07
  403  37.238747 32:32:32:32:32:32 18dBm Nov 18, 2018 16:32:45.951702000 +07
  404  37.255268 32:32:32:32:32:32 18dBm Nov 18, 2018 16:32:45.968223000 +07
  405  37.422545 32:32:32:32:32:32 16dBm Nov 18, 2018 16:32:46.135500000 +07
  406  37.513260 32:32:32:32:32:32 18dBm Nov 18, 2018 16:32:46.226215000 +07
  407  37.569854 32:32:32:32:32:32 17dBm Nov 18, 2018 16:32:46.282809000 +07
  408  37.672327 32:32:32:32:32:32 17dBm Nov 18, 2018 16:32:46.385282000 +07
  409  37.797424 32:32:32:32:32:32 18dBm Nov 18, 2018 16:32:46.510379000 +07
  410  37.838734 32:32:32:32:32:32 18dBm Nov 18, 2018 16:32:46.551689000 +07
  411  38.032872 32:32:32:32:32:32 17dBm Nov 18, 2018 16:32:46.745827000 +07
  412  38.107005 32:32:32:32:32:32 17dBm Nov 18, 2018 16:32:46.819960000 +07
  413  38.197681 32:32:32:32:32:32 17dBm Nov 18, 2018 16:32:46.910636000 +07
  414  38.239801 32:32:32:32:32:32 18dBm Nov 18, 2018 16:32:46.952756000 +07
  415  38.247010 32:32:32:32:32:32 15dBm Nov 18, 2018 16:32:46.959965000 +07
  416  38.257343 32:32:32:32:32:32 16dBm Nov 18, 2018 16:32:46.970298000 +07
  417  38.280337 32:32:32:32:32:32 18dBm Nov 18, 2018 16:32:46.993292000 +07
  418  38.369753 32:32:32:32:32:32 18dBm Nov 18, 2018 16:32:47.082708000 +07
  419  38.383217 32:32:32:32:32:32 17dBm Nov 18, 2018 16:32:47.096172000 +07
  420  38.492816 32:32:32:32:32:32 18dBm Nov 18, 2018 16:32:47.205771000 +07
  421  38.514877 32:32:32:32:32:32 18dBm Nov 18, 2018 16:32:47.227832000 +07
  422  38.531800 32:32:32:32:32:32 17dBm Nov 18, 2018 16:32:47.244755000 +07
  423  38.830447 32:32:32:32:32:32 17dBm Nov 18, 2018 16:32:47.543402000 +07
  424  38.880426 32:32:32:32:32:32 18dBm Nov 18, 2018 16:32:47.593381000 +07
  425  39.006900 32:32:32:32:32:32 19dBm Nov 18, 2018 16:32:47.719855000 +07
  426  39.039374 32:32:32:32:32:32 17dBm Nov 18, 2018 16:32:47.752329000 +07
  427  39.053827 32:32:32:32:32:32 18dBm Nov 18, 2018 16:32:47.766782000 +07
  428  39.229476 32:32:32:32:32:32 18dBm Nov 18, 2018 16:32:47.942431000 +07
  429  39.429556 32:32:32:32:32:32 17dBm Nov 18, 2018 16:32:48.142511000 +07
  430  39.564019 32:32:32:32:32:32 17dBm Nov 18, 2018 16:32:48.276974000 +07
  431  39.608365 32:32:32:32:32:32 17dBm Nov 18, 2018 16:32:48.321320000 +07
  432  39.640085 32:32:32:32:32:32 16dBm Nov 18, 2018 16:32:48.353040000 +07
  433  39.643059 32:32:32:32:32:32 18dBm Nov 18, 2018 16:32:48.356014000 +07
  434  39.689630 32:32:32:32:32:32 17dBm Nov 18, 2018 16:32:48.402585000 +07
  435  39.791789 32:32:32:32:32:32 19dBm Nov 18, 2018 16:32:48.504744000 +07
  436  40.022914 32:32:32:32:32:32 19dBm Nov 18, 2018 16:32:48.735869000 +07
  437  40.143571 32:32:32:32:32:32 19dBm Nov 18, 2018 16:32:48.856526000 +07
  438  40.198139 32:32:32:32:32:32 19dBm Nov 18, 2018 16:32:48.911094000 +07
  439  40.225258 32:32:32:32:32:32 18dBm Nov 18, 2018 16:32:48.938213000 +07
  440  40.234175 32:32:32:32:32:32 17dBm Nov 18, 2018 16:32:48.947130000 +07
  441  40.251565 32:32:32:32:32:32 17dBm Nov 18, 2018 16:32:48.964520000 +07
  442  40.317181 32:32:32:32:32:32 17dBm Nov 18, 2018 16:32:49.030136000 +07
  443  40.336879 32:32:32:32:32:32 18dBm Nov 18, 2018 16:32:49.049834000 +07
  444  40.363611 32:32:32:32:32:32 18dBm Nov 18, 2018 16:32:49.076566000 +07
  445  40.452249 32:32:32:32:32:32 18dBm Nov 18, 2018 16:32:49.165204000 +07
  446  40.756618 32:32:32:32:32:32 15dBm Nov 18, 2018 16:32:49.469573000 +07
  447  40.855000 32:32:32:32:32:32 18dBm Nov 18, 2018 16:32:49.567955000 +07
  448  40.966399 32:32:32:32:32:32 17dBm Nov 18, 2018 16:32:49.679354000 +07
  449  41.021248 32:32:32:32:32:32 16dBm Nov 18, 2018 16:32:49.734203000 +07
  450  41.047780 32:32:32:32:32:32 16dBm Nov 18, 2018 16:32:49.760735000 +07
  451  41.071632 32:32:32:32:32:32 17dBm Nov 18, 2018 16:32:49.784587000 +07
  452  41.113875 32:32:32:32:32:32 19dBm Nov 18, 2018 16:32:49.826830000 +07
  453  41.197840 32:32:32:32:32:32 14dBm Nov 18, 2018 16:32:49.910795000 +07
  454  41.282106 32:32:32:32:32:32 19dBm Nov 18, 2018 16:32:49.995061000 +07
  455  41.338195 32:32:32:32:32:32 19dBm Nov 18, 2018 16:32:50.051150000 +07
  456  41.396595 32:32:32:32:32:32 16dBm Nov 18, 2018 16:32:50.109550000 +07
  457  41.419339 32:32:32:32:32:32 14dBm Nov 18, 2018 16:32:50.132294000 +07
  458  41.476415 32:32:32:32:32:32 20dBm Nov 18, 2018 16:32:50.189370000 +07
  459  41.966867 32:32:32:32:32:32 16dBm Nov 18, 2018 16:32:50.679822000 +07
  460  41.988885 32:32:32:32:32:32 18dBm Nov 18, 2018 16:32:50.701840000 +07
  461  42.024317 32:32:32:32:32:32 19dBm Nov 18, 2018 16:32:50.737272000 +07
  462  42.267029 32:32:32:32:32:32 19dBm Nov 18, 2018 16:32:50.979984000 +07
  463  42.320390 32:32:32:32:32:32 18dBm Nov 18, 2018 16:32:51.033345000 +07
  464  42.333222 32:32:32:32:32:32 18dBm Nov 18, 2018 16:32:51.046177000 +07
  465  42.391750 32:32:32:32:32:32 20dBm Nov 18, 2018 16:32:51.104705000 +07
  466  42.529493 32:32:32:32:32:32 18dBm Nov 18, 2018 16:32:51.242448000 +07
  467  42.546048 32:32:32:32:32:32 17dBm Nov 18, 2018 16:32:51.259003000 +07
  468  42.575813 32:32:32:32:32:32 19dBm Nov 18, 2018 16:32:51.288768000 +07
  469  42.595931 32:32:32:32:32:32 18dBm Nov 18, 2018 16:32:51.308886000 +07
  470  42.927276 32:32:32:32:32:32 17dBm Nov 18, 2018 16:32:51.640231000 +07
  471  42.947708 32:32:32:32:32:32 16dBm Nov 18, 2018 16:32:51.660663000 +07
  472  42.986556 32:32:32:32:32:32 15dBm Nov 18, 2018 16:32:51.699511000 +07
  473  43.043810 32:32:32:32:32:32 18dBm Nov 18, 2018 16:32:51.756765000 +07
  474  43.172930 32:32:32:32:32:32 16dBm Nov 18, 2018 16:32:51.885885000 +07
  475  43.219097 32:32:32:32:32:32 17dBm Nov 18, 2018 16:32:51.932052000 +07
  476  43.508533 32:32:32:32:32:32 16dBm Nov 18, 2018 16:32:52.221488000 +07
  477  43.551702 32:32:32:32:32:32 13dBm Nov 18, 2018 16:32:52.264657000 +07
  478  43.758948 32:32:32:32:32:32 17dBm Nov 18, 2018 16:32:52.471903000 +07
  479  43.930100 32:32:32:32:32:32 17dBm Nov 18, 2018 16:32:52.643055000 +07
  480  43.950090 32:32:32:32:32:32 17dBm Nov 18, 2018 16:32:52.663045000 +07
  481  43.964849 32:32:32:32:32:32 17dBm Nov 18, 2018 16:32:52.677804000 +07
  482  44.268904 32:32:32:32:32:32 17dBm Nov 18, 2018 16:32:52.981859000 +07
  483  44.385728 32:32:32:32:32:32 18dBm Nov 18, 2018 16:32:53.098683000 +07
  484  44.497927 32:32:32:32:32:32 18dBm Nov 18, 2018 16:32:53.210882000 +07
  485  44.547386 32:32:32:32:32:32 17dBm Nov 18, 2018 16:32:53.260341000 +07
  486  44.657347 32:32:32:32:32:32 18dBm Nov 18, 2018 16:32:53.370302000 +07
  487  44.695643 32:32:32:32:32:32 17dBm Nov 18, 2018 16:32:53.408598000 +07
  488  44.713290 32:32:32:32:32:32 18dBm Nov 18, 2018 16:32:53.426245000 +07
  489  44.732884 32:32:32:32:32:32 16dBm Nov 18, 2018 16:32:53.445839000 +07
  490  44.777211 32:32:32:32:32:32 18dBm Nov 18, 2018 16:32:53.490166000 +07
  491  44.902597 32:32:32:32:32:32 18dBm Nov 18, 2018 16:32:53.615552000 +07
  492  44.963920 32:32:32:32:32:32 17dBm Nov 18, 2018 16:32:53.676875000 +07
  493  44.980733 32:32:32:32:32:32 17dBm Nov 18, 2018 16:32:53.693688000 +07
  494  45.028849 32:32:32:32:32:32 17dBm Nov 18, 2018 16:32:53.741804000 +07
  495  45.131967 32:32:32:32:32:32 18dBm Nov 18, 2018 16:32:53.844922000 +07
  496  45.235639 32:32:32:32:32:32 17dBm Nov 18, 2018 16:32:53.948594000 +07
  497  45.361872 32:32:32:32:32:32 18dBm Nov 18, 2018 16:32:54.074827000 +07
  498  45.475238 32:32:32:32:32:32 18dBm Nov 18, 2018 16:32:54.188193000 +07
  499  45.580565 32:32:32:32:32:32 19dBm Nov 18, 2018 16:32:54.293520000 +07
  500  45.650249 32:32:32:32:32:32 17dBm Nov 18, 2018 16:32:54.363204000 +07
  501  45.773665 32:32:32:32:32:32 17dBm Nov 18, 2018 16:32:54.486620000 +07
  502  45.961729 32:32:32:32:32:32 19dBm Nov 18, 2018 16:32:54.674684000 +07
  503  45.980293 32:32:32:32:32:32 19dBm Nov 18, 2018 16:32:54.693248000 +07
  504  46.011725 32:32:32:32:32:32 17dBm Nov 18, 2018 16:32:54.724680000 +07
  505  46.160387 32:32:32:32:32:32 16dBm Nov 18, 2018 16:32:54.873342000 +07
  506  46.272391 32:32:32:32:32:32 17dBm Nov 18, 2018 16:32:54.985346000 +07
  507  46.352773 32:32:32:32:32:32 16dBm Nov 18, 2018 16:32:55.065728000 +07
  508  46.382396 32:32:32:32:32:32 17dBm Nov 18, 2018 16:32:55.095351000 +07
  509  46.812197 32:32:32:32:32:32 18dBm Nov 18, 2018 16:32:55.525152000 +07
  510  46.908271 32:32:32:32:32:32 18dBm Nov 18, 2018 16:32:55.621226000 +07
  511  47.084960 32:32:32:32:32:32 15dBm Nov 18, 2018 16:32:55.797915000 +07
  512  47.411798 32:32:32:32:32:32 18dBm Nov 18, 2018 16:32:56.124753000 +07
  513  47.582555 32:32:32:32:32:32 19dBm Nov 18, 2018 16:32:56.295510000 +07
  514  47.679331 32:32:32:32:32:32 19dBm Nov 18, 2018 16:32:56.392286000 +07
  515  47.797466 32:32:32:32:32:32 19dBm Nov 18, 2018 16:32:56.510421000 +07
  516  47.827673 32:32:32:32:32:32 20dBm Nov 18, 2018 16:32:56.540628000 +07
  517  47.833952 32:32:32:32:32:32 20dBm Nov 18, 2018 16:32:56.546907000 +07
  518  47.997633 32:32:32:32:32:32 19dBm Nov 18, 2018 16:32:56.710588000 +07
  519  48.035306 32:32:32:32:32:32 18dBm Nov 18, 2018 16:32:56.748261000 +07
  520  48.094702 32:32:32:32:32:32 18dBm Nov 18, 2018 16:32:56.807657000 +07
  521  48.123206 32:32:32:32:32:32 18dBm Nov 18, 2018 16:32:56.836161000 +07
  522  48.138626 32:32:32:32:32:32 17dBm Nov 18, 2018 16:32:56.851581000 +07
  523  48.244943 32:32:32:32:32:32 20dBm Nov 18, 2018 16:32:56.957898000 +07
  524  48.342862 32:32:32:32:32:32 19dBm Nov 18, 2018 16:32:57.055817000 +07
  525  48.390679 32:32:32:32:32:32 19dBm Nov 18, 2018 16:32:57.103634000 +07
  526  48.470892 32:32:32:32:32:32 18dBm Nov 18, 2018 16:32:57.183847000 +07
  527  48.645983 32:32:32:32:32:32 19dBm Nov 18, 2018 16:32:57.358938000 +07
  528  48.687361 32:32:32:32:32:32 15dBm Nov 18, 2018 16:32:57.400316000 +07
  529  48.756438 32:32:32:32:32:32 18dBm Nov 18, 2018 16:32:57.469393000 +07
  530  48.834482 32:32:32:32:32:32 16dBm Nov 18, 2018 16:32:57.547437000 +07
  531  48.960072 32:32:32:32:32:32 16dBm Nov 18, 2018 16:32:57.673027000 +07
  532  49.030311 32:32:32:32:32:32 18dBm Nov 18, 2018 16:32:57.743266000 +07
  533  49.165182 32:32:32:32:32:32 18dBm Nov 18, 2018 16:32:57.878137000 +07
  534  49.190893 32:32:32:32:32:32 16dBm Nov 18, 2018 16:32:57.903848000 +07
  535  49.264920 32:32:32:32:32:32 17dBm Nov 18, 2018 16:32:57.977875000 +07
  536  49.330087 32:32:32:32:32:32 14dBm Nov 18, 2018 16:32:58.043042000 +07
  537  49.405239 32:32:32:32:32:32 18dBm Nov 18, 2018 16:32:58.118194000 +07
  538  49.434623 32:32:32:32:32:32 19dBm Nov 18, 2018 16:32:58.147578000 +07
  539  49.469601 32:32:32:32:32:32 18dBm Nov 18, 2018 16:32:58.182556000 +07
  540  49.488901 32:32:32:32:32:32 16dBm Nov 18, 2018 16:32:58.201856000 +07
  541  49.512434 32:32:32:32:32:32 18dBm Nov 18, 2018 16:32:58.225389000 +07
  542  49.567692 32:32:32:32:32:32 18dBm Nov 18, 2018 16:32:58.280647000 +07
  543  49.690887 32:32:32:32:32:32 18dBm Nov 18, 2018 16:32:58.403842000 +07
  544  49.732823 32:32:32:32:32:32 18dBm Nov 18, 2018 16:32:58.445778000 +07
  545  49.908471 32:32:32:32:32:32 17dBm Nov 18, 2018 16:32:58.621426000 +07
  546  49.931167 32:32:32:32:32:32 19dBm Nov 18, 2018 16:32:58.644122000 +07
  547  49.959843 32:32:32:32:32:32 19dBm Nov 18, 2018 16:32:58.672798000 +07
  548  49.972093 32:32:32:32:32:32 17dBm Nov 18, 2018 16:32:58.685048000 +07
  549  50.012098 32:32:32:32:32:32 18dBm Nov 18, 2018 16:32:58.725053000 +07
  550  50.031436 32:32:32:32:32:32 17dBm Nov 18, 2018 16:32:58.744391000 +07
  551  50.050525 32:32:32:32:32:32 18dBm Nov 18, 2018 16:32:58.763480000 +07
  552  50.221606 32:32:32:32:32:32 18dBm Nov 18, 2018 16:32:58.934561000 +07
  553  50.487174 32:32:32:32:32:32 17dBm Nov 18, 2018 16:32:59.200129000 +07
  554  50.611813 32:32:32:32:32:32 17dBm Nov 18, 2018 16:32:59.324768000 +07
  555  50.624119 32:32:32:32:32:32 16dBm Nov 18, 2018 16:32:59.337074000 +07
  556  50.636935 32:32:32:32:32:32 17dBm Nov 18, 2018 16:32:59.349890000 +07
  557  50.877818 32:32:32:32:32:32 16dBm Nov 18, 2018 16:32:59.590773000 +07
  558  50.982324 32:32:32:32:32:32 17dBm Nov 18, 2018 16:32:59.695279000 +07
  559  51.014089 32:32:32:32:32:32 16dBm Nov 18, 2018 16:32:59.727044000 +07
  560  51.030627 32:32:32:32:32:32 17dBm Nov 18, 2018 16:32:59.743582000 +07
  561  51.052655 32:32:32:32:32:32 17dBm Nov 18, 2018 16:32:59.765610000 +07
  562  51.174500 32:32:32:32:32:32 15dBm Nov 18, 2018 16:32:59.887455000 +07
  563  51.238363 32:32:32:32:32:32 19dBm Nov 18, 2018 16:32:59.951318000 +07
  564  51.291038 32:32:32:32:32:32 18dBm Nov 18, 2018 16:33:00.003993000 +07
  565  51.309136 32:32:32:32:32:32 16dBm Nov 18, 2018 16:33:00.022091000 +07
  566  51.323282 32:32:32:32:32:32 19dBm Nov 18, 2018 16:33:00.036237000 +07
  567  51.397532 32:32:32:32:32:32 17dBm Nov 18, 2018 16:33:00.110487000 +07
  568  51.491641 32:32:32:32:32:32 19dBm Nov 18, 2018 16:33:00.204596000 +07
  569  51.546499 32:32:32:32:32:32 17dBm Nov 18, 2018 16:33:00.259454000 +07
  570  51.568775 32:32:32:32:32:32 18dBm Nov 18, 2018 16:33:00.281730000 +07
  571  51.594543 32:32:32:32:32:32 17dBm Nov 18, 2018 16:33:00.307498000 +07
  572  51.655224 32:32:32:32:32:32 18dBm Nov 18, 2018 16:33:00.368179000 +07
  573  51.670774 32:32:32:32:32:32 19dBm Nov 18, 2018 16:33:00.383729000 +07
  574  51.809400 32:32:32:32:32:32 18dBm Nov 18, 2018 16:33:00.522355000 +07
  575  51.864777 32:32:32:32:32:32 16dBm Nov 18, 2018 16:33:00.577732000 +07
  576  52.005307 32:32:32:32:32:32 17dBm Nov 18, 2018 16:33:00.718262000 +07
  577  52.118681 32:32:32:32:32:32 18dBm Nov 18, 2018 16:33:00.831636000 +07
  578  52.279423 32:32:32:32:32:32 16dBm Nov 18, 2018 16:33:00.992378000 +07
  579  52.479739 32:32:32:32:32:32 17dBm Nov 18, 2018 16:33:01.192694000 +07
  580  52.792881 32:32:32:32:32:32 17dBm Nov 18, 2018 16:33:01.505836000 +07
  581  52.820301 32:32:32:32:32:32 16dBm Nov 18, 2018 16:33:01.533256000 +07
  582  52.840161 32:32:32:32:32:32 16dBm Nov 18, 2018 16:33:01.553116000 +07
  583  52.861979 32:32:32:32:32:32 18dBm Nov 18, 2018 16:33:01.574934000 +07
  584  52.863409 32:32:32:32:32:32 16dBm Nov 18, 2018 16:33:01.576364000 +07
  585  52.890107 32:32:32:32:32:32 18dBm Nov 18, 2018 16:33:01.603062000 +07
  586  52.920832 32:32:32:32:32:32 18dBm Nov 18, 2018 16:33:01.633787000 +07
  587  52.959258 32:32:32:32:32:32 15dBm Nov 18, 2018 16:33:01.672213000 +07
  588  53.066235 32:32:32:32:32:32 17dBm Nov 18, 2018 16:33:01.779190000 +07
  589  53.100076 32:32:32:32:32:32 16dBm Nov 18, 2018 16:33:01.813031000 +07
  590  53.304718 32:32:32:32:32:32 18dBm Nov 18, 2018 16:33:02.017673000 +07
  591  53.625870 32:32:32:32:32:32 18dBm Nov 18, 2018 16:33:02.338825000 +07
  592  53.696960 32:32:32:32:32:32 18dBm Nov 18, 2018 16:33:02.409915000 +07
  593  53.760624 32:32:32:32:32:32 17dBm Nov 18, 2018 16:33:02.473579000 +07
  594  53.790172 32:32:32:32:32:32 17dBm Nov 18, 2018 16:33:02.503127000 +07
  595  54.003391 32:32:32:32:32:32 16dBm Nov 18, 2018 16:33:02.716346000 +07
  596  54.145296 32:32:32:32:32:32 16dBm Nov 18, 2018 16:33:02.858251000 +07
  597  54.235720 32:32:32:32:32:32 15dBm Nov 18, 2018 16:33:02.948675000 +07
  598  54.295425 32:32:32:32:32:32 17dBm Nov 18, 2018 16:33:03.008380000 +07
  599  54.381444 32:32:32:32:32:32 18dBm Nov 18, 2018 16:33:03.094399000 +07
  600  54.599923 32:32:32:32:32:32 15dBm Nov 18, 2018 16:33:03.312878000 +07
  601  54.666263 32:32:32:32:32:32 17dBm Nov 18, 2018 16:33:03.379218000 +07
  602  54.721713 32:32:32:32:32:32 17dBm Nov 18, 2018 16:33:03.434668000 +07
  603  54.784092 32:32:32:32:32:32 16dBm Nov 18, 2018 16:33:03.497047000 +07
  604  55.035917 32:32:32:32:32:32 19dBm Nov 18, 2018 16:33:03.748872000 +07
  605  55.112110 32:32:32:32:32:32 18dBm Nov 18, 2018 16:33:03.825065000 +07
  606  55.147528 32:32:32:32:32:32 18dBm Nov 18, 2018 16:33:03.860483000 +07
  607  55.275129 32:32:32:32:32:32 17dBm Nov 18, 2018 16:33:03.988084000 +07
  608  55.414178 32:32:32:32:32:32 15dBm Nov 18, 2018 16:33:04.127133000 +07
  609  55.585145 32:32:32:32:32:32 16dBm Nov 18, 2018 16:33:04.298100000 +07
  610  55.603118 32:32:32:32:32:32 18dBm Nov 18, 2018 16:33:04.316073000 +07
  611  55.619257 32:32:32:32:32:32 17dBm Nov 18, 2018 16:33:04.332212000 +07
  612  55.734829 32:32:32:32:32:32 18dBm Nov 18, 2018 16:33:04.447784000 +07
  613  55.852435 32:32:32:32:32:32 19dBm Nov 18, 2018 16:33:04.565390000 +07
  614  56.036572 32:32:32:32:32:32 16dBm Nov 18, 2018 16:33:04.749527000 +07
  615  56.130651 32:32:32:32:32:32 17dBm Nov 18, 2018 16:33:04.843606000 +07
  616  56.159028 32:32:32:32:32:32 15dBm Nov 18, 2018 16:33:04.871983000 +07
  617  56.175110 32:32:32:32:32:32 15dBm Nov 18, 2018 16:33:04.888065000 +07
  618  56.187438 32:32:32:32:32:32 18dBm Nov 18, 2018 16:33:04.900393000 +07
  619  56.422315 32:32:32:32:32:32 16dBm Nov 18, 2018 16:33:05.135270000 +07
  620  56.602793 32:32:32:32:32:32 19dBm Nov 18, 2018 16:33:05.315748000 +07
  621  56.653371 32:32:32:32:32:32 18dBm Nov 18, 2018 16:33:05.366326000 +07
  622  56.667469 32:32:32:32:32:32 18dBm Nov 18, 2018 16:33:05.380424000 +07
  623  56.688177 32:32:32:32:32:32 18dBm Nov 18, 2018 16:33:05.401132000 +07
  624  56.738083 32:32:32:32:32:32 17dBm Nov 18, 2018 16:33:05.451038000 +07
  625  56.987860 32:32:32:32:32:32 16dBm Nov 18, 2018 16:33:05.700815000 +07
  626  57.077795 32:32:32:32:32:32 19dBm Nov 18, 2018 16:33:05.790750000 +07
  627  57.137165 32:32:32:32:32:32 17dBm Nov 18, 2018 16:33:05.850120000 +07
  628  57.151802 32:32:32:32:32:32 18dBm Nov 18, 2018 16:33:05.864757000 +07
  629  57.205137 32:32:32:32:32:32 16dBm Nov 18, 2018 16:33:05.918092000 +07
  630  57.270591 32:32:32:32:32:32 17dBm Nov 18, 2018 16:33:05.983546000 +07
  631  57.286653 32:32:32:32:32:32 18dBm Nov 18, 2018 16:33:05.999608000 +07
  632  57.317797 32:32:32:32:32:32 16dBm Nov 18, 2018 16:33:06.030752000 +07
  633  57.441539 32:32:32:32:32:32 18dBm Nov 18, 2018 16:33:06.154494000 +07
  634  57.961431 32:32:32:32:32:32 18dBm Nov 18, 2018 16:33:06.674386000 +07
  635  58.032318 32:32:32:32:32:32 17dBm Nov 18, 2018 16:33:06.745273000 +07
  636  58.202838 32:32:32:32:32:32 19dBm Nov 18, 2018 16:33:06.915793000 +07
  637  58.241940 32:32:32:32:32:32 17dBm Nov 18, 2018 16:33:06.954895000 +07
  638  58.251521 32:32:32:32:32:32 19dBm Nov 18, 2018 16:33:06.964476000 +07
  639  58.307842 32:32:32:32:32:32 18dBm Nov 18, 2018 16:33:07.020797000 +07
  640  58.381271 32:32:32:32:32:32 17dBm Nov 18, 2018 16:33:07.094226000 +07
  641  58.550294 32:32:32:32:32:32 14dBm Nov 18, 2018 16:33:07.263249000 +07
  642  58.637593 32:32:32:32:32:32 18dBm Nov 18, 2018 16:33:07.350548000 +07
  643  58.767784 32:32:32:32:32:32 21dBm Nov 18, 2018 16:33:07.480739000 +07
  644  58.866629 32:32:32:32:32:32 19dBm Nov 18, 2018 16:33:07.579584000 +07
  645  58.937253 32:32:32:32:32:32 21dBm Nov 18, 2018 16:33:07.650208000 +07
  646  58.954206 32:32:32:32:32:32 20dBm Nov 18, 2018 16:33:07.667161000 +07
  647  59.003231 32:32:32:32:32:32 18dBm Nov 18, 2018 16:33:07.716186000 +07
  648  59.041898 32:32:32:32:32:32 18dBm Nov 18, 2018 16:33:07.754853000 +07
  649  59.056500 32:32:32:32:32:32 20dBm Nov 18, 2018 16:33:07.769455000 +07
  650  59.108420 32:32:32:32:32:32 20dBm Nov 18, 2018 16:33:07.821375000 +07
  651  59.205828 32:32:32:32:32:32 20dBm Nov 18, 2018 16:33:07.918783000 +07
  652  59.239990 32:32:32:32:32:32 19dBm Nov 18, 2018 16:33:07.952945000 +07
  653  59.260882 32:32:32:32:32:32 20dBm Nov 18, 2018 16:33:07.973837000 +07
  654  59.286955 32:32:32:32:32:32 21dBm Nov 18, 2018 16:33:07.999910000 +07
  655  59.391597 32:32:32:32:32:32 20dBm Nov 18, 2018 16:33:08.104552000 +07
  656  59.411754 32:32:32:32:32:32 20dBm Nov 18, 2018 16:33:08.124709000 +07
  657  59.456997 32:32:32:32:32:32 20dBm Nov 18, 2018 16:33:08.169952000 +07
  658  59.506126 32:32:32:32:32:32 20dBm Nov 18, 2018 16:33:08.219081000 +07
  659  59.637524 32:32:32:32:32:32 20dBm Nov 18, 2018 16:33:08.350479000 +07
  660  59.669333 32:32:32:32:32:32 20dBm Nov 18, 2018 16:33:08.382288000 +07
  661  59.778004 32:32:32:32:32:32 21dBm Nov 18, 2018 16:33:08.490959000 +07
  662  59.964462 32:32:32:32:32:32 19dBm Nov 18, 2018 16:33:08.677417000 +07
  663  59.986828 32:32:32:32:32:32 20dBm Nov 18, 2018 16:33:08.699783000 +07
  664  59.998828 32:32:32:32:32:32 19dBm Nov 18, 2018 16:33:08.711783000 +07
  665  60.008443 32:32:32:32:32:32 19dBm Nov 18, 2018 16:33:08.721398000 +07
  666  60.135223 32:32:32:32:32:32 19dBm Nov 18, 2018 16:33:08.848178000 +07
  667  60.472312 32:32:32:32:32:32 18dBm Nov 18, 2018 16:33:09.185267000 +07
  668  60.627984 32:32:32:32:32:32 22dBm Nov 18, 2018 16:33:09.340939000 +07
  669  60.723062 32:32:32:32:32:32 20dBm Nov 18, 2018 16:33:09.436017000 +07
  670  60.859570 32:32:32:32:32:32 19dBm Nov 18, 2018 16:33:09.572525000 +07
  671  60.877372 32:32:32:32:32:32 21dBm Nov 18, 2018 16:33:09.590327000 +07
  672  61.049657 32:32:32:32:32:32 18dBm Nov 18, 2018 16:33:09.762612000 +07
  673  61.137972 32:32:32:32:32:32 20dBm Nov 18, 2018 16:33:09.850927000 +07
  674  61.311383 32:32:32:32:32:32 19dBm Nov 18, 2018 16:33:10.024338000 +07
  675  61.361624 32:32:32:32:32:32 22dBm Nov 18, 2018 16:33:10.074579000 +07
  676  61.504551 32:32:32:32:32:32 21dBm Nov 18, 2018 16:33:10.217506000 +07
  677  61.567883 32:32:32:32:32:32 21dBm Nov 18, 2018 16:33:10.280838000 +07
  678  61.765104 32:32:32:32:32:32 19dBm Nov 18, 2018 16:33:10.478059000 +07
  679  61.896786 32:32:32:32:32:32 21dBm Nov 18, 2018 16:33:10.609741000 +07
  680  61.954779 32:32:32:32:32:32 21dBm Nov 18, 2018 16:33:10.667734000 +07
  681  61.997848 32:32:32:32:32:32 21dBm Nov 18, 2018 16:33:10.710803000 +07
  682  62.072137 32:32:32:32:32:32 20dBm Nov 18, 2018 16:33:10.785092000 +07
  683  62.193281 32:32:32:32:32:32 20dBm Nov 18, 2018 16:33:10.906236000 +07
  684  62.319522 32:32:32:32:32:32 18dBm Nov 18, 2018 16:33:11.032477000 +07
  685  62.358655 32:32:32:32:32:32 18dBm Nov 18, 2018 16:33:11.071610000 +07
  686  62.398063 32:32:32:32:32:32 21dBm Nov 18, 2018 16:33:11.111018000 +07
  687  62.418083 32:32:32:32:32:32 19dBm Nov 18, 2018 16:33:11.131038000 +07
  688  62.423164 32:32:32:32:32:32 22dBm Nov 18, 2018 16:33:11.136119000 +07
  689  62.529227 32:32:32:32:32:32 19dBm Nov 18, 2018 16:33:11.242182000 +07
  690  62.586549 32:32:32:32:32:32 21dBm Nov 18, 2018 16:33:11.299504000 +07
  691  62.599493 32:32:32:32:32:32 21dBm Nov 18, 2018 16:33:11.312448000 +07
  692  62.830729 32:32:32:32:32:32 21dBm Nov 18, 2018 16:33:11.543684000 +07
  693  62.955507 32:32:32:32:32:32 21dBm Nov 18, 2018 16:33:11.668462000 +07
  694  62.993847 32:32:32:32:32:32 21dBm Nov 18, 2018 16:33:11.706802000 +07
  695  63.106415 32:32:32:32:32:32 19dBm Nov 18, 2018 16:33:11.819370000 +07
  696  63.127435 32:32:32:32:32:32 21dBm Nov 18, 2018 16:33:11.840390000 +07
  697  63.301871 32:32:32:32:32:32 21dBm Nov 18, 2018 16:33:12.014826000 +07
  698  63.389177 32:32:32:32:32:32 21dBm Nov 18, 2018 16:33:12.102132000 +07
  699  63.425348 32:32:32:32:32:32 20dBm Nov 18, 2018 16:33:12.138303000 +07
  700  63.491505 32:32:32:32:32:32 22dBm Nov 18, 2018 16:33:12.204460000 +07
  701  63.566464 32:32:32:32:32:32 22dBm Nov 18, 2018 16:33:12.279419000 +07
  702  63.621767 32:32:32:32:32:32 21dBm Nov 18, 2018 16:33:12.334722000 +07
  703  63.690566 32:32:32:32:32:32 19dBm Nov 18, 2018 16:33:12.403521000 +07
  704  63.827100 32:32:32:32:32:32 21dBm Nov 18, 2018 16:33:12.540055000 +07
  705  63.860452 32:32:32:32:32:32 23dBm Nov 18, 2018 16:33:12.573407000 +07
  706  63.987465 32:32:32:32:32:32 21dBm Nov 18, 2018 16:33:12.700420000 +07
  707  64.009269 32:32:32:32:32:32 21dBm Nov 18, 2018 16:33:12.722224000 +07
  708  64.085109 32:32:32:32:32:32 22dBm Nov 18, 2018 16:33:12.798064000 +07
  709  64.164611 32:32:32:32:32:32 23dBm Nov 18, 2018 16:33:12.877566000 +07
  710  64.215634 32:32:32:32:32:32 20dBm Nov 18, 2018 16:33:12.928589000 +07
  711  64.268976 32:32:32:32:32:32 22dBm Nov 18, 2018 16:33:12.981931000 +07
  712  64.392232 32:32:32:32:32:32 22dBm Nov 18, 2018 16:33:13.105187000 +07
  713  64.472827 32:32:32:32:32:32 21dBm Nov 18, 2018 16:33:13.185782000 +07
  714  64.521279 32:32:32:32:32:32 23dBm Nov 18, 2018 16:33:13.234234000 +07
  715  65.058831 32:32:32:32:32:32 22dBm Nov 18, 2018 16:33:13.771786000 +07
  716  65.161792 32:32:32:32:32:32 21dBm Nov 18, 2018 16:33:13.874747000 +07
  717  65.276790 32:32:32:32:32:32 21dBm Nov 18, 2018 16:33:13.989745000 +07
  718  65.318396 32:32:32:32:32:32 21dBm Nov 18, 2018 16:33:14.031351000 +07
  719  65.445765 32:32:32:32:32:32 21dBm Nov 18, 2018 16:33:14.158720000 +07
  720  65.489044 32:32:32:32:32:32 21dBm Nov 18, 2018 16:33:14.201999000 +07
  721  65.832112 32:32:32:32:32:32 20dBm Nov 18, 2018 16:33:14.545067000 +07
  722  65.919846 32:32:32:32:32:32 22dBm Nov 18, 2018 16:33:14.632801000 +07
  723  65.946035 32:32:32:32:32:32 22dBm Nov 18, 2018 16:33:14.658990000 +07
  724  66.067556 32:32:32:32:32:32 21dBm Nov 18, 2018 16:33:14.780511000 +07
  725  66.356481 32:32:32:32:32:32 20dBm Nov 18, 2018 16:33:15.069436000 +07
  726  66.383450 32:32:32:32:32:32 19dBm Nov 18, 2018 16:33:15.096405000 +07
  727  66.396437 32:32:32:32:32:32 21dBm Nov 18, 2018 16:33:15.109392000 +07
  728  66.441704 32:32:32:32:32:32 22dBm Nov 18, 2018 16:33:15.154659000 +07
  729  66.530032 32:32:32:32:32:32 20dBm Nov 18, 2018 16:33:15.242987000 +07
  730  66.831893 32:32:32:32:32:32 20dBm Nov 18, 2018 16:33:15.544848000 +07
  731  66.852665 32:32:32:32:32:32 21dBm Nov 18, 2018 16:33:15.565620000 +07
  732  67.113349 32:32:32:32:32:32 21dBm Nov 18, 2018 16:33:15.826304000 +07
  733  67.127096 32:32:32:32:32:32 22dBm Nov 18, 2018 16:33:15.840051000 +07
  734  67.161745 32:32:32:32:32:32 18dBm Nov 18, 2018 16:33:15.874700000 +07
  735  67.212901 32:32:32:32:32:32 23dBm Nov 18, 2018 16:33:15.925856000 +07
  736  67.346064 32:32:32:32:32:32 18dBm Nov 18, 2018 16:33:16.059019000 +07
  737  67.394810 32:32:32:32:32:32 22dBm Nov 18, 2018 16:33:16.107765000 +07
  738  67.444294 32:32:32:32:32:32 22dBm Nov 18, 2018 16:33:16.157249000 +07
  739  67.470247 32:32:32:32:32:32 23dBm Nov 18, 2018 16:33:16.183202000 +07
  740  67.646315 32:32:32:32:32:32 23dBm Nov 18, 2018 16:33:16.359270000 +07
  741  67.687868 32:32:32:32:32:32 21dBm Nov 18, 2018 16:33:16.400823000 +07
  742  67.804454 32:32:32:32:32:32 20dBm Nov 18, 2018 16:33:16.517409000 +07
  743  67.843017 32:32:32:32:32:32 17dBm Nov 18, 2018 16:33:16.555972000 +07
  744  67.864597 32:32:32:32:32:32 19dBm Nov 18, 2018 16:33:16.577552000 +07
  745  67.996321 32:32:32:32:32:32 19dBm Nov 18, 2018 16:33:16.709276000 +07
  746  68.070954 32:32:32:32:32:32 22dBm Nov 18, 2018 16:33:16.783909000 +07
  747  68.428495 32:32:32:32:32:32 23dBm Nov 18, 2018 16:33:17.141450000 +07
  748  68.700219 32:32:32:32:32:32 20dBm Nov 18, 2018 16:33:17.413174000 +07
  749  68.842370 32:32:32:32:32:32 22dBm Nov 18, 2018 16:33:17.555325000 +07
  750  68.922242 32:32:32:32:32:32 20dBm Nov 18, 2018 16:33:17.635197000 +07
  751  69.506054 32:32:32:32:32:32 21dBm Nov 18, 2018 16:33:18.219009000 +07
  752  69.698259 32:32:32:32:32:32 21dBm Nov 18, 2018 16:33:18.411214000 +07
  753  69.728603 32:32:32:32:32:32 20dBm Nov 18, 2018 16:33:18.441558000 +07
  754  69.918247 32:32:32:32:32:32 21dBm Nov 18, 2018 16:33:18.631202000 +07
  755  69.948796 32:32:32:32:32:32 21dBm Nov 18, 2018 16:33:18.661751000 +07
  756  70.043500 32:32:32:32:32:32 20dBm Nov 18, 2018 16:33:18.756455000 +07
  757  70.169864 32:32:32:32:32:32 20dBm Nov 18, 2018 16:33:18.882819000 +07
  758  70.324258 32:32:32:32:32:32 20dBm Nov 18, 2018 16:33:19.037213000 +07
  759  70.363690 32:32:32:32:32:32 20dBm Nov 18, 2018 16:33:19.076645000 +07
  760  70.387834 32:32:32:32:32:32 17dBm Nov 18, 2018 16:33:19.100789000 +07
  761  70.399193 32:32:32:32:32:32 21dBm Nov 18, 2018 16:33:19.112148000 +07
  762  70.474800 32:32:32:32:32:32 18dBm Nov 18, 2018 16:33:19.187755000 +07
  763  70.760603 32:32:32:32:32:32 21dBm Nov 18, 2018 16:33:19.473558000 +07
  764  70.941649 32:32:32:32:32:32 19dBm Nov 18, 2018 16:33:19.654604000 +07
  765  70.991717 32:32:32:32:32:32 21dBm Nov 18, 2018 16:33:19.704672000 +07
  766  71.008728 32:32:32:32:32:32 20dBm Nov 18, 2018 16:33:19.721683000 +07
  767  71.021617 32:32:32:32:32:32 21dBm Nov 18, 2018 16:33:19.734572000 +07
  768  71.044825 32:32:32:32:32:32 20dBm Nov 18, 2018 16:33:19.757780000 +07
  769  71.108792 32:32:32:32:32:32 21dBm Nov 18, 2018 16:33:19.821747000 +07
  770  71.150941 32:32:32:32:32:32 20dBm Nov 18, 2018 16:33:19.863896000 +07
  771  71.165108 32:32:32:32:32:32 20dBm Nov 18, 2018 16:33:19.878063000 +07
  772  71.366901 32:32:32:32:32:32 21dBm Nov 18, 2018 16:33:20.079856000 +07
  773  71.617940 32:32:32:32:32:32 21dBm Nov 18, 2018 16:33:20.330895000 +07
  774  71.766248 32:32:32:32:32:32 21dBm Nov 18, 2018 16:33:20.479203000 +07
  775  71.821307 32:32:32:32:32:32 21dBm Nov 18, 2018 16:33:20.534262000 +07
  776  72.054177 32:32:32:32:32:32 19dBm Nov 18, 2018 16:33:20.767132000 +07
  777  72.135073 32:32:32:32:32:32 21dBm Nov 18, 2018 16:33:20.848028000 +07
  778  72.197851 32:32:32:32:32:32 22dBm Nov 18, 2018 16:33:20.910806000 +07
  779  72.226372 32:32:32:32:32:32 21dBm Nov 18, 2018 16:33:20.939327000 +07
  780  72.430173 32:32:32:32:32:32 20dBm Nov 18, 2018 16:33:21.143128000 +07
  781  72.492368 32:32:32:32:32:32 21dBm Nov 18, 2018 16:33:21.205323000 +07
  782  72.505133 32:32:32:32:32:32 19dBm Nov 18, 2018 16:33:21.218088000 +07
  783  72.524929 32:32:32:32:32:32 19dBm Nov 18, 2018 16:33:21.237884000 +07
  784  72.542673 32:32:32:32:32:32 19dBm Nov 18, 2018 16:33:21.255628000 +07
  785  72.568929 32:32:32:32:32:32 21dBm Nov 18, 2018 16:33:21.281884000 +07
  786  72.597045 32:32:32:32:32:32 20dBm Nov 18, 2018 16:33:21.310000000 +07
  787  72.632384 32:32:32:32:32:32 20dBm Nov 18, 2018 16:33:21.345339000 +07
  788  72.643917 32:32:32:32:32:32 20dBm Nov 18, 2018 16:33:21.356872000 +07
  789  73.162271 32:32:32:32:32:32 20dBm Nov 18, 2018 16:33:21.875226000 +07
  790  73.204424 32:32:32:32:32:32 19dBm Nov 18, 2018 16:33:21.917379000 +07
  791  73.218031 32:32:32:32:32:32 20dBm Nov 18, 2018 16:33:21.930986000 +07
  792  73.227888 32:32:32:32:32:32 20dBm Nov 18, 2018 16:33:21.940843000 +07
  793  73.253050 32:32:32:32:32:32 18dBm Nov 18, 2018 16:33:21.966005000 +07
  794  73.406859 32:32:32:32:32:32 22dBm Nov 18, 2018 16:33:22.119814000 +07
  795  73.465794 32:32:32:32:32:32 21dBm Nov 18, 2018 16:33:22.178749000 +07
  796  73.730576 32:32:32:32:32:32 18dBm Nov 18, 2018 16:33:22.443531000 +07
  797  73.786231 32:32:32:32:32:32 20dBm Nov 18, 2018 16:33:22.499186000 +07
  798  73.804017 32:32:32:32:32:32 21dBm Nov 18, 2018 16:33:22.516972000 +07
  799  74.115499 32:32:32:32:32:32 21dBm Nov 18, 2018 16:33:22.828454000 +07
  800  74.145629 32:32:32:32:32:32 20dBm Nov 18, 2018 16:33:22.858584000 +07
  801  74.253342 32:32:32:32:32:32 22dBm Nov 18, 2018 16:33:22.966297000 +07
  802  74.279238 32:32:32:32:32:32 21dBm Nov 18, 2018 16:33:22.992193000 +07
  803  74.306975 32:32:32:32:32:32 20dBm Nov 18, 2018 16:33:23.019930000 +07
  804  74.412392 32:32:32:32:32:32 21dBm Nov 18, 2018 16:33:23.125347000 +07
  805  74.594104 32:32:32:32:32:32 20dBm Nov 18, 2018 16:33:23.307059000 +07
  806  74.764870 32:32:32:32:32:32 19dBm Nov 18, 2018 16:33:23.477825000 +07
  807  74.804954 32:32:32:32:32:32 19dBm Nov 18, 2018 16:33:23.517909000 +07
  808  74.878511 32:32:32:32:32:32 21dBm Nov 18, 2018 16:33:23.591466000 +07
  809  75.022773 32:32:32:32:32:32 19dBm Nov 18, 2018 16:33:23.735728000 +07
  810  75.113375 32:32:32:32:32:32 20dBm Nov 18, 2018 16:33:23.826330000 +07
  811  75.156250 32:32:32:32:32:32 19dBm Nov 18, 2018 16:33:23.869205000 +07
  812  75.179300 32:32:32:32:32:32 20dBm Nov 18, 2018 16:33:23.892255000 +07
  813  75.243801 32:32:32:32:32:32 21dBm Nov 18, 2018 16:33:23.956756000 +07
  814  75.358916 32:32:32:32:32:32 21dBm Nov 18, 2018 16:33:24.071871000 +07
  815  75.429354 32:32:32:32:32:32 21dBm Nov 18, 2018 16:33:24.142309000 +07
  816  75.475405 32:32:32:32:32:32 20dBm Nov 18, 2018 16:33:24.188360000 +07
  817  75.491022 32:32:32:32:32:32 21dBm Nov 18, 2018 16:33:24.203977000 +07
  818  75.735415 32:32:32:32:32:32 21dBm Nov 18, 2018 16:33:24.448370000 +07
  819  75.789935 32:32:32:32:32:32 19dBm Nov 18, 2018 16:33:24.502890000 +07
  820  75.806067 32:32:32:32:32:32 20dBm Nov 18, 2018 16:33:24.519022000 +07
  821  75.848062 32:32:32:32:32:32 19dBm Nov 18, 2018 16:33:24.561017000 +07
  822  76.077239 32:32:32:32:32:32 21dBm Nov 18, 2018 16:33:24.790194000 +07
  823  76.124313 32:32:32:32:32:32 21dBm Nov 18, 2018 16:33:24.837268000 +07
  824  76.155254 32:32:32:32:32:32 19dBm Nov 18, 2018 16:33:24.868209000 +07
  825  76.179677 32:32:32:32:32:32 19dBm Nov 18, 2018 16:33:24.892632000 +07
  826  76.208006 32:32:32:32:32:32 21dBm Nov 18, 2018 16:33:24.920961000 +07
  827  76.286712 32:32:32:32:32:32 22dBm Nov 18, 2018 16:33:24.999667000 +07
  828  76.302574 32:32:32:32:32:32 20dBm Nov 18, 2018 16:33:25.015529000 +07
  829  76.315924 32:32:32:32:32:32 22dBm Nov 18, 2018 16:33:25.028879000 +07
  830  76.465951 32:32:32:32:32:32 20dBm Nov 18, 2018 16:33:25.178906000 +07
  831  76.735060 32:32:32:32:32:32 17dBm Nov 18, 2018 16:33:25.448015000 +07
  832  76.802883 32:32:32:32:32:32 20dBm Nov 18, 2018 16:33:25.515838000 +07
  833  76.842612 32:32:32:32:32:32 20dBm Nov 18, 2018 16:33:25.555567000 +07
  834  76.882712 32:32:32:32:32:32 21dBm Nov 18, 2018 16:33:25.595667000 +07
  835  76.965225 32:32:32:32:32:32 19dBm Nov 18, 2018 16:33:25.678180000 +07
  836  77.047666 32:32:32:32:32:32 17dBm Nov 18, 2018 16:33:25.760621000 +07
  837  77.108775 32:32:32:32:32:32 21dBm Nov 18, 2018 16:33:25.821730000 +07
  838  77.373750 32:32:32:32:32:32 19dBm Nov 18, 2018 16:33:26.086705000 +07
  839  77.414401 32:32:32:32:32:32 20dBm Nov 18, 2018 16:33:26.127356000 +07
  840  77.454148 32:32:32:32:32:32 19dBm Nov 18, 2018 16:33:26.167103000 +07
  841  77.470573 32:32:32:32:32:32 20dBm Nov 18, 2018 16:33:26.183528000 +07
  842  77.485304 32:32:32:32:32:32 21dBm Nov 18, 2018 16:33:26.198259000 +07
  843  77.519436 32:32:32:32:32:32 21dBm Nov 18, 2018 16:33:26.232391000 +07
  844  77.539928 32:32:32:32:32:32 20dBm Nov 18, 2018 16:33:26.252883000 +07
  845  77.570424 32:32:32:32:32:32 22dBm Nov 18, 2018 16:33:26.283379000 +07
  846  77.619440 32:32:32:32:32:32 21dBm Nov 18, 2018 16:33:26.332395000 +07
  847  77.653639 32:32:32:32:32:32 21dBm Nov 18, 2018 16:33:26.366594000 +07
  848  77.720545 32:32:32:32:32:32 21dBm Nov 18, 2018 16:33:26.433500000 +07
  849  77.832521 32:32:32:32:32:32 20dBm Nov 18, 2018 16:33:26.545476000 +07
  850  77.897383 32:32:32:32:32:32 21dBm Nov 18, 2018 16:33:26.610338000 +07
  851  77.933612 32:32:32:32:32:32 20dBm Nov 18, 2018 16:33:26.646567000 +07
  852  78.065039 32:32:32:32:32:32 20dBm Nov 18, 2018 16:33:26.777994000 +07
  853  78.079118 32:32:32:32:32:32 22dBm Nov 18, 2018 16:33:26.792073000 +07
  854  78.086254 32:32:32:32:32:32 22dBm Nov 18, 2018 16:33:26.799209000 +07
  855  78.266337 32:32:32:32:32:32 21dBm Nov 18, 2018 16:33:26.979292000 +07
  856  78.319225 32:32:32:32:32:32 21dBm Nov 18, 2018 16:33:27.032180000 +07
  857  78.383372 32:32:32:32:32:32 20dBm Nov 18, 2018 16:33:27.096327000 +07
  858  78.470223 32:32:32:32:32:32 21dBm Nov 18, 2018 16:33:27.183178000 +07
  859  78.513473 32:32:32:32:32:32 18dBm Nov 18, 2018 16:33:27.226428000 +07
  860  78.580313 32:32:32:32:32:32 20dBm Nov 18, 2018 16:33:27.293268000 +07
  861  78.676465 32:32:32:32:32:32 21dBm Nov 18, 2018 16:33:27.389420000 +07
  862  78.807828 32:32:32:32:32:32 19dBm Nov 18, 2018 16:33:27.520783000 +07
  863  78.846265 32:32:32:32:32:32 20dBm Nov 18, 2018 16:33:27.559220000 +07
  864  78.964666 32:32:32:32:32:32 20dBm Nov 18, 2018 16:33:27.677621000 +07
  865  79.006376 32:32:32:32:32:32 19dBm Nov 18, 2018 16:33:27.719331000 +07
  866  79.024722 32:32:32:32:32:32 20dBm Nov 18, 2018 16:33:27.737677000 +07
  867  79.036703 32:32:32:32:32:32 21dBm Nov 18, 2018 16:33:27.749658000 +07
  868  79.124662 32:32:32:32:32:32 20dBm Nov 18, 2018 16:33:27.837617000 +07
  869  79.233613 32:32:32:32:32:32 22dBm Nov 18, 2018 16:33:27.946568000 +07
  870  79.526174 32:32:32:32:32:32 22dBm Nov 18, 2018 16:33:28.239129000 +07
  871  79.695988 32:32:32:32:32:32 22dBm Nov 18, 2018 16:33:28.408943000 +07
  872  79.813904 32:32:32:32:32:32 21dBm Nov 18, 2018 16:33:28.526859000 +07
  873  79.864385 32:32:32:32:32:32 20dBm Nov 18, 2018 16:33:28.577340000 +07
  874  80.011988 32:32:32:32:32:32 20dBm Nov 18, 2018 16:33:28.724943000 +07
  875  80.065916 32:32:32:32:32:32 20dBm Nov 18, 2018 16:33:28.778871000 +07
  876  80.204226 32:32:32:32:32:32 20dBm Nov 18, 2018 16:33:28.917181000 +07
  877  80.230635 32:32:32:32:32:32 20dBm Nov 18, 2018 16:33:28.943590000 +07
  878  80.294193 32:32:32:32:32:32 20dBm Nov 18, 2018 16:33:29.007148000 +07
  879  80.375222 32:32:32:32:32:32 21dBm Nov 18, 2018 16:33:29.088177000 +07
  880  80.392955 32:32:32:32:32:32 21dBm Nov 18, 2018 16:33:29.105910000 +07
  881  80.889236 32:32:32:32:32:32 19dBm Nov 18, 2018 16:33:29.602191000 +07
  882  81.016517 32:32:32:32:32:32 22dBm Nov 18, 2018 16:33:29.729472000 +07
  883  81.155389 32:32:32:32:32:32 18dBm Nov 18, 2018 16:33:29.868344000 +07
  884  81.185816 32:32:32:32:32:32 20dBm Nov 18, 2018 16:33:29.898771000 +07
  885  81.277087 32:32:32:32:32:32 22dBm Nov 18, 2018 16:33:29.990042000 +07
  886  81.477546 32:32:32:32:32:32 18dBm Nov 18, 2018 16:33:30.190501000 +07
  887  81.499178 32:32:32:32:32:32 20dBm Nov 18, 2018 16:33:30.212133000 +07
  888  81.582100 32:32:32:32:32:32 20dBm Nov 18, 2018 16:33:30.295055000 +07
  889  81.630801 32:32:32:32:32:32 20dBm Nov 18, 2018 16:33:30.343756000 +07
  890  81.650674 32:32:32:32:32:32 20dBm Nov 18, 2018 16:33:30.363629000 +07
  891  81.774042 32:32:32:32:32:32 19dBm Nov 18, 2018 16:33:30.486997000 +07
  892  81.819997 32:32:32:32:32:32 18dBm Nov 18, 2018 16:33:30.532952000 +07
  893  81.851524 32:32:32:32:32:32 22dBm Nov 18, 2018 16:33:30.564479000 +07
  894  81.978202 32:32:32:32:32:32 22dBm Nov 18, 2018 16:33:30.691157000 +07
  895  82.004312 32:32:32:32:32:32 20dBm Nov 18, 2018 16:33:30.717267000 +07
  896  82.022596 32:32:32:32:32:32 20dBm Nov 18, 2018 16:33:30.735551000 +07
  897  82.110600 32:32:32:32:32:32 19dBm Nov 18, 2018 16:33:30.823555000 +07
  898  82.131075 32:32:32:32:32:32 21dBm Nov 18, 2018 16:33:30.844030000 +07
  899  82.152534 32:32:32:32:32:32 20dBm Nov 18, 2018 16:33:30.865489000 +07
  900  82.196049 32:32:32:32:32:32 20dBm Nov 18, 2018 16:33:30.909004000 +07
  901  82.224015 32:32:32:32:32:32 22dBm Nov 18, 2018 16:33:30.936970000 +07
  902  82.417612 32:32:32:32:32:32 21dBm Nov 18, 2018 16:33:31.130567000 +07
  903  82.550998 32:32:32:32:32:32 20dBm Nov 18, 2018 16:33:31.263953000 +07
  904  82.641246 32:32:32:32:32:32 20dBm Nov 18, 2018 16:33:31.354201000 +07
  905  82.724733 32:32:32:32:32:32 20dBm Nov 18, 2018 16:33:31.437688000 +07
  906  82.813107 32:32:32:32:32:32 20dBm Nov 18, 2018 16:33:31.526062000 +07
  907  82.862127 32:32:32:32:32:32 22dBm Nov 18, 2018 16:33:31.575082000 +07
  908  82.948787 32:32:32:32:32:32 21dBm Nov 18, 2018 16:33:31.661742000 +07
  909  82.989454 32:32:32:32:32:32 21dBm Nov 18, 2018 16:33:31.702409000 +07
  910  83.161567 32:32:32:32:32:32 22dBm Nov 18, 2018 16:33:31.874522000 +07
  911  83.234004 32:32:32:32:32:32 19dBm Nov 18, 2018 16:33:31.946959000 +07
  912  83.302508 32:32:32:32:32:32 20dBm Nov 18, 2018 16:33:32.015463000 +07
  913  83.570085 32:32:32:32:32:32 18dBm Nov 18, 2018 16:33:32.283040000 +07
  914  83.646701 32:32:32:32:32:32 22dBm Nov 18, 2018 16:33:32.359656000 +07
  915  83.666429 32:32:32:32:32:32 18dBm Nov 18, 2018 16:33:32.379384000 +07
  916  83.871084 32:32:32:32:32:32 21dBm Nov 18, 2018 16:33:32.584039000 +07
  917  83.929939 32:32:32:32:32:32 22dBm Nov 18, 2018 16:33:32.642894000 +07
  918  83.970436 32:32:32:32:32:32 17dBm Nov 18, 2018 16:33:32.683391000 +07
  919  84.007206 32:32:32:32:32:32 19dBm Nov 18, 2018 16:33:32.720161000 +07
  920  84.114199 32:32:32:32:32:32 20dBm Nov 18, 2018 16:33:32.827154000 +07
  921  84.126479 32:32:32:32:32:32 19dBm Nov 18, 2018 16:33:32.839434000 +07
  922  84.153244 32:32:32:32:32:32 20dBm Nov 18, 2018 16:33:32.866199000 +07
  923  84.228910 32:32:32:32:32:32 20dBm Nov 18, 2018 16:33:32.941865000 +07
  924  84.265561 32:32:32:32:32:32 18dBm Nov 18, 2018 16:33:32.978516000 +07
  925  84.306330 32:32:32:32:32:32 20dBm Nov 18, 2018 16:33:33.019285000 +07
  926  84.538349 32:32:32:32:32:32 19dBm Nov 18, 2018 16:33:33.251304000 +07
  927  84.557340 32:32:32:32:32:32 19dBm Nov 18, 2018 16:33:33.270295000 +07
  928  84.621158 32:32:32:32:32:32 19dBm Nov 18, 2018 16:33:33.334113000 +07
  929  84.714063 32:32:32:32:32:32 21dBm Nov 18, 2018 16:33:33.427018000 +07
  930  85.004301 32:32:32:32:32:32 22dBm Nov 18, 2018 16:33:33.717256000 +07
  931  85.046456 32:32:32:32:32:32 22dBm Nov 18, 2018 16:33:33.759411000 +07
  932  85.122259 32:32:32:32:32:32 22dBm Nov 18, 2018 16:33:33.835214000 +07
  933  85.138972 32:32:32:32:32:32 22dBm Nov 18, 2018 16:33:33.851927000 +07
  934  85.224713 32:32:32:32:32:32 20dBm Nov 18, 2018 16:33:33.937668000 +07
  935  85.305141 32:32:32:32:32:32 19dBm Nov 18, 2018 16:33:34.018096000 +07
  936  85.331189 32:32:32:32:32:32 18dBm Nov 18, 2018 16:33:34.044144000 +07
  937  85.352227 32:32:32:32:32:32 19dBm Nov 18, 2018 16:33:34.065182000 +07
  938  85.499969 32:32:32:32:32:32 19dBm Nov 18, 2018 16:33:34.212924000 +07
  939  85.682753 32:32:32:32:32:32 14dBm Nov 18, 2018 16:33:34.395708000 +07
  940  85.953222 32:32:32:32:32:32 16dBm Nov 18, 2018 16:33:34.666177000 +07
  941  86.006333 32:32:32:32:32:32 17dBm Nov 18, 2018 16:33:34.719288000 +07
  942  86.096131 32:32:32:32:32:32 18dBm Nov 18, 2018 16:33:34.809086000 +07
  943  86.125389 32:32:32:32:32:32 17dBm Nov 18, 2018 16:33:34.838344000 +07
  944  86.143716 32:32:32:32:32:32 20dBm Nov 18, 2018 16:33:34.856671000 +07
  945  86.238355 32:32:32:32:32:32 19dBm Nov 18, 2018 16:33:34.951310000 +07
  946  86.250388 32:32:32:32:32:32 22dBm Nov 18, 2018 16:33:34.963343000 +07
  947  86.622470 32:32:32:32:32:32 15dBm Nov 18, 2018 16:33:35.335425000 +07
  948  86.652486 32:32:32:32:32:32 18dBm Nov 18, 2018 16:33:35.365441000 +07
  949  86.677738 32:32:32:32:32:32 17dBm Nov 18, 2018 16:33:35.390693000 +07
  950  86.687909 32:32:32:32:32:32 19dBm Nov 18, 2018 16:33:35.400864000 +07
  951  86.773321 32:32:32:32:32:32 18dBm Nov 18, 2018 16:33:35.486276000 +07
  952  87.130609 32:32:32:32:32:32 20dBm Nov 18, 2018 16:33:35.843564000 +07
  953  87.209134 32:32:32:32:32:32 18dBm Nov 18, 2018 16:33:35.922089000 +07
  954  87.235604 32:32:32:32:32:32 19dBm Nov 18, 2018 16:33:35.948559000 +07
  955  87.331595 32:32:32:32:32:32 19dBm Nov 18, 2018 16:33:36.044550000 +07
  956  87.441387 32:32:32:32:32:32 19dBm Nov 18, 2018 16:33:36.154342000 +07
  957  87.543867 32:32:32:32:32:32 18dBm Nov 18, 2018 16:33:36.256822000 +07
  958  87.556694 32:32:32:32:32:32 19dBm Nov 18, 2018 16:33:36.269649000 +07
  959  87.820291 32:32:32:32:32:32 20dBm Nov 18, 2018 16:33:36.533246000 +07
  960  87.876285 32:32:32:32:32:32 19dBm Nov 18, 2018 16:33:36.589240000 +07
  961  88.248458 32:32:32:32:32:32 17dBm Nov 18, 2018 16:33:36.961413000 +07
  962  88.363059 32:32:32:32:32:32 19dBm Nov 18, 2018 16:33:37.076014000 +07
  963  88.537631 32:32:32:32:32:32 20dBm Nov 18, 2018 16:33:37.250586000 +07
  964  88.697900 32:32:32:32:32:32 19dBm Nov 18, 2018 16:33:37.410855000 +07
  965  88.767936 32:32:32:32:32:32 19dBm Nov 18, 2018 16:33:37.480891000 +07
  966  88.851712 32:32:32:32:32:32 21dBm Nov 18, 2018 16:33:37.564667000 +07
  967  88.917043 32:32:32:32:32:32 19dBm Nov 18, 2018 16:33:37.629998000 +07
  968  89.080334 32:32:32:32:32:32 20dBm Nov 18, 2018 16:33:37.793289000 +07
  969  89.480285 32:32:32:32:32:32 20dBm Nov 18, 2018 16:33:38.193240000 +07
  970  89.584792 32:32:32:32:32:32 20dBm Nov 18, 2018 16:33:38.297747000 +07
  971  89.587852 32:32:32:32:32:32 19dBm Nov 18, 2018 16:33:38.300807000 +07
  972  89.618437 32:32:32:32:32:32 20dBm Nov 18, 2018 16:33:38.331392000 +07
  973  89.682420 32:32:32:32:32:32 20dBm Nov 18, 2018 16:33:38.395375000 +07
  974  89.698868 32:32:32:32:32:32 20dBm Nov 18, 2018 16:33:38.411823000 +07
  975  89.770330 32:32:32:32:32:32 18dBm Nov 18, 2018 16:33:38.483285000 +07
  976  89.810976 32:32:32:32:32:32 19dBm Nov 18, 2018 16:33:38.523931000 +07
  977  89.844226 32:32:32:32:32:32 17dBm Nov 18, 2018 16:33:38.557181000 +07
  978  89.853055 32:32:32:32:32:32 19dBm Nov 18, 2018 16:33:38.566010000 +07
  979  89.946692 32:32:32:32:32:32 20dBm Nov 18, 2018 16:33:38.659647000 +07
  980  90.073443 32:32:32:32:32:32 19dBm Nov 18, 2018 16:33:38.786398000 +07
  981  90.217841 32:32:32:32:32:32 20dBm Nov 18, 2018 16:33:38.930796000 +07
  982  90.507729 32:32:32:32:32:32 20dBm Nov 18, 2018 16:33:39.220684000 +07
  983  90.878367 32:32:32:32:32:32 19dBm Nov 18, 2018 16:33:39.591322000 +07
  984  91.010220 32:32:32:32:32:32 19dBm Nov 18, 2018 16:33:39.723175000 +07
  985  91.131582 32:32:32:32:32:32 19dBm Nov 18, 2018 16:33:39.844537000 +07
  986  91.347563 32:32:32:32:32:32 21dBm Nov 18, 2018 16:33:40.060518000 +07
  987  91.408023 32:32:32:32:32:32 19dBm Nov 18, 2018 16:33:40.120978000 +07
  988  91.588255 32:32:32:32:32:32 20dBm Nov 18, 2018 16:33:40.301210000 +07
  989  91.608517 32:32:32:32:32:32 20dBm Nov 18, 2018 16:33:40.321472000 +07
  990  91.643807 32:32:32:32:32:32 19dBm Nov 18, 2018 16:33:40.356762000 +07
  991  91.674900 32:32:32:32:32:32 19dBm Nov 18, 2018 16:33:40.387855000 +07
  992  91.726044 32:32:32:32:32:32 20dBm Nov 18, 2018 16:33:40.438999000 +07
  993  91.742158 32:32:32:32:32:32 19dBm Nov 18, 2018 16:33:40.455113000 +07
  994  91.753510 32:32:32:32:32:32 16dBm Nov 18, 2018 16:33:40.466465000 +07
  995  91.768750 32:32:32:32:32:32 22dBm Nov 18, 2018 16:33:40.481705000 +07
  996  91.844500 32:32:32:32:32:32 20dBm Nov 18, 2018 16:33:40.557455000 +07
  997  91.903533 32:32:32:32:32:32 20dBm Nov 18, 2018 16:33:40.616488000 +07
  998  91.919271 32:32:32:32:32:32 21dBm Nov 18, 2018 16:33:40.632226000 +07
  999  91.944237 32:32:32:32:32:32 20dBm Nov 18, 2018 16:33:40.657192000 +07
 1000  91.984503 32:32:32:32:32:32 19dBm Nov 18, 2018 16:33:40.697458000 +07
 1001  92.161212 32:32:32:32:32:32 19dBm Nov 18, 2018 16:33:40.874167000 +07
 1002  92.414532 32:32:32:32:32:32 20dBm Nov 18, 2018 16:33:41.127487000 +07
 1003  92.427102 32:32:32:32:32:32 19dBm Nov 18, 2018 16:33:41.140057000 +07
 1004  92.438626 32:32:32:32:32:32 17dBm Nov 18, 2018 16:33:41.151581000 +07
 1005  92.457407 32:32:32:32:32:32 19dBm Nov 18, 2018 16:33:41.170362000 +07
 1006  92.545239 32:32:32:32:32:32 19dBm Nov 18, 2018 16:33:41.258194000 +07
 1007  92.825777 32:32:32:32:32:32 19dBm Nov 18, 2018 16:33:41.538732000 +07
 1008  92.848679 32:32:32:32:32:32 21dBm Nov 18, 2018 16:33:41.561634000 +07
 1009  92.964021 32:32:32:32:32:32 19dBm Nov 18, 2018 16:33:41.676976000 +07
 1010  92.989274 32:32:32:32:32:32 19dBm Nov 18, 2018 16:33:41.702229000 +07
 1011  93.059615 32:32:32:32:32:32 20dBm Nov 18, 2018 16:33:41.772570000 +07
 1012  93.077833 32:32:32:32:32:32 18dBm Nov 18, 2018 16:33:41.790788000 +07
 1013  93.148401 32:32:32:32:32:32 19dBm Nov 18, 2018 16:33:41.861356000 +07
 1014  93.188602 32:32:32:32:32:32 21dBm Nov 18, 2018 16:33:41.901557000 +07
 1015  93.198009 32:32:32:32:32:32 20dBm Nov 18, 2018 16:33:41.910964000 +07
 1016  93.264525 32:32:32:32:32:32 19dBm Nov 18, 2018 16:33:41.977480000 +07
 1017  93.326417 32:32:32:32:32:32 21dBm Nov 18, 2018 16:33:42.039372000 +07
 1018  93.525319 32:32:32:32:32:32 19dBm Nov 18, 2018 16:33:42.238274000 +07
 1019  93.558802 32:32:32:32:32:32 19dBm Nov 18, 2018 16:33:42.271757000 +07
 1020  93.698643 32:32:32:32:32:32 18dBm Nov 18, 2018 16:33:42.411598000 +07
 1021  93.725840 32:32:32:32:32:32 20dBm Nov 18, 2018 16:33:42.438795000 +07
 1022  93.808071 32:32:32:32:32:32 19dBm Nov 18, 2018 16:33:42.521026000 +07
 1023  93.830474 32:32:32:32:32:32 19dBm Nov 18, 2018 16:33:42.543429000 +07
 1024  93.943089 32:32:32:32:32:32 18dBm Nov 18, 2018 16:33:42.656044000 +07
 1025  94.027116 32:32:32:32:32:32 20dBm Nov 18, 2018 16:33:42.740071000 +07
 1026  94.106013 32:32:32:32:32:32 20dBm Nov 18, 2018 16:33:42.818968000 +07
 1027  94.182268 32:32:32:32:32:32 21dBm Nov 18, 2018 16:33:42.895223000 +07
 1028  94.209823 32:32:32:32:32:32 20dBm Nov 18, 2018 16:33:42.922778000 +07
 1029  94.246404 32:32:32:32:32:32 19dBm Nov 18, 2018 16:33:42.959359000 +07
 1030  94.448917 32:32:32:32:32:32 20dBm Nov 18, 2018 16:33:43.161872000 +07
 1031  94.549675 32:32:32:32:32:32 20dBm Nov 18, 2018 16:33:43.262630000 +07
 1032  94.581120 32:32:32:32:32:32 21dBm Nov 18, 2018 16:33:43.294075000 +07
 1033  94.815241 32:32:32:32:32:32 18dBm Nov 18, 2018 16:33:43.528196000 +07
 1034  95.030729 32:32:32:32:32:32 19dBm Nov 18, 2018 16:33:43.743684000 +07
 1035  95.107809 32:32:32:32:32:32 20dBm Nov 18, 2018 16:33:43.820764000 +07
 1036  95.119787 32:32:32:32:32:32 20dBm Nov 18, 2018 16:33:43.832742000 +07
 1037  95.245573 32:32:32:32:32:32 21dBm Nov 18, 2018 16:33:43.958528000 +07
 1038  95.503740 32:32:32:32:32:32 21dBm Nov 18, 2018 16:33:44.216695000 +07
 1039  95.547276 32:32:32:32:32:32 19dBm Nov 18, 2018 16:33:44.260231000 +07
 1040  95.753077 32:32:32:32:32:32 20dBm Nov 18, 2018 16:33:44.466032000 +07
 1041  95.861289 32:32:32:32:32:32 20dBm Nov 18, 2018 16:33:44.574244000 +07
 1042  95.989103 32:32:32:32:32:32 20dBm Nov 18, 2018 16:33:44.702058000 +07
 1043  96.069266 32:32:32:32:32:32 19dBm Nov 18, 2018 16:33:44.782221000 +07
 1044  96.098916 32:32:32:32:32:32 20dBm Nov 18, 2018 16:33:44.811871000 +07
 1045  96.141181 32:32:32:32:32:32 17dBm Nov 18, 2018 16:33:44.854136000 +07
 1046  96.204421 32:32:32:32:32:32 19dBm Nov 18, 2018 16:33:44.917376000 +07
 1047  96.236293 32:32:32:32:32:32 19dBm Nov 18, 2018 16:33:44.949248000 +07
 1048  96.274981 32:32:32:32:32:32 21dBm Nov 18, 2018 16:33:44.987936000 +07
 1049  96.416320 32:32:32:32:32:32 19dBm Nov 18, 2018 16:33:45.129275000 +07
 1050  96.490683 32:32:32:32:32:32 18dBm Nov 18, 2018 16:33:45.203638000 +07
 1051  96.620629 32:32:32:32:32:32 18dBm Nov 18, 2018 16:33:45.333584000 +07
 1052  96.779914 32:32:32:32:32:32 19dBm Nov 18, 2018 16:33:45.492869000 +07
 1053  96.852822 32:32:32:32:32:32 20dBm Nov 18, 2018 16:33:45.565777000 +07
 1054  96.887490 32:32:32:32:32:32 20dBm Nov 18, 2018 16:33:45.600445000 +07
 1055  96.960809 32:32:32:32:32:32 20dBm Nov 18, 2018 16:33:45.673764000 +07
 1056  97.009647 32:32:32:32:32:32 21dBm Nov 18, 2018 16:33:45.722602000 +07
 1057  97.197844 32:32:32:32:32:32 18dBm Nov 18, 2018 16:33:45.910799000 +07
 1058  97.533309 32:32:32:32:32:32 19dBm Nov 18, 2018 16:33:46.246264000 +07
 1059  97.625883 32:32:32:32:32:32 18dBm Nov 18, 2018 16:33:46.338838000 +07
 1060  97.683495 32:32:32:32:32:32 19dBm Nov 18, 2018 16:33:46.396450000 +07
 1061  97.711959 32:32:32:32:32:32 17dBm Nov 18, 2018 16:33:46.424914000 +07
 1062  97.726256 32:32:32:32:32:32 16dBm Nov 18, 2018 16:33:46.439211000 +07
 1063  97.882221 32:32:32:32:32:32 18dBm Nov 18, 2018 16:33:46.595176000 +07
 1064  97.998435 32:32:32:32:32:32 18dBm Nov 18, 2018 16:33:46.711390000 +07
 1065  98.302832 32:32:32:32:32:32 17dBm Nov 18, 2018 16:33:47.015787000 +07
 1066  98.423452 32:32:32:32:32:32 20dBm Nov 18, 2018 16:33:47.136407000 +07
 1067  98.447407 32:32:32:32:32:32 21dBm Nov 18, 2018 16:33:47.160362000 +07
 1068  98.464277 32:32:32:32:32:32 21dBm Nov 18, 2018 16:33:47.177232000 +07
 1069  98.501318 32:32:32:32:32:32 19dBm Nov 18, 2018 16:33:47.214273000 +07
 1070  98.592649 32:32:32:32:32:32 20dBm Nov 18, 2018 16:33:47.305604000 +07
 1071  98.620885 32:32:32:32:32:32 19dBm Nov 18, 2018 16:33:47.333840000 +07
 1072  98.774177 32:32:32:32:32:32 21dBm Nov 18, 2018 16:33:47.487132000 +07
 1073  98.818794 32:32:32:32:32:32 19dBm Nov 18, 2018 16:33:47.531749000 +07
 1074  98.849906 32:32:32:32:32:32 20dBm Nov 18, 2018 16:33:47.562861000 +07
 1075  99.209065 32:32:32:32:32:32 20dBm Nov 18, 2018 16:33:47.922020000 +07
 1076  99.241093 32:32:32:32:32:32 19dBm Nov 18, 2018 16:33:47.954048000 +07
 1077  99.301494 32:32:32:32:32:32 17dBm Nov 18, 2018 16:33:48.014449000 +07
 1078  99.340771 32:32:32:32:32:32 20dBm Nov 18, 2018 16:33:48.053726000 +07
 1079  99.390944 32:32:32:32:32:32 19dBm Nov 18, 2018 16:33:48.103899000 +07
 1080  99.427643 32:32:32:32:32:32 16dBm Nov 18, 2018 16:33:48.140598000 +07
 1081  99.693298 32:32:32:32:32:32 18dBm Nov 18, 2018 16:33:48.406253000 +07
 1082  99.757133 32:32:32:32:32:32 18dBm Nov 18, 2018 16:33:48.470088000 +07
 1083  99.772916 32:32:32:32:32:32 19dBm Nov 18, 2018 16:33:48.485871000 +07
 1084  99.838923 32:32:32:32:32:32 20dBm Nov 18, 2018 16:33:48.551878000 +07
 1085  99.966193 32:32:32:32:32:32 21dBm Nov 18, 2018 16:33:48.679148000 +07
 1086  99.984043 32:32:32:32:32:32 18dBm Nov 18, 2018 16:33:48.696998000 +07
 1087 100.031411 32:32:32:32:32:32 20dBm Nov 18, 2018 16:33:48.744366000 +07
 1088 100.117685 32:32:32:32:32:32 19dBm Nov 18, 2018 16:33:48.830640000 +07
 1089 100.263703 32:32:32:32:32:32 19dBm Nov 18, 2018 16:33:48.976658000 +07
 1090 100.437322 32:32:32:32:32:32 19dBm Nov 18, 2018 16:33:49.150277000 +07
 1091 100.603927 32:32:32:32:32:32 20dBm Nov 18, 2018 16:33:49.316882000 +07
 1092 100.747966 32:32:32:32:32:32 20dBm Nov 18, 2018 16:33:49.460921000 +07
 1093 100.847771 32:32:32:32:32:32 19dBm Nov 18, 2018 16:33:49.560726000 +07
 1094 100.930459 32:32:32:32:32:32 20dBm Nov 18, 2018 16:33:49.643414000 +07
 1095 100.993677 32:32:32:32:32:32 19dBm Nov 18, 2018 16:33:49.706632000 +07
 1096 101.033156 32:32:32:32:32:32 21dBm Nov 18, 2018 16:33:49.746111000 +07
 1097 101.066021 32:32:32:32:32:32 20dBm Nov 18, 2018 16:33:49.778976000 +07
 1098 101.346435 32:32:32:32:32:32 20dBm Nov 18, 2018 16:33:50.059390000 +07
 1099 101.387436 32:32:32:32:32:32 19dBm Nov 18, 2018 16:33:50.100391000 +07
 1100 101.401514 32:32:32:32:32:32 20dBm Nov 18, 2018 16:33:50.114469000 +07
 1101 101.413053 32:32:32:32:32:32 18dBm Nov 18, 2018 16:33:50.126008000 +07
 1102 101.431073 32:32:32:32:32:32 19dBm Nov 18, 2018 16:33:50.144028000 +07
 1103 101.484847 32:32:32:32:32:32 21dBm Nov 18, 2018 16:33:50.197802000 +07
 1104 101.503859 32:32:32:32:32:32 20dBm Nov 18, 2018 16:33:50.216814000 +07
 1105 101.530206 32:32:32:32:32:32 20dBm Nov 18, 2018 16:33:50.243161000 +07
 1106 101.633247 32:32:32:32:32:32 20dBm Nov 18, 2018 16:33:50.346202000 +07
 1107 101.668157 32:32:32:32:32:32 21dBm Nov 18, 2018 16:33:50.381112000 +07
 1108 101.692986 32:32:32:32:32:32 19dBm Nov 18, 2018 16:33:50.405941000 +07
 1109 101.726236 32:32:32:32:32:32 20dBm Nov 18, 2018 16:33:50.439191000 +07
 1110 101.754664 32:32:32:32:32:32 19dBm Nov 18, 2018 16:33:50.467619000 +07
 1111 101.910067 32:32:32:32:32:32 18dBm Nov 18, 2018 16:33:50.623022000 +07
 1112 102.178783 32:32:32:32:32:32 19dBm Nov 18, 2018 16:33:50.891738000 +07
 1113 102.214117 32:32:32:32:32:32 20dBm Nov 18, 2018 16:33:50.927072000 +07
 1114 102.243921 32:32:32:32:32:32 20dBm Nov 18, 2018 16:33:50.956876000 +07
 1115 102.263050 32:32:32:32:32:32 19dBm Nov 18, 2018 16:33:50.976005000 +07
 1116 102.394670 32:32:32:32:32:32 20dBm Nov 18, 2018 16:33:51.107625000 +07
 1117 102.440720 32:32:32:32:32:32 16dBm Nov 18, 2018 16:33:51.153675000 +07
 1118 102.518287 32:32:32:32:32:32 19dBm Nov 18, 2018 16:33:51.231242000 +07
 1119 102.595864 32:32:32:32:32:32 20dBm Nov 18, 2018 16:33:51.308819000 +07
 1120 102.646242 32:32:32:32:32:32 19dBm Nov 18, 2018 16:33:51.359197000 +07
 1121 102.667433 32:32:32:32:32:32 18dBm Nov 18, 2018 16:33:51.380388000 +07
 1122 102.709832 32:32:32:32:32:32 19dBm Nov 18, 2018 16:33:51.422787000 +07
 1123 102.767959 32:32:32:32:32:32 19dBm Nov 18, 2018 16:33:51.480914000 +07
