Fer Range,RSSI Average,RSSI Var,RSSI Std,RSSI Max,RSSI Min,,Min RSSI Variance,Max RSSI Variance,Std RSSI Variance,Avg RSSI Variance,Var RSSI Var
0,8.1254355406969,2.3158265599,1.521784018,14,3,,1.444444444,6.904761905,0.967447409524074,2.81873445380435,0.935954490194842
0.5,7.99798329,2.53169622,1.591130485,17,1,,,,,,
0.666667,7.930307942,2.481757083,1.57535935,14,2,,Min RSSi Deviation,Max RSSI Deviation,Std RSSI Deviation,Avg RSSI Deviation,Var RSSI Dev
0.75,7.910392365,2.458279209,1.56789005,18,3,,1.201850425,2.627691364,0.25729499278637,1.6599910895413,0.066200713312938
0.8,7.953405018,2.471792694,1.5721193593,13,1,,,,,,
0.857413,7.873015873,2.9555577991,1.719179453,16,2,,,,,,
0.875,7.9057113,2.620865714,1.618908803,16,2,,,,,,
0.888889,7.840206186,2.571668166,1.6303642141,17,3,,,,,,
0.9,7.4836019,2.208590619,1.486132773,15,3,,,,,,
0.909091,7.771582734,2.565749563,1.601795731,14,3,,,,,,
0.916667,7.941747573,2.700880209,1.64343549,18,4,,,,,,
0.923077,7.73125,2.171881524,1.473730479,15,3,,,,,,
0.928571,7.794871795,3.077802198,1.754366609,14,2,,,,,,
0.933333,7.7875,2.794329574,1.67162483,16,2,,,,,,
0.9375,7.830985915,2.726016476,1.651065255,14,2,,,,,,
0.941176,7.805732484,3.04520665,1.745052048,18,2,,,,,,
0.94444,7.682170543,2.421632752,1.556159616,12,4,,,,,,
0.947368,7.492,2.347325301,1.532098333,12,2,,,,,,
0.95,7.546666667,3.034954955,1.742112211,11,4,,,,,,
0.952381,7.768240343,3.08986976,1.756128405,14,3,,,,,,
0.954545,7.983333333,2.592937853,1.610260182,11,5,,,,,,
0.956522,7.8375,2.187264151,1.478940212,15,4,,,,,,
0.958333,7.473684211,3.06685633,1.751244223,11,4,,,,,,
0.96,7.936170213,3.174468085,1.781703703,13,3,,,,,,
0.965517,7.766666667,2.520903955,1.58773548,12,2,,,,,,
0.966667,7.540540541,2.366366366,1.53829983,11,4,,,,,,
0.967742,7.641509434,3.15747601,1.77698417,11,2,,,,,,
0.969697,7.161290323,1.939784946,1.392761626,10,5,,,,,,
0.971429,7.4,2.568421053,1.602629418,11,5,,,,,,
0.972222,7.652173913,1.782608696,1.335143699,10,5,,,,,,
0.972973,7.375,5.548913043,2.355613093,15,5,,,,,,
0.973684,7.166666667,3.51428714,1.874642823,12,3,,,,,,
0.974359,7.181818182,3.363636364,1.834021909,11,5,,,,,,
0.975,7.285714286,2.714285714,1.647508942,11,5,,,,,,
0.97561,8.666666667,1.866666667,1.366260102,11,7,,,,,,
0.97619,7.1875,3.3625,1.833712082,11,4,,,,,,
0.976744,7.75,4.25,2.061552813,10,5,,,,,,
0.977273,6.545454545,4.872727273,2.207425485,11,3,,,,,,
0.978261,7.75,2.204545455,1.484771179,11,6,,,,,,
0.978723,7.714285714,6.904761905,2.627691364,12,5,,,,,,
0.979167,7.583333333,2.446969697,1.56427929,11,6,,,,,,
0.98,8.222222222,1.444444444,1.201850425,11,7,,,,,,
0.982,6.37037037,2.54985755,1.596827339,9,4,,,,,,
0.985,6.416666667,2.935714286,1.7113392625,11,4,,,,,,
0.988,6.384615385,1.606153846,1.267341251,9,4,,,,,,
0.99,6.551020408,2.12755102,1.458612704,10,3,,,,,,
