                1       032:32:32:32:32:3  6Bm N  ov 19, 2018 2 3:02:29.745594000  7          0
                20.24202232:32:32:32:32:3  7Bm N  ov 19, 2018 2 3:02:29.987616000  7          8
                30.25700632:32:32:32:32:3  4Bm N  ov 19, 2018 2 3:02:30.002600000  7        ###
                40.37822232:32:32:32:32:3  6Bm N  ov 19, 2018 2 3:02:30.123816000  7        ###
                50.41611132:32:32:32:32:3  6Bm N  ov 19, 2018 2 3:02:30.161705000  7        ###
                60.59050832:32:32:32:32:3  4Bm N  ov 19, 2018 2 3:02:30.336102000  7
                70.70246732:32:32:32:32:3  6Bm N  ov 19, 2018 2 3:02:30.448061000  7
                80.79578632:32:32:32:32:3  7Bm N  ov 19, 2018 2 3:02:30.541380000  7
                90.81129432:32:32:32:32:3  7Bm N  ov 19, 2018 2 3:02:30.556888000  7
               100.84107932:32:32:32:32:3  6Bm N  ov 19, 2018 2 3:02:30.586673000  7
               110.86026932:32:32:32:32:3  6Bm N  ov 19, 2018 2 3:02:30.605863000  7
               12 1.1010532:32:32:32:32:3  6Bm N  ov 19, 2018 2 3:02:30.846644000  7
               131.47460832:32:32:32:32:3  6Bm N  ov 19, 2018 2 3:02:31.220202000  7
               141.60166132:32:32:32:32:3  2Bm N  ov 19, 2018 2 3:02:31.347255000  7
               151.77987832:32:32:32:32:3  5Bm N  ov 19, 2018 2 3:02:31.525472000  7
               16 1.8475532:32:32:32:32:3  5Bm N  ov 19, 2018 2 3:02:31.593144000  7
               171.94705332:32:32:32:32:3  5Bm N  ov 19, 2018 2 3:02:31.692647000  7
               182.15503732:32:32:32:32:3  6Bm N  ov 19, 2018 2 3:02:31.900631000  7
               192.60092932:32:32:32:32:3  5Bm N  ov 19, 2018 2 3:02:32.346523000  7
               202.67789432:32:32:32:32:3  6Bm N  ov 19, 2018 2 3:02:32.423488000  7
               21 2.7410332:32:32:32:32:3  5Bm N  ov 19, 2018 2 3:02:32.486624000  7
               222.79238832:32:32:32:32:3  6Bm N  ov 19, 2018 2 3:02:32.537982000  7
               23 2.9485232:32:32:32:32:3  4Bm N  ov 19, 2018 2 3:02:32.694114000  7
               243.05452332:32:32:32:32:3  7Bm N  ov 19, 2018 2 3:02:32.800117000  7
               253.18233232:32:32:32:32:3  6Bm N  ov 19, 2018 2 3:02:32.927926000  7
               263.67403432:32:32:32:32:3  5Bm N  ov 19, 2018 2 3:02:33.419628000  7
               273.82757132:32:32:32:32:3  6Bm N  ov 19, 2018 2 3:02:33.573165000  7
               28 3.8468232:32:32:32:32:3  5Bm N  ov 19, 2018 2 3:02:33.592414000  7
               29 4.0445132:32:32:32:32:3  5Bm N  ov 19, 2018 2 3:02:33.790104000  7
               304.20024432:32:32:32:32:3  4Bm N  ov 19, 2018 2 3:02:33.945838000  7
               314.55933432:32:32:32:32:3  6Bm N  ov 19, 2018 2 3:02:34.304928000  7
               324.62176932:32:32:32:32:3  6Bm N  ov 19, 2018 2 3:02:34.367363000  7
               334.80409132:32:32:32:32:3  5Bm N  ov 19, 2018 2 3:02:34.549685000  7
               345.13036432:32:32:32:32:3  5Bm N  ov 19, 2018 2 3:02:34.875958000  7
               35 5.2364432:32:32:32:32:3  5Bm N  ov 19, 2018 2 3:02:34.982034000  7
               365.28486132:32:32:32:32:3  6Bm N  ov 19, 2018 2 3:02:35.030455000  7
               375.44203732:32:32:32:32:3  5Bm N  ov 19, 2018 2 3:02:35.187631000  7
               38 5.5562432:32:32:32:32:3  7Bm N  ov 19, 2018 2 3:02:35.301834000  7
               395.75650932:32:32:32:32:3  6Bm N  ov 19, 2018 2 3:02:35.502103000  7
               405.93139432:32:32:32:32:3  3Bm N  ov 19, 2018 2 3:02:35.676988000  7
               416.00042532:32:32:32:32:3  4Bm N  ov 19, 2018 2 3:02:35.746019000  7
               426.17763332:32:32:32:32:3  7Bm N  ov 19, 2018 2 3:02:35.923227000  7
               43 6.3817632:32:32:32:32:3  6Bm N  ov 19, 2018 2 3:02:36.127354000  7
               446.40598632:32:32:32:32:3  7Bm N  ov 19, 2018 2 3:02:36.151580000  7
               456.48917732:32:32:32:32:3  6Bm N  ov 19, 2018 2 3:02:36.234771000  7
               466.59860932:32:32:32:32:3  5Bm N  ov 19, 2018 2 3:02:36.344203000  7
               476.72266332:32:32:32:32:3  6Bm N  ov 19, 2018 2 3:02:36.468257000  7
               486.83365332:32:32:32:32:3  6Bm N  ov 19, 2018 2 3:02:36.579247000  7
               496.98576432:32:32:32:32:3  5Bm N  ov 19, 2018 2 3:02:36.731358000  7
               507.04056332:32:32:32:32:3  5Bm N  ov 19, 2018 2 3:02:36.786157000  7
               517.12626432:32:32:32:32:3  5Bm N  ov 19, 2018 2 3:02:36.871858000  7
               527.14911332:32:32:32:32:3  6Bm N  ov 19, 2018 2 3:02:36.894707000  7
               537.39723332:32:32:32:32:3  6Bm N  ov 19, 2018 2 3:02:37.142827000  7
               547.52712932:32:32:32:32:3  5Bm N  ov 19, 2018 2 3:02:37.272723000  7
               557.66415832:32:32:32:32:3  7Bm N  ov 19, 2018 2 3:02:37.409752000  7
               567.72638832:32:32:32:32:3  3Bm N  ov 19, 2018 2 3:02:37.471982000  7
               577.75509532:32:32:32:32:3  5Bm N  ov 19, 2018 2 3:02:37.500689000  7
               588.28896932:32:32:32:32:3  3Bm N  ov 19, 2018 2 3:02:38.034563000  7
               59 8.4813632:32:32:32:32:3  6Bm N  ov 19, 2018 2 3:02:38.226954000  7
               608.89929432:32:32:32:32:3  7Bm N  ov 19, 2018 2 3:02:38.644888000  7
               619.24710732:32:32:32:32:3  6Bm N  ov 19, 2018 2 3:02:38.992701000  7
               629.44473432:32:32:32:32:3  6Bm N  ov 19, 2018 2 3:02:39.190328000  7
               639.68591232:32:32:32:32:3  5Bm N  ov 19, 2018 2 3:02:39.431506000  7
               649.71833832:32:32:32:32:3  6Bm N  ov 19, 2018 2 3:02:39.463932000  7
               659.76733132:32:32:32:32:3  5Bm N  ov 19, 2018 2 3:02:39.512925000  7
               669.87884632:32:32:32:32:3  6Bm N  ov 19, 2018 2 3:02:39.624440000  7
               679.95634632:32:32:32:32:3  7Bm N  ov 19, 2018 2 3:02:39.701940000  7
               689.98131332:32:32:32:32:3  4Bm N  ov 19, 2018 2 3:02:39.726907000  7
            69  10.14217932:32:32:32:32:3  6Bm N  ov 19, 2018 2 3:02:39.887773000  7
            70  1 0.5643332:32:32:32:32:3  4Bm N  ov 19, 2018 2 3:02:40.309924000  7
            71  1  0.624932:32:32:32:32:3  5Bm N  ov 19, 2018 2 3:02:40.370494000  7
            72  10.71690732:32:32:32:32:3  6Bm N  ov 19, 2018 2 3:02:40.462501000  7
            73  10.79697132:32:32:32:32:3  6Bm N  ov 19, 2018 2 3:02:40.542565000  7
            74  10.90252832:32:32:32:32:3  6Bm N  ov 19, 2018 2 3:02:40.648122000  7
            75  10.93431432:32:32:32:32:3  7Bm N  ov 19, 2018 2 3:02:40.679908000  7
            76  11.11037932:32:32:32:32:3  5Bm N  ov 19, 2018 2 3:02:40.855973000  7
            77  1 1.2018432:32:32:32:32:3  6Bm N  ov 19, 2018 2 3:02:40.947434000  7
            78  11.55172332:32:32:32:32:3  6Bm N  ov 19, 2018 2 3:02:41.297317000  7
            79  11.61194732:32:32:32:32:3  6Bm N  ov 19, 2018 2 3:02:41.357541000  7
            80  1 1.6790932:32:32:32:32:3  5Bm N  ov 19, 2018 2 3:02:41.424684000  7
            81  11.77758932:32:32:32:32:3  6Bm N  ov 19, 2018 2 3:02:41.523183000  7
            82  11.80436332:32:32:32:32:3  6Bm N  ov 19, 2018 2 3:02:41.549957000  7
            83  12.00904632:32:32:32:32:3  6Bm N  ov 19, 2018 2 3:02:41.754640000  7
            84  12.02417232:32:32:32:32:3  5Bm N  ov 19, 2018 2 3:02:41.769766000  7
            85  12.15095932:32:32:32:32:3  3Bm N  ov 19, 2018 2 3:02:41.896553000  7
            86  12.21634432:32:32:32:32:3  6Bm N  ov 19, 2018 2 3:02:41.961938000  7
            87  12.27471632:32:32:32:32:3  5Bm N  ov 19, 2018 2 3:02:42.020310000  7
            88  12.31569932:32:32:32:32:3  6Bm N  ov 19, 2018 2 3:02:42.061293000  7
            89  12.50975832:32:32:32:32:3  6Bm N  ov 19, 2018 2 3:02:42.255352000  7
            90  12.57545232:32:32:32:32:3  6Bm N  ov 19, 2018 2 3:02:42.321046000  7
            91  12.59753532:32:32:32:32:3  7Bm N  ov 19, 2018 2 3:02:42.343129000  7
            92  12.81976632:32:32:32:32:3  6Bm N  ov 19, 2018 2 3:02:42.565360000  7
            93  13.06206132:32:32:32:32:3  4Bm N  ov 19, 2018 2 3:02:42.807655000  7
            94  13.08466832:32:32:32:32:3  5Bm N  ov 19, 2018 2 3:02:42.830262000  7
            95  13.13812532:32:32:32:32:3  7Bm N  ov 19, 2018 2 3:02:42.883719000  7
            96  13.16690832:32:32:32:32:3  5Bm N  ov 19, 2018 2 3:02:42.912502000  7
            97  13.29830232:32:32:32:32:3  6Bm N  ov 19, 2018 2 3:02:43.043896000  7
            98  13.32157532:32:32:32:32:3  5Bm N  ov 19, 2018 2 3:02:43.067169000  7
            99  13.87822932:32:32:32:32:3  6Bm N  ov 19, 2018 2 3:02:43.623823000  7
           100  13.88785132:32:32:32:32:3  6Bm N  ov 19, 2018 2 3:02:43.633445000  7
           101  14.03262632:32:32:32:32:3  5Bm N  ov 19, 2018 2 3:02:43.778220000  7
           102  14.06274332:32:32:32:32:3  6Bm N  ov 19, 2018 2 3:02:43.808337000  7
           103  14.09712232:32:32:32:32:3  6Bm N  ov 19, 2018 2 3:02:43.842716000  7
           104  14.11553932:32:32:32:32:3  5Bm N  ov 19, 2018 2 3:02:43.861133000  7
           105  14.16804732:32:32:32:32:3  5Bm N  ov 19, 2018 2 3:02:43.913641000  7
           106  14.18082832:32:32:32:32:3  6Bm N  ov 19, 2018 2 3:02:43.926422000  7
           107  14.28306232:32:32:32:32:3  6Bm N  ov 19, 2018 2 3:02:44.028656000  7
           108  14.32466832:32:32:32:32:3  6Bm N  ov 19, 2018 2 3:02:44.070262000  7
           109  14.36861332:32:32:32:32:3  5Bm N  ov 19, 2018 2 3:02:44.114207000  7
           110  14.42939532:32:32:32:32:3  5Bm N  ov 19, 2018 2 3:02:44.174989000  7
           111  14.63826532:32:32:32:32:3  5Bm N  ov 19, 2018 2 3:02:44.383859000  7
           112  14.87760732:32:32:32:32:3  4Bm N  ov 19, 2018 2 3:02:44.623201000  7
           113  1  4.916832:32:32:32:32:3  5Bm N  ov 19, 2018 2 3:02:44.662394000  7
           114  14.93741332:32:32:32:32:3  4Bm N  ov 19, 2018 2 3:02:44.683007000  7
           115  15.11025832:32:32:32:32:3  4Bm N  ov 19, 2018 2 3:02:44.855852000  7
           116  15.18752732:32:32:32:32:3  7Bm N  ov 19, 2018 2 3:02:44.933121000  7
           117  15.28622332:32:32:32:32:3  5Bm N  ov 19, 2018 2 3:02:45.031817000  7
           118  15.62170732:32:32:32:32:3  5Bm N  ov 19, 2018 2 3:02:45.367301000  7
           119  1 5.6438132:32:32:32:32:3  7Bm N  ov 19, 2018 2 3:02:45.389404000  7
           120  1 5.8046632:32:32:32:32:3  3Bm N  ov 19, 2018 2 3:02:45.550254000  7
           121  15.85042132:32:32:32:32:3  5Bm N  ov 19, 2018 2 3:02:45.596015000  7
           122  16.00319332:32:32:32:32:3  5Bm N  ov 19, 2018 2 3:02:45.748787000  7
           123  16.05491632:32:32:32:32:3  6Bm N  ov 19, 2018 2 3:02:45.800510000  7
           124  16.61434132:32:32:32:32:3  4Bm N  ov 19, 2018 2 3:02:46.359935000  7
           125  16.65494532:32:32:32:32:3  5Bm N  ov 19, 2018 2 3:02:46.400539000  7
           126  16.69196432:32:32:32:32:3  5Bm N  ov 19, 2018 2 3:02:46.437558000  7
           127  16.84346432:32:32:32:32:3  4Bm N  ov 19, 2018 2 3:02:46.589058000  7
           128  16.92624732:32:32:32:32:3  7Bm N  ov 19, 2018 2 3:02:46.671841000  7
           129  17.10139332:32:32:32:32:3  6Bm N  ov 19, 2018 2 3:02:46.846987000  7
           130  1 7.1694532:32:32:32:32:3  5Bm N  ov 19, 2018 2 3:02:46.915044000  7
           131  17.17767632:32:32:32:32:3  6Bm N  ov 19, 2018 2 3:02:46.923270000  7
           132  1 7.2415932:32:32:32:32:3  5Bm N  ov 19, 2018 2 3:02:46.987184000  7
           133  17.44351332:32:32:32:32:3  5Bm N  ov 19, 2018 2 3:02:47.189107000  7
           134  17.52180332:32:32:32:32:3  6Bm N  ov 19, 2018 2 3:02:47.267397000  7
           135  17.54143432:32:32:32:32:3  5Bm N  ov 19, 2018 2 3:02:47.287028000  7
           136  17.65802432:32:32:32:32:3  6Bm N  ov 19, 2018 2 3:02:47.403618000  7
           137  17.80057232:32:32:32:32:3  6Bm N  ov 19, 2018 2 3:02:47.546166000  7
           138  17.85172232:32:32:32:32:3  4Bm N  ov 19, 2018 2 3:02:47.597316000  7
           139  17.88199332:32:32:32:32:3  4Bm N  ov 19, 2018 2 3:02:47.627587000  7
           140  18.12365832:32:32:32:32:3  4Bm N  ov 19, 2018 2 3:02:47.869252000  7
           141  18.15955232:32:32:32:32:3  4Bm N  ov 19, 2018 2 3:02:47.905146000  7
           142  18.39197132:32:32:32:32:3  5Bm N  ov 19, 2018 2 3:02:48.137565000  7
           143  1 8.4542232:32:32:32:32:3  4Bm N  ov 19, 2018 2 3:02:48.199814000  7
           144  18.45499732:32:32:32:32:3  6Bm N  ov 19, 2018 2 3:02:48.200591000  7
           145  18.57237532:32:32:32:32:3  4Bm N  ov 19, 2018 2 3:02:48.317969000  7
           146  18.77164532:32:32:32:32:3  4Bm N  ov 19, 2018 2 3:02:48.517239000  7
           147  18.79236732:32:32:32:32:3  5Bm N  ov 19, 2018 2 3:02:48.537961000  7
           148  18.83690332:32:32:32:32:3  2Bm N  ov 19, 2018 2 3:02:48.582497000  7
           149  18.87478932:32:32:32:32:3  6Bm N  ov 19, 2018 2 3:02:48.620383000  7
           150  18.99377532:32:32:32:32:3  5Bm N  ov 19, 2018 2 3:02:48.739369000  7
           151  19.05528632:32:32:32:32:3  5Bm N  ov 19, 2018 2 3:02:48.800880000  7
           152  19.29317532:32:32:32:32:3  7Bm N  ov 19, 2018 2 3:02:49.038769000  7
           153  19.76180832:32:32:32:32:3  4Bm N  ov 19, 2018 2 3:02:49.507402000  7
           154  19.80392532:32:32:32:32:3  4Bm N  ov 19, 2018 2 3:02:49.549519000  7
           155  19.83324532:32:32:32:32:3  6Bm N  ov 19, 2018 2 3:02:49.578839000  7
           156  19.84258132:32:32:32:32:3  5Bm N  ov 19, 2018 2 3:02:49.588175000  7
           157  19.93879332:32:32:32:32:3  5Bm N  ov 19, 2018 2 3:02:49.684387000  7
           158  20.02328632:32:32:32:32:3  6Bm N  ov 19, 2018 2 3:02:49.768880000  7
           159  20.13332232:32:32:32:32:3  5Bm N  ov 19, 2018 2 3:02:49.878916000  7
           160  20.22316832:32:32:32:32:3  5Bm N  ov 19, 2018 2 3:02:49.968762000  7
           161  20.45914832:32:32:32:32:3  7Bm N  ov 19, 2018 2 3:02:50.204742000  7
           162  2 0.5406732:32:32:32:32:3  3Bm N  ov 19, 2018 2 3:02:50.286264000  7
           163  20.72739132:32:32:32:32:3  6Bm N  ov 19, 2018 2 3:02:50.472985000  7
           164  20.76308932:32:32:32:32:3  5Bm N  ov 19, 2018 2 3:02:50.508683000  7
           165  21.01177732:32:32:32:32:3  6Bm N  ov 19, 2018 2 3:02:50.757371000  7
           166  21.31620532:32:32:32:32:3  5Bm N  ov 19, 2018 2 3:02:51.061799000  7
           167  21.45528632:32:32:32:32:3  4Bm N  ov 19, 2018 2 3:02:51.200880000  7
           168  2 1.5810932:32:32:32:32:3  4Bm N  ov 19, 2018 2 3:02:51.326684000  7
           169  21.60957232:32:32:32:32:3  6Bm N  ov 19, 2018 2 3:02:51.355166000  7
           170  21.63335932:32:32:32:32:3  4Bm N  ov 19, 2018 2 3:02:51.378953000  7
           171  22.07861532:32:32:32:32:3  7Bm N  ov 19, 2018 2 3:02:51.824209000  7
           172  22.62229832:32:32:32:32:3  5Bm N  ov 19, 2018 2 3:02:52.367892000  7
           173  22.66966632:32:32:32:32:3  6Bm N  ov 19, 2018 2 3:02:52.415260000  7
           174  22.76721232:32:32:32:32:3  4Bm N  ov 19, 2018 2 3:02:52.512806000  7
           175  2 2.8187432:32:32:32:32:3  5Bm N  ov 19, 2018 2 3:02:52.564334000  7
           176  23.05665732:32:32:32:32:3  6Bm N  ov 19, 2018 2 3:02:52.802251000  7
           177  23.27438532:32:32:32:32:3  4Bm N  ov 19, 2018 2 3:02:53.019979000  7
           178  23.55448232:32:32:32:32:3  7Bm N  ov 19, 2018 2 3:02:53.300076000  7
           179  23.76985432:32:32:32:32:3  5Bm N  ov 19, 2018 2 3:02:53.515448000  7
           180  23.81981632:32:32:32:32:3  6Bm N  ov 19, 2018 2 3:02:53.565410000  7
           181  24.02274332:32:32:32:32:3  6Bm N  ov 19, 2018 2 3:02:53.768337000  7
           182  24.48602332:32:32:32:32:3  7Bm N  ov 19, 2018 2 3:02:54.231617000  7
           183  24.61340132:32:32:32:32:3  6Bm N  ov 19, 2018 2 3:02:54.358995000  7
           184  25.04115432:32:32:32:32:3  5Bm N  ov 19, 2018 2 3:02:54.786748000  7
           185  25.06732332:32:32:32:32:3  4Bm N  ov 19, 2018 2 3:02:54.812917000  7
           186  25.21229232:32:32:32:32:3  7Bm N  ov 19, 2018 2 3:02:54.957886000  7
           187  2 5.2308132:32:32:32:32:3  4Bm N  ov 19, 2018 2 3:02:54.976404000  7
           188  25.37830432:32:32:32:32:3  6Bm N  ov 19, 2018 2 3:02:55.123898000  7
           189  25.40561732:32:32:32:32:3  6Bm N  ov 19, 2018 2 3:02:55.151211000  7
           190  25.42222532:32:32:32:32:3  6Bm N  ov 19, 2018 2 3:02:55.167819000  7
           191  25.48238432:32:32:32:32:3  5Bm N  ov 19, 2018 2 3:02:55.227978000  7
           192  25.50117832:32:32:32:32:3  7Bm N  ov 19, 2018 2 3:02:55.246772000  7
           193  25.69481832:32:32:32:32:3  5Bm N  ov 19, 2018 2 3:02:55.440412000  7
           194  25.71147732:32:32:32:32:3  5Bm N  ov 19, 2018 2 3:02:55.457071000  7
           195  25.82562632:32:32:32:32:3  6Bm N  ov 19, 2018 2 3:02:55.571220000  7
           196  26.18843832:32:32:32:32:3  5Bm N  ov 19, 2018 2 3:02:55.934032000  7
           197  26.26295632:32:32:32:32:3  3Bm N  ov 19, 2018 2 3:02:56.008550000  7
           198  26.53136332:32:32:32:32:3  5Bm N  ov 19, 2018 2 3:02:56.276957000  7
           199  26.57272932:32:32:32:32:3  5Bm N  ov 19, 2018 2 3:02:56.318323000  7
           200  26.58694232:32:32:32:32:3  7Bm N  ov 19, 2018 2 3:02:56.332536000  7
           201  26.62783232:32:32:32:32:3  6Bm N  ov 19, 2018 2 3:02:56.373426000  7
           202  26.66271832:32:32:32:32:3  3Bm N  ov 19, 2018 2 3:02:56.408312000  7
           203  27.11562732:32:32:32:32:3  7Bm N  ov 19, 2018 2 3:02:56.861221000  7
           204  27.49316332:32:32:32:32:3  5Bm N  ov 19, 2018 2 3:02:57.238757000  7
           205  27.51522432:32:32:32:32:3  5Bm N  ov 19, 2018 2 3:02:57.260818000  7
           206  27.55962732:32:32:32:32:3  5Bm N  ov 19, 2018 2 3:02:57.305221000  7
           207  28.06229632:32:32:32:32:3  2Bm N  ov 19, 2018 2 3:02:57.807890000  7
           208  28.08189332:32:32:32:32:3  6Bm N  ov 19, 2018 2 3:02:57.827487000  7
           209  28.21882232:32:32:32:32:3  3Bm N  ov 19, 2018 2 3:02:57.964416000  7
           210  28.35455432:32:32:32:32:3  6Bm N  ov 19, 2018 2 3:02:58.100148000  7
           211  28.43029732:32:32:32:32:3  4Bm N  ov 19, 2018 2 3:02:58.175891000  7
           212  28.47635832:32:32:32:32:3  5Bm N  ov 19, 2018 2 3:02:58.221952000  7
           213  2 8.5297632:32:32:32:32:3  4Bm N  ov 19, 2018 2 3:02:58.275354000  7
           214  28.85221132:32:32:32:32:3  5Bm N  ov 19, 2018 2 3:02:58.597805000  7
           215  28.98349932:32:32:32:32:3  3Bm N  ov 19, 2018 2 3:02:58.729093000  7
           216  29.09320132:32:32:32:32:3  5Bm N  ov 19, 2018 2 3:02:58.838795000  7
           217  2 9.1512732:32:32:32:32:3  6Bm N  ov 19, 2018 2 3:02:58.896864000  7
           218  29.23760532:32:32:32:32:3  6Bm N  ov 19, 2018 2 3:02:58.983199000  7
           219  29.50233632:32:32:32:32:3  7Bm N  ov 19, 2018 2 3:02:59.247930000  7
           220  29.63564132:32:32:32:32:3  5Bm N  ov 19, 2018 2 3:02:59.381235000  7
           221  2 9.8056132:32:32:32:32:3  5Bm N  ov 19, 2018 2 3:02:59.551204000  7
           222  29.85347332:32:32:32:32:3  5Bm N  ov 19, 2018 2 3:02:59.599067000  7
           223  29.90219832:32:32:32:32:3  5Bm N  ov 19, 2018 2 3:02:59.647792000  7
           224  30.19406232:32:32:32:32:3  4Bm N  ov 19, 2018 2 3:02:59.939656000  7
           225  30.40175832:32:32:32:32:3  6Bm N  ov 19, 2018 2 3:03:00.147352000  7
           226  30.45525332:32:32:32:32:3  5Bm N  ov 19, 2018 2 3:03:00.200847000  7
           227  30.59527832:32:32:32:32:3  6Bm N  ov 19, 2018 2 3:03:00.340872000  7
           228  30.95437432:32:32:32:32:3  5Bm N  ov 19, 2018 2 3:03:00.699968000  7
           229  31.10720632:32:32:32:32:3  4Bm N  ov 19, 2018 2 3:03:00.852800000  7
           230  31.12368432:32:32:32:32:3  6Bm N  ov 19, 2018 2 3:03:00.869278000  7
           231  31.17854732:32:32:32:32:3  5Bm N  ov 19, 2018 2 3:03:00.924141000  7
           232  31.27000132:32:32:32:32:3  6Bm N  ov 19, 2018 2 3:03:01.015595000  7
           233  3 1.4756932:32:32:32:32:3  5Bm N  ov 19, 2018 2 3:03:01.221284000  7
           234  31.48747332:32:32:32:32:3  3Bm N  ov 19, 2018 2 3:03:01.233067000  7
           235  31.50543132:32:32:32:32:3  3Bm N  ov 19, 2018 2 3:03:01.251025000  7
           236  31.69689332:32:32:32:32:3  7Bm N  ov 19, 2018 2 3:03:01.442487000  7
           237  3  2.026932:32:32:32:32:3  5Bm N  ov 19, 2018 2 3:03:01.772494000  7
           238  32.13442832:32:32:32:32:3  1Bm N  ov 19, 2018 2 3:03:01.880022000  7
           239  32.43844632:32:32:32:32:3  5Bm N  ov 19, 2018 2 3:03:02.184040000  7
           240  32.54047532:32:32:32:32:3  6Bm N  ov 19, 2018 2 3:03:02.286069000  7
           241  32.60270832:32:32:32:32:3  2Bm N  ov 19, 2018 2 3:03:02.348302000  7
           242  32.61713132:32:32:32:32:3  5Bm N  ov 19, 2018 2 3:03:02.362725000  7
           243  33.41866732:32:32:32:32:3  4Bm N  ov 19, 2018 2 3:03:03.164261000  7
           244  33.55992132:32:32:32:32:3  3Bm N  ov 19, 2018 2 3:03:03.305515000  7
           245  34.01261232:32:32:32:32:3  6Bm N  ov 19, 2018 2 3:03:03.758206000  7
           246  34.21307432:32:32:32:32:3  6Bm N  ov 19, 2018 2 3:03:03.958668000  7
           247  34.74533132:32:32:32:32:3  6Bm N  ov 19, 2018 2 3:03:04.490925000  7
           248  34.86719532:32:32:32:32:3  5Bm N  ov 19, 2018 2 3:03:04.612789000  7
           249  34.92352332:32:32:32:32:3  6Bm N  ov 19, 2018 2 3:03:04.669117000  7
           250  34.95049332:32:32:32:32:3  6Bm N  ov 19, 2018 2 3:03:04.696087000  7
           251  35.02474832:32:32:32:32:3  4Bm N  ov 19, 2018 2 3:03:04.770342000  7
           252  35.31960732:32:32:32:32:3  7Bm N  ov 19, 2018 2 3:03:05.065201000  7
           253  35.37427132:32:32:32:32:3  7Bm N  ov 19, 2018 2 3:03:05.119865000  7
           254  3 5.5984432:32:32:32:32:3  7Bm N  ov 19, 2018 2 3:03:05.344034000  7
           255  35.67085332:32:32:32:32:3  6Bm N  ov 19, 2018 2 3:03:05.416447000  7
           256  35.69571732:32:32:32:32:3  8Bm N  ov 19, 2018 2 3:03:05.441311000  7
           257  35.71105432:32:32:32:32:3  6Bm N  ov 19, 2018 2 3:03:05.456648000  7
           258  35.81029332:32:32:32:32:3  7Bm N  ov 19, 2018 2 3:03:05.555887000  7
           259  35.83122232:32:32:32:32:3  7Bm N  ov 19, 2018 2 3:03:05.576816000  7
           260  35.84509832:32:32:32:32:3  7Bm N  ov 19, 2018 2 3:03:05.590692000  7
           261  35.92979732:32:32:32:32:3  7Bm N  ov 19, 2018 2 3:03:05.675391000  7
           262  3 6.0061932:32:32:32:32:3  4Bm N  ov 19, 2018 2 3:03:05.751784000  7
           263  36.04564432:32:32:32:32:3  7Bm N  ov 19, 2018 2 3:03:05.791238000  7
           264  3 6.0788232:32:32:32:32:3  5Bm N  ov 19, 2018 2 3:03:05.824414000  7
           265  36.15701432:32:32:32:32:3  4Bm N  ov 19, 2018 2 3:03:05.902608000  7
           266  36.20431632:32:32:32:32:3  5Bm N  ov 19, 2018 2 3:03:05.949910000  7
           267  36.27405932:32:32:32:32:3  4Bm N  ov 19, 2018 2 3:03:06.019653000  7
           268  36.39243732:32:32:32:32:3  6Bm N  ov 19, 2018 2 3:03:06.138031000  7
           269  36.42936832:32:32:32:32:3  6Bm N  ov 19, 2018 2 3:03:06.174962000  7
           270  36.45736332:32:32:32:32:3  6Bm N  ov 19, 2018 2 3:03:06.202957000  7
           271  3 6.6474332:32:32:32:32:3  5Bm N  ov 19, 2018 2 3:03:06.393024000  7
           272  36.71834532:32:32:32:32:3  7Bm N  ov 19, 2018 2 3:03:06.463939000  7
           273  36.74166932:32:32:32:32:3  4Bm N  ov 19, 2018 2 3:03:06.487263000  7
           274  36.95690332:32:32:32:32:3  7Bm N  ov 19, 2018 2 3:03:06.702497000  7
           275  37.09300932:32:32:32:32:3  6Bm N  ov 19, 2018 2 3:03:06.838603000  7
           276  37.15338132:32:32:32:32:3  7Bm N  ov 19, 2018 2 3:03:06.898975000  7
           277  37.62222332:32:32:32:32:3  7Bm N  ov 19, 2018 2 3:03:07.367817000  7
           278  37.72175832:32:32:32:32:3  5Bm N  ov 19, 2018 2 3:03:07.467352000  7
           279  37.91383932:32:32:32:32:3  4Bm N  ov 19, 2018 2 3:03:07.659433000  7
           280  38.03531632:32:32:32:32:3  7Bm N  ov 19, 2018 2 3:03:07.780910000  7
           281  38.06938132:32:32:32:32:3  3Bm N  ov 19, 2018 2 3:03:07.814975000  7
           282  38.09237132:32:32:32:32:3  4Bm N  ov 19, 2018 2 3:03:07.837965000  7
           283  38.12365632:32:32:32:32:3  7Bm N  ov 19, 2018 2 3:03:07.869250000  7
           284  38.33364732:32:32:32:32:3  6Bm N  ov 19, 2018 2 3:03:08.079241000  7
           285  38.37014132:32:32:32:32:3  6Bm N  ov 19, 2018 2 3:03:08.115735000  7
           286  38.62928232:32:32:32:32:3  6Bm N  ov 19, 2018 2 3:03:08.374876000  7
           287  3 8.9087232:32:32:32:32:3  5Bm N  ov 19, 2018 2 3:03:08.654314000  7
           288  38.92923832:32:32:32:32:3  6Bm N  ov 19, 2018 2 3:03:08.674832000  7
           289  39.13748932:32:32:32:32:3  4Bm N  ov 19, 2018 2 3:03:08.883083000  7
           290  39.16246832:32:32:32:32:3  3Bm N  ov 19, 2018 2 3:03:08.908062000  7
           291  39.22444832:32:32:32:32:3  5Bm N  ov 19, 2018 2 3:03:08.970042000  7
           292  39.32864832:32:32:32:32:3  4Bm N  ov 19, 2018 2 3:03:09.074242000  7
           293  39.50381832:32:32:32:32:3  7Bm N  ov 19, 2018 2 3:03:09.249412000  7
           294  39.55173832:32:32:32:32:3  5Bm N  ov 19, 2018 2 3:03:09.297332000  7
           295  39.59868332:32:32:32:32:3  7Bm N  ov 19, 2018 2 3:03:09.344277000  7
           296  3 9.6736632:32:32:32:32:3  6Bm N  ov 19, 2018 2 3:03:09.419254000  7
           297  39.89234932:32:32:32:32:3  6Bm N  ov 19, 2018 2 3:03:09.637943000  7
           298  39.98518632:32:32:32:32:3  6Bm N  ov 19, 2018 2 3:03:09.730780000  7
           299  40.02063832:32:32:32:32:3  5Bm N  ov 19, 2018 2 3:03:09.766232000  7
           300  40.02554132:32:32:32:32:3  5Bm N  ov 19, 2018 2 3:03:09.771135000  7
           301  40.03330132:32:32:32:32:3  5Bm N  ov 19, 2018 2 3:03:09.778895000  7
           302  40.18811732:32:32:32:32:3  6Bm N  ov 19, 2018 2 3:03:09.933711000  7
           303  40.21777632:32:32:32:32:3  7Bm N  ov 19, 2018 2 3:03:09.963370000  7
           304  40.28353732:32:32:32:32:3  7Bm N  ov 19, 2018 2 3:03:10.029131000  7
           305  40.29768332:32:32:32:32:3  4Bm N  ov 19, 2018 2 3:03:10.043277000  7
           306  40.39422132:32:32:32:32:3  6Bm N  ov 19, 2018 2 3:03:10.139815000  7
           307  40.49487832:32:32:32:32:3  8Bm N  ov 19, 2018 2 3:03:10.240472000  7
           308  40.80985932:32:32:32:32:3  7Bm N  ov 19, 2018 2 3:03:10.555453000  7
           309  40.84042732:32:32:32:32:3  6Bm N  ov 19, 2018 2 3:03:10.586021000  7
           310  40.87567832:32:32:32:32:3  6Bm N  ov 19, 2018 2 3:03:10.621272000  7
           311  41.07107532:32:32:32:32:3  5Bm N  ov 19, 2018 2 3:03:10.816669000  7
           312  41.13344632:32:32:32:32:3  5Bm N  ov 19, 2018 2 3:03:10.879040000  7
           313  41.16133232:32:32:32:32:3  6Bm N  ov 19, 2018 2 3:03:10.906926000  7
           314  41.17933632:32:32:32:32:3  7Bm N  ov 19, 2018 2 3:03:10.924930000  7
           315  41.25553632:32:32:32:32:3  6Bm N  ov 19, 2018 2 3:03:11.001130000  7
           316  41.31930432:32:32:32:32:3  6Bm N  ov 19, 2018 2 3:03:11.064898000  7
           317  41.35850532:32:32:32:32:3  6Bm N  ov 19, 2018 2 3:03:11.104099000  7
           318  41.37786432:32:32:32:32:3  7Bm N  ov 19, 2018 2 3:03:11.123458000  7
           319  41.59743232:32:32:32:32:3  4Bm N  ov 19, 2018 2 3:03:11.343026000  7
           320  41.68909532:32:32:32:32:3  6Bm N  ov 19, 2018 2 3:03:11.434689000  7
           321  4 1.7982332:32:32:32:32:3  5Bm N  ov 19, 2018 2 3:03:11.543824000  7
           322  41.94197632:32:32:32:32:3  7Bm N  ov 19, 2018 2 3:03:11.687570000  7
           323  42.24002232:32:32:32:32:3  6Bm N  ov 19, 2018 2 3:03:11.985616000  7
           324  42.67108332:32:32:32:32:3  5Bm N  ov 19, 2018 2 3:03:12.416677000  7
           325  42.85012732:32:32:32:32:3  7Bm N  ov 19, 2018 2 3:03:12.595721000  7
           326  42.89715332:32:32:32:32:3  5Bm N  ov 19, 2018 2 3:03:12.642747000  7
           327  4 2.9625932:32:32:32:32:3  3Bm N  ov 19, 2018 2 3:03:12.708184000  7
           328  4  3.031432:32:32:32:32:3  7Bm N  ov 19, 2018 2 3:03:12.776994000  7
           329  43.16960432:32:32:32:32:3  5Bm N  ov 19, 2018 2 3:03:12.915198000  7
           330  43.22366432:32:32:32:32:3  7Bm N  ov 19, 2018 2 3:03:12.969258000  7
           331  43.33276732:32:32:32:32:3  5Bm N  ov 19, 2018 2 3:03:13.078361000  7
           332  43.47666332:32:32:32:32:3  6Bm N  ov 19, 2018 2 3:03:13.222257000  7
           333  43.61648132:32:32:32:32:3  5Bm N  ov 19, 2018 2 3:03:13.362075000  7
           334  43.65694132:32:32:32:32:3  7Bm N  ov 19, 2018 2 3:03:13.402535000  7
           335  44.00954632:32:32:32:32:3  8Bm N  ov 19, 2018 2 3:03:13.755140000  7
           336  44.02548732:32:32:32:32:3  6Bm N  ov 19, 2018 2 3:03:13.771081000  7
           337  44.06916532:32:32:32:32:3  6Bm N  ov 19, 2018 2 3:03:13.814759000  7
           338  44.15445232:32:32:32:32:3  6Bm N  ov 19, 2018 2 3:03:13.900046000  7
           339  44.17298832:32:32:32:32:3  7Bm N  ov 19, 2018 2 3:03:13.918582000  7
           340  44.21857332:32:32:32:32:3  4Bm N  ov 19, 2018 2 3:03:13.964167000  7
           341  44.37076532:32:32:32:32:3  5Bm N  ov 19, 2018 2 3:03:14.116359000  7
           342  44.47814632:32:32:32:32:3  6Bm N  ov 19, 2018 2 3:03:14.223740000  7
           343  44.79828932:32:32:32:32:3  6Bm N  ov 19, 2018 2 3:03:14.543883000  7
           344  44.87408232:32:32:32:32:3  6Bm N  ov 19, 2018 2 3:03:14.619676000  7
           345  4 4.9562132:32:32:32:32:3  6Bm N  ov 19, 2018 2 3:03:14.701804000  7
           346  45.00669932:32:32:32:32:3  7Bm N  ov 19, 2018 2 3:03:14.752293000  7
           347  45.14915332:32:32:32:32:3  7Bm N  ov 19, 2018 2 3:03:14.894747000  7
           348  45.26774132:32:32:32:32:3  7Bm N  ov 19, 2018 2 3:03:15.013335000  7
           349  45.28413232:32:32:32:32:3  4Bm N  ov 19, 2018 2 3:03:15.029726000  7
           350  45.33501532:32:32:32:32:3  5Bm N  ov 19, 2018 2 3:03:15.080609000  7
           351  45.45927432:32:32:32:32:3  6Bm N  ov 19, 2018 2 3:03:15.204868000  7
           352  45.75532632:32:32:32:32:3  5Bm N  ov 19, 2018 2 3:03:15.500920000  7
           353  45.80167732:32:32:32:32:3  6Bm N  ov 19, 2018 2 3:03:15.547271000  7
           354  4 5.8112432:32:32:32:32:3  7Bm N  ov 19, 2018 2 3:03:15.556834000  7
           355  45.84398832:32:32:32:32:3  6Bm N  ov 19, 2018 2 3:03:15.589582000  7
           356  45.90603432:32:32:32:32:3  6Bm N  ov 19, 2018 2 3:03:15.651628000  7
           357  46.04118332:32:32:32:32:3  5Bm N  ov 19, 2018 2 3:03:15.786777000  7
           358  4 6.1097332:32:32:32:32:3  6Bm N  ov 19, 2018 2 3:03:15.855324000  7
           359  46.19103732:32:32:32:32:3  7Bm N  ov 19, 2018 2 3:03:15.936631000  7
           360  46.22328632:32:32:32:32:3  6Bm N  ov 19, 2018 2 3:03:15.968880000  7
           361  46.25191532:32:32:32:32:3  4Bm N  ov 19, 2018 2 3:03:15.997509000  7
           362  46.81884732:32:32:32:32:3  6Bm N  ov 19, 2018 2 3:03:16.564441000  7
           363  46.87223332:32:32:32:32:3  5Bm N  ov 19, 2018 2 3:03:16.617827000  7
           364  47.21320932:32:32:32:32:3  5Bm N  ov 19, 2018 2 3:03:16.958803000  7
           365  47.24796232:32:32:32:32:3  7Bm N  ov 19, 2018 2 3:03:16.993556000  7
           366  47.52073432:32:32:32:32:3  7Bm N  ov 19, 2018 2 3:03:17.266328000  7
           367  47.59749732:32:32:32:32:3  5Bm N  ov 19, 2018 2 3:03:17.343091000  7
           368  47.69398632:32:32:32:32:3  5Bm N  ov 19, 2018 2 3:03:17.439580000  7
           369  48.05979132:32:32:32:32:3  6Bm N  ov 19, 2018 2 3:03:17.805385000  7
           370  48.16483332:32:32:32:32:3  6Bm N  ov 19, 2018 2 3:03:17.910427000  7
           371  48.22255132:32:32:32:32:3  5Bm N  ov 19, 2018 2 3:03:17.968145000  7
           372  48.23981432:32:32:32:32:3  7Bm N  ov 19, 2018 2 3:03:17.985408000  7
           373  48.43881532:32:32:32:32:3  6Bm N  ov 19, 2018 2 3:03:18.184409000  7
           374  48.45821232:32:32:32:32:3  5Bm N  ov 19, 2018 2 3:03:18.203806000  7
           375  48.52365732:32:32:32:32:3  4Bm N  ov 19, 2018 2 3:03:18.269251000  7
           376  4 8.5484932:32:32:32:32:3  6Bm N  ov 19, 2018 2 3:03:18.294084000  7
           377  48.57254232:32:32:32:32:3  7Bm N  ov 19, 2018 2 3:03:18.318136000  7
           378  48.59067732:32:32:32:32:3  2Bm N  ov 19, 2018 2 3:03:18.336271000  7
           379  48.81887432:32:32:32:32:3  4Bm N  ov 19, 2018 2 3:03:18.564468000  7
           380  48.95171832:32:32:32:32:3  7Bm N  ov 19, 2018 2 3:03:18.697312000  7
           381  48.98217532:32:32:32:32:3  6Bm N  ov 19, 2018 2 3:03:18.727769000  7
           382  48.99102232:32:32:32:32:3  6Bm N  ov 19, 2018 2 3:03:18.736616000  7
           383  49.00239732:32:32:32:32:3  6Bm N  ov 19, 2018 2 3:03:18.747991000  7
           384  49.05499132:32:32:32:32:3  8Bm N  ov 19, 2018 2 3:03:18.800585000  7
           385  49.07867932:32:32:32:32:3  6Bm N  ov 19, 2018 2 3:03:18.824273000  7
           386  49.09754932:32:32:32:32:3  4Bm N  ov 19, 2018 2 3:03:18.843143000  7
           387  49.34680232:32:32:32:32:3  6Bm N  ov 19, 2018 2 3:03:19.092396000  7
           388  49.38062332:32:32:32:32:3  7Bm N  ov 19, 2018 2 3:03:19.126217000  7
           389  49.41514132:32:32:32:32:3  6Bm N  ov 19, 2018 2 3:03:19.160735000  7
           390  49.52701232:32:32:32:32:3  6Bm N  ov 19, 2018 2 3:03:19.272606000  7
           391  49.65557832:32:32:32:32:3  5Bm N  ov 19, 2018 2 3:03:19.401172000  7
           392  49.79506832:32:32:32:32:3  7Bm N  ov 19, 2018 2 3:03:19.540662000  7
           393  50.00771932:32:32:32:32:3  5Bm N  ov 19, 2018 2 3:03:19.753313000  7
           394  50.63555132:32:32:32:32:3  6Bm N  ov 19, 2018 2 3:03:20.381145000  7
           395  50.66338732:32:32:32:32:3  6Bm N  ov 19, 2018 2 3:03:20.408981000  7
           396  50.79923432:32:32:32:32:3  5Bm N  ov 19, 2018 2 3:03:20.544828000  7
           397  51.08197432:32:32:32:32:3  6Bm N  ov 19, 2018 2 3:03:20.827568000  7
           398  51.15797232:32:32:32:32:3  5Bm N  ov 19, 2018 2 3:03:20.903566000  7
           399  51.39456132:32:32:32:32:3  6Bm N  ov 19, 2018 2 3:03:21.140155000  7
           400  51.51964232:32:32:32:32:3  6Bm N  ov 19, 2018 2 3:03:21.265236000  7
           401  51.59412532:32:32:32:32:3  5Bm N  ov 19, 2018 2 3:03:21.339719000  7
           402  51.77610732:32:32:32:32:3  4Bm N  ov 19, 2018 2 3:03:21.521701000  7
           403  5 1.8212332:32:32:32:32:3  5Bm N  ov 19, 2018 2 3:03:21.566824000  7
           404  51.84006532:32:32:32:32:3  8Bm N  ov 19, 2018 2 3:03:21.585659000  7
           405  51.86141732:32:32:32:32:3  6Bm N  ov 19, 2018 2 3:03:21.607011000  7
           406  51.88197632:32:32:32:32:3  6Bm N  ov 19, 2018 2 3:03:21.627570000  7
           407  51.97209832:32:32:32:32:3  7Bm N  ov 19, 2018 2 3:03:21.717692000  7
           408  52.10145232:32:32:32:32:3  6Bm N  ov 19, 2018 2 3:03:21.847046000  7
           409  52.25126332:32:32:32:32:3  5Bm N  ov 19, 2018 2 3:03:21.996857000  7
           410  52.28692832:32:32:32:32:3  4Bm N  ov 19, 2018 2 3:03:22.032522000  7
           411  52.48485232:32:32:32:32:3  6Bm N  ov 19, 2018 2 3:03:22.230446000  7
           412  52.59142732:32:32:32:32:3  4Bm N  ov 19, 2018 2 3:03:22.337021000  7
           413  52.70468432:32:32:32:32:3  6Bm N  ov 19, 2018 2 3:03:22.450278000  7
           414  53.12061932:32:32:32:32:3  7Bm N  ov 19, 2018 2 3:03:22.866213000  7
           415  53.19325432:32:32:32:32:3  7Bm N  ov 19, 2018 2 3:03:22.938848000  7
           416  53.25980932:32:32:32:32:3  6Bm N  ov 19, 2018 2 3:03:23.005403000  7
           417  53.42709132:32:32:32:32:3  6Bm N  ov 19, 2018 2 3:03:23.172685000  7
           418  53.50549332:32:32:32:32:3  7Bm N  ov 19, 2018 2 3:03:23.251087000  7
           419  53.55664332:32:32:32:32:3  7Bm N  ov 19, 2018 2 3:03:23.302237000  7
           420  53.66273532:32:32:32:32:3  5Bm N  ov 19, 2018 2 3:03:23.408329000  7
           421  53.69373932:32:32:32:32:3  5Bm N  ov 19, 2018 2 3:03:23.439333000  7
           422  5 4.1304132:32:32:32:32:3  4Bm N  ov 19, 2018 2 3:03:23.876004000  7
           423  54.38295832:32:32:32:32:3  6Bm N  ov 19, 2018 2 3:03:24.128552000  7
           424  54.39023432:32:32:32:32:3  7Bm N  ov 19, 2018 2 3:03:24.135828000  7
           425  54.48877832:32:32:32:32:3  7Bm N  ov 19, 2018 2 3:03:24.234372000  7
           426  54.63757732:32:32:32:32:3  5Bm N  ov 19, 2018 2 3:03:24.383171000  7
           427  54.82087432:32:32:32:32:3  7Bm N  ov 19, 2018 2 3:03:24.566468000  7
           428  54.95047932:32:32:32:32:3  4Bm N  ov 19, 2018 2 3:03:24.696073000  7
           429  55.00445432:32:32:32:32:3  6Bm N  ov 19, 2018 2 3:03:24.750048000  7
           430  55.09064432:32:32:32:32:3  5Bm N  ov 19, 2018 2 3:03:24.836238000  7
           431  55.23224232:32:32:32:32:3  5Bm N  ov 19, 2018 2 3:03:24.977836000  7
           432  5 5.3059732:32:32:32:32:3  6Bm N  ov 19, 2018 2 3:03:25.051564000  7
           433  55.85987732:32:32:32:32:3  6Bm N  ov 19, 2018 2 3:03:25.605471000  7
           434  5 5.8808732:32:32:32:32:3  5Bm N  ov 19, 2018 2 3:03:25.626464000  7
           435  55.89336432:32:32:32:32:3  3Bm N  ov 19, 2018 2 3:03:25.638958000  7
           436  55.95812132:32:32:32:32:3  5Bm N  ov 19, 2018 2 3:03:25.703715000  7
           437  56.07931432:32:32:32:32:3  6Bm N  ov 19, 2018 2 3:03:25.824908000  7
           438  56.16044532:32:32:32:32:3  5Bm N  ov 19, 2018 2 3:03:25.906039000  7
           439  56.34259232:32:32:32:32:3  4Bm N  ov 19, 2018 2 3:03:26.088186000  7
           440  56.45891732:32:32:32:32:3  5Bm N  ov 19, 2018 2 3:03:26.204511000  7
           441  56.52260832:32:32:32:32:3  5Bm N  ov 19, 2018 2 3:03:26.268202000  7
           442  56.68607332:32:32:32:32:3  6Bm N  ov 19, 2018 2 3:03:26.431667000  7
           443  56.94638332:32:32:32:32:3  7Bm N  ov 19, 2018 2 3:03:26.691977000  7
           444  56.99461132:32:32:32:32:3  5Bm N  ov 19, 2018 2 3:03:26.740205000  7
           445  57.28637832:32:32:32:32:3  5Bm N  ov 19, 2018 2 3:03:27.031972000  7
           446  57.33953932:32:32:32:32:3  6Bm N  ov 19, 2018 2 3:03:27.085133000  7
           447  57.40838932:32:32:32:32:3  5Bm N  ov 19, 2018 2 3:03:27.153983000  7
           448  57.56849832:32:32:32:32:3  5Bm N  ov 19, 2018 2 3:03:27.314092000  7
           449  57.75087432:32:32:32:32:3  6Bm N  ov 19, 2018 2 3:03:27.496468000  7
           450  57.75854132:32:32:32:32:3  5Bm N  ov 19, 2018 2 3:03:27.504135000  7
           451  58.05789832:32:32:32:32:3  6Bm N  ov 19, 2018 2 3:03:27.803492000  7
           452  58.14981832:32:32:32:32:3  5Bm N  ov 19, 2018 2 3:03:27.895412000  7
           453  58.24182632:32:32:32:32:3  5Bm N  ov 19, 2018 2 3:03:27.987420000  7
           454  58.33494932:32:32:32:32:3  6Bm N  ov 19, 2018 2 3:03:28.080543000  7
           455  58.45702732:32:32:32:32:3  6Bm N  ov 19, 2018 2 3:03:28.202621000  7
           456  58.53068232:32:32:32:32:3  6Bm N  ov 19, 2018 2 3:03:28.276276000  7
           457  58.62975532:32:32:32:32:3  3Bm N  ov 19, 2018 2 3:03:28.375349000  7
           458  5 8.7565132:32:32:32:32:3  6Bm N  ov 19, 2018 2 3:03:28.502104000  7
           459  58.80198932:32:32:32:32:3  6Bm N  ov 19, 2018 2 3:03:28.547583000  7
           460  58.85719132:32:32:32:32:3  6Bm N  ov 19, 2018 2 3:03:28.602785000  7
           461  59.02547832:32:32:32:32:3  0Bm N  ov 19, 2018 2 3:03:28.771072000  7
           462  59.40377932:32:32:32:32:3  5Bm N  ov 19, 2018 2 3:03:29.149373000  7
           463  59.52483132:32:32:32:32:3  5Bm N  ov 19, 2018 2 3:03:29.270425000  7
           464  5 9.7606532:32:32:32:32:3  6Bm N  ov 19, 2018 2 3:03:29.506244000  7
           465  5 9.8183632:32:32:32:32:3  6Bm N  ov 19, 2018 2 3:03:29.563954000  7
           466  59.86604432:32:32:32:32:3  5Bm N  ov 19, 2018 2 3:03:29.611638000  7
           467  59.93139632:32:32:32:32:3  6Bm N  ov 19, 2018 2 3:03:29.676990000  7
           468  59.98672832:32:32:32:32:3  4Bm N  ov 19, 2018 2 3:03:29.732322000  7
           469  60.01378532:32:32:32:32:3  5Bm N  ov 19, 2018 2 3:03:29.759379000  7
           470  60.40558932:32:32:32:32:3  6Bm N  ov 19, 2018 2 3:03:30.151183000  7
           471  60.78428332:32:32:32:32:3  5Bm N  ov 19, 2018 2 3:03:30.529877000  7
           472  60.81374232:32:32:32:32:3  4Bm N  ov 19, 2018 2 3:03:30.559336000  7
           473  60.83300432:32:32:32:32:3  4Bm N  ov 19, 2018 2 3:03:30.578598000  7
           474  61.11590632:32:32:32:32:3  5Bm N  ov 19, 2018 2 3:03:30.861500000  7
           475  61.21414332:32:32:32:32:3  5Bm N  ov 19, 2018 2 3:03:30.959737000  7
           476  6 1.3943232:32:32:32:32:3  5Bm N  ov 19, 2018 2 3:03:31.139914000  7
           477  61.75034632:32:32:32:32:3  5Bm N  ov 19, 2018 2 3:03:31.495940000  7
           478  61.83783232:32:32:32:32:3  5Bm N  ov 19, 2018 2 3:03:31.583426000  7
           479  62.27940732:32:32:32:32:3  5Bm N  ov 19, 2018 2 3:03:32.025001000  7
           480  62.30487332:32:32:32:32:3  5Bm N  ov 19, 2018 2 3:03:32.050467000  7
           481  62.33533932:32:32:32:32:3  7Bm N  ov 19, 2018 2 3:03:32.080933000  7
           482  62.73254632:32:32:32:32:3  5Bm N  ov 19, 2018 2 3:03:32.478140000  7
           483  62.74204132:32:32:32:32:3  7Bm N  ov 19, 2018 2 3:03:32.487635000  7
           484  62.91334432:32:32:32:32:3  5Bm N  ov 19, 2018 2 3:03:32.658938000  7
           485  63.06937132:32:32:32:32:3  7Bm N  ov 19, 2018 2 3:03:32.814965000  7
           486  63.45741132:32:32:32:32:3  6Bm N  ov 19, 2018 2 3:03:33.203005000  7
           487  63.46851732:32:32:32:32:3  3Bm N  ov 19, 2018 2 3:03:33.214111000  7
           488  64.04076832:32:32:32:32:3  4Bm N  ov 19, 2018 2 3:03:33.786362000  7
           489  64.05731532:32:32:32:32:3  6Bm N  ov 19, 2018 2 3:03:33.802909000  7
           490  64.15657232:32:32:32:32:3  6Bm N  ov 19, 2018 2 3:03:33.902166000  7
           491  64.45721332:32:32:32:32:3  6Bm N  ov 19, 2018 2 3:03:34.202807000  7
           492  64.67721832:32:32:32:32:3  3Bm N  ov 19, 2018 2 3:03:34.422812000  7
           493  64.85023932:32:32:32:32:3  5Bm N  ov 19, 2018 2 3:03:34.595833000  7
           494  64.86879632:32:32:32:32:3  5Bm N  ov 19, 2018 2 3:03:34.614390000  7
           495  65.09467732:32:32:32:32:3  5Bm N  ov 19, 2018 2 3:03:34.840271000  7
           496  65.24649732:32:32:32:32:3  6Bm N  ov 19, 2018 2 3:03:34.992091000  7
           497  65.27558532:32:32:32:32:3  5Bm N  ov 19, 2018 2 3:03:35.021179000  7
           498  65.31667632:32:32:32:32:3  3Bm N  ov 19, 2018 2 3:03:35.062270000  7
           499  65.94621132:32:32:32:32:3  5Bm N  ov 19, 2018 2 3:03:35.691805000  7
           500  65.98814732:32:32:32:32:3  6Bm N  ov 19, 2018 2 3:03:35.733741000  7
           501  66.17493632:32:32:32:32:3  3Bm N  ov 19, 2018 2 3:03:35.920530000  7
           502  66.21608432:32:32:32:32:3  7Bm N  ov 19, 2018 2 3:03:35.961678000  7
           503  66.64496932:32:32:32:32:3  5Bm N  ov 19, 2018 2 3:03:36.390563000  7
           504  66.66425832:32:32:32:32:3  6Bm N  ov 19, 2018 2 3:03:36.409852000  7
           505  66.88155332:32:32:32:32:3  6Bm N  ov 19, 2018 2 3:03:36.627147000  7
           506  6 7.0738632:32:32:32:32:3  5Bm N  ov 19, 2018 2 3:03:36.819454000  7
           507  67.28690432:32:32:32:32:3  5Bm N  ov 19, 2018 2 3:03:37.032498000  7
           508  67.47449732:32:32:32:32:3  6Bm N  ov 19, 2018 2 3:03:37.220091000  7
           509  67.53118632:32:32:32:32:3  6Bm N  ov 19, 2018 2 3:03:37.276780000  7
           510  6 7.5555832:32:32:32:32:3  6Bm N  ov 19, 2018 2 3:03:37.301174000  7
           511  67.58133532:32:32:32:32:3  7Bm N  ov 19, 2018 2 3:03:37.326929000  7
           512  67.60984232:32:32:32:32:3  5Bm N  ov 19, 2018 2 3:03:37.355436000  7
           513  67.65201832:32:32:32:32:3  5Bm N  ov 19, 2018 2 3:03:37.397612000  7
           514  67.67213632:32:32:32:32:3  4Bm N  ov 19, 2018 2 3:03:37.417730000  7
           515  67.75402432:32:32:32:32:3  4Bm N  ov 19, 2018 2 3:03:37.499618000  7
           516  68.12357132:32:32:32:32:3  6Bm N  ov 19, 2018 2 3:03:37.869165000  7
           517  68.25484632:32:32:32:32:3  6Bm N  ov 19, 2018 2 3:03:38.000440000  7
           518  68.75688732:32:32:32:32:3  5Bm N  ov 19, 2018 2 3:03:38.502481000  7
           519  68.86062832:32:32:32:32:3  4Bm N  ov 19, 2018 2 3:03:38.606222000  7
           520  68.94129532:32:32:32:32:3  6Bm N  ov 19, 2018 2 3:03:38.686889000  7
           521  69.28128932:32:32:32:32:3  6Bm N  ov 19, 2018 2 3:03:39.026883000  7
           522  69.44407532:32:32:32:32:3  7Bm N  ov 19, 2018 2 3:03:39.189669000  7
           523  69.55341732:32:32:32:32:3  7Bm N  ov 19, 2018 2 3:03:39.299011000  7
           524  69.60072632:32:32:32:32:3  5Bm N  ov 19, 2018 2 3:03:39.346320000  7
           525  69.63577232:32:32:32:32:3  6Bm N  ov 19, 2018 2 3:03:39.381366000  7
           526  69.65135132:32:32:32:32:3  6Bm N  ov 19, 2018 2 3:03:39.396945000  7
           527  69.74714232:32:32:32:32:3  5Bm N  ov 19, 2018 2 3:03:39.492736000  7
           528  69.99376232:32:32:32:32:3  6Bm N  ov 19, 2018 2 3:03:39.739356000  7
           529  70.02728632:32:32:32:32:3  6Bm N  ov 19, 2018 2 3:03:39.772880000  7
           530  70.13807932:32:32:32:32:3  6Bm N  ov 19, 2018 2 3:03:39.883673000  7
           531  7 0.1958332:32:32:32:32:3  5Bm N  ov 19, 2018 2 3:03:39.941424000  7
           532  70.59789832:32:32:32:32:3  7Bm N  ov 19, 2018 2 3:03:40.343492000  7
           533  70.70126432:32:32:32:32:3  3Bm N  ov 19, 2018 2 3:03:40.446858000  7
           534  70.71627432:32:32:32:32:3  4Bm N  ov 19, 2018 2 3:03:40.461868000  7
           535  70.87139732:32:32:32:32:3  6Bm N  ov 19, 2018 2 3:03:40.616991000  7
           536  70.89595832:32:32:32:32:3  6Bm N  ov 19, 2018 2 3:03:40.641552000  7
           537  71.04350332:32:32:32:32:3  5Bm N  ov 19, 2018 2 3:03:40.789097000  7
           538  71.05528432:32:32:32:32:3  5Bm N  ov 19, 2018 2 3:03:40.800878000  7
           539  71.24847832:32:32:32:32:3  5Bm N  ov 19, 2018 2 3:03:40.994072000  7
           540  71.28176932:32:32:32:32:3  4Bm N  ov 19, 2018 2 3:03:41.027363000  7
           541  71.59528532:32:32:32:32:3  6Bm N  ov 19, 2018 2 3:03:41.340879000  7
           542  7 1.6170232:32:32:32:32:3  4Bm N  ov 19, 2018 2 3:03:41.362614000  7
           543  71.62980632:32:32:32:32:3  2Bm N  ov 19, 2018 2 3:03:41.375400000  7
           544  71.69498432:32:32:32:32:3  6Bm N  ov 19, 2018 2 3:03:41.440578000  7
           545  71.78581232:32:32:32:32:3  7Bm N  ov 19, 2018 2 3:03:41.531406000  7
           546  71.84685732:32:32:32:32:3  4Bm N  ov 19, 2018 2 3:03:41.592451000  7
           547  71.86265232:32:32:32:32:3  6Bm N  ov 19, 2018 2 3:03:41.608246000  7
           548  72.15626932:32:32:32:32:3  7Bm N  ov 19, 2018 2 3:03:41.901863000  7
           549  72.16706932:32:32:32:32:3  5Bm N  ov 19, 2018 2 3:03:41.912663000  7
           550  72.17779132:32:32:32:32:3  6Bm N  ov 19, 2018 2 3:03:41.923385000  7
           551  72.22661132:32:32:32:32:3  5Bm N  ov 19, 2018 2 3:03:41.972205000  7
           552  72.46412232:32:32:32:32:3  5Bm N  ov 19, 2018 2 3:03:42.209716000  7
           553  72.49231232:32:32:32:32:3  6Bm N  ov 19, 2018 2 3:03:42.237906000  7
           554  72.64666832:32:32:32:32:3  6Bm N  ov 19, 2018 2 3:03:42.392262000  7
           555  72.77385332:32:32:32:32:3  7Bm N  ov 19, 2018 2 3:03:42.519447000  7
           556  72.81019932:32:32:32:32:3  6Bm N  ov 19, 2018 2 3:03:42.555793000  7
           557  72.84294932:32:32:32:32:3  6Bm N  ov 19, 2018 2 3:03:42.588543000  7
           558  72.88481332:32:32:32:32:3  5Bm N  ov 19, 2018 2 3:03:42.630407000  7
           559  72.92016632:32:32:32:32:3  6Bm N  ov 19, 2018 2 3:03:42.665760000  7
           560  73.18724232:32:32:32:32:3  6Bm N  ov 19, 2018 2 3:03:42.932836000  7
           561  7 3.3015932:32:32:32:32:3  5Bm N  ov 19, 2018 2 3:03:43.047184000  7
           562  7 3.3206532:32:32:32:32:3  4Bm N  ov 19, 2018 2 3:03:43.066244000  7
           563  73.50961532:32:32:32:32:3  5Bm N  ov 19, 2018 2 3:03:43.255209000  7
           564  73.55667532:32:32:32:32:3  7Bm N  ov 19, 2018 2 3:03:43.302269000  7
           565  73.66133332:32:32:32:32:3  5Bm N  ov 19, 2018 2 3:03:43.406927000  7
           566  7 3.6791432:32:32:32:32:3  7Bm N  ov 19, 2018 2 3:03:43.424734000  7
           567  73.97678832:32:32:32:32:3  4Bm N  ov 19, 2018 2 3:03:43.722382000  7
           568  74.06134232:32:32:32:32:3  4Bm N  ov 19, 2018 2 3:03:43.806936000  7
           569  74.16982232:32:32:32:32:3  5Bm N  ov 19, 2018 2 3:03:43.915416000  7
           570  74.21612632:32:32:32:32:3  6Bm N  ov 19, 2018 2 3:03:43.961720000  7
           571  74.23747332:32:32:32:32:3  5Bm N  ov 19, 2018 2 3:03:43.983067000  7
           572  74.30698532:32:32:32:32:3  6Bm N  ov 19, 2018 2 3:03:44.052579000  7
           573  74.37781832:32:32:32:32:3  5Bm N  ov 19, 2018 2 3:03:44.123412000  7
           574  74.47217632:32:32:32:32:3  7Bm N  ov 19, 2018 2 3:03:44.217770000  7
           575  7 4.5350332:32:32:32:32:3  6Bm N  ov 19, 2018 2 3:03:44.280624000  7
           576  74.74471932:32:32:32:32:3  6Bm N  ov 19, 2018 2 3:03:44.490313000  7
           577  75.39150332:32:32:32:32:3  7Bm N  ov 19, 2018 2 3:03:45.137097000  7
           578  7 5.4050232:32:32:32:32:3  4Bm N  ov 19, 2018 2 3:03:45.150614000  7
           579  75.49015732:32:32:32:32:3  6Bm N  ov 19, 2018 2 3:03:45.235751000  7
           580  75.50936332:32:32:32:32:3  6Bm N  ov 19, 2018 2 3:03:45.254957000  7
           581  7 5.5789232:32:32:32:32:3  4Bm N  ov 19, 2018 2 3:03:45.324514000  7
           582  75.93387232:32:32:32:32:3  6Bm N  ov 19, 2018 2 3:03:45.679466000  7
           583  76.04487532:32:32:32:32:3  6Bm N  ov 19, 2018 2 3:03:45.790469000  7
           584  7 6.3093132:32:32:32:32:3  6Bm N  ov 19, 2018 2 3:03:46.054904000  7
           585  76.63149732:32:32:32:32:3  6Bm N  ov 19, 2018 2 3:03:46.377091000  7
           586  7 6.6734932:32:32:32:32:3  6Bm N  ov 19, 2018 2 3:03:46.419084000  7
           587  76.69405132:32:32:32:32:3  5Bm N  ov 19, 2018 2 3:03:46.439645000  7
           588  7 6.7362432:32:32:32:32:3  7Bm N  ov 19, 2018 2 3:03:46.481834000  7
           589  76.85165832:32:32:32:32:3  6Bm N  ov 19, 2018 2 3:03:46.597252000  7
           590  76.97645332:32:32:32:32:3  5Bm N  ov 19, 2018 2 3:03:46.722047000  7
           591  77.07202432:32:32:32:32:3  5Bm N  ov 19, 2018 2 3:03:46.817618000  7
           592  77.31541432:32:32:32:32:3  5Bm N  ov 19, 2018 2 3:03:47.061008000  7
           593  77.32260332:32:32:32:32:3  5Bm N  ov 19, 2018 2 3:03:47.068197000  7
           594  77.35199132:32:32:32:32:3  7Bm N  ov 19, 2018 2 3:03:47.097585000  7
           595  77.37920132:32:32:32:32:3  6Bm N  ov 19, 2018 2 3:03:47.124795000  7
           596  77.43736532:32:32:32:32:3  6Bm N  ov 19, 2018 2 3:03:47.182959000  7
           597  77.52043732:32:32:32:32:3  7Bm N  ov 19, 2018 2 3:03:47.266031000  7
           598  77.72140232:32:32:32:32:3  5Bm N  ov 19, 2018 2 3:03:47.466996000  7
           599  77.78488132:32:32:32:32:3  7Bm N  ov 19, 2018 2 3:03:47.530475000  7
           600  77.89410932:32:32:32:32:3  6Bm N  ov 19, 2018 2 3:03:47.639703000  7
           601  77.92660432:32:32:32:32:3  5Bm N  ov 19, 2018 2 3:03:47.672198000  7
           602  77.99966132:32:32:32:32:3  5Bm N  ov 19, 2018 2 3:03:47.745255000  7
           603  78.06803632:32:32:32:32:3  5Bm N  ov 19, 2018 2 3:03:47.813630000  7
           604  78.50347932:32:32:32:32:3  5Bm N  ov 19, 2018 2 3:03:48.249073000  7
           605  78.65012532:32:32:32:32:3  6Bm N  ov 19, 2018 2 3:03:48.395719000  7
           606  78.69212332:32:32:32:32:3  4Bm N  ov 19, 2018 2 3:03:48.437717000  7
           607  78.74823132:32:32:32:32:3  5Bm N  ov 19, 2018 2 3:03:48.493825000  7
           608  78.77360932:32:32:32:32:3  4Bm N  ov 19, 2018 2 3:03:48.519203000  7
           609  7 8.7736232:32:32:32:32:3  4Bm N  ov 19, 2018 2 3:03:48.519214000  7
           610  79.07298232:32:32:32:32:3  4Bm N  ov 19, 2018 2 3:03:48.818576000  7
           611  79.62234832:32:32:32:32:3  6Bm N  ov 19, 2018 2 3:03:49.367942000  7
           612  79.73166932:32:32:32:32:3  4Bm N  ov 19, 2018 2 3:03:49.477263000  7
           613  80.27420732:32:32:32:32:3  7Bm N  ov 19, 2018 2 3:03:50.019801000  7
           614  80.28869332:32:32:32:32:3  5Bm N  ov 19, 2018 2 3:03:50.034287000  7
           615  80.32764432:32:32:32:32:3  5Bm N  ov 19, 2018 2 3:03:50.073238000  7
           616  80.55252732:32:32:32:32:3  6Bm N  ov 19, 2018 2 3:03:50.298121000  7
           617  8 0.5697232:32:32:32:32:3  4Bm N  ov 19, 2018 2 3:03:50.315314000  7
           618  80.60030432:32:32:32:32:3  5Bm N  ov 19, 2018 2 3:03:50.345898000  7
           619  80.69593132:32:32:32:32:3  4Bm N  ov 19, 2018 2 3:03:50.441525000  7
           620  81.16111732:32:32:32:32:3  4Bm N  ov 19, 2018 2 3:03:50.906711000  7
           621  81.17417732:32:32:32:32:3  3Bm N  ov 19, 2018 2 3:03:50.919771000  7
           622  81.23597432:32:32:32:32:3  6Bm N  ov 19, 2018 2 3:03:50.981568000  7
           623  81.34159832:32:32:32:32:3  5Bm N  ov 19, 2018 2 3:03:51.087192000  7
           624  81.44975632:32:32:32:32:3  6Bm N  ov 19, 2018 2 3:03:51.195350000  7
           625  81.54936832:32:32:32:32:3  3Bm N  ov 19, 2018 2 3:03:51.294962000  7
           626  81.56568832:32:32:32:32:3  6Bm N  ov 19, 2018 2 3:03:51.311282000  7
           627  81.63677432:32:32:32:32:3  6Bm N  ov 19, 2018 2 3:03:51.382368000  7
           628  81.74488632:32:32:32:32:3  6Bm N  ov 19, 2018 2 3:03:51.490480000  7
           629  81.83792132:32:32:32:32:3  8Bm N  ov 19, 2018 2 3:03:51.583515000  7
           630  81.88868832:32:32:32:32:3  3Bm N  ov 19, 2018 2 3:03:51.634282000  7
           631  81.92410232:32:32:32:32:3  6Bm N  ov 19, 2018 2 3:03:51.669696000  7
           632  81.94551432:32:32:32:32:3  6Bm N  ov 19, 2018 2 3:03:51.691108000  7
           633  82.24718232:32:32:32:32:3  7Bm N  ov 19, 2018 2 3:03:51.992776000  7
           634  82.40749432:32:32:32:32:3  5Bm N  ov 19, 2018 2 3:03:52.153088000  7
           635  82.86860532:32:32:32:32:3  6Bm N  ov 19, 2018 2 3:03:52.614199000  7
           636  82.92444832:32:32:32:32:3  5Bm N  ov 19, 2018 2 3:03:52.670042000  7
           637  83.00062932:32:32:32:32:3  5Bm N  ov 19, 2018 2 3:03:52.746223000  7
           638  83.46632832:32:32:32:32:3  4Bm N  ov 19, 2018 2 3:03:53.211922000  7
           639  83.59749932:32:32:32:32:3  6Bm N  ov 19, 2018 2 3:03:53.343093000  7
           640  8 3.6282232:32:32:32:32:3  6Bm N  ov 19, 2018 2 3:03:53.373814000  7
           641  83.77918832:32:32:32:32:3  5Bm N  ov 19, 2018 2 3:03:53.524782000  7
           642  83.86687132:32:32:32:32:3  1Bm N  ov 19, 2018 2 3:03:53.612465000  7
           643  84.01798832:32:32:32:32:3  4Bm N  ov 19, 2018 2 3:03:53.763582000  7
           644  84.07826732:32:32:32:32:3  6Bm N  ov 19, 2018 2 3:03:53.823861000  7
           645  8 4.1366232:32:32:32:32:3  4Bm N  ov 19, 2018 2 3:03:53.882214000  7
           646  84.29211532:32:32:32:32:3  6Bm N  ov 19, 2018 2 3:03:54.037709000  7
           647  84.35447132:32:32:32:32:3  4Bm N  ov 19, 2018 2 3:03:54.100065000  7
           648  84.43657132:32:32:32:32:3  3Bm N  ov 19, 2018 2 3:03:54.182165000  7
           649  84.76994132:32:32:32:32:3  5Bm N  ov 19, 2018 2 3:03:54.515535000  7
           650  84.83501332:32:32:32:32:3  6Bm N  ov 19, 2018 2 3:03:54.580607000  7
           651  85.16495332:32:32:32:32:3  5Bm N  ov 19, 2018 2 3:03:54.910547000  7
           652  8 5.5548232:32:32:32:32:3  5Bm N  ov 19, 2018 2 3:03:55.300414000  7
           653  85.73682832:32:32:32:32:3  5Bm N  ov 19, 2018 2 3:03:55.482422000  7
           654  85.93828432:32:32:32:32:3  6Bm N  ov 19, 2018 2 3:03:55.683878000  7
           655  86.18131532:32:32:32:32:3  4Bm N  ov 19, 2018 2 3:03:55.926909000  7
           656  8 6.3167532:32:32:32:32:3  7Bm N  ov 19, 2018 2 3:03:56.062344000  7
           657  86.43462332:32:32:32:32:3  5Bm N  ov 19, 2018 2 3:03:56.180217000  7
           658  8 6.7231432:32:32:32:32:3  4Bm N  ov 19, 2018 2 3:03:56.468734000  7
           659  86.74612232:32:32:32:32:3  6Bm N  ov 19, 2018 2 3:03:56.491716000  7
           660  86.85195232:32:32:32:32:3  5Bm N  ov 19, 2018 2 3:03:56.597546000  7
           661  86.86309832:32:32:32:32:3  5Bm N  ov 19, 2018 2 3:03:56.608692000  7
           662  87.09321432:32:32:32:32:3  5Bm N  ov 19, 2018 2 3:03:56.838808000  7
           663  87.32523432:32:32:32:32:3  6Bm N  ov 19, 2018 2 3:03:57.070828000  7
           664  87.42691432:32:32:32:32:3  5Bm N  ov 19, 2018 2 3:03:57.172508000  7
           665  87.95752432:32:32:32:32:3  4Bm N  ov 19, 2018 2 3:03:57.703118000  7
           666  87.96384332:32:32:32:32:3  5Bm N  ov 19, 2018 2 3:03:57.709437000  7
           667  88.42018532:32:32:32:32:3  5Bm N  ov 19, 2018 2 3:03:58.165779000  7
           668  88.44426932:32:32:32:32:3  5Bm N  ov 19, 2018 2 3:03:58.189863000  7
           669  88.45700332:32:32:32:32:3  4Bm N  ov 19, 2018 2 3:03:58.202597000  7
           670  88.61325932:32:32:32:32:3  4Bm N  ov 19, 2018 2 3:03:58.358853000  7
           671  88.80344632:32:32:32:32:3  2Bm N  ov 19, 2018 2 3:03:58.549040000  7
           672  88.82975432:32:32:32:32:3  7Bm N  ov 19, 2018 2 3:03:58.575348000  7
           673  88.94550532:32:32:32:32:3  1Bm N  ov 19, 2018 2 3:03:58.691099000  7
           674  89.24963632:32:32:32:32:3  6Bm N  ov 19, 2018 2 3:03:58.995230000  7
           675  89.27032932:32:32:32:32:3  3Bm N  ov 19, 2018 2 3:03:59.015923000  7
           676  8 9.2882732:32:32:32:32:3  5Bm N  ov 19, 2018 2 3:03:59.033864000  7
           677  89.49524332:32:32:32:32:3  2Bm N  ov 19, 2018 2 3:03:59.240837000  7
           678  89.88265132:32:32:32:32:3  5Bm N  ov 19, 2018 2 3:03:59.628245000  7
           679  89.94664732:32:32:32:32:3  5Bm N  ov 19, 2018 2 3:03:59.692241000  7
           680  90.17953732:32:32:32:32:3  7Bm N  ov 19, 2018 2 3:03:59.925131000  7
           681  90.30766932:32:32:32:32:3  4Bm N  ov 19, 2018 2 3:04:00.053263000  7
           682  90.33376632:32:32:32:32:3  4Bm N  ov 19, 2018 2 3:04:00.079360000  7
           683  90.36620832:32:32:32:32:3  6Bm N  ov 19, 2018 2 3:04:00.111802000  7
           684  90.43279332:32:32:32:32:3  5Bm N  ov 19, 2018 2 3:04:00.178387000  7
           685  90.62932632:32:32:32:32:3  5Bm N  ov 19, 2018 2 3:04:00.374920000  7
           686  90.91636132:32:32:32:32:3  6Bm N  ov 19, 2018 2 3:04:00.661955000  7
           687  91.20078432:32:32:32:32:3  6Bm N  ov 19, 2018 2 3:04:00.946378000  7
           688  91.59086132:32:32:32:32:3  5Bm N  ov 19, 2018 2 3:04:01.336455000  7
           689  9 2.0265532:32:32:32:32:3  6Bm N  ov 19, 2018 2 3:04:01.772144000  7
           690  92.06064232:32:32:32:32:3  5Bm N  ov 19, 2018 2 3:04:01.806236000  7
           691  92.13277832:32:32:32:32:3  6Bm N  ov 19, 2018 2 3:04:01.878372000  7
           692  92.56656832:32:32:32:32:3  4Bm N  ov 19, 2018 2 3:04:02.312162000  7
           693  92.92101232:32:32:32:32:3  5Bm N  ov 19, 2018 2 3:04:02.666606000  7
           694  93.19070232:32:32:32:32:3  5Bm N  ov 19, 2018 2 3:04:02.936296000  7
           695  9 3.2589732:32:32:32:32:3  6Bm N  ov 19, 2018 2 3:04:03.004564000  7
           696  93.47709632:32:32:32:32:3  5Bm N  ov 19, 2018 2 3:04:03.222690000  7
           697  94.21910832:32:32:32:32:3  5Bm N  ov 19, 2018 2 3:04:03.964702000  7
           698  94.37855432:32:32:32:32:3  4Bm N  ov 19, 2018 2 3:04:04.124148000  7
           699  94.68669832:32:32:32:32:3  6Bm N  ov 19, 2018 2 3:04:04.432292000  7
           700  94.79050832:32:32:32:32:3  6Bm N  ov 19, 2018 2 3:04:04.536102000  7
           701  95.13021932:32:32:32:32:3  6Bm N  ov 19, 2018 2 3:04:04.875813000  7
           702  95.24621732:32:32:32:32:3  5Bm N  ov 19, 2018 2 3:04:04.991811000  7
           703  95.39343732:32:32:32:32:3  5Bm N  ov 19, 2018 2 3:04:05.139031000  7
           704  95.62400932:32:32:32:32:3  5Bm N  ov 19, 2018 2 3:04:05.369603000  7
           705  95.74324432:32:32:32:32:3  5Bm N  ov 19, 2018 2 3:04:05.488838000  7
           706  95.87447332:32:32:32:32:3  6Bm N  ov 19, 2018 2 3:04:05.620067000  7
           707  96.01285832:32:32:32:32:3  5Bm N  ov 19, 2018 2 3:04:05.758452000  7
           708  96.59648132:32:32:32:32:3  4Bm N  ov 19, 2018 2 3:04:06.342075000  7
           709  96.63388832:32:32:32:32:3  5Bm N  ov 19, 2018 2 3:04:06.379482000  7
           710  96.84443832:32:32:32:32:3  6Bm N  ov 19, 2018 2 3:04:06.590032000  7
           711  96.86991432:32:32:32:32:3  4Bm N  ov 19, 2018 2 3:04:06.615508000  7
           712  97.16228632:32:32:32:32:3  6Bm N  ov 19, 2018 2 3:04:06.907880000  7
           713  97.21638632:32:32:32:32:3  6Bm N  ov 19, 2018 2 3:04:06.961980000  7
           714  97.24353532:32:32:32:32:3  5Bm N  ov 19, 2018 2 3:04:06.989129000  7
           715  9 7.2562332:32:32:32:32:3  6Bm N  ov 19, 2018 2 3:04:07.001824000  7
           716  97.51840332:32:32:32:32:3  4Bm N  ov 19, 2018 2 3:04:07.263997000  7
           717  97.58700932:32:32:32:32:3  6Bm N  ov 19, 2018 2 3:04:07.332603000  7
           718  97.64325532:32:32:32:32:3  6Bm N  ov 19, 2018 2 3:04:07.388849000  7
           719  97.79135132:32:32:32:32:3  6Bm N  ov 19, 2018 2 3:04:07.536945000  7
           720  97.94142332:32:32:32:32:3  3Bm N  ov 19, 2018 2 3:04:07.687017000  7
           721  97.95951232:32:32:32:32:3  7Bm N  ov 19, 2018 2 3:04:07.705106000  7
           722  98.12358532:32:32:32:32:3  5Bm N  ov 19, 2018 2 3:04:07.869179000  7
           723  98.25891232:32:32:32:32:3  7Bm N  ov 19, 2018 2 3:04:08.004506000  7
           724  98.36485232:32:32:32:32:3  6Bm N  ov 19, 2018 2 3:04:08.110446000  7
           725  98.38375832:32:32:32:32:3  5Bm N  ov 19, 2018 2 3:04:08.129352000  7
           726  98.50620432:32:32:32:32:3  6Bm N  ov 19, 2018 2 3:04:08.251798000  7
           727  98.53015132:32:32:32:32:3  6Bm N  ov 19, 2018 2 3:04:08.275745000  7
           728  98.55306732:32:32:32:32:3  6Bm N  ov 19, 2018 2 3:04:08.298661000  7
           729  98.61986532:32:32:32:32:3  5Bm N  ov 19, 2018 2 3:04:08.365459000  7
           730  98.68756632:32:32:32:32:3  5Bm N  ov 19, 2018 2 3:04:08.433160000  7
           731  98.80421832:32:32:32:32:3  8Bm N  ov 19, 2018 2 3:04:08.549812000  7
           732  98.92523832:32:32:32:32:3  6Bm N  ov 19, 2018 2 3:04:08.670832000  7
           733  98.95349432:32:32:32:32:3  4Bm N  ov 19, 2018 2 3:04:08.699088000  7
           734  98.95842832:32:32:32:32:3  5Bm N  ov 19, 2018 2 3:04:08.704022000  7
           735  98.99990432:32:32:32:32:3  6Bm N  ov 19, 2018 2 3:04:08.745498000  7
           736  9 9.0318632:32:32:32:32:3  4Bm N  ov 19, 2018 2 3:04:08.777454000  7
           737  99.05109932:32:32:32:32:3  5Bm N  ov 19, 2018 2 3:04:08.796693000  7
           738  99.18986432:32:32:32:32:3  1Bm N  ov 19, 2018 2 3:04:08.935458000  7
