                1       032:32:32:32:32:3  4Bm N  ov 19, 2018 2 2:46:18.123097000  7          0
                20.53888232:32:32:32:32:3  6Bm N  ov 19, 2018 2 2:46:18.661979000  7          9
                30.80255632:32:32:32:32:3  5Bm N  ov 19, 2018 2 2:46:18.925653000  7        ###
                42.12050332:32:32:32:32:3  5Bm N  ov 19, 2018 2 2:46:20.243600000  7        ###
                52.48565332:32:32:32:32:3  3Bm N  ov 19, 2018 2 2:46:20.608750000  7        ###
                63.05435232:32:32:32:32:3  7Bm N  ov 19, 2018 2 2:46:21.177449000  7
                73.45236432:32:32:32:32:3  6Bm N  ov 19, 2018 2 2:46:21.575461000  7
                83.74415432:32:32:32:32:3  4Bm N  ov 19, 2018 2 2:46:21.867251000  7
                93.83529332:32:32:32:32:3  6Bm N  ov 19, 2018 2 2:46:21.958390000  7
               104.19526632:32:32:32:32:3  5Bm N  ov 19, 2018 2 2:46:22.318363000  7
               114.22471832:32:32:32:32:3  6Bm N  ov 19, 2018 2 2:46:22.347815000  7
               125.31822632:32:32:32:32:3  6Bm N  ov 19, 2018 2 2:46:23.441323000  7
               135.79249332:32:32:32:32:3  5Bm N  ov 19, 2018 2 2:46:23.915590000  7
               145.90596232:32:32:32:32:3  8Bm N  ov 19, 2018 2 2:46:24.029059000  7
               155.96426332:32:32:32:32:3  8Bm N  ov 19, 2018 2 2:46:24.087360000  7
               165.96735832:32:32:32:32:3  9Bm N  ov 19, 2018 2 2:46:24.090455000  7
               176.19976432:32:32:32:32:3  5Bm N  ov 19, 2018 2 2:46:24.322861000  7
               186.27390232:32:32:32:32:3  8Bm N  ov 19, 2018 2 2:46:24.396999000  7
               196.63164832:32:32:32:32:3  7Bm N  ov 19, 2018 2 2:46:24.754745000  7
               206.74972532:32:32:32:32:3  8Bm N  ov 19, 2018 2 2:46:24.872822000  7
               216.85952432:32:32:32:32:3  8Bm N  ov 19, 2018 2 2:46:24.982621000  7
               226.96409232:32:32:32:32:3  7Bm N  ov 19, 2018 2 2:46:25.087189000  7
               237.02485132:32:32:32:32:3  6Bm N  ov 19, 2018 2 2:46:25.147948000  7
               247.17157132:32:32:32:32:3  5Bm N  ov 19, 2018 2 2:46:25.294668000  7
               25 7.2680332:32:32:32:32:3  6Bm N  ov 19, 2018 2 2:46:25.391127000  7
               267.43661932:32:32:32:32:3  6Bm N  ov 19, 2018 2 2:46:25.559716000  7
               277.61988432:32:32:32:32:3  6Bm N  ov 19, 2018 2 2:46:25.742981000  7
               287.66968532:32:32:32:32:3  5Bm N  ov 19, 2018 2 2:46:25.792782000  7
               297.70789432:32:32:32:32:3  6Bm N  ov 19, 2018 2 2:46:25.830991000  7
               308.15602532:32:32:32:32:3  7Bm N  ov 19, 2018 2 2:46:26.279122000  7
               318.16526632:32:32:32:32:3  8Bm N  ov 19, 2018 2 2:46:26.288363000  7
               32 8.2341332:32:32:32:32:3  7Bm N  ov 19, 2018 2 2:46:26.357227000  7
               338.57448532:32:32:32:32:3  6Bm N  ov 19, 2018 2 2:46:26.697582000  7
               348.59711632:32:32:32:32:3  5Bm N  ov 19, 2018 2 2:46:26.720213000  7
               358.68437932:32:32:32:32:3  4Bm N  ov 19, 2018 2 2:46:26.807476000  7
               368.76903832:32:32:32:32:3  7Bm N  ov 19, 2018 2 2:46:26.892135000  7
               378.83042332:32:32:32:32:3  6Bm N  ov 19, 2018 2 2:46:26.953520000  7
               388.85259532:32:32:32:32:3  6Bm N  ov 19, 2018 2 2:46:26.975692000  7
               398.92591932:32:32:32:32:3  4Bm N  ov 19, 2018 2 2:46:27.049016000  7
               409.09529132:32:32:32:32:3  6Bm N  ov 19, 2018 2 2:46:27.218388000  7
               419.17722132:32:32:32:32:3  5Bm N  ov 19, 2018 2 2:46:27.300318000  7
               429.48645532:32:32:32:32:3  6Bm N  ov 19, 2018 2 2:46:27.609552000  7
               439.52191132:32:32:32:32:3  6Bm N  ov 19, 2018 2 2:46:27.645008000  7
               44 9.5668332:32:32:32:32:3  4Bm N  ov 19, 2018 2 2:46:27.689927000  7
               45  9.650932:32:32:32:32:3  6Bm N  ov 19, 2018 2 2:46:27.773997000  7
               469.67108132:32:32:32:32:3  7Bm N  ov 19, 2018 2 2:46:27.794178000  7
               479.78392332:32:32:32:32:3  4Bm N  ov 19, 2018 2 2:46:27.907020000  7
               489.84176632:32:32:32:32:3  4Bm N  ov 19, 2018 2 2:46:27.964863000  7
               499.99069432:32:32:32:32:3  6Bm N  ov 19, 2018 2 2:46:28.113791000  7
            50  10.17544732:32:32:32:32:3  2Bm N  ov 19, 2018 2 2:46:28.298544000  7
            51  10.24954532:32:32:32:32:3  4Bm N  ov 19, 2018 2 2:46:28.372642000  7
            52  10.36496432:32:32:32:32:3  5Bm N  ov 19, 2018 2 2:46:28.488061000  7
            53  10.66781732:32:32:32:32:3  5Bm N  ov 19, 2018 2 2:46:28.790914000  7
            54  10.85409132:32:32:32:32:3  4Bm N  ov 19, 2018 2 2:46:28.977188000  7
            55  1 0.9263832:32:32:32:32:3  5Bm N  ov 19, 2018 2 2:46:29.049477000  7
            56  10.97959832:32:32:32:32:3  5Bm N  ov 19, 2018 2 2:46:29.102695000  7
            57  11.02722932:32:32:32:32:3  5Bm N  ov 19, 2018 2 2:46:29.150326000  7
            58  11.12902432:32:32:32:32:3  6Bm N  ov 19, 2018 2 2:46:29.252121000  7
            59  11.14890732:32:32:32:32:3  6Bm N  ov 19, 2018 2 2:46:29.272004000  7
            60  11.19701432:32:32:32:32:3  6Bm N  ov 19, 2018 2 2:46:29.320111000  7
            61  11.27219832:32:32:32:32:3  6Bm N  ov 19, 2018 2 2:46:29.395295000  7
            62  11.34154332:32:32:32:32:3  6Bm N  ov 19, 2018 2 2:46:29.464640000  7
            63  11.39261432:32:32:32:32:3  6Bm N  ov 19, 2018 2 2:46:29.515711000  7
            64  11.45951832:32:32:32:32:3  5Bm N  ov 19, 2018 2 2:46:29.582615000  7
            65  11.51451132:32:32:32:32:3  5Bm N  ov 19, 2018 2 2:46:29.637608000  7
            66  11.52627332:32:32:32:32:3  7Bm N  ov 19, 2018 2 2:46:29.649370000  7
            67  1 1.6310832:32:32:32:32:3  5Bm N  ov 19, 2018 2 2:46:29.754177000  7
            68  11.72114732:32:32:32:32:3  5Bm N  ov 19, 2018 2 2:46:29.844244000  7
            69  11.74992332:32:32:32:32:3  5Bm N  ov 19, 2018 2 2:46:29.873020000  7
            70  11.81138832:32:32:32:32:3  6Bm N  ov 19, 2018 2 2:46:29.934485000  7
            71  1 1.8402832:32:32:32:32:3  5Bm N  ov 19, 2018 2 2:46:29.963377000  7
            72  12.24761132:32:32:32:32:3  6Bm N  ov 19, 2018 2 2:46:30.370708000  7
            73  12.41739432:32:32:32:32:3  7Bm N  ov 19, 2018 2 2:46:30.540491000  7
            74  12.45680532:32:32:32:32:3  7Bm N  ov 19, 2018 2 2:46:30.579902000  7
            75  12.52279732:32:32:32:32:3  7Bm N  ov 19, 2018 2 2:46:30.645894000  7
            76  12.58882932:32:32:32:32:3  7Bm N  ov 19, 2018 2 2:46:30.711926000  7
            77  12.70528832:32:32:32:32:3  7Bm N  ov 19, 2018 2 2:46:30.828385000  7
            78  1 2.7219932:32:32:32:32:3  5Bm N  ov 19, 2018 2 2:46:30.845087000  7
            79  12.73843132:32:32:32:32:3  7Bm N  ov 19, 2018 2 2:46:30.861528000  7
            80  12.80258932:32:32:32:32:3  6Bm N  ov 19, 2018 2 2:46:30.925686000  7
            81  12.85753932:32:32:32:32:3  5Bm N  ov 19, 2018 2 2:46:30.980636000  7
            82  13.04952632:32:32:32:32:3  5Bm N  ov 19, 2018 2 2:46:31.172623000  7
            83  13.26218532:32:32:32:32:3  5Bm N  ov 19, 2018 2 2:46:31.385282000  7
            84  13.31957732:32:32:32:32:3  3Bm N  ov 19, 2018 2 2:46:31.442674000  7
            85  13.40276632:32:32:32:32:3  7Bm N  ov 19, 2018 2 2:46:31.525863000  7
            86  13.46096332:32:32:32:32:3  5Bm N  ov 19, 2018 2 2:46:31.584060000  7
            87  13.57040832:32:32:32:32:3  6Bm N  ov 19, 2018 2 2:46:31.693505000  7
            88  13.60902732:32:32:32:32:3  7Bm N  ov 19, 2018 2 2:46:31.732124000  7
            89  13.65152932:32:32:32:32:3  7Bm N  ov 19, 2018 2 2:46:31.774626000  7
            90  1 3.7927832:32:32:32:32:3  7Bm N  ov 19, 2018 2 2:46:31.915877000  7
            91  13.84833432:32:32:32:32:3  8Bm N  ov 19, 2018 2 2:46:31.971431000  7
            92  13.91792432:32:32:32:32:3  6Bm N  ov 19, 2018 2 2:46:32.041021000  7
            93  13.92430932:32:32:32:32:3  7Bm N  ov 19, 2018 2 2:46:32.047406000  7
            94  14.05462932:32:32:32:32:3  6Bm N  ov 19, 2018 2 2:46:32.177726000  7
            95  14.25094232:32:32:32:32:3  6Bm N  ov 19, 2018 2 2:46:32.374039000  7
            96  14.34583632:32:32:32:32:3  6Bm N  ov 19, 2018 2 2:46:32.468933000  7
            97  14.35987632:32:32:32:32:3  3Bm N  ov 19, 2018 2 2:46:32.482973000  7
            98  1 4.4026132:32:32:32:32:3  6Bm N  ov 19, 2018 2 2:46:32.525707000  7
            99  14.59164332:32:32:32:32:3  7Bm N  ov 19, 2018 2 2:46:32.714740000  7
           100  15.01904632:32:32:32:32:3  7Bm N  ov 19, 2018 2 2:46:33.142143000  7
           101  15.09436832:32:32:32:32:3  6Bm N  ov 19, 2018 2 2:46:33.217465000  7
           102  15.27810232:32:32:32:32:3  7Bm N  ov 19, 2018 2 2:46:33.401199000  7
           103  15.41175632:32:32:32:32:3  4Bm N  ov 19, 2018 2 2:46:33.534853000  7
           104  15.43560132:32:32:32:32:3  5Bm N  ov 19, 2018 2 2:46:33.558698000  7
           105  15.45291832:32:32:32:32:3  8Bm N  ov 19, 2018 2 2:46:33.576015000  7
           106  15.84426632:32:32:32:32:3  5Bm N  ov 19, 2018 2 2:46:33.967363000  7
           107  16.46160632:32:32:32:32:3  6Bm N  ov 19, 2018 2 2:46:34.584703000  7
           108  16.49830732:32:32:32:32:3  7Bm N  ov 19, 2018 2 2:46:34.621404000  7
           109  16.52638732:32:32:32:32:3  6Bm N  ov 19, 2018 2 2:46:34.649484000  7
           110  16.64396132:32:32:32:32:3  4Bm N  ov 19, 2018 2 2:46:34.767058000  7
           111  16.66354732:32:32:32:32:3  6Bm N  ov 19, 2018 2 2:46:34.786644000  7
           112  16.92442832:32:32:32:32:3  6Bm N  ov 19, 2018 2 2:46:35.047525000  7
           113  16.99042532:32:32:32:32:3  6Bm N  ov 19, 2018 2 2:46:35.113522000  7
           114  16.99946532:32:32:32:32:3  6Bm N  ov 19, 2018 2 2:46:35.122562000  7
           115  17.04835832:32:32:32:32:3  7Bm N  ov 19, 2018 2 2:46:35.171455000  7
           116  17.16759432:32:32:32:32:3  8Bm N  ov 19, 2018 2 2:46:35.290691000  7
           117  17.34563432:32:32:32:32:3  7Bm N  ov 19, 2018 2 2:46:35.468731000  7
           118  17.40951232:32:32:32:32:3  7Bm N  ov 19, 2018 2 2:46:35.532609000  7
           119  17.46636532:32:32:32:32:3  8Bm N  ov 19, 2018 2 2:46:35.589462000  7
           120  17.70371932:32:32:32:32:3  3Bm N  ov 19, 2018 2 2:46:35.826816000  7
           121  1 7.7854932:32:32:32:32:3  7Bm N  ov 19, 2018 2 2:46:35.908587000  7
           122  17.81798932:32:32:32:32:3  6Bm N  ov 19, 2018 2 2:46:35.941086000  7
           123  17.83088332:32:32:32:32:3  7Bm N  ov 19, 2018 2 2:46:35.953980000  7
           124  17.86039532:32:32:32:32:3  6Bm N  ov 19, 2018 2 2:46:35.983492000  7
           125  17.99918732:32:32:32:32:3  6Bm N  ov 19, 2018 2 2:46:36.122284000  7
           126  18.09018832:32:32:32:32:3  7Bm N  ov 19, 2018 2 2:46:36.213285000  7
           127  18.10154432:32:32:32:32:3  7Bm N  ov 19, 2018 2 2:46:36.224641000  7
           128  18.27243732:32:32:32:32:3  7Bm N  ov 19, 2018 2 2:46:36.395534000  7
           129  18.33502432:32:32:32:32:3  7Bm N  ov 19, 2018 2 2:46:36.458121000  7
           130  18.35066932:32:32:32:32:3  7Bm N  ov 19, 2018 2 2:46:36.473766000  7
           131  18.53756732:32:32:32:32:3  5Bm N  ov 19, 2018 2 2:46:36.660664000  7
           132  18.63470932:32:32:32:32:3  7Bm N  ov 19, 2018 2 2:46:36.757806000  7
           133  18.79289432:32:32:32:32:3  7Bm N  ov 19, 2018 2 2:46:36.915991000  7
           134  18.83705932:32:32:32:32:3  6Bm N  ov 19, 2018 2 2:46:36.960156000  7
           135  18.96915532:32:32:32:32:3  6Bm N  ov 19, 2018 2 2:46:37.092252000  7
           136  18.99206432:32:32:32:32:3  8Bm N  ov 19, 2018 2 2:46:37.115161000  7
           137  19.25234732:32:32:32:32:3  6Bm N  ov 19, 2018 2 2:46:37.375444000  7
           138  19.62474232:32:32:32:32:3  5Bm N  ov 19, 2018 2 2:46:37.747839000  7
           139  19.80483432:32:32:32:32:3  7Bm N  ov 19, 2018 2 2:46:37.927931000  7
           140  20.28914132:32:32:32:32:3  5Bm N  ov 19, 2018 2 2:46:38.412238000  7
           141  20.34833332:32:32:32:32:3  5Bm N  ov 19, 2018 2 2:46:38.471430000  7
           142  20.40048632:32:32:32:32:3  6Bm N  ov 19, 2018 2 2:46:38.523583000  7
           143  20.46866232:32:32:32:32:3  7Bm N  ov 19, 2018 2 2:46:38.591759000  7
           144  2 0.4889532:32:32:32:32:3  7Bm N  ov 19, 2018 2 2:46:38.612047000  7
           145  20.49443932:32:32:32:32:3  5Bm N  ov 19, 2018 2 2:46:38.617536000  7
           146  2 0.5859932:32:32:32:32:3  7Bm N  ov 19, 2018 2 2:46:38.709087000  7
           147  20.59649732:32:32:32:32:3  7Bm N  ov 19, 2018 2 2:46:38.719594000  7
           148  2 0.6754432:32:32:32:32:3  8Bm N  ov 19, 2018 2 2:46:38.798537000  7
           149  20.72567332:32:32:32:32:3  8Bm N  ov 19, 2018 2 2:46:38.848770000  7
           150  20.74571632:32:32:32:32:3  5Bm N  ov 19, 2018 2 2:46:38.868813000  7
           151  20.77740132:32:32:32:32:3  5Bm N  ov 19, 2018 2 2:46:38.900498000  7
           152  21.00872832:32:32:32:32:3  6Bm N  ov 19, 2018 2 2:46:39.131825000  7
           153  2 1.0787132:32:32:32:32:3  6Bm N  ov 19, 2018 2 2:46:39.201807000  7
           154  21.27413132:32:32:32:32:3  6Bm N  ov 19, 2018 2 2:46:39.397228000  7
           155  21.50787932:32:32:32:32:3  7Bm N  ov 19, 2018 2 2:46:39.630976000  7
           156  21.55809632:32:32:32:32:3  6Bm N  ov 19, 2018 2 2:46:39.681193000  7
           157  21.87726332:32:32:32:32:3  8Bm N  ov 19, 2018 2 2:46:40.000360000  7
           158  21.94667932:32:32:32:32:3  6Bm N  ov 19, 2018 2 2:46:40.069776000  7
           159  2 1.9651532:32:32:32:32:3  7Bm N  ov 19, 2018 2 2:46:40.088247000  7
           160  21.98026932:32:32:32:32:3  5Bm N  ov 19, 2018 2 2:46:40.103366000  7
           161  22.01204432:32:32:32:32:3  7Bm N  ov 19, 2018 2 2:46:40.135141000  7
           162  22.18305332:32:32:32:32:3  5Bm N  ov 19, 2018 2 2:46:40.306150000  7
           163  22.39181432:32:32:32:32:3  7Bm N  ov 19, 2018 2 2:46:40.514911000  7
           164  22.58690932:32:32:32:32:3  7Bm N  ov 19, 2018 2 2:46:40.710006000  7
           165  22.66692432:32:32:32:32:3  6Bm N  ov 19, 2018 2 2:46:40.790021000  7
           166  22.84466532:32:32:32:32:3  6Bm N  ov 19, 2018 2 2:46:40.967762000  7
           167  22.85639632:32:32:32:32:3  6Bm N  ov 19, 2018 2 2:46:40.979493000  7
           168  22.88345432:32:32:32:32:3  6Bm N  ov 19, 2018 2 2:46:41.006551000  7
           169  22.89906332:32:32:32:32:3  6Bm N  ov 19, 2018 2 2:46:41.022160000  7
           170  2 3.0502132:32:32:32:32:3  5Bm N  ov 19, 2018 2 2:46:41.173307000  7
           171  23.06967632:32:32:32:32:3  7Bm N  ov 19, 2018 2 2:46:41.192773000  7
           172  23.08808432:32:32:32:32:3  5Bm N  ov 19, 2018 2 2:46:41.211181000  7
           173  23.11491432:32:32:32:32:3  6Bm N  ov 19, 2018 2 2:46:41.238011000  7
           174  23.14831332:32:32:32:32:3  6Bm N  ov 19, 2018 2 2:46:41.271410000  7
           175  23.31791432:32:32:32:32:3  5Bm N  ov 19, 2018 2 2:46:41.441011000  7
           176  23.52167832:32:32:32:32:3  5Bm N  ov 19, 2018 2 2:46:41.644775000  7
           177  23.55346632:32:32:32:32:3  5Bm N  ov 19, 2018 2 2:46:41.676563000  7
           178  2 3.5685332:32:32:32:32:3  6Bm N  ov 19, 2018 2 2:46:41.691627000  7
           179  23.61642132:32:32:32:32:3  5Bm N  ov 19, 2018 2 2:46:41.739518000  7
           180  23.66341132:32:32:32:32:3  5Bm N  ov 19, 2018 2 2:46:41.786508000  7
           181  23.72329432:32:32:32:32:3  7Bm N  ov 19, 2018 2 2:46:41.846391000  7
           182  23.72668832:32:32:32:32:3  8Bm N  ov 19, 2018 2 2:46:41.849785000  7
           183  2 3.7604132:32:32:32:32:3  6Bm N  ov 19, 2018 2 2:46:41.883507000  7
           184  24.03225232:32:32:32:32:3  5Bm N  ov 19, 2018 2 2:46:42.155349000  7
           185  24.06225332:32:32:32:32:3  4Bm N  ov 19, 2018 2 2:46:42.185350000  7
           186  24.24712932:32:32:32:32:3  5Bm N  ov 19, 2018 2 2:46:42.370226000  7
           187  24.25216532:32:32:32:32:3  6Bm N  ov 19, 2018 2 2:46:42.375262000  7
           188  24.42977532:32:32:32:32:3  5Bm N  ov 19, 2018 2 2:46:42.552872000  7
           189  24.44639632:32:32:32:32:3  5Bm N  ov 19, 2018 2 2:46:42.569493000  7
           190  24.53143232:32:32:32:32:3  6Bm N  ov 19, 2018 2 2:46:42.654529000  7
           191  24.56205232:32:32:32:32:3  6Bm N  ov 19, 2018 2 2:46:42.685149000  7
           192  24.59057332:32:32:32:32:3  6Bm N  ov 19, 2018 2 2:46:42.713670000  7
           193  24.62897432:32:32:32:32:3  6Bm N  ov 19, 2018 2 2:46:42.752071000  7
           194  25.05976532:32:32:32:32:3  5Bm N  ov 19, 2018 2 2:46:43.182862000  7
           195  25.20020832:32:32:32:32:3  6Bm N  ov 19, 2018 2 2:46:43.323305000  7
           196  25.45533332:32:32:32:32:3  7Bm N  ov 19, 2018 2 2:46:43.578430000  7
           197  2  5.484532:32:32:32:32:3  7Bm N  ov 19, 2018 2 2:46:43.607597000  7
           198  25.68951432:32:32:32:32:3  5Bm N  ov 19, 2018 2 2:46:43.812611000  7
           199  25.87137632:32:32:32:32:3  4Bm N  ov 19, 2018 2 2:46:43.994473000  7
           200  26.08731932:32:32:32:32:3  7Bm N  ov 19, 2018 2 2:46:44.210416000  7
           201  26.12429532:32:32:32:32:3  5Bm N  ov 19, 2018 2 2:46:44.247392000  7
           202  26.14421432:32:32:32:32:3  6Bm N  ov 19, 2018 2 2:46:44.267311000  7
           203  26.15369932:32:32:32:32:3  8Bm N  ov 19, 2018 2 2:46:44.276796000  7
           204  26.17224232:32:32:32:32:3  6Bm N  ov 19, 2018 2 2:46:44.295339000  7
           205  26.24026232:32:32:32:32:3  5Bm N  ov 19, 2018 2 2:46:44.363359000  7
           206  26.35278232:32:32:32:32:3  8Bm N  ov 19, 2018 2 2:46:44.475879000  7
           207  26.49168832:32:32:32:32:3  7Bm N  ov 19, 2018 2 2:46:44.614785000  7
           208  2  6.543332:32:32:32:32:3  5Bm N  ov 19, 2018 2 2:46:44.666397000  7
           209  26.61019932:32:32:32:32:3  5Bm N  ov 19, 2018 2 2:46:44.733296000  7
           210  26.80417432:32:32:32:32:3  7Bm N  ov 19, 2018 2 2:46:44.927271000  7
           211  26.97989232:32:32:32:32:3  7Bm N  ov 19, 2018 2 2:46:45.102989000  7
           212  27.03524732:32:32:32:32:3  5Bm N  ov 19, 2018 2 2:46:45.158344000  7
           213  27.09007232:32:32:32:32:3  7Bm N  ov 19, 2018 2 2:46:45.213169000  7
           214  27.11408732:32:32:32:32:3  6Bm N  ov 19, 2018 2 2:46:45.237184000  7
           215  2 7.2149832:32:32:32:32:3  6Bm N  ov 19, 2018 2 2:46:45.338077000  7
           216  27.26745932:32:32:32:32:3  8Bm N  ov 19, 2018 2 2:46:45.390556000  7
           217  27.27952432:32:32:32:32:3  7Bm N  ov 19, 2018 2 2:46:45.402621000  7
           218  27.39737532:32:32:32:32:3  5Bm N  ov 19, 2018 2 2:46:45.520472000  7
           219  27.43512732:32:32:32:32:3  7Bm N  ov 19, 2018 2 2:46:45.558224000  7
           220  27.86778532:32:32:32:32:3  5Bm N  ov 19, 2018 2 2:46:45.990882000  7
           221  27.92626732:32:32:32:32:3  5Bm N  ov 19, 2018 2 2:46:46.049364000  7
           222  27.96336932:32:32:32:32:3  6Bm N  ov 19, 2018 2 2:46:46.086466000  7
           223  28.05488632:32:32:32:32:3  8Bm N  ov 19, 2018 2 2:46:46.177983000  7
           224  28.12002532:32:32:32:32:3  7Bm N  ov 19, 2018 2 2:46:46.243122000  7
           225  2 8.1945832:32:32:32:32:3  7Bm N  ov 19, 2018 2 2:46:46.317677000  7
           226  28.32945632:32:32:32:32:3  6Bm N  ov 19, 2018 2 2:46:46.452553000  7
           227  28.37871732:32:32:32:32:3  5Bm N  ov 19, 2018 2 2:46:46.501814000  7
           228  28.60195732:32:32:32:32:3  5Bm N  ov 19, 2018 2 2:46:46.725054000  7
           229  28.66979232:32:32:32:32:3  0Bm N  ov 19, 2018 2 2:46:46.792889000  7
           230  28.84637932:32:32:32:32:3  5Bm N  ov 19, 2018 2 2:46:46.969476000  7
           231  29.04061232:32:32:32:32:3  3Bm N  ov 19, 2018 2 2:46:47.163709000  7
           232  29.08758432:32:32:32:32:3  7Bm N  ov 19, 2018 2 2:46:47.210681000  7
           233  29.14275432:32:32:32:32:3  2Bm N  ov 19, 2018 2 2:46:47.265851000  7
           234  29.73463632:32:32:32:32:3  4Bm N  ov 19, 2018 2 2:46:47.857733000  7
           235  33.58148732:32:32:32:32:3  3Bm N  ov 19, 2018 2 2:46:51.704584000  7
           236  35.39519232:32:32:32:32:3  3Bm N  ov 19, 2018 2 2:46:53.518289000  7
           237  35.77302532:32:32:32:32:3  6Bm N  ov 19, 2018 2 2:46:53.896122000  7
           238  35.92965832:32:32:32:32:3  6Bm N  ov 19, 2018 2 2:46:54.052755000  7
           239  36.12786432:32:32:32:32:3  5Bm N  ov 19, 2018 2 2:46:54.250961000  7
           240  36.16343632:32:32:32:32:3  5Bm N  ov 19, 2018 2 2:46:54.286533000  7
           241  36.30375732:32:32:32:32:3  5Bm N  ov 19, 2018 2 2:46:54.426854000  7
           242  37.07217932:32:32:32:32:3  5Bm N  ov 19, 2018 2 2:46:55.195276000  7
           243  37.20672932:32:32:32:32:3  6Bm N  ov 19, 2018 2 2:46:55.329826000  7
           244  37.35225632:32:32:32:32:3  7Bm N  ov 19, 2018 2 2:46:55.475353000  7
           245  37.39333732:32:32:32:32:3  6Bm N  ov 19, 2018 2 2:46:55.516434000  7
           246  37.41256932:32:32:32:32:3  6Bm N  ov 19, 2018 2 2:46:55.535666000  7
           247  37.71975332:32:32:32:32:3  6Bm N  ov 19, 2018 2 2:46:55.842850000  7
           248  37.85493132:32:32:32:32:3  7Bm N  ov 19, 2018 2 2:46:55.978028000  7
           249  3 7.9564232:32:32:32:32:3  5Bm N  ov 19, 2018 2 2:46:56.079517000  7
           250  37.97350132:32:32:32:32:3  7Bm N  ov 19, 2018 2 2:46:56.096598000  7
           251  38.08936432:32:32:32:32:3  6Bm N  ov 19, 2018 2 2:46:56.212461000  7
           252  38.24547632:32:32:32:32:3  2Bm N  ov 19, 2018 2 2:46:56.368573000  7
           253  38.33395432:32:32:32:32:3  5Bm N  ov 19, 2018 2 2:46:56.457051000  7
           254  38.35682932:32:32:32:32:3  6Bm N  ov 19, 2018 2 2:46:56.479926000  7
           255  39.18822832:32:32:32:32:3  5Bm N  ov 19, 2018 2 2:46:57.311325000  7
           256  39.25807232:32:32:32:32:3  6Bm N  ov 19, 2018 2 2:46:57.381169000  7
           257  39.29622432:32:32:32:32:3  4Bm N  ov 19, 2018 2 2:46:57.419321000  7
           258  39.31908532:32:32:32:32:3  5Bm N  ov 19, 2018 2 2:46:57.442182000  7
           259  39.49181832:32:32:32:32:3  5Bm N  ov 19, 2018 2 2:46:57.614915000  7
           260  39.62091832:32:32:32:32:3  5Bm N  ov 19, 2018 2 2:46:57.744015000  7
           261  39.71124332:32:32:32:32:3  6Bm N  ov 19, 2018 2 2:46:57.834340000  7
           262  39.72303932:32:32:32:32:3  4Bm N  ov 19, 2018 2 2:46:57.846136000  7
           263  40.02109332:32:32:32:32:3  7Bm N  ov 19, 2018 2 2:46:58.144190000  7
           264  40.11959532:32:32:32:32:3  7Bm N  ov 19, 2018 2 2:46:58.242692000  7
           265  40.24197632:32:32:32:32:3  5Bm N  ov 19, 2018 2 2:46:58.365073000  7
           266  40.35756232:32:32:32:32:3  7Bm N  ov 19, 2018 2 2:46:58.480659000  7
           267  40.38550432:32:32:32:32:3  4Bm N  ov 19, 2018 2 2:46:58.508601000  7
           268  40.39853132:32:32:32:32:3  6Bm N  ov 19, 2018 2 2:46:58.521628000  7
           269  40.55770232:32:32:32:32:3  5Bm N  ov 19, 2018 2 2:46:58.680799000  7
           270  40.67471732:32:32:32:32:3  7Bm N  ov 19, 2018 2 2:46:58.797814000  7
           271  40.71826832:32:32:32:32:3  5Bm N  ov 19, 2018 2 2:46:58.841365000  7
           272  40.72962432:32:32:32:32:3  6Bm N  ov 19, 2018 2 2:46:58.852721000  7
           273  40.75498132:32:32:32:32:3  5Bm N  ov 19, 2018 2 2:46:58.878078000  7
           274  40.89444832:32:32:32:32:3  4Bm N  ov 19, 2018 2 2:46:59.017545000  7
           275  41.13125932:32:32:32:32:3  7Bm N  ov 19, 2018 2 2:46:59.254356000  7
           276  4 1.3386932:32:32:32:32:3  7Bm N  ov 19, 2018 2 2:46:59.461787000  7
           277  41.48230432:32:32:32:32:3  6Bm N  ov 19, 2018 2 2:46:59.605401000  7
           278  41.49398332:32:32:32:32:3  6Bm N  ov 19, 2018 2 2:46:59.617080000  7
           279  41.53151332:32:32:32:32:3  6Bm N  ov 19, 2018 2 2:46:59.654610000  7
           280  4 1.5841532:32:32:32:32:3  6Bm N  ov 19, 2018 2 2:46:59.707247000  7
           281  41.92117432:32:32:32:32:3  6Bm N  ov 19, 2018 2 2:47:00.044271000  7
           282  41.93570932:32:32:32:32:3  6Bm N  ov 19, 2018 2 2:47:00.058806000  7
           283  42.03612932:32:32:32:32:3  4Bm N  ov 19, 2018 2 2:47:00.159226000  7
           284  42.18622232:32:32:32:32:3  4Bm N  ov 19, 2018 2 2:47:00.309319000  7
           285  42.22126432:32:32:32:32:3  6Bm N  ov 19, 2018 2 2:47:00.344361000  7
           286  4 2.5760432:32:32:32:32:3  6Bm N  ov 19, 2018 2 2:47:00.699137000  7
           287  4 2.7363432:32:32:32:32:3  6Bm N  ov 19, 2018 2 2:47:00.859437000  7
           288  42.78564832:32:32:32:32:3  7Bm N  ov 19, 2018 2 2:47:00.908745000  7
           289  42.80907632:32:32:32:32:3  4Bm N  ov 19, 2018 2 2:47:00.932173000  7
           290  4 2.9675232:32:32:32:32:3  6Bm N  ov 19, 2018 2 2:47:01.090617000  7
           291  43.29531232:32:32:32:32:3  5Bm N  ov 19, 2018 2 2:47:01.418409000  7
           292  43.64919932:32:32:32:32:3  6Bm N  ov 19, 2018 2 2:47:01.772296000  7
           293  43.67897332:32:32:32:32:3  6Bm N  ov 19, 2018 2 2:47:01.802070000  7
           294  43.69311432:32:32:32:32:3  6Bm N  ov 19, 2018 2 2:47:01.816211000  7
           295  43.87894332:32:32:32:32:3  6Bm N  ov 19, 2018 2 2:47:02.002040000  7
           296  44.12396432:32:32:32:32:3  5Bm N  ov 19, 2018 2 2:47:02.247061000  7
           297  44.13756132:32:32:32:32:3  7Bm N  ov 19, 2018 2 2:47:02.260658000  7
           298  44.33323732:32:32:32:32:3  5Bm N  ov 19, 2018 2 2:47:02.456334000  7
           299  44.46748732:32:32:32:32:3  4Bm N  ov 19, 2018 2 2:47:02.590584000  7
           300  44.51210132:32:32:32:32:3  6Bm N  ov 19, 2018 2 2:47:02.635198000  7
           301  44.55911132:32:32:32:32:3  5Bm N  ov 19, 2018 2 2:47:02.682208000  7
           302  4 4.7010532:32:32:32:32:3  6Bm N  ov 19, 2018 2 2:47:02.824147000  7
           303  44.80648532:32:32:32:32:3  5Bm N  ov 19, 2018 2 2:47:02.929582000  7
           304  44.89200332:32:32:32:32:3  7Bm N  ov 19, 2018 2 2:47:03.015100000  7
           305  44.91730832:32:32:32:32:3  7Bm N  ov 19, 2018 2 2:47:03.040405000  7
           306  44.93149832:32:32:32:32:3  6Bm N  ov 19, 2018 2 2:47:03.054595000  7
           307  45.67475232:32:32:32:32:3  6Bm N  ov 19, 2018 2 2:47:03.797849000  7
           308  45.71372932:32:32:32:32:3  4Bm N  ov 19, 2018 2 2:47:03.836826000  7
           309  45.77756832:32:32:32:32:3  5Bm N  ov 19, 2018 2 2:47:03.900665000  7
           310  45.83687932:32:32:32:32:3  5Bm N  ov 19, 2018 2 2:47:03.959976000  7
           311  4 5.8416632:32:32:32:32:3  7Bm N  ov 19, 2018 2 2:47:03.964757000  7
           312  45.90405732:32:32:32:32:3  5Bm N  ov 19, 2018 2 2:47:04.027154000  7
           313  46.02375432:32:32:32:32:3  3Bm N  ov 19, 2018 2 2:47:04.146851000  7
           314  46.08521532:32:32:32:32:3  5Bm N  ov 19, 2018 2 2:47:04.208312000  7
           315  46.58457232:32:32:32:32:3  5Bm N  ov 19, 2018 2 2:47:04.707669000  7
           316  46.64081932:32:32:32:32:3  5Bm N  ov 19, 2018 2 2:47:04.763916000  7
           317  46.70138532:32:32:32:32:3  5Bm N  ov 19, 2018 2 2:47:04.824482000  7
           318  46.79335832:32:32:32:32:3  0Bm N  ov 19, 2018 2 2:47:04.916455000  7
           319  47.02273232:32:32:32:32:3  5Bm N  ov 19, 2018 2 2:47:05.145829000  7
           320  47.11745832:32:32:32:32:3  4Bm N  ov 19, 2018 2 2:47:05.240555000  7
           321  47.19844132:32:32:32:32:3  5Bm N  ov 19, 2018 2 2:47:05.321538000  7
           322  47.25596732:32:32:32:32:3  6Bm N  ov 19, 2018 2 2:47:05.379064000  7
           323  47.31250932:32:32:32:32:3  3Bm N  ov 19, 2018 2 2:47:05.435606000  7
           324  47.34400732:32:32:32:32:3  5Bm N  ov 19, 2018 2 2:47:05.467104000  7
           325  47.41295532:32:32:32:32:3  5Bm N  ov 19, 2018 2 2:47:05.536052000  7
           326  47.55696532:32:32:32:32:3  6Bm N  ov 19, 2018 2 2:47:05.680062000  7
           327  48.00182332:32:32:32:32:3  5Bm N  ov 19, 2018 2 2:47:06.124920000  7
           328  48.50279632:32:32:32:32:3  5Bm N  ov 19, 2018 2 2:47:06.625893000  7
           329  48.54532632:32:32:32:32:3  7Bm N  ov 19, 2018 2 2:47:06.668423000  7
           330  48.56740932:32:32:32:32:3  6Bm N  ov 19, 2018 2 2:47:06.690506000  7
           331  48.58287432:32:32:32:32:3  4Bm N  ov 19, 2018 2 2:47:06.705971000  7
           332  48.59782832:32:32:32:32:3  7Bm N  ov 19, 2018 2 2:47:06.720925000  7
           333  48.61290232:32:32:32:32:3  5Bm N  ov 19, 2018 2 2:47:06.735999000  7
           334  48.62470932:32:32:32:32:3  5Bm N  ov 19, 2018 2 2:47:06.747806000  7
           335  48.88091732:32:32:32:32:3  4Bm N  ov 19, 2018 2 2:47:07.004014000  7
           336  48.91082832:32:32:32:32:3  7Bm N  ov 19, 2018 2 2:47:07.033925000  7
           337  48.95003332:32:32:32:32:3  5Bm N  ov 19, 2018 2 2:47:07.073130000  7
           338  49.01417132:32:32:32:32:3  5Bm N  ov 19, 2018 2 2:47:07.137268000  7
           339  49.03075532:32:32:32:32:3  5Bm N  ov 19, 2018 2 2:47:07.153852000  7
           340  49.34542132:32:32:32:32:3  7Bm N  ov 19, 2018 2 2:47:07.468518000  7
           341  49.36644132:32:32:32:32:3  4Bm N  ov 19, 2018 2 2:47:07.489538000  7
           342  49.48925932:32:32:32:32:3  5Bm N  ov 19, 2018 2 2:47:07.612356000  7
           343  49.51318932:32:32:32:32:3  7Bm N  ov 19, 2018 2 2:47:07.636286000  7
           344  49.57662232:32:32:32:32:3  5Bm N  ov 19, 2018 2 2:47:07.699719000  7
           345  49.71578732:32:32:32:32:3  6Bm N  ov 19, 2018 2 2:47:07.838884000  7
           346  49.73186432:32:32:32:32:3  6Bm N  ov 19, 2018 2 2:47:07.854961000  7
           347  49.75979232:32:32:32:32:3  6Bm N  ov 19, 2018 2 2:47:07.882889000  7
           348  49.80042832:32:32:32:32:3  6Bm N  ov 19, 2018 2 2:47:07.923525000  7
           349  49.81155132:32:32:32:32:3  7Bm N  ov 19, 2018 2 2:47:07.934648000  7
           350  49.94755932:32:32:32:32:3  7Bm N  ov 19, 2018 2 2:47:08.070656000  7
           351  50.12896432:32:32:32:32:3  6Bm N  ov 19, 2018 2 2:47:08.252061000  7
           352  50.86866332:32:32:32:32:3  7Bm N  ov 19, 2018 2 2:47:08.991760000  7
           353  50.92671332:32:32:32:32:3  3Bm N  ov 19, 2018 2 2:47:09.049810000  7
           354  51.45349332:32:32:32:32:3  6Bm N  ov 19, 2018 2 2:47:09.576590000  7
           355  5 1.4684432:32:32:32:32:3  4Bm N  ov 19, 2018 2 2:47:09.591537000  7
           356  51.53759532:32:32:32:32:3  0Bm N  ov 19, 2018 2 2:47:09.660692000  7
           357  51.56276432:32:32:32:32:3  6Bm N  ov 19, 2018 2 2:47:09.685861000  7
           358  51.61219132:32:32:32:32:3  6Bm N  ov 19, 2018 2 2:47:09.735288000  7
           359  51.62924432:32:32:32:32:3  6Bm N  ov 19, 2018 2 2:47:09.752341000  7
           360  51.64397632:32:32:32:32:3  4Bm N  ov 19, 2018 2 2:47:09.767073000  7
           361  51.71627432:32:32:32:32:3  5Bm N  ov 19, 2018 2 2:47:09.839371000  7
           362  51.82747732:32:32:32:32:3  4Bm N  ov 19, 2018 2 2:47:09.950574000  7
           363  51.98074932:32:32:32:32:3  6Bm N  ov 19, 2018 2 2:47:10.103846000  7
           364  52.10049132:32:32:32:32:3  6Bm N  ov 19, 2018 2 2:47:10.223588000  7
           365  52.31522332:32:32:32:32:3  6Bm N  ov 19, 2018 2 2:47:10.438320000  7
           366  52.34625132:32:32:32:32:3  6Bm N  ov 19, 2018 2 2:47:10.469348000  7
           367  52.74600932:32:32:32:32:3  6Bm N  ov 19, 2018 2 2:47:10.869106000  7
           368  5 2.8208332:32:32:32:32:3  6Bm N  ov 19, 2018 2 2:47:10.943927000  7
           369  52.95211132:32:32:32:32:3  5Bm N  ov 19, 2018 2 2:47:11.075208000  7
           370  5 3.0020532:32:32:32:32:3  6Bm N  ov 19, 2018 2 2:47:11.125147000  7
           371  53.35602232:32:32:32:32:3  5Bm N  ov 19, 2018 2 2:47:11.479119000  7
           372  53.73692732:32:32:32:32:3  5Bm N  ov 19, 2018 2 2:47:11.860024000  7
           373  53.76187432:32:32:32:32:3  6Bm N  ov 19, 2018 2 2:47:11.884971000  7
           374  53.91863532:32:32:32:32:3  4Bm N  ov 19, 2018 2 2:47:12.041732000  7
           375  54.07569532:32:32:32:32:3  6Bm N  ov 19, 2018 2 2:47:12.198792000  7
           376  54.37520732:32:32:32:32:3  7Bm N  ov 19, 2018 2 2:47:12.498304000  7
           377  54.55705532:32:32:32:32:3  6Bm N  ov 19, 2018 2 2:47:12.680152000  7
           378  5  4.676932:32:32:32:32:3  6Bm N  ov 19, 2018 2 2:47:12.799997000  7
           379  54.81403532:32:32:32:32:3  7Bm N  ov 19, 2018 2 2:47:12.937132000  7
           380  54.90818432:32:32:32:32:3  4Bm N  ov 19, 2018 2 2:47:13.031281000  7
           381  54.92975732:32:32:32:32:3  5Bm N  ov 19, 2018 2 2:47:13.052854000  7
           382  55.02941832:32:32:32:32:3  4Bm N  ov 19, 2018 2 2:47:13.152515000  7
           383  55.25812232:32:32:32:32:3  6Bm N  ov 19, 2018 2 2:47:13.381219000  7
           384  55.29509532:32:32:32:32:3  7Bm N  ov 19, 2018 2 2:47:13.418192000  7
           385  55.32183732:32:32:32:32:3  6Bm N  ov 19, 2018 2 2:47:13.444934000  7
           386  55.36879632:32:32:32:32:3  6Bm N  ov 19, 2018 2 2:47:13.491893000  7
           387  55.43727732:32:32:32:32:3  7Bm N  ov 19, 2018 2 2:47:13.560374000  7
           388  5 5.4777532:32:32:32:32:3  6Bm N  ov 19, 2018 2 2:47:13.600847000  7
           389  55.48783932:32:32:32:32:3  5Bm N  ov 19, 2018 2 2:47:13.610936000  7
           390  55.58451332:32:32:32:32:3  6Bm N  ov 19, 2018 2 2:47:13.707610000  7
           391  55.62507232:32:32:32:32:3  6Bm N  ov 19, 2018 2 2:47:13.748169000  7
           392  55.79046832:32:32:32:32:3  5Bm N  ov 19, 2018 2 2:47:13.913565000  7
           393  55.91332932:32:32:32:32:3  3Bm N  ov 19, 2018 2 2:47:14.036426000  7
           394  55.97646632:32:32:32:32:3  5Bm N  ov 19, 2018 2 2:47:14.099563000  7
           395  56.01072632:32:32:32:32:3  5Bm N  ov 19, 2018 2 2:47:14.133823000  7
           396  56.22886332:32:32:32:32:3  6Bm N  ov 19, 2018 2 2:47:14.351960000  7
           397  56.92314732:32:32:32:32:3  5Bm N  ov 19, 2018 2 2:47:15.046244000  7
           398  57.05423232:32:32:32:32:3  6Bm N  ov 19, 2018 2 2:47:15.177329000  7
           399  57.42301732:32:32:32:32:3  5Bm N  ov 19, 2018 2 2:47:15.546114000  7
           400  5 7.4690432:32:32:32:32:3  5Bm N  ov 19, 2018 2 2:47:15.592137000  7
           401  57.49197532:32:32:32:32:3  5Bm N  ov 19, 2018 2 2:47:15.615072000  7
           402  5 7.5484132:32:32:32:32:3  5Bm N  ov 19, 2018 2 2:47:15.671507000  7
           403  5 7.8055332:32:32:32:32:3  5Bm N  ov 19, 2018 2 2:47:15.928627000  7
           404  57.82542432:32:32:32:32:3  2Bm N  ov 19, 2018 2 2:47:15.948521000  7
           405  58.14471632:32:32:32:32:3  6Bm N  ov 19, 2018 2 2:47:16.267813000  7
           406  58.41040132:32:32:32:32:3  6Bm N  ov 19, 2018 2 2:47:16.533498000  7
           407  58.96026532:32:32:32:32:3  9Bm N  ov 19, 2018 2 2:47:17.083362000  7
           408  58.97303832:32:32:32:32:3  7Bm N  ov 19, 2018 2 2:47:17.096135000  7
           409  59.00132732:32:32:32:32:3  8Bm N  ov 19, 2018 2 2:47:17.124424000  7
           410  59.01666132:32:32:32:32:3  5Bm N  ov 19, 2018 2 2:47:17.139758000  7
           411  60.18393432:32:32:32:32:3  6Bm N  ov 19, 2018 2 2:47:18.307031000  7
           412  60.21841132:32:32:32:32:3  6Bm N  ov 19, 2018 2 2:47:18.341508000  7
           413  60.23053432:32:32:32:32:3  4Bm N  ov 19, 2018 2 2:47:18.353631000  7
           414  60.26116232:32:32:32:32:3  5Bm N  ov 19, 2018 2 2:47:18.384259000  7
           415  60.30458532:32:32:32:32:3  7Bm N  ov 19, 2018 2 2:47:18.427682000  7
           416  60.60508532:32:32:32:32:3  6Bm N  ov 19, 2018 2 2:47:18.728182000  7
           417  60.66875732:32:32:32:32:3  5Bm N  ov 19, 2018 2 2:47:18.791854000  7
           418  60.77222132:32:32:32:32:3  7Bm N  ov 19, 2018 2 2:47:18.895318000  7
           419  60.77751532:32:32:32:32:3  5Bm N  ov 19, 2018 2 2:47:18.900612000  7
           420  60.79533632:32:32:32:32:3  5Bm N  ov 19, 2018 2 2:47:18.918433000  7
           421  60.99024532:32:32:32:32:3  4Bm N  ov 19, 2018 2 2:47:19.113342000  7
           422  61.05265432:32:32:32:32:3  6Bm N  ov 19, 2018 2 2:47:19.175751000  7
           423  61.16603832:32:32:32:32:3  5Bm N  ov 19, 2018 2 2:47:19.289135000  7
           424  6 1.2240132:32:32:32:32:3  5Bm N  ov 19, 2018 2 2:47:19.347107000  7
           425  61.32182932:32:32:32:32:3  7Bm N  ov 19, 2018 2 2:47:19.444926000  7
           426  61.37589732:32:32:32:32:3  5Bm N  ov 19, 2018 2 2:47:19.498994000  7
           427  61.65743332:32:32:32:32:3  6Bm N  ov 19, 2018 2 2:47:19.780530000  7
           428  61.68036532:32:32:32:32:3  7Bm N  ov 19, 2018 2 2:47:19.803462000  7
           429  61.77214732:32:32:32:32:3  6Bm N  ov 19, 2018 2 2:47:19.895244000  7
           430  62.04785632:32:32:32:32:3  7Bm N  ov 19, 2018 2 2:47:20.170953000  7
           431  62.73077632:32:32:32:32:3  4Bm N  ov 19, 2018 2 2:47:20.853873000  7
           432  6 2.8775132:32:32:32:32:3  3Bm N  ov 19, 2018 2 2:47:21.000607000  7
           433  63.04989132:32:32:32:32:3  6Bm N  ov 19, 2018 2 2:47:21.172988000  7
           434  63.15131532:32:32:32:32:3  6Bm N  ov 19, 2018 2 2:47:21.274412000  7
           435  63.22772432:32:32:32:32:3  5Bm N  ov 19, 2018 2 2:47:21.350821000  7
           436  63.25929832:32:32:32:32:3  5Bm N  ov 19, 2018 2 2:47:21.382395000  7
           437  63.26043632:32:32:32:32:3  6Bm N  ov 19, 2018 2 2:47:21.383533000  7
           438  63.34895232:32:32:32:32:3  5Bm N  ov 19, 2018 2 2:47:21.472049000  7
           439  63.48301432:32:32:32:32:3  4Bm N  ov 19, 2018 2 2:47:21.606111000  7
           440  63.59082332:32:32:32:32:3  4Bm N  ov 19, 2018 2 2:47:21.713920000  7
           441  63.83593832:32:32:32:32:3  6Bm N  ov 19, 2018 2 2:47:21.959035000  7
           442  64.00859632:32:32:32:32:3  7Bm N  ov 19, 2018 2 2:47:22.131693000  7
           443  64.12281332:32:32:32:32:3  5Bm N  ov 19, 2018 2 2:47:22.245910000  7
           444  64.13866632:32:32:32:32:3  7Bm N  ov 19, 2018 2 2:47:22.261763000  7
           445  64.16479132:32:32:32:32:3  6Bm N  ov 19, 2018 2 2:47:22.287888000  7
           446  64.16511132:32:32:32:32:3  6Bm N  ov 19, 2018 2 2:47:22.288208000  7
           447  64.41229932:32:32:32:32:3  5Bm N  ov 19, 2018 2 2:47:22.535396000  7
           448  64.80269832:32:32:32:32:3  4Bm N  ov 19, 2018 2 2:47:22.925795000  7
           449  64.93570432:32:32:32:32:3  5Bm N  ov 19, 2018 2 2:47:23.058801000  7
           450  65.13805132:32:32:32:32:3  8Bm N  ov 19, 2018 2 2:47:23.261148000  7
           451  65.15148632:32:32:32:32:3  6Bm N  ov 19, 2018 2 2:47:23.274583000  7
           452  65.36288432:32:32:32:32:3  6Bm N  ov 19, 2018 2 2:47:23.485981000  7
           453  65.46540432:32:32:32:32:3  5Bm N  ov 19, 2018 2 2:47:23.588501000  7
           454  6 5.5143332:32:32:32:32:3  4Bm N  ov 19, 2018 2 2:47:23.637427000  7
           455  65.59973532:32:32:32:32:3  5Bm N  ov 19, 2018 2 2:47:23.722832000  7
           456  65.63973932:32:32:32:32:3  7Bm N  ov 19, 2018 2 2:47:23.762836000  7
           457  66.02759732:32:32:32:32:3  7Bm N  ov 19, 2018 2 2:47:24.150694000  7
           458  66.07613632:32:32:32:32:3  6Bm N  ov 19, 2018 2 2:47:24.199233000  7
           459  66.09385232:32:32:32:32:3  6Bm N  ov 19, 2018 2 2:47:24.216949000  7
           460  66.39444132:32:32:32:32:3  5Bm N  ov 19, 2018 2 2:47:24.517538000  7
           461  66.46140632:32:32:32:32:3  7Bm N  ov 19, 2018 2 2:47:24.584503000  7
           462  66.48560532:32:32:32:32:3  6Bm N  ov 19, 2018 2 2:47:24.608702000  7
           463  66.50687532:32:32:32:32:3  5Bm N  ov 19, 2018 2 2:47:24.629972000  7
           464  66.52961332:32:32:32:32:3  6Bm N  ov 19, 2018 2 2:47:24.652710000  7
           465  66.82755232:32:32:32:32:3  7Bm N  ov 19, 2018 2 2:47:24.950649000  7
           466  6 6.8912832:32:32:32:32:3  8Bm N  ov 19, 2018 2 2:47:25.014377000  7
           467  6 6.9174132:32:32:32:32:3  6Bm N  ov 19, 2018 2 2:47:25.040507000  7
           468  67.15835232:32:32:32:32:3  5Bm N  ov 19, 2018 2 2:47:25.281449000  7
           469  67.19495232:32:32:32:32:3  5Bm N  ov 19, 2018 2 2:47:25.318049000  7
           470  6 7.4658832:32:32:32:32:3  5Bm N  ov 19, 2018 2 2:47:25.588977000  7
           471  67.61632432:32:32:32:32:3  6Bm N  ov 19, 2018 2 2:47:25.739421000  7
           472  67.90998832:32:32:32:32:3  6Bm N  ov 19, 2018 2 2:47:26.033085000  7
           473  68.03153132:32:32:32:32:3  5Bm N  ov 19, 2018 2 2:47:26.154628000  7
           474  68.37982132:32:32:32:32:3  6Bm N  ov 19, 2018 2 2:47:26.502918000  7
           475  68.46129832:32:32:32:32:3  5Bm N  ov 19, 2018 2 2:47:26.584395000  7
           476  68.52021732:32:32:32:32:3  5Bm N  ov 19, 2018 2 2:47:26.643314000  7
           477  68.55076332:32:32:32:32:3  5Bm N  ov 19, 2018 2 2:47:26.673860000  7
           478  68.91225332:32:32:32:32:3  3Bm N  ov 19, 2018 2 2:47:27.035350000  7
           479  69.05023132:32:32:32:32:3  7Bm N  ov 19, 2018 2 2:47:27.173328000  7
           480  69.10687932:32:32:32:32:3  6Bm N  ov 19, 2018 2 2:47:27.229976000  7
           481  69.19119732:32:32:32:32:3  6Bm N  ov 19, 2018 2 2:47:27.314294000  7
           482  69.29081132:32:32:32:32:3  5Bm N  ov 19, 2018 2 2:47:27.413908000  7
           483  6 9.4868132:32:32:32:32:3  4Bm N  ov 19, 2018 2 2:47:27.609907000  7
           484  69.67401932:32:32:32:32:3  5Bm N  ov 19, 2018 2 2:47:27.797116000  7
           485  69.68010232:32:32:32:32:3  6Bm N  ov 19, 2018 2 2:47:27.803199000  7
           486  69.69718832:32:32:32:32:3  6Bm N  ov 19, 2018 2 2:47:27.820285000  7
           487  7  0.076432:32:32:32:32:3  5Bm N  ov 19, 2018 2 2:47:28.199497000  7
           488  70.08859232:32:32:32:32:3  6Bm N  ov 19, 2018 2 2:47:28.211689000  7
           489  70.19327632:32:32:32:32:3  5Bm N  ov 19, 2018 2 2:47:28.316373000  7
           490  70.31076732:32:32:32:32:3  5Bm N  ov 19, 2018 2 2:47:28.433864000  7
           491  7 0.5775732:32:32:32:32:3  6Bm N  ov 19, 2018 2 2:47:28.700667000  7
           492  70.75393832:32:32:32:32:3  6Bm N  ov 19, 2018 2 2:47:28.877035000  7
           493  71.02657132:32:32:32:32:3  6Bm N  ov 19, 2018 2 2:47:29.149668000  7
           494  71.17210332:32:32:32:32:3  6Bm N  ov 19, 2018 2 2:47:29.295200000  7
           495  71.58438732:32:32:32:32:3  5Bm N  ov 19, 2018 2 2:47:29.707484000  7
           496  71.61651432:32:32:32:32:3  4Bm N  ov 19, 2018 2 2:47:29.739611000  7
           497  71.63916632:32:32:32:32:3  4Bm N  ov 19, 2018 2 2:47:29.762263000  7
           498  71.99298232:32:32:32:32:3  6Bm N  ov 19, 2018 2 2:47:30.116079000  7
           499  72.04038332:32:32:32:32:3  5Bm N  ov 19, 2018 2 2:47:30.163480000  7
           500  7 2.2898532:32:32:32:32:3  7Bm N  ov 19, 2018 2 2:47:30.412947000  7
           501  72.33622732:32:32:32:32:3  7Bm N  ov 19, 2018 2 2:47:30.459324000  7
           502  72.35955432:32:32:32:32:3  5Bm N  ov 19, 2018 2 2:47:30.482651000  7
           503  72.39923932:32:32:32:32:3  7Bm N  ov 19, 2018 2 2:47:30.522336000  7
           504  72.43093132:32:32:32:32:3  5Bm N  ov 19, 2018 2 2:47:30.554028000  7
           505  7 2.4569632:32:32:32:32:3  5Bm N  ov 19, 2018 2 2:47:30.580057000  7
           506  72.49708932:32:32:32:32:3  4Bm N  ov 19, 2018 2 2:47:30.620186000  7
           507  72.54436532:32:32:32:32:3  6Bm N  ov 19, 2018 2 2:47:30.667462000  7
           508  72.56656732:32:32:32:32:3  4Bm N  ov 19, 2018 2 2:47:30.689664000  7
           509  72.58140832:32:32:32:32:3  5Bm N  ov 19, 2018 2 2:47:30.704505000  7
           510  72.89258632:32:32:32:32:3  5Bm N  ov 19, 2018 2 2:47:31.015683000  7
           511  72.91830932:32:32:32:32:3  5Bm N  ov 19, 2018 2 2:47:31.041406000  7
           512  73.08554732:32:32:32:32:3  4Bm N  ov 19, 2018 2 2:47:31.208644000  7
           513  73.15898932:32:32:32:32:3  3Bm N  ov 19, 2018 2 2:47:31.282086000  7
           514  73.17991232:32:32:32:32:3  6Bm N  ov 19, 2018 2 2:47:31.303009000  7
           515  73.31806432:32:32:32:32:3  6Bm N  ov 19, 2018 2 2:47:31.441161000  7
           516  73.36707632:32:32:32:32:3  5Bm N  ov 19, 2018 2 2:47:31.490173000  7
           517  73.42479532:32:32:32:32:3  7Bm N  ov 19, 2018 2 2:47:31.547892000  7
           518  73.53338832:32:32:32:32:3  5Bm N  ov 19, 2018 2 2:47:31.656485000  7
           519  73.76619332:32:32:32:32:3  5Bm N  ov 19, 2018 2 2:47:31.889290000  7
           520  73.77940132:32:32:32:32:3  6Bm N  ov 19, 2018 2 2:47:31.902498000  7
           521  73.78233632:32:32:32:32:3  6Bm N  ov 19, 2018 2 2:47:31.905433000  7
           522  74.00954832:32:32:32:32:3  4Bm N  ov 19, 2018 2 2:47:32.132645000  7
           523  74.64683932:32:32:32:32:3  5Bm N  ov 19, 2018 2 2:47:32.769936000  7
           524  7 4.6840732:32:32:32:32:3  5Bm N  ov 19, 2018 2 2:47:32.807167000  7
           525  74.70808832:32:32:32:32:3  4Bm N  ov 19, 2018 2 2:47:32.831185000  7
           526  74.78172332:32:32:32:32:3  4Bm N  ov 19, 2018 2 2:47:32.904820000  7
           527  75.12797432:32:32:32:32:3  4Bm N  ov 19, 2018 2 2:47:33.251071000  7
           528  75.18416332:32:32:32:32:3  5Bm N  ov 19, 2018 2 2:47:33.307260000  7
           529  75.21288332:32:32:32:32:3  5Bm N  ov 19, 2018 2 2:47:33.335980000  7
           530  75.49605732:32:32:32:32:3  6Bm N  ov 19, 2018 2 2:47:33.619154000  7
           531  75.66921832:32:32:32:32:3  6Bm N  ov 19, 2018 2 2:47:33.792315000  7
           532  75.70536632:32:32:32:32:3  7Bm N  ov 19, 2018 2 2:47:33.828463000  7
           533  75.75082332:32:32:32:32:3  5Bm N  ov 19, 2018 2 2:47:33.873920000  7
           534  75.94782832:32:32:32:32:3  6Bm N  ov 19, 2018 2 2:47:34.070925000  7
           535  76.04567732:32:32:32:32:3  7Bm N  ov 19, 2018 2 2:47:34.168774000  7
           536  76.20524932:32:32:32:32:3  5Bm N  ov 19, 2018 2 2:47:34.328346000  7
           537  76.47588832:32:32:32:32:3  3Bm N  ov 19, 2018 2 2:47:34.598985000  7
           538  76.52695132:32:32:32:32:3  6Bm N  ov 19, 2018 2 2:47:34.650048000  7
           539  76.68378432:32:32:32:32:3  5Bm N  ov 19, 2018 2 2:47:34.806881000  7
           540  76.73938132:32:32:32:32:3  5Bm N  ov 19, 2018 2 2:47:34.862478000  7
           541  76.88378532:32:32:32:32:3  5Bm N  ov 19, 2018 2 2:47:35.006882000  7
           542  77.60126832:32:32:32:32:3  4Bm N  ov 19, 2018 2 2:47:35.724365000  7
           543  77.80019232:32:32:32:32:3  5Bm N  ov 19, 2018 2 2:47:35.923289000  7
           544  78.26444932:32:32:32:32:3  5Bm N  ov 19, 2018 2 2:47:36.387546000  7
           545  78.55478632:32:32:32:32:3  6Bm N  ov 19, 2018 2 2:47:36.677883000  7
           546  78.62625332:32:32:32:32:3  6Bm N  ov 19, 2018 2 2:47:36.749350000  7
           547  79.09508632:32:32:32:32:3  6Bm N  ov 19, 2018 2 2:47:37.218183000  7
           548  7 9.1913332:32:32:32:32:3  5Bm N  ov 19, 2018 2 2:47:37.314427000  7
           549  79.46094432:32:32:32:32:3  6Bm N  ov 19, 2018 2 2:47:37.584041000  7
           550  79.88205832:32:32:32:32:3  6Bm N  ov 19, 2018 2 2:47:38.005155000  7
           551  79.95186932:32:32:32:32:3  6Bm N  ov 19, 2018 2 2:47:38.074966000  7
           552  80.18629932:32:32:32:32:3  6Bm N  ov 19, 2018 2 2:47:38.309396000  7
           553  80.36706232:32:32:32:32:3  8Bm N  ov 19, 2018 2 2:47:38.490159000  7
           554  80.38338832:32:32:32:32:3  7Bm N  ov 19, 2018 2 2:47:38.506485000  7
           555  80.55811132:32:32:32:32:3  5Bm N  ov 19, 2018 2 2:47:38.681208000  7
           556  80.57327732:32:32:32:32:3  6Bm N  ov 19, 2018 2 2:47:38.696374000  7
           557  80.89875432:32:32:32:32:3  6Bm N  ov 19, 2018 2 2:47:39.021851000  7
           558  82.13260432:32:32:32:32:3  4Bm N  ov 19, 2018 2 2:47:40.255701000  7
           559  82.32594132:32:32:32:32:3  5Bm N  ov 19, 2018 2 2:47:40.449038000  7
           560  82.56743432:32:32:32:32:3  6Bm N  ov 19, 2018 2 2:47:40.690531000  7
           561  82.78958832:32:32:32:32:3  5Bm N  ov 19, 2018 2 2:47:40.912685000  7
           562  82.80430432:32:32:32:32:3  6Bm N  ov 19, 2018 2 2:47:40.927401000  7
           563  82.89712632:32:32:32:32:3  4Bm N  ov 19, 2018 2 2:47:41.020223000  7
           564  82.96273532:32:32:32:32:3  6Bm N  ov 19, 2018 2 2:47:41.085832000  7
           565  83.99748732:32:32:32:32:3  5Bm N  ov 19, 2018 2 2:47:42.120584000  7
           566  84.18529532:32:32:32:32:3  7Bm N  ov 19, 2018 2 2:47:42.308392000  7
           567  8 4.3640732:32:32:32:32:3  6Bm N  ov 19, 2018 2 2:47:42.487167000  7
           568  84.39432432:32:32:32:32:3  4Bm N  ov 19, 2018 2 2:47:42.517421000  7
           569  84.82883332:32:32:32:32:3  6Bm N  ov 19, 2018 2 2:47:42.951930000  7
           570  8 4.8498732:32:32:32:32:3  6Bm N  ov 19, 2018 2 2:47:42.972967000  7
           571  84.89073132:32:32:32:32:3  5Bm N  ov 19, 2018 2 2:47:43.013828000  7
           572  84.96842932:32:32:32:32:3  6Bm N  ov 19, 2018 2 2:47:43.091526000  7
           573  85.06206932:32:32:32:32:3  0Bm N  ov 19, 2018 2 2:47:43.185166000  7
           574  85.22858632:32:32:32:32:3  6Bm N  ov 19, 2018 2 2:47:43.351683000  7
           575  85.58971632:32:32:32:32:3  7Bm N  ov 19, 2018 2 2:47:43.712813000  7
           576  85.66338432:32:32:32:32:3  6Bm N  ov 19, 2018 2 2:47:43.786481000  7
           577  85.74836432:32:32:32:32:3  6Bm N  ov 19, 2018 2 2:47:43.871461000  7
           578  85.83972132:32:32:32:32:3  5Bm N  ov 19, 2018 2 2:47:43.962818000  7
           579  85.94150332:32:32:32:32:3  5Bm N  ov 19, 2018 2 2:47:44.064600000  7
           580  86.01791232:32:32:32:32:3  4Bm N  ov 19, 2018 2 2:47:44.141009000  7
           581  86.38185732:32:32:32:32:3  6Bm N  ov 19, 2018 2 2:47:44.504954000  7
           582  86.66088532:32:32:32:32:3  3Bm N  ov 19, 2018 2 2:47:44.783982000  7
           583  86.83771632:32:32:32:32:3  5Bm N  ov 19, 2018 2 2:47:44.960813000  7
           584  8 6.9557432:32:32:32:32:3  5Bm N  ov 19, 2018 2 2:47:45.078837000  7
           585  86.98049732:32:32:32:32:3  2Bm N  ov 19, 2018 2 2:47:45.103594000  7
           586  87.55576832:32:32:32:32:3  5Bm N  ov 19, 2018 2 2:47:45.678865000  7
           587  87.61115532:32:32:32:32:3  5Bm N  ov 19, 2018 2 2:47:45.734252000  7
           588  87.62726732:32:32:32:32:3  7Bm N  ov 19, 2018 2 2:47:45.750364000  7
           589  87.70981232:32:32:32:32:3  4Bm N  ov 19, 2018 2 2:47:45.832909000  7
           590  88.17034732:32:32:32:32:3  6Bm N  ov 19, 2018 2 2:47:46.293444000  7
           591  88.39415232:32:32:32:32:3  5Bm N  ov 19, 2018 2 2:47:46.517249000  7
           592  88.79205432:32:32:32:32:3  6Bm N  ov 19, 2018 2 2:47:46.915151000  7
           593  88.95520632:32:32:32:32:3  6Bm N  ov 19, 2018 2 2:47:47.078303000  7
           594  88.96507232:32:32:32:32:3  7Bm N  ov 19, 2018 2 2:47:47.088169000  7
           595  89.01573132:32:32:32:32:3  5Bm N  ov 19, 2018 2 2:47:47.138828000  7
           596  89.09169432:32:32:32:32:3  6Bm N  ov 19, 2018 2 2:47:47.214791000  7
           597  8 9.1596632:32:32:32:32:3  6Bm N  ov 19, 2018 2 2:47:47.282757000  7
           598  89.17586232:32:32:32:32:3  7Bm N  ov 19, 2018 2 2:47:47.298959000  7
           599  89.32747132:32:32:32:32:3  6Bm N  ov 19, 2018 2 2:47:47.450568000  7
           600  89.35918132:32:32:32:32:3  7Bm N  ov 19, 2018 2 2:47:47.482278000  7
           601  89.75273332:32:32:32:32:3  4Bm N  ov 19, 2018 2 2:47:47.875830000  7
           602  90.45853632:32:32:32:32:3  4Bm N  ov 19, 2018 2 2:47:48.581633000  7
           603  90.62591332:32:32:32:32:3  1Bm N  ov 19, 2018 2 2:47:48.749010000  7
           604  91.33280432:32:32:32:32:3  5Bm N  ov 19, 2018 2 2:47:49.455901000  7
           605  91.54541532:32:32:32:32:3  5Bm N  ov 19, 2018 2 2:47:49.668512000  7
           606  92.19473832:32:32:32:32:3  5Bm N  ov 19, 2018 2 2:47:50.317835000  7
           607  92.31155832:32:32:32:32:3  5Bm N  ov 19, 2018 2 2:47:50.434655000  7
           608  92.37867832:32:32:32:32:3  5Bm N  ov 19, 2018 2 2:47:50.501775000  7
           609  92.51208932:32:32:32:32:3  3Bm N  ov 19, 2018 2 2:47:50.635186000  7
           610  92.64379432:32:32:32:32:3  6Bm N  ov 19, 2018 2 2:47:50.766891000  7
           611  92.80328732:32:32:32:32:3  4Bm N  ov 19, 2018 2 2:47:50.926384000  7
           612  92.83178732:32:32:32:32:3  6Bm N  ov 19, 2018 2 2:47:50.954884000  7
           613  9 2.9025632:32:32:32:32:3  6Bm N  ov 19, 2018 2 2:47:51.025657000  7
           614  93.00958132:32:32:32:32:3  5Bm N  ov 19, 2018 2 2:47:51.132678000  7
           615  93.14448932:32:32:32:32:3  4Bm N  ov 19, 2018 2 2:47:51.267586000  7
           616  93.24825832:32:32:32:32:3  6Bm N  ov 19, 2018 2 2:47:51.371355000  7
           617  93.27840332:32:32:32:32:3  6Bm N  ov 19, 2018 2 2:47:51.401500000  7
           618  93.63160532:32:32:32:32:3  5Bm N  ov 19, 2018 2 2:47:51.754702000  7
           619  93.80781532:32:32:32:32:3  5Bm N  ov 19, 2018 2 2:47:51.930912000  7
           620  93.91261232:32:32:32:32:3  4Bm N  ov 19, 2018 2 2:47:52.035709000  7
           621  94.07150632:32:32:32:32:3  5Bm N  ov 19, 2018 2 2:47:52.194603000  7
           622  9 4.2895632:32:32:32:32:3  6Bm N  ov 19, 2018 2 2:47:52.412657000  7
           623  94.33894332:32:32:32:32:3  6Bm N  ov 19, 2018 2 2:47:52.462040000  7
           624  94.77909232:32:32:32:32:3  5Bm N  ov 19, 2018 2 2:47:52.902189000  7
           625  94.81625432:32:32:32:32:3  6Bm N  ov 19, 2018 2 2:47:52.939351000  7
           626  94.82427432:32:32:32:32:3  6Bm N  ov 19, 2018 2 2:47:52.947371000  7
           627  94.97610432:32:32:32:32:3  1Bm N  ov 19, 2018 2 2:47:53.099201000  7
           628  95.05324432:32:32:32:32:3  4Bm N  ov 19, 2018 2 2:47:53.176341000  7
           629  9 5.1186532:32:32:32:32:3  5Bm N  ov 19, 2018 2 2:47:53.241747000  7
           630  95.17538932:32:32:32:32:3  7Bm N  ov 19, 2018 2 2:47:53.298486000  7
           631  95.21680432:32:32:32:32:3  6Bm N  ov 19, 2018 2 2:47:53.339901000  7
           632  95.22502532:32:32:32:32:3  6Bm N  ov 19, 2018 2 2:47:53.348122000  7
           633  95.29377832:32:32:32:32:3  5Bm N  ov 19, 2018 2 2:47:53.416875000  7
           634  96.29283632:32:32:32:32:3  6Bm N  ov 19, 2018 2 2:47:54.415933000  7
           635  96.38092332:32:32:32:32:3  4Bm N  ov 19, 2018 2 2:47:54.504020000  7
           636  96.82614732:32:32:32:32:3  5Bm N  ov 19, 2018 2 2:47:54.949244000  7
           637  97.04933432:32:32:32:32:3  2Bm N  ov 19, 2018 2 2:47:55.172431000  7
           638  97.52895432:32:32:32:32:3  5Bm N  ov 19, 2018 2 2:47:55.652051000  7
           639  97.94982332:32:32:32:32:3  5Bm N  ov 19, 2018 2 2:47:56.072920000  7
           640  98.12386232:32:32:32:32:3  4Bm N  ov 19, 2018 2 2:47:56.246959000  7
           641  98.52292932:32:32:32:32:3  5Bm N  ov 19, 2018 2 2:47:56.646026000  7
           642  98.73828232:32:32:32:32:3  5Bm N  ov 19, 2018 2 2:47:56.861379000  7
           643  98.83254732:32:32:32:32:3  3Bm N  ov 19, 2018 2 2:47:56.955644000  7
           644  98.85064232:32:32:32:32:3  3Bm N  ov 19, 2018 2 2:47:56.973739000  7
           645 100.04662932:32:32:32:32:3  5Bm N  ov 19, 2018 2 2:47:58.169726000  7
           646 100.38562832:32:32:32:32:3  4Bm N  ov 19, 2018 2 2:47:58.508725000  7
           647 10 0.9747932:32:32:32:32:3  5Bm N  ov 19, 2018 2 2:47:59.097887000  7
           648 101.01510932:32:32:32:32:3  5Bm N  ov 19, 2018 2 2:47:59.138206000  7
           649 101.05469232:32:32:32:32:3  5Bm N  ov 19, 2018 2 2:47:59.177789000  7
           650 101.13050232:32:32:32:32:3  3Bm N  ov 19, 2018 2 2:47:59.253599000  7
           651 10 1.8536832:32:32:32:32:3  4Bm N  ov 19, 2018 2 2:47:59.976777000  7
           652 101.94152332:32:32:32:32:3  5Bm N  ov 19, 2018 2 2:48:00.064620000  7
           653 102.03235932:32:32:32:32:3  6Bm N  ov 19, 2018 2 2:48:00.155456000  7
           654 102.07802432:32:32:32:32:3  5Bm N  ov 19, 2018 2 2:48:00.201121000  7
           655 102.31043132:32:32:32:32:3  5Bm N  ov 19, 2018 2 2:48:00.433528000  7
           656 102.40700832:32:32:32:32:3  4Bm N  ov 19, 2018 2 2:48:00.530105000  7
           657 102.59090432:32:32:32:32:3  4Bm N  ov 19, 2018 2 2:48:00.714001000  7
           658 102.63588232:32:32:32:32:3  6Bm N  ov 19, 2018 2 2:48:00.758979000  7
           659 102.78818532:32:32:32:32:3  7Bm N  ov 19, 2018 2 2:48:00.911282000  7
           660 103.36171632:32:32:32:32:3  5Bm N  ov 19, 2018 2 2:48:01.484813000  7
           661 10 3.6223932:32:32:32:32:3  7Bm N  ov 19, 2018 2 2:48:01.745487000  7
           662 103.86907232:32:32:32:32:3  3Bm N  ov 19, 2018 2 2:48:01.992169000  7
           663 104.27169832:32:32:32:32:3  4Bm N  ov 19, 2018 2 2:48:02.394795000  7
           664 104.33178432:32:32:32:32:3  5Bm N  ov 19, 2018 2 2:48:02.454881000  7
           665 104.96908432:32:32:32:32:3  6Bm N  ov 19, 2018 2 2:48:03.092181000  7
           666 105.05168832:32:32:32:32:3  5Bm N  ov 19, 2018 2 2:48:03.174785000  7
           667 105.14507332:32:32:32:32:3  5Bm N  ov 19, 2018 2 2:48:03.268170000  7
           668 106.15684732:32:32:32:32:3  6Bm N  ov 19, 2018 2 2:48:04.279944000  7
           669 106.29804532:32:32:32:32:3  5Bm N  ov 19, 2018 2 2:48:04.421142000  7
           670 106.56741832:32:32:32:32:3  6Bm N  ov 19, 2018 2 2:48:04.690515000  7
           671 10 6.8946232:32:32:32:32:3  6Bm N  ov 19, 2018 2 2:48:05.017717000  7
           672 108.21348932:32:32:32:32:3  6Bm N  ov 19, 2018 2 2:48:06.336586000  7
           673 108.91956332:32:32:32:32:3  6Bm N  ov 19, 2018 2 2:48:07.042660000  7
           674 109.61819532:32:32:32:32:3  4Bm N  ov 19, 2018 2 2:48:07.741292000  7
           675 110.05374732:32:32:32:32:3  4Bm N  ov 19, 2018 2 2:48:08.176844000  7
           676 110.21454132:32:32:32:32:3  5Bm N  ov 19, 2018 2 2:48:08.337638000  7
           677 110.38126832:32:32:32:32:3  4Bm N  ov 19, 2018 2 2:48:08.504365000  7
           678 110.48264732:32:32:32:32:3  6Bm N  ov 19, 2018 2 2:48:08.605744000  7
           679 110.73835532:32:32:32:32:3  5Bm N  ov 19, 2018 2 2:48:08.861452000  7
           680 111.62739132:32:32:32:32:3  4Bm N  ov 19, 2018 2 2:48:09.750488000  7
           681 111.92339132:32:32:32:32:3  5Bm N  ov 19, 2018 2 2:48:10.046488000  7
           682 112.58019432:32:32:32:32:3  5Bm N  ov 19, 2018 2 2:48:10.703291000  7
           683 112.65584132:32:32:32:32:3  6Bm N  ov 19, 2018 2 2:48:10.778938000  7
           684 113.14313632:32:32:32:32:3  3Bm N  ov 19, 2018 2 2:48:11.266233000  7
           685 113.23944832:32:32:32:32:3  5Bm N  ov 19, 2018 2 2:48:11.362545000  7
           686 11 4.6340232:32:32:32:32:3  5Bm N  ov 19, 2018 2 2:48:12.757117000  7
           687 114.74249832:32:32:32:32:3  5Bm N  ov 19, 2018 2 2:48:12.865595000  7
           688 114.85124732:32:32:32:32:3  4Bm N  ov 19, 2018 2 2:48:12.974344000  7
           689 115.16032232:32:32:32:32:3  5Bm N  ov 19, 2018 2 2:48:13.283419000  7
           690 115.26273132:32:32:32:32:3  4Bm N  ov 19, 2018 2 2:48:13.385828000  7
           691 115.98826832:32:32:32:32:3  1Bm N  ov 19, 2018 2 2:48:14.111365000  7
           692 116.00273332:32:32:32:32:3  6Bm N  ov 19, 2018 2 2:48:14.125830000  7
           693 116.48848232:32:32:32:32:3  5Bm N  ov 19, 2018 2 2:48:14.611579000  7
           694 116.68675132:32:32:32:32:3  4Bm N  ov 19, 2018 2 2:48:14.809848000  7
           695 116.96760132:32:32:32:32:3  5Bm N  ov 19, 2018 2 2:48:15.090698000  7
           696 117.15607332:32:32:32:32:3  5Bm N  ov 19, 2018 2 2:48:15.279170000  7
           697 117.77401832:32:32:32:32:3  5Bm N  ov 19, 2018 2 2:48:15.897115000  7
           698 118.44644532:32:32:32:32:3  6Bm N  ov 19, 2018 2 2:48:16.569542000  7
           699 118.84518932:32:32:32:32:3  6Bm N  ov 19, 2018 2 2:48:16.968286000  7
           700 118.87111832:32:32:32:32:3  6Bm N  ov 19, 2018 2 2:48:16.994215000  7
           701 118.89950832:32:32:32:32:3  3Bm N  ov 19, 2018 2 2:48:17.022605000  7
           702 119.00472232:32:32:32:32:3  6Bm N  ov 19, 2018 2 2:48:17.127819000  7
           703 119.10101632:32:32:32:32:3  6Bm N  ov 19, 2018 2 2:48:17.224113000  7
           704 119.14167232:32:32:32:32:3  7Bm N  ov 19, 2018 2 2:48:17.264769000  7
           705 119.28993132:32:32:32:32:3  5Bm N  ov 19, 2018 2 2:48:17.413028000  7
           706 119.33498232:32:32:32:32:3  6Bm N  ov 19, 2018 2 2:48:17.458079000  7
           707 119.34239832:32:32:32:32:3  5Bm N  ov 19, 2018 2 2:48:17.465495000  7
           708 119.51875632:32:32:32:32:3  5Bm N  ov 19, 2018 2 2:48:17.641853000  7
           709 11 9.6975532:32:32:32:32:3  3Bm N  ov 19, 2018 2 2:48:17.820647000  7
           710 120.42265732:32:32:32:32:3  5Bm N  ov 19, 2018 2 2:48:18.545754000  7
           711 12 0.8010732:32:32:32:32:3  4Bm N  ov 19, 2018 2 2:48:18.924167000  7
           712 120.82452132:32:32:32:32:3  5Bm N  ov 19, 2018 2 2:48:18.947618000  7
           713 121.92233732:32:32:32:32:3  5Bm N  ov 19, 2018 2 2:48:20.045434000  7
           714 122.17778532:32:32:32:32:3  6Bm N  ov 19, 2018 2 2:48:20.300882000  7
           715 122.28031332:32:32:32:32:3  5Bm N  ov 19, 2018 2 2:48:20.403410000  7
