               1       032:32:32:32:32:3  4Bm N  ov 19, 2018 2 2:30:22.237307000  7          1
               20.20679632:32:32:32:32:3  4Bm N  ov 19, 2018 2 2:30:22.444103000  7          7
               30.29426232:32:32:32:32:3  5Bm N  ov 19, 2018 2 2:30:22.531569000  7        ###
               41.04767932:32:32:32:32:3  4Bm N  ov 19, 2018 2 2:30:23.284986000  7        ###
               51.32948732:32:32:32:32:3  4Bm N  ov 19, 2018 2 2:30:23.566794000  7        ###
               61.82009432:32:32:32:32:3  5Bm N  ov 19, 2018 2 2:30:24.057401000  7
               76.97856132:32:32:32:32:3  5Bm N  ov 19, 2018 2 2:30:29.215868000  7
               88.87822532:32:32:32:32:3  3Bm N  ov 19, 2018 2 2:30:31.115532000  7
             9  0.45672232:32:32:32:32:3  4Bm N  ov 19, 2018 2 2:30:32.694029000  7
            10  3.75615232:32:32:32:32:3  6Bm N  ov 19, 2018 2 2:30:35.993459000  7
            11  4.80487332:32:32:32:32:3  4Bm N  ov 19, 2018 2 2:30:37.042180000  7
            12  6.96129632:32:32:32:32:3  5Bm N  ov 19, 2018 2 2:30:39.198603000  7
            13  7.02381732:32:32:32:32:3  4Bm N  ov 19, 2018 2 2:30:39.261124000  7
            14   7.0333232:32:32:32:32:3  5Bm N  ov 19, 2018 2 2:30:39.270627000  7
            15  8.35420732:32:32:32:32:3  5Bm N  ov 19, 2018 2 2:30:40.591514000  7
            16  8.72835532:32:32:32:32:3  5Bm N  ov 19, 2018 2 2:30:40.965662000  7
            17  2.53057232:32:32:32:32:3  4Bm N  ov 19, 2018 2 2:30:44.767879000  7
            18  3.26902332:32:32:32:32:3  4Bm N  ov 19, 2018 2 2:30:45.506330000  7
            19    3.636932:32:32:32:32:3  6Bm N  ov 19, 2018 2 2:30:45.874207000  7
            20  8.24756132:32:32:32:32:3  4Bm N  ov 19, 2018 2 2:30:50.484868000  7
            21  9.23796832:32:32:32:32:3  2Bm N  ov 19, 2018 2 2:30:51.475275000  7
            22  4.54033132:32:32:32:32:3  4Bm N  ov 19, 2018 2 2:30:56.777638000  7
            23  5.37476132:32:32:32:32:3  5Bm N  ov 19, 2018 2 2:30:57.612068000  7
            24  5.60889432:32:32:32:32:3  6Bm N  ov 19, 2018 2 2:30:57.846201000  7
            25  2.04834932:32:32:32:32:3  4Bm N  ov 19, 2018 2 2:31:24.285656000  7
            26  3.34073532:32:32:32:32:3  5Bm N  ov 19, 2018 2 2:31:25.578042000  7
            27  6.78682232:32:32:32:32:3  4Bm N  ov 19, 2018 2 2:31:39.024129000  7
            28  2.67869332:32:32:32:32:3  1Bm N  ov 19, 2018 2 2:31:54.916000000  7
            29 15.45522832:32:32:32:32:3  4Bm N  ov 19, 2018 2 2:32:17.692535000  7
            30 15.82060732:32:32:32:32:3  5Bm N  ov 19, 2018 2 2:32:18.057914000  7
            31 15.84423332:32:32:32:32:3  6Bm N  ov 19, 2018 2 2:32:18.081540000  7
            32 15.90052732:32:32:32:32:3  4Bm N  ov 19, 2018 2 2:32:18.137834000  7
            33 15.95848532:32:32:32:32:3  6Bm N  ov 19, 2018 2 2:32:18.195792000  7
            34 15.99686932:32:32:32:32:3  4Bm N  ov 19, 2018 2 2:32:18.234176000  7
            35 17.16317932:32:32:32:32:3  4Bm N  ov 19, 2018 2 2:32:39.400486000  7
            36 13.28796532:32:32:32:32:3  5Bm N  ov 19, 2018 2 2:32:55.525272000  7
            37 1 3.3726532:32:32:32:32:3  6Bm N  ov 19, 2018 2 2:32:55.609957000  7
            38 13.39310232:32:32:32:32:3  2Bm N  ov 19, 2018 2 2:32:55.630409000  7
            39 1  3.489332:32:32:32:32:3  5Bm N  ov 19, 2018 2 2:32:55.726607000  7
            40 13.79316332:32:32:32:32:3  3Bm N  ov 19, 2018 2 2:32:56.030470000  7
            41 14.00020832:32:32:32:32:3  7Bm N  ov 19, 2018 2 2:32:56.237515000  7
            42 14.05328932:32:32:32:32:3  5Bm N  ov 19, 2018 2 2:32:56.290596000  7
            43 14.09187732:32:32:32:32:3  4Bm N  ov 19, 2018 2 2:32:56.329184000  7
            44 17.80462232:32:32:32:32:3  4Bm N  ov 19, 2018 2 2:33:00.041929000  7
            45 18.84253732:32:32:32:32:3  4Bm N  ov 19, 2018 2 2:33:01.079844000  7
            46 19.42916632:32:32:32:32:3  2Bm N  ov 19, 2018 2 2:33:01.666473000  7
            47 19.62078932:32:32:32:32:3  6Bm N  ov 19, 2018 2 2:33:01.858096000  7
            48 15.90166632:32:32:32:32:3  7Bm N  ov 19, 2018 2 2:33:08.138973000  7
            49 17.26094132:32:32:32:32:3  5Bm N  ov 19, 2018 2 2:33:09.498248000  7
            50 17.44699632:32:32:32:32:3  5Bm N  ov 19, 2018 2 2:33:09.684303000  7
            51 19.29664532:32:32:32:32:3  4Bm N  ov 19, 2018 2 2:33:11.533952000  7
            52 19.43658832:32:32:32:32:3  3Bm N  ov 19, 2018 2 2:33:11.673895000  7
            53 12.46960132:32:32:32:32:3  6Bm N  ov 19, 2018 2 2:33:14.706908000  7
            54 14.48801432:32:32:32:32:3  4Bm N  ov 19, 2018 2 2:33:16.725321000  7
            55 1 7.0416232:32:32:32:32:3  5Bm N  ov 19, 2018 2 2:33:19.278927000  7
            56 17.07415932:32:32:32:32:3  4Bm N  ov 19, 2018 2 2:33:19.311466000  7
            57 17.09941232:32:32:32:32:3  4Bm N  ov 19, 2018 2 2:33:19.336719000  7
            58 10.45910132:32:32:32:32:3  4Bm N  ov 19, 2018 2 2:33:32.696408000  7
            59 10.80930932:32:32:32:32:3  4Bm N  ov 19, 2018 2 2:33:33.046616000  7
            60 11.90059532:32:32:32:32:3  5Bm N  ov 19, 2018 2 2:33:34.137902000  7
            61 1 5.4266332:32:32:32:32:3  5Bm N  ov 19, 2018 2 2:33:37.663937000  7
            62 16.49790232:32:32:32:32:3  5Bm N  ov 19, 2018 2 2:33:38.735209000  7
            63 27.85153632:32:32:32:32:3  5Bm N  ov 19, 2018 2 2:33:50.088843000  7
            64 29.51072232:32:32:32:32:3  4Bm N  ov 19, 2018 2 2:34:01.748029000  7
            65 2 1.2592932:32:32:32:32:3  5Bm N  ov 19, 2018 2 2:34:03.496597000  7
            66 21.41359832:32:32:32:32:3  6Bm N  ov 19, 2018 2 2:34:03.650905000  7
            67 21.65813632:32:32:32:32:3  4Bm N  ov 19, 2018 2 2:34:03.895443000  7
            68 21.77865832:32:32:32:32:3  6Bm N  ov 19, 2018 2 2:34:04.015965000  7
            69 21.86667232:32:32:32:32:3  5Bm N  ov 19, 2018 2 2:34:04.103979000  7
            70 2 2.0880232:32:32:32:32:3  5Bm N  ov 19, 2018 2 2:34:04.325327000  7
            71 22.20013232:32:32:32:32:3  5Bm N  ov 19, 2018 2 2:34:04.437439000  7
            72 22.28559732:32:32:32:32:3  6Bm N  ov 19, 2018 2 2:34:04.522904000  7
            73 22.68256232:32:32:32:32:3  3Bm N  ov 19, 2018 2 2:34:04.919869000  7
            74 2 2.8490232:32:32:32:32:3  5Bm N  ov 19, 2018 2 2:34:05.086327000  7
            75 23.11398332:32:32:32:32:3  4Bm N  ov 19, 2018 2 2:34:05.351290000  7
            76 23.32973432:32:32:32:32:3  5Bm N  ov 19, 2018 2 2:34:05.567041000  7
            77 23.61883132:32:32:32:32:3  4Bm N  ov 19, 2018 2 2:34:05.856138000  7
            78 23.71787332:32:32:32:32:3  5Bm N  ov 19, 2018 2 2:34:05.955180000  7
            79 23.75772132:32:32:32:32:3  6Bm N  ov 19, 2018 2 2:34:05.995028000  7
            80 28.30998632:32:32:32:32:3  4Bm N  ov 19, 2018 2 2:34:10.547293000  7
            81 2 8.6453732:32:32:32:32:3  5Bm N  ov 19, 2018 2 2:34:10.882677000  7
            82 28.66237832:32:32:32:32:3  2Bm N  ov 19, 2018 2 2:34:10.899685000  7
            83 29.10636232:32:32:32:32:3  5Bm N  ov 19, 2018 2 2:34:11.343669000  7
            84 29.21687532:32:32:32:32:3  4Bm N  ov 19, 2018 2 2:34:11.454182000  7
            85 29.81908732:32:32:32:32:3  5Bm N  ov 19, 2018 2 2:34:12.056394000  7
            86 20.91197932:32:32:32:32:3  6Bm N  ov 19, 2018 2 2:34:13.149286000  7
            87 21.01486932:32:32:32:32:3  5Bm N  ov 19, 2018 2 2:34:13.252176000  7
            88 21.59589632:32:32:32:32:3  6Bm N  ov 19, 2018 2 2:34:13.833203000  7
            89 21.93127532:32:32:32:32:3  4Bm N  ov 19, 2018 2 2:34:14.168582000  7
            90 2 2.0434632:32:32:32:32:3  7Bm N  ov 19, 2018 2 2:34:14.280767000  7
            91 23.06200832:32:32:32:32:3  5Bm N  ov 19, 2018 2 2:34:15.299315000  7
