    1   0.000000 32:32:32:32:32:32 5dBm Nov 17, 2018 01:34:06.977550000 +07
    2   0.170107 32:32:32:32:32:32 6dBm Nov 17, 2018 01:34:07.147657000 +07
    3   0.587122 32:32:32:32:32:32 6dBm Nov 17, 2018 01:34:07.564672000 +07
    4   1.806588 32:32:32:32:32:32 7dBm Nov 17, 2018 01:34:08.784138000 +07
    5   1.869435 32:32:32:32:32:32 6dBm Nov 17, 2018 01:34:08.846985000 +07
    6   2.218054 32:32:32:32:32:32 5dBm Nov 17, 2018 01:34:09.195604000 +07
    7   2.256973 32:32:32:32:32:32 5dBm Nov 17, 2018 01:34:09.234523000 +07
    8   2.777566 32:32:32:32:32:32 8dBm Nov 17, 2018 01:34:09.755116000 +07
    9   5.086441 32:32:32:32:32:32 6dBm Nov 17, 2018 01:34:12.063991000 +07
   10   6.221067 32:32:32:32:32:32 7dBm Nov 17, 2018 01:34:13.198617000 +07
   11   6.470657 32:32:32:32:32:32 7dBm Nov 17, 2018 01:34:13.448207000 +07
   12   6.588941 32:32:32:32:32:32 5dBm Nov 17, 2018 01:34:13.566491000 +07
   13   7.410799 32:32:32:32:32:32 7dBm Nov 17, 2018 01:34:14.388349000 +07
   14   7.845367 32:32:32:32:32:32 7dBm Nov 17, 2018 01:34:14.822917000 +07
   15   8.906609 32:32:32:32:32:32 6dBm Nov 17, 2018 01:34:15.884159000 +07
   16  10.565352 32:32:32:32:32:32 5dBm Nov 17, 2018 01:34:17.542902000 +07
   17  11.014097 32:32:32:32:32:32 7dBm Nov 17, 2018 01:34:17.991647000 +07
   18  12.261355 32:32:32:32:32:32 8dBm Nov 17, 2018 01:34:19.238905000 +07
   19  12.795747 32:32:32:32:32:32 7dBm Nov 17, 2018 01:34:19.773297000 +07
   20  13.166126 32:32:32:32:32:32 6dBm Nov 17, 2018 01:34:20.143676000 +07
   21  13.327343 32:32:32:32:32:32 8dBm Nov 17, 2018 01:34:20.304893000 +07
   22  14.039830 32:32:32:32:32:32 8dBm Nov 17, 2018 01:34:21.017380000 +07
   23  14.054113 32:32:32:32:32:32 8dBm Nov 17, 2018 01:34:21.031663000 +07
   24  14.081215 32:32:32:32:32:32 9dBm Nov 17, 2018 01:34:21.058765000 +07
   25  14.195665 32:32:32:32:32:32 8dBm Nov 17, 2018 01:34:21.173215000 +07
   26  14.317993 32:32:32:32:32:32 7dBm Nov 17, 2018 01:34:21.295543000 +07
   27  14.893707 32:32:32:32:32:32 5dBm Nov 17, 2018 01:34:21.871257000 +07
   28  15.046704 32:32:32:32:32:32 7dBm Nov 17, 2018 01:34:22.024254000 +07
   29  15.485839 32:32:32:32:32:32 8dBm Nov 17, 2018 01:34:22.463389000 +07
   30  15.694373 32:32:32:32:32:32 8dBm Nov 17, 2018 01:34:22.671923000 +07
   31  15.839010 32:32:32:32:32:32 8dBm Nov 17, 2018 01:34:22.816560000 +07
   32  16.262113 32:32:32:32:32:32 5dBm Nov 17, 2018 01:34:23.239663000 +07
   33  16.758472 32:32:32:32:32:32 7dBm Nov 17, 2018 01:34:23.736022000 +07
   34  16.978325 32:32:32:32:32:32 7dBm Nov 17, 2018 01:34:23.955875000 +07
   35  17.998789 32:32:32:32:32:32 6dBm Nov 17, 2018 01:34:24.976339000 +07
   36  18.168753 32:32:32:32:32:32 7dBm Nov 17, 2018 01:34:25.146303000 +07
   37  19.175971 32:32:32:32:32:32 7dBm Nov 17, 2018 01:34:26.153521000 +07
   38  21.279642 32:32:32:32:32:32 8dBm Nov 17, 2018 01:34:28.257192000 +07
   39  21.404168 32:32:32:32:32:32 7dBm Nov 17, 2018 01:34:28.381718000 +07
   40  22.533215 32:32:32:32:32:32 6dBm Nov 17, 2018 01:34:29.510765000 +07
   41  22.815663 32:32:32:32:32:32 5dBm Nov 17, 2018 01:34:29.793213000 +07
   42  23.056099 32:32:32:32:32:32 6dBm Nov 17, 2018 01:34:30.033649000 +07
   43  24.060799 32:32:32:32:32:32 4dBm Nov 17, 2018 01:34:31.038349000 +07
   44  24.930810 32:32:32:32:32:32 8dBm Nov 17, 2018 01:34:31.908360000 +07
   45  26.625462 32:32:32:32:32:32 6dBm Nov 17, 2018 01:34:33.603012000 +07
   46  26.732911 32:32:32:32:32:32 7dBm Nov 17, 2018 01:34:33.710461000 +07
   47  28.511871 32:32:32:32:32:32 6dBm Nov 17, 2018 01:34:35.489421000 +07
   48  28.851314 32:32:32:32:32:32 5dBm Nov 17, 2018 01:34:35.828864000 +07
   49  28.882590 32:32:32:32:32:32 6dBm Nov 17, 2018 01:34:35.860140000 +07
   50  28.984500 32:32:32:32:32:32 5dBm Nov 17, 2018 01:34:35.962050000 +07
   51  29.403930 32:32:32:32:32:32 6dBm Nov 17, 2018 01:34:36.381480000 +07
   52  29.500060 32:32:32:32:32:32 5dBm Nov 17, 2018 01:34:36.477610000 +07
   53  29.739417 32:32:32:32:32:32 4dBm Nov 17, 2018 01:34:36.716967000 +07
   54  30.193415 32:32:32:32:32:32 6dBm Nov 17, 2018 01:34:37.170965000 +07
   55  30.399816 32:32:32:32:32:32 8dBm Nov 17, 2018 01:34:37.377366000 +07
   56  30.581829 32:32:32:32:32:32 5dBm Nov 17, 2018 01:34:37.559379000 +07
   57  31.192021 32:32:32:32:32:32 6dBm Nov 17, 2018 01:34:38.169571000 +07
   58  31.240194 32:32:32:32:32:32 7dBm Nov 17, 2018 01:34:38.217744000 +07
   59  31.425041 32:32:32:32:32:32 6dBm Nov 17, 2018 01:34:38.402591000 +07
   60  32.610942 32:32:32:32:32:32 6dBm Nov 17, 2018 01:34:39.588492000 +07
   61  32.742366 32:32:32:32:32:32 7dBm Nov 17, 2018 01:34:39.719916000 +07
   62  32.888097 32:32:32:32:32:32 6dBm Nov 17, 2018 01:34:39.865647000 +07
   63  33.449616 32:32:32:32:32:32 5dBm Nov 17, 2018 01:34:40.427166000 +07
   64  33.790561 32:32:32:32:32:32 6dBm Nov 17, 2018 01:34:40.768111000 +07
   65  34.000850 32:32:32:32:32:32 6dBm Nov 17, 2018 01:34:40.978400000 +07
   66  34.449520 32:32:32:32:32:32 6dBm Nov 17, 2018 01:34:41.427070000 +07
   67  34.502674 32:32:32:32:32:32 7dBm Nov 17, 2018 01:34:41.480224000 +07
   68  35.349299 32:32:32:32:32:32 7dBm Nov 17, 2018 01:34:42.326849000 +07
   69  36.132942 32:32:32:32:32:32 6dBm Nov 17, 2018 01:34:43.110492000 +07
   70  36.628811 32:32:32:32:32:32 6dBm Nov 17, 2018 01:34:43.606361000 +07
   71  36.935749 32:32:32:32:32:32 7dBm Nov 17, 2018 01:34:43.913299000 +07
   72  37.449789 32:32:32:32:32:32 7dBm Nov 17, 2018 01:34:44.427339000 +07
   73  37.583561 32:32:32:32:32:32 6dBm Nov 17, 2018 01:34:44.561111000 +07
   74  38.501718 32:32:32:32:32:32 5dBm Nov 17, 2018 01:34:45.479268000 +07
   75  38.996638 32:32:32:32:32:32 7dBm Nov 17, 2018 01:34:45.974188000 +07
   76  39.174240 32:32:32:32:32:32 7dBm Nov 17, 2018 01:34:46.151790000 +07
   77  39.904702 32:32:32:32:32:32 6dBm Nov 17, 2018 01:34:46.882252000 +07
   78  40.678750 32:32:32:32:32:32 7dBm Nov 17, 2018 01:34:47.656300000 +07
   79  40.755997 32:32:32:32:32:32 8dBm Nov 17, 2018 01:34:47.733547000 +07
   80  40.968947 32:32:32:32:32:32 7dBm Nov 17, 2018 01:34:47.946497000 +07
   81  41.517419 32:32:32:32:32:32 6dBm Nov 17, 2018 01:34:48.494969000 +07
   82  41.868079 32:32:32:32:32:32 6dBm Nov 17, 2018 01:34:48.845629000 +07
   83  43.084193 32:32:32:32:32:32 6dBm Nov 17, 2018 01:34:50.061743000 +07
   84  43.225628 32:32:32:32:32:32 5dBm Nov 17, 2018 01:34:50.203178000 +07
   85  43.448555 32:32:32:32:32:32 5dBm Nov 17, 2018 01:34:50.426105000 +07
   86  43.806884 32:32:32:32:32:32 6dBm Nov 17, 2018 01:34:50.784434000 +07
   87  44.442188 32:32:32:32:32:32 7dBm Nov 17, 2018 01:34:51.419738000 +07
   88  45.467963 32:32:32:32:32:32 6dBm Nov 17, 2018 01:34:52.445513000 +07
   89  46.282504 32:32:32:32:32:32 6dBm Nov 17, 2018 01:34:53.260054000 +07
   90  46.503327 32:32:32:32:32:32 4dBm Nov 17, 2018 01:34:53.480877000 +07
   91  46.663947 32:32:32:32:32:32 3dBm Nov 17, 2018 01:34:53.641497000 +07
   92  47.088579 32:32:32:32:32:32 5dBm Nov 17, 2018 01:34:54.066129000 +07
   93  47.716159 32:32:32:32:32:32 5dBm Nov 17, 2018 01:34:54.693709000 +07
   94  47.895294 32:32:32:32:32:32 5dBm Nov 17, 2018 01:34:54.872844000 +07
   95  49.067528 32:32:32:32:32:32 6dBm Nov 17, 2018 01:34:56.045078000 +07
   96  49.220395 32:32:32:32:32:32 1dBm Nov 17, 2018 01:34:56.197945000 +07
   97  49.276312 32:32:32:32:32:32 4dBm Nov 17, 2018 01:34:56.253862000 +07
   98  49.529491 32:32:32:32:32:32 6dBm Nov 17, 2018 01:34:56.507041000 +07
   99  49.889522 32:32:32:32:32:32 7dBm Nov 17, 2018 01:34:56.867072000 +07
  100  50.514966 32:32:32:32:32:32 7dBm Nov 17, 2018 01:34:57.492516000 +07
  101  51.943547 32:32:32:32:32:32 7dBm Nov 17, 2018 01:34:58.921097000 +07
  102  52.497075 32:32:32:32:32:32 6dBm Nov 17, 2018 01:34:59.474625000 +07
  103  53.480487 32:32:32:32:32:32 5dBm Nov 17, 2018 01:35:00.458037000 +07
  104  53.661461 32:32:32:32:32:32 4dBm Nov 17, 2018 01:35:00.639011000 +07
  105  53.969652 32:32:32:32:32:32 5dBm Nov 17, 2018 01:35:00.947202000 +07
  106  54.909255 32:32:32:32:32:32 8dBm Nov 17, 2018 01:35:01.886805000 +07
  107  55.800783 32:32:32:32:32:32 5dBm Nov 17, 2018 01:35:02.778333000 +07
  108  56.633352 32:32:32:32:32:32 6dBm Nov 17, 2018 01:35:03.610902000 +07
  109  57.701258 32:32:32:32:32:32 6dBm Nov 17, 2018 01:35:04.678808000 +07
  110  58.491325 32:32:32:32:32:32 4dBm Nov 17, 2018 01:35:05.468875000 +07
  111  58.926533 32:32:32:32:32:32 7dBm Nov 17, 2018 01:35:05.904083000 +07
  112  59.692344 32:32:32:32:32:32 5dBm Nov 17, 2018 01:35:06.669894000 +07
  113  60.203503 32:32:32:32:32:32 4dBm Nov 17, 2018 01:35:07.181053000 +07
  114  60.993839 32:32:32:32:32:32 6dBm Nov 17, 2018 01:35:07.971389000 +07
  115  61.567927 32:32:32:32:32:32 5dBm Nov 17, 2018 01:35:08.545477000 +07
  116  61.917258 32:32:32:32:32:32 6dBm Nov 17, 2018 01:35:08.894808000 +07
  117  62.398666 32:32:32:32:32:32 4dBm Nov 17, 2018 01:35:09.376216000 +07
  118  63.066376 32:32:32:32:32:32 5dBm Nov 17, 2018 01:35:10.043926000 +07
  119  63.173310 32:32:32:32:32:32 8dBm Nov 17, 2018 01:35:10.150860000 +07
  120  63.788327 32:32:32:32:32:32 6dBm Nov 17, 2018 01:35:10.765877000 +07
  121  64.272297 32:32:32:32:32:32 7dBm Nov 17, 2018 01:35:11.249847000 +07
  122  64.716877 32:32:32:32:32:32 7dBm Nov 17, 2018 01:35:11.694427000 +07
  123  65.561844 32:32:32:32:32:32 9dBm Nov 17, 2018 01:35:12.539394000 +07
  124  65.846004 32:32:32:32:32:32 7dBm Nov 17, 2018 01:35:12.823554000 +07
  125  66.056444 32:32:32:32:32:32 9dBm Nov 17, 2018 01:35:13.033994000 +07
  126  66.272443 32:32:32:32:32:32 7dBm Nov 17, 2018 01:35:13.249993000 +07
