                1       032:32:32:32:32:3 7dBm N  ov 17, 2018 0 2:05:20.997037000  7          0
                20.08678332:32:32:32:32:3 6dBm N  ov 17, 2018 0 2:05:21.083820000  7          9
                30.29233132:32:32:32:32:3 7dBm N  ov 17, 2018 0 2:05:21.289368000  7        ###
                40.37139132:32:32:32:32:3 8dBm N  ov 17, 2018 0 2:05:21.368428000  7        ###
                50.54930332:32:32:32:32:3 9dBm N  ov 17, 2018 0 2:05:21.546340000  7        ###
                60.60682632:32:32:32:32:3 7dBm N  ov 17, 2018 0 2:05:21.603863000  7
                70.90322232:32:32:32:32:3 8dBm N  ov 17, 2018 0 2:05:21.900259000  7
                80.91915132:32:32:32:32:3 7dBm N  ov 17, 2018 0 2:05:21.916188000  7
                9 0.9561132:32:32:32:32:3 6dBm N  ov 17, 2018 0 2:05:21.953147000  7
               100.96183932:32:32:32:32:3 7dBm N  ov 17, 2018 0 2:05:21.958876000  7
               111.24160732:32:32:32:32:3 6dBm N  ov 17, 2018 0 2:05:22.238644000  7
               121.26732232:32:32:32:32:3 6dBm N  ov 17, 2018 0 2:05:22.264359000  7
               131.35006332:32:32:32:32:3 5dBm N  ov 17, 2018 0 2:05:22.347100000  7
               141.44865632:32:32:32:32:3 5dBm N  ov 17, 2018 0 2:05:22.445693000  7
               151.53761632:32:32:32:32:3 5dBm N  ov 17, 2018 0 2:05:22.534653000  7
               161.57008432:32:32:32:32:3 6dBm N  ov 17, 2018 0 2:05:22.567121000  7
               17 1.6406532:32:32:32:32:3 5dBm N  ov 17, 2018 0 2:05:22.637687000  7
               181.66061532:32:32:32:32:3 7dBm N  ov 17, 2018 0 2:05:22.657652000  7
               191.66369632:32:32:32:32:3 7dBm N  ov 17, 2018 0 2:05:22.660733000  7
               20 1.6880732:32:32:32:32:3 6dBm N  ov 17, 2018 0 2:05:22.685107000  7
               212.04036532:32:32:32:32:3 8dBm N  ov 17, 2018 0 2:05:23.037402000  7
               222.06664232:32:32:32:32:3 7dBm N  ov 17, 2018 0 2:05:23.063679000  7
               232.43571832:32:32:32:32:3 5dBm N  ov 17, 2018 0 2:05:23.432755000  7
               242.53670232:32:32:32:32:3 6dBm N  ov 17, 2018 0 2:05:23.533739000  7
               252.57425632:32:32:32:32:3 5dBm N  ov 17, 2018 0 2:05:23.571293000  7
               262.68305932:32:32:32:32:3 5dBm N  ov 17, 2018 0 2:05:23.680096000  7
               273.23903632:32:32:32:32:3 5dBm N  ov 17, 2018 0 2:05:24.236073000  7
               283.27115932:32:32:32:32:3 5dBm N  ov 17, 2018 0 2:05:24.268196000  7
               293.30542832:32:32:32:32:3 6dBm N  ov 17, 2018 0 2:05:24.302465000  7
               303.34574232:32:32:32:32:3 6dBm N  ov 17, 2018 0 2:05:24.342779000  7
               313.61863332:32:32:32:32:3 5dBm N  ov 17, 2018 0 2:05:24.615670000  7
               323.87929332:32:32:32:32:3 5dBm N  ov 17, 2018 0 2:05:24.876330000  7
               333.95397332:32:32:32:32:3 5dBm N  ov 17, 2018 0 2:05:24.951010000  7
               344.28572232:32:32:32:32:3 6dBm N  ov 17, 2018 0 2:05:25.282759000  7
               354.30757432:32:32:32:32:3 5dBm N  ov 17, 2018 0 2:05:25.304611000  7
               364.51338732:32:32:32:32:3 7dBm N  ov 17, 2018 0 2:05:25.510424000  7
               375.05394232:32:32:32:32:3 5dBm N  ov 17, 2018 0 2:05:26.050979000  7
               385.07460732:32:32:32:32:3 5dBm N  ov 17, 2018 0 2:05:26.071644000  7
               395.27451632:32:32:32:32:3 5dBm N  ov 17, 2018 0 2:05:26.271553000  7
               405.66612532:32:32:32:32:3 4dBm N  ov 17, 2018 0 2:05:26.663162000  7
               415.76920132:32:32:32:32:3 6dBm N  ov 17, 2018 0 2:05:26.766238000  7
               426.21568932:32:32:32:32:3 6dBm N  ov 17, 2018 0 2:05:27.212726000  7
               437.07712232:32:32:32:32:3 5dBm N  ov 17, 2018 0 2:05:28.074159000  7
               44 7.8262632:32:32:32:32:3 4dBm N  ov 17, 2018 0 2:05:28.823297000  7
               457.87783332:32:32:32:32:3 3dBm N  ov 17, 2018 0 2:05:28.874870000  7
               467.96309232:32:32:32:32:3 4dBm N  ov 17, 2018 0 2:05:28.960129000  7
               478.02211332:32:32:32:32:3 2dBm N  ov 17, 2018 0 2:05:29.019150000  7
               488.95709932:32:32:32:32:3 4dBm N  ov 17, 2018 0 2:05:29.954136000  7
               499.47701132:32:32:32:32:3 6dBm N  ov 17, 2018 0 2:05:30.474048000  7
               50  9.500932:32:32:32:32:3 4dBm N  ov 17, 2018 0 2:05:30.497937000  7
               519.69763732:32:32:32:32:3 7dBm N  ov 17, 2018 0 2:05:30.694674000  7
            52  10.00813232:32:32:32:32:3 7dBm N  ov 17, 2018 0 2:05:31.005169000  7
            53  10.06547132:32:32:32:32:3 5dBm N  ov 17, 2018 0 2:05:31.062508000  7
            54  10.09304232:32:32:32:32:3 6dBm N  ov 17, 2018 0 2:05:31.090079000  7
            55  10.11795632:32:32:32:32:3 5dBm N  ov 17, 2018 0 2:05:31.114993000  7
            56  10.24310432:32:32:32:32:3 6dBm N  ov 17, 2018 0 2:05:31.240141000  7
            57  10.33199632:32:32:32:32:3 6dBm N  ov 17, 2018 0 2:05:31.329033000  7
            58  10.56496232:32:32:32:32:3 6dBm N  ov 17, 2018 0 2:05:31.561999000  7
            59  10.61608632:32:32:32:32:3 7dBm N  ov 17, 2018 0 2:05:31.613123000  7
            60  10.71923432:32:32:32:32:3 6dBm N  ov 17, 2018 0 2:05:31.716271000  7
            61  10.73849432:32:32:32:32:3 6dBm N  ov 17, 2018 0 2:05:31.735531000  7
            62  1 0.7593332:32:32:32:32:3 5dBm N  ov 17, 2018 0 2:05:31.756367000  7
            63  10.78270632:32:32:32:32:3 5dBm N  ov 17, 2018 0 2:05:31.779743000  7
            64  10.88134832:32:32:32:32:3 8dBm N  ov 17, 2018 0 2:05:31.878385000  7
            65  11.06288232:32:32:32:32:3 7dBm N  ov 17, 2018 0 2:05:32.059919000  7
            66  11.49112732:32:32:32:32:3 5dBm N  ov 17, 2018 0 2:05:32.488164000  7
            67  11.61704432:32:32:32:32:3 6dBm N  ov 17, 2018 0 2:05:32.614081000  7
            68  11.96525832:32:32:32:32:3 7dBm N  ov 17, 2018 0 2:05:32.962295000  7
            69  12.54480132:32:32:32:32:3 5dBm N  ov 17, 2018 0 2:05:33.541838000  7
            70  12.60242132:32:32:32:32:3 5dBm N  ov 17, 2018 0 2:05:33.599458000  7
            71  12.64382332:32:32:32:32:3 7dBm N  ov 17, 2018 0 2:05:33.640860000  7
            72  12.77080932:32:32:32:32:3 2dBm N  ov 17, 2018 0 2:05:33.767846000  7
            73  12.81292632:32:32:32:32:3 6dBm N  ov 17, 2018 0 2:05:33.809963000  7
            74  1 2.8337932:32:32:32:32:3 7dBm N  ov 17, 2018 0 2:05:33.830827000  7
            75  12.83731932:32:32:32:32:3 4dBm N  ov 17, 2018 0 2:05:33.834356000  7
            76  12.93703932:32:32:32:32:3 4dBm N  ov 17, 2018 0 2:05:33.934076000  7
            77  13.11218132:32:32:32:32:3 6dBm N  ov 17, 2018 0 2:05:34.109218000  7
            78  13.12332832:32:32:32:32:3 7dBm N  ov 17, 2018 0 2:05:34.120365000  7
            79  13.37620832:32:32:32:32:3 7dBm N  ov 17, 2018 0 2:05:34.373245000  7
            80  13.61130532:32:32:32:32:3 6dBm N  ov 17, 2018 0 2:05:34.608342000  7
            81  13.63077132:32:32:32:32:3 7dBm N  ov 17, 2018 0 2:05:34.627808000  7
            82  13.71022932:32:32:32:32:3 5dBm N  ov 17, 2018 0 2:05:34.707266000  7
            83  1 3.7823732:32:32:32:32:3 7dBm N  ov 17, 2018 0 2:05:34.779407000  7
            84  14.22933432:32:32:32:32:3 5dBm N  ov 17, 2018 0 2:05:35.226371000  7
            85  15.34594232:32:32:32:32:3 5dBm N  ov 17, 2018 0 2:05:36.342979000  7
            86  15.38757932:32:32:32:32:3 8dBm N  ov 17, 2018 0 2:05:36.384616000  7
            87  16.41739832:32:32:32:32:3 5dBm N  ov 17, 2018 0 2:05:37.414435000  7
            88  16.51111932:32:32:32:32:3 6dBm N  ov 17, 2018 0 2:05:37.508156000  7
            89  16.56112332:32:32:32:32:3 8dBm N  ov 17, 2018 0 2:05:37.558160000  7
            90  16.60660632:32:32:32:32:3 6dBm N  ov 17, 2018 0 2:05:37.603643000  7
            91  1 6.9690932:32:32:32:32:3 5dBm N  ov 17, 2018 0 2:05:37.966127000  7
            92  17.04291132:32:32:32:32:3 3dBm N  ov 17, 2018 0 2:05:38.039948000  7
            93  18.31969732:32:32:32:32:3 4dBm N  ov 17, 2018 0 2:05:39.316734000  7
            94  18.46084732:32:32:32:32:3 7dBm N  ov 17, 2018 0 2:05:39.457884000  7
            95  18.52528532:32:32:32:32:3 7dBm N  ov 17, 2018 0 2:05:39.522322000  7
            96  18.53779532:32:32:32:32:3 7dBm N  ov 17, 2018 0 2:05:39.534832000  7
            97  18.54083732:32:32:32:32:3 5dBm N  ov 17, 2018 0 2:05:39.537874000  7
            98  18.63838632:32:32:32:32:3 6dBm N  ov 17, 2018 0 2:05:39.635423000  7
            99  19.12834832:32:32:32:32:3 4dBm N  ov 17, 2018 0 2:05:40.125385000  7
           100  19.37589832:32:32:32:32:3 6dBm N  ov 17, 2018 0 2:05:40.372935000  7
           101  19.48683932:32:32:32:32:3 5dBm N  ov 17, 2018 0 2:05:40.483876000  7
           102  19.86295132:32:32:32:32:3 4dBm N  ov 17, 2018 0 2:05:40.859988000  7
           103  2 0.1256932:32:32:32:32:3 6dBm N  ov 17, 2018 0 2:05:41.122727000  7
           104  2 0.9179432:32:32:32:32:3 5dBm N  ov 17, 2018 0 2:05:41.914977000  7
           105  21.09078832:32:32:32:32:3 6dBm N  ov 17, 2018 0 2:05:42.087825000  7
           106  21.11997732:32:32:32:32:3 6dBm N  ov 17, 2018 0 2:05:42.117014000  7
           107  21.71455832:32:32:32:32:3 6dBm N  ov 17, 2018 0 2:05:42.711595000  7
           108  21.91148632:32:32:32:32:3 6dBm N  ov 17, 2018 0 2:05:42.908523000  7
           109  22.45149332:32:32:32:32:3 4dBm N  ov 17, 2018 0 2:05:43.448530000  7
           110  22.65185332:32:32:32:32:3 5dBm N  ov 17, 2018 0 2:05:43.648890000  7
           111  2 3.0935132:32:32:32:32:3 6dBm N  ov 17, 2018 0 2:05:44.090547000  7
           112  23.70526132:32:32:32:32:3 5dBm N  ov 17, 2018 0 2:05:44.702298000  7
           113  23.74093532:32:32:32:32:3 5dBm N  ov 17, 2018 0 2:05:44.737972000  7
           114  23.84657532:32:32:32:32:3 6dBm N  ov 17, 2018 0 2:05:44.843612000  7
           115  23.91291632:32:32:32:32:3 6dBm N  ov 17, 2018 0 2:05:44.909953000  7
           116  24.19928632:32:32:32:32:3 6dBm N  ov 17, 2018 0 2:05:45.196323000  7
           117  24.60348632:32:32:32:32:3 6dBm N  ov 17, 2018 0 2:05:45.600523000  7
           118  24.62315532:32:32:32:32:3 5dBm N  ov 17, 2018 0 2:05:45.620192000  7
           119  24.74360632:32:32:32:32:3 6dBm N  ov 17, 2018 0 2:05:45.740643000  7
           120  25.36750332:32:32:32:32:3 7dBm N  ov 17, 2018 0 2:05:46.364540000  7
           121  25.44219632:32:32:32:32:3 7dBm N  ov 17, 2018 0 2:05:46.439233000  7
           122  2 5.8630532:32:32:32:32:3 6dBm N  ov 17, 2018 0 2:05:46.860087000  7
           123  25.98510832:32:32:32:32:3 6dBm N  ov 17, 2018 0 2:05:46.982145000  7
           124  26.00711532:32:32:32:32:3 5dBm N  ov 17, 2018 0 2:05:47.004152000  7
           125  26.07141432:32:32:32:32:3 6dBm N  ov 17, 2018 0 2:05:47.068451000  7
           126  26.38564732:32:32:32:32:3 6dBm N  ov 17, 2018 0 2:05:47.382684000  7
           127  26.56954132:32:32:32:32:3 5dBm N  ov 17, 2018 0 2:05:47.566578000  7
           128  27.21308532:32:32:32:32:3 6dBm N  ov 17, 2018 0 2:05:48.210122000  7
           129  27.54180532:32:32:32:32:3 6dBm N  ov 17, 2018 0 2:05:48.538842000  7
           130  27.85719232:32:32:32:32:3 5dBm N  ov 17, 2018 0 2:05:48.854229000  7
           131  2 7.9068932:32:32:32:32:3 5dBm N  ov 17, 2018 0 2:05:48.903927000  7
           132  2 7.9446732:32:32:32:32:3 4dBm N  ov 17, 2018 0 2:05:48.941707000  7
           133  28.11880432:32:32:32:32:3 6dBm N  ov 17, 2018 0 2:05:49.115841000  7
           134  28.64485732:32:32:32:32:3 5dBm N  ov 17, 2018 0 2:05:49.641894000  7
           135  29.79058932:32:32:32:32:3 5dBm N  ov 17, 2018 0 2:05:50.787626000  7
           136  30.02249832:32:32:32:32:3 6dBm N  ov 17, 2018 0 2:05:51.019535000  7
           137  30.21349132:32:32:32:32:3 9dBm N  ov 17, 2018 0 2:05:51.210528000  7
           138  30.34389932:32:32:32:32:3 7dBm N  ov 17, 2018 0 2:05:51.340936000  7
           139  30.54165732:32:32:32:32:3 6dBm N  ov 17, 2018 0 2:05:51.538694000  7
           140  30.60410532:32:32:32:32:3 6dBm N  ov 17, 2018 0 2:05:51.601142000  7
           141  30.63180832:32:32:32:32:3 6dBm N  ov 17, 2018 0 2:05:51.628845000  7
           142  31.25857732:32:32:32:32:3 5dBm N  ov 17, 2018 0 2:05:52.255614000  7
           143  31.73006932:32:32:32:32:3 4dBm N  ov 17, 2018 0 2:05:52.727106000  7
           144  31.76196832:32:32:32:32:3 6dBm N  ov 17, 2018 0 2:05:52.759005000  7
           145  31.79250932:32:32:32:32:3 6dBm N  ov 17, 2018 0 2:05:52.789546000  7
           146  31.89698432:32:32:32:32:3 6dBm N  ov 17, 2018 0 2:05:52.894021000  7
           147  31.97995232:32:32:32:32:3 5dBm N  ov 17, 2018 0 2:05:52.976989000  7
           148  32.05173232:32:32:32:32:3 5dBm N  ov 17, 2018 0 2:05:53.048769000  7
           149  32.26026532:32:32:32:32:3 4dBm N  ov 17, 2018 0 2:05:53.257302000  7
           150  32.41812532:32:32:32:32:3 4dBm N  ov 17, 2018 0 2:05:53.415162000  7
           151  3 2.4937732:32:32:32:32:3 4dBm N  ov 17, 2018 0 2:05:53.490807000  7
           152  32.97414932:32:32:32:32:3 4dBm N  ov 17, 2018 0 2:05:53.971186000  7
           153  33.03178232:32:32:32:32:3 7dBm N  ov 17, 2018 0 2:05:54.028819000  7
           154  33.04796932:32:32:32:32:3 4dBm N  ov 17, 2018 0 2:05:54.045006000  7
           155  33.07850732:32:32:32:32:3 5dBm N  ov 17, 2018 0 2:05:54.075544000  7
           156  33.14770932:32:32:32:32:3 4dBm N  ov 17, 2018 0 2:05:54.144746000  7
           157  33.16379832:32:32:32:32:3 6dBm N  ov 17, 2018 0 2:05:54.160835000  7
           158  33.61639632:32:32:32:32:3 6dBm N  ov 17, 2018 0 2:05:54.613433000  7
           159  33.78394132:32:32:32:32:3 4dBm N  ov 17, 2018 0 2:05:54.780978000  7
           160  33.84541132:32:32:32:32:3 6dBm N  ov 17, 2018 0 2:05:54.842448000  7
           161  34.05484832:32:32:32:32:3 7dBm N  ov 17, 2018 0 2:05:55.051885000  7
           162  34.13504832:32:32:32:32:3 5dBm N  ov 17, 2018 0 2:05:55.132085000  7
           163  34.15405832:32:32:32:32:3 3dBm N  ov 17, 2018 0 2:05:55.151095000  7
           164  34.53554232:32:32:32:32:3 6dBm N  ov 17, 2018 0 2:05:55.532579000  7
           165  34.68837732:32:32:32:32:3 5dBm N  ov 17, 2018 0 2:05:55.685414000  7
           166  34.74816332:32:32:32:32:3 7dBm N  ov 17, 2018 0 2:05:55.745200000  7
           167  3 4.7555932:32:32:32:32:3 5dBm N  ov 17, 2018 0 2:05:55.752627000  7
           168  35.01062632:32:32:32:32:3 5dBm N  ov 17, 2018 0 2:05:56.007663000  7
           169  35.01989532:32:32:32:32:3 6dBm N  ov 17, 2018 0 2:05:56.016932000  7
           170  35.03470432:32:32:32:32:3 5dBm N  ov 17, 2018 0 2:05:56.031741000  7
           171  3 5.0858232:32:32:32:32:3 4dBm N  ov 17, 2018 0 2:05:56.082857000  7
           172  35.19613532:32:32:32:32:3 5dBm N  ov 17, 2018 0 2:05:56.193172000  7
           173  35.43680732:32:32:32:32:3 5dBm N  ov 17, 2018 0 2:05:56.433844000  7
           174  3 5.4558332:32:32:32:32:3 5dBm N  ov 17, 2018 0 2:05:56.452867000  7
           175  35.56903532:32:32:32:32:3 6dBm N  ov 17, 2018 0 2:05:56.566072000  7
           176  35.64507732:32:32:32:32:3 6dBm N  ov 17, 2018 0 2:05:56.642114000  7
           177  35.85431632:32:32:32:32:3 6dBm N  ov 17, 2018 0 2:05:56.851353000  7
           178  35.98479532:32:32:32:32:3 4dBm N  ov 17, 2018 0 2:05:56.981832000  7
           179  36.10883132:32:32:32:32:3 5dBm N  ov 17, 2018 0 2:05:57.105868000  7
           180  36.24313332:32:32:32:32:3 6dBm N  ov 17, 2018 0 2:05:57.240170000  7
           181  36.32208432:32:32:32:32:3 5dBm N  ov 17, 2018 0 2:05:57.319121000  7
           182  36.46048932:32:32:32:32:3 7dBm N  ov 17, 2018 0 2:05:57.457526000  7
           183  36.51404732:32:32:32:32:3 6dBm N  ov 17, 2018 0 2:05:57.511084000  7
           184  3 6.6272532:32:32:32:32:3 5dBm N  ov 17, 2018 0 2:05:57.624287000  7
           185  36.69098832:32:32:32:32:3 5dBm N  ov 17, 2018 0 2:05:57.688025000  7
           186  36.82208932:32:32:32:32:3 4dBm N  ov 17, 2018 0 2:05:57.819126000  7
           187  37.03142332:32:32:32:32:3 6dBm N  ov 17, 2018 0 2:05:58.028460000  7
           188  37.06726732:32:32:32:32:3 6dBm N  ov 17, 2018 0 2:05:58.064304000  7
           189  37.17339232:32:32:32:32:3 6dBm N  ov 17, 2018 0 2:05:58.170429000  7
           190  37.25661732:32:32:32:32:3 6dBm N  ov 17, 2018 0 2:05:58.253654000  7
           191  37.43823732:32:32:32:32:3 7dBm N  ov 17, 2018 0 2:05:58.435274000  7
           192  37.48907432:32:32:32:32:3 5dBm N  ov 17, 2018 0 2:05:58.486111000  7
           193  37.51137132:32:32:32:32:3 6dBm N  ov 17, 2018 0 2:05:58.508408000  7
           194  37.55566632:32:32:32:32:3 5dBm N  ov 17, 2018 0 2:05:58.552703000  7
           195  37.81167932:32:32:32:32:3 6dBm N  ov 17, 2018 0 2:05:58.808716000  7
           196  3 8.2170532:32:32:32:32:3 5dBm N  ov 17, 2018 0 2:05:59.214087000  7
           197  39.65647332:32:32:32:32:3 6dBm N  ov 17, 2018 0 2:06:00.653510000  7
           198  39.80276332:32:32:32:32:3 5dBm N  ov 17, 2018 0 2:06:00.799800000  7
           199  40.19263232:32:32:32:32:3 5dBm N  ov 17, 2018 0 2:06:01.189669000  7
           200  40.41403632:32:32:32:32:3 5dBm N  ov 17, 2018 0 2:06:01.411073000  7
           201  40.43824632:32:32:32:32:3 4dBm N  ov 17, 2018 0 2:06:01.435283000  7
           202  40.55011332:32:32:32:32:3 6dBm N  ov 17, 2018 0 2:06:01.547150000  7
           203  40.58662532:32:32:32:32:3 6dBm N  ov 17, 2018 0 2:06:01.583662000  7
           204  40.80487232:32:32:32:32:3 5dBm N  ov 17, 2018 0 2:06:01.801909000  7
           205  41.09365532:32:32:32:32:3 6dBm N  ov 17, 2018 0 2:06:02.090692000  7
           206  41.16044632:32:32:32:32:3 6dBm N  ov 17, 2018 0 2:06:02.157483000  7
           207  41.21278832:32:32:32:32:3 6dBm N  ov 17, 2018 0 2:06:02.209825000  7
           208  41.35968532:32:32:32:32:3 6dBm N  ov 17, 2018 0 2:06:02.356722000  7
           209  4  1.386532:32:32:32:32:3 6dBm N  ov 17, 2018 0 2:06:02.383537000  7
           210  41.42260932:32:32:32:32:3 5dBm N  ov 17, 2018 0 2:06:02.419646000  7
           211  4 1.4384232:32:32:32:32:3 6dBm N  ov 17, 2018 0 2:06:02.435457000  7
           212  41.62853632:32:32:32:32:3 5dBm N  ov 17, 2018 0 2:06:02.625573000  7
           213  41.79178932:32:32:32:32:3 4dBm N  ov 17, 2018 0 2:06:02.788826000  7
           214  42.11198732:32:32:32:32:3 7dBm N  ov 17, 2018 0 2:06:03.109024000  7
           215  42.17870832:32:32:32:32:3 7dBm N  ov 17, 2018 0 2:06:03.175745000  7
           216  4 2.2222932:32:32:32:32:3 5dBm N  ov 17, 2018 0 2:06:03.219327000  7
           217  42.25288232:32:32:32:32:3 6dBm N  ov 17, 2018 0 2:06:03.249919000  7
           218  42.28734332:32:32:32:32:3 7dBm N  ov 17, 2018 0 2:06:03.284380000  7
           219  42.54339132:32:32:32:32:3 6dBm N  ov 17, 2018 0 2:06:03.540428000  7
           220  42.94654532:32:32:32:32:3 5dBm N  ov 17, 2018 0 2:06:03.943582000  7
           221  43.00115632:32:32:32:32:3 5dBm N  ov 17, 2018 0 2:06:03.998193000  7
           222  43.10853732:32:32:32:32:3 4dBm N  ov 17, 2018 0 2:06:04.105574000  7
           223  43.23583432:32:32:32:32:3 6dBm N  ov 17, 2018 0 2:06:04.232871000  7
           224  43.28845732:32:32:32:32:3 4dBm N  ov 17, 2018 0 2:06:04.285494000  7
           225  43.39405332:32:32:32:32:3 6dBm N  ov 17, 2018 0 2:06:04.391090000  7
           226  43.46611732:32:32:32:32:3 5dBm N  ov 17, 2018 0 2:06:04.463154000  7
           227  43.48047732:32:32:32:32:3 6dBm N  ov 17, 2018 0 2:06:04.477514000  7
           228  43.74085732:32:32:32:32:3 4dBm N  ov 17, 2018 0 2:06:04.737894000  7
           229  44.03998332:32:32:32:32:3 5dBm N  ov 17, 2018 0 2:06:05.037020000  7
           230  44.18792532:32:32:32:32:3 5dBm N  ov 17, 2018 0 2:06:05.184962000  7
           231  44.43657932:32:32:32:32:3 7dBm N  ov 17, 2018 0 2:06:05.433616000  7
           232  44.84984232:32:32:32:32:3 6dBm N  ov 17, 2018 0 2:06:05.846879000  7
           233  44.88010632:32:32:32:32:3 6dBm N  ov 17, 2018 0 2:06:05.877143000  7
           234  44.89927532:32:32:32:32:3 6dBm N  ov 17, 2018 0 2:06:05.896312000  7
           235  45.18982932:32:32:32:32:3 5dBm N  ov 17, 2018 0 2:06:06.186866000  7
           236  45.21547132:32:32:32:32:3 6dBm N  ov 17, 2018 0 2:06:06.212508000  7
           237  45.46097532:32:32:32:32:3 5dBm N  ov 17, 2018 0 2:06:06.458012000  7
           238  45.82971432:32:32:32:32:3 4dBm N  ov 17, 2018 0 2:06:06.826751000  7
           239  46.33105532:32:32:32:32:3 4dBm N  ov 17, 2018 0 2:06:07.328092000  7
           240  46.41350932:32:32:32:32:3 7dBm N  ov 17, 2018 0 2:06:07.410546000  7
           241  46.56729732:32:32:32:32:3 6dBm N  ov 17, 2018 0 2:06:07.564334000  7
           242  46.59505932:32:32:32:32:3 5dBm N  ov 17, 2018 0 2:06:07.592096000  7
           243  46.83498532:32:32:32:32:3 5dBm N  ov 17, 2018 0 2:06:07.832022000  7
           244  47.05702832:32:32:32:32:3 4dBm N  ov 17, 2018 0 2:06:08.054065000  7
           245  47.53751832:32:32:32:32:3 5dBm N  ov 17, 2018 0 2:06:08.534555000  7
           246  48.63440932:32:32:32:32:3 5dBm N  ov 17, 2018 0 2:06:09.631446000  7
           247  48.72241632:32:32:32:32:3 4dBm N  ov 17, 2018 0 2:06:09.719453000  7
           248  48.92838432:32:32:32:32:3 5dBm N  ov 17, 2018 0 2:06:09.925421000  7
           249  49.09743832:32:32:32:32:3 5dBm N  ov 17, 2018 0 2:06:10.094475000  7
           250  49.33255532:32:32:32:32:3 5dBm N  ov 17, 2018 0 2:06:10.329592000  7
           251  4 9.4604432:32:32:32:32:3 6dBm N  ov 17, 2018 0 2:06:10.457477000  7
           252  49.48958332:32:32:32:32:3 5dBm N  ov 17, 2018 0 2:06:10.486620000  7
           253  49.51540732:32:32:32:32:3 5dBm N  ov 17, 2018 0 2:06:10.512444000  7
           254  4  9.537732:32:32:32:32:3 5dBm N  ov 17, 2018 0 2:06:10.534737000  7
           255  49.68792632:32:32:32:32:3 5dBm N  ov 17, 2018 0 2:06:10.684963000  7
           256  49.72491932:32:32:32:32:3 6dBm N  ov 17, 2018 0 2:06:10.721956000  7
           257  50.00644932:32:32:32:32:3 6dBm N  ov 17, 2018 0 2:06:11.003486000  7
           258  50.02588432:32:32:32:32:3 5dBm N  ov 17, 2018 0 2:06:11.022921000  7
           259  50.16032632:32:32:32:32:3 4dBm N  ov 17, 2018 0 2:06:11.157363000  7
           260  50.63342132:32:32:32:32:3 5dBm N  ov 17, 2018 0 2:06:11.630458000  7
           261  51.19645432:32:32:32:32:3 5dBm N  ov 17, 2018 0 2:06:12.193491000  7
           262  5 1.3217632:32:32:32:32:3 5dBm N  ov 17, 2018 0 2:06:12.318797000  7
           263  5  1.445332:32:32:32:32:3 2dBm N  ov 17, 2018 0 2:06:12.442337000  7
           264  51.98627332:32:32:32:32:3 5dBm N  ov 17, 2018 0 2:06:12.983310000  7
           265  52.01485732:32:32:32:32:3 6dBm N  ov 17, 2018 0 2:06:13.011894000  7
           266  53.32214632:32:32:32:32:3 5dBm N  ov 17, 2018 0 2:06:14.319183000  7
           267  53.44506432:32:32:32:32:3 6dBm N  ov 17, 2018 0 2:06:14.442101000  7
           268  53.74557332:32:32:32:32:3 3dBm N  ov 17, 2018 0 2:06:14.742610000  7
           269  53.76882632:32:32:32:32:3 6dBm N  ov 17, 2018 0 2:06:14.765863000  7
           270  54.16451232:32:32:32:32:3 6dBm N  ov 17, 2018 0 2:06:15.161549000  7
           271  54.44676432:32:32:32:32:3 5dBm N  ov 17, 2018 0 2:06:15.443801000  7
           272  54.46369132:32:32:32:32:3 5dBm N  ov 17, 2018 0 2:06:15.460728000  7
           273  54.53214432:32:32:32:32:3 5dBm N  ov 17, 2018 0 2:06:15.529181000  7
           274  55.00456232:32:32:32:32:3 4dBm N  ov 17, 2018 0 2:06:16.001599000  7
           275  55.88580232:32:32:32:32:3 6dBm N  ov 17, 2018 0 2:06:16.882839000  7
           276  55.89608632:32:32:32:32:3 4dBm N  ov 17, 2018 0 2:06:16.893123000  7
           277  55.91034132:32:32:32:32:3 5dBm N  ov 17, 2018 0 2:06:16.907378000  7
           278  56.02262632:32:32:32:32:3 4dBm N  ov 17, 2018 0 2:06:17.019663000  7
           279  56.16888232:32:32:32:32:3 6dBm N  ov 17, 2018 0 2:06:17.165919000  7
           280  56.79116932:32:32:32:32:3 3dBm N  ov 17, 2018 0 2:06:17.788206000  7
           281  56.84598532:32:32:32:32:3 6dBm N  ov 17, 2018 0 2:06:17.843022000  7
           282  57.03768632:32:32:32:32:3 4dBm N  ov 17, 2018 0 2:06:18.034723000  7
           283  5 7.0739332:32:32:32:32:3 6dBm N  ov 17, 2018 0 2:06:18.070967000  7
           284  57.33001732:32:32:32:32:3 5dBm N  ov 17, 2018 0 2:06:18.327054000  7
           285  57.44815632:32:32:32:32:3 6dBm N  ov 17, 2018 0 2:06:18.445193000  7
           286  57.57327632:32:32:32:32:3 4dBm N  ov 17, 2018 0 2:06:18.570313000  7
           287  57.84416732:32:32:32:32:3 5dBm N  ov 17, 2018 0 2:06:18.841204000  7
           288  58.04394532:32:32:32:32:3 6dBm N  ov 17, 2018 0 2:06:19.040982000  7
           289  58.05245332:32:32:32:32:3 6dBm N  ov 17, 2018 0 2:06:19.049490000  7
           290  58.36252632:32:32:32:32:3 4dBm N  ov 17, 2018 0 2:06:19.359563000  7
           291  58.87487932:32:32:32:32:3 5dBm N  ov 17, 2018 0 2:06:19.871916000  7
           292  59.32994332:32:32:32:32:3 5dBm N  ov 17, 2018 0 2:06:20.326980000  7
           293  5 9.5174432:32:32:32:32:3 3dBm N  ov 17, 2018 0 2:06:20.514477000  7
           294  60.16216432:32:32:32:32:3 5dBm N  ov 17, 2018 0 2:06:21.159201000  7
           295  60.33705932:32:32:32:32:3 5dBm N  ov 17, 2018 0 2:06:21.334096000  7
           296  60.40722832:32:32:32:32:3 5dBm N  ov 17, 2018 0 2:06:21.404265000  7
           297  60.44456232:32:32:32:32:3 6dBm N  ov 17, 2018 0 2:06:21.441599000  7
           298  60.53868232:32:32:32:32:3 5dBm N  ov 17, 2018 0 2:06:21.535719000  7
           299  60.81368732:32:32:32:32:3 4dBm N  ov 17, 2018 0 2:06:21.810724000  7
           300  60.83474332:32:32:32:32:3 6dBm N  ov 17, 2018 0 2:06:21.831780000  7
           301  60.99041732:32:32:32:32:3 6dBm N  ov 17, 2018 0 2:06:21.987454000  7
           302  61.05359632:32:32:32:32:3 3dBm N  ov 17, 2018 0 2:06:22.050633000  7
           303  61.27858132:32:32:32:32:3 3dBm N  ov 17, 2018 0 2:06:22.275618000  7
           304  62.36649232:32:32:32:32:3 5dBm N  ov 17, 2018 0 2:06:23.363529000  7
           305  62.57284232:32:32:32:32:3 5dBm N  ov 17, 2018 0 2:06:23.569879000  7
           306  63.18287332:32:32:32:32:3 6dBm N  ov 17, 2018 0 2:06:24.179910000  7
           307  63.24323632:32:32:32:32:3 4dBm N  ov 17, 2018 0 2:06:24.240273000  7
           308  63.38991732:32:32:32:32:3 4dBm N  ov 17, 2018 0 2:06:24.386954000  7
           309  6  3.748432:32:32:32:32:3 5dBm N  ov 17, 2018 0 2:06:24.745437000  7
           310  63.84047432:32:32:32:32:3 5dBm N  ov 17, 2018 0 2:06:24.837511000  7
           311  64.51203132:32:32:32:32:3 5dBm N  ov 17, 2018 0 2:06:25.509068000  7
           312  64.55819532:32:32:32:32:3 4dBm N  ov 17, 2018 0 2:06:25.555232000  7
           313  64.73108132:32:32:32:32:3 3dBm N  ov 17, 2018 0 2:06:25.728118000  7
           314  65.12559132:32:32:32:32:3 0dBm N  ov 17, 2018 0 2:06:26.122628000  7
           315  65.23544932:32:32:32:32:3 5dBm N  ov 17, 2018 0 2:06:26.232486000  7
           316  65.63056232:32:32:32:32:3 4dBm N  ov 17, 2018 0 2:06:26.627599000  7
           317  65.77069332:32:32:32:32:3 6dBm N  ov 17, 2018 0 2:06:26.767730000  7
           318  65.94058432:32:32:32:32:3 5dBm N  ov 17, 2018 0 2:06:26.937621000  7
           319  65.98929332:32:32:32:32:3 5dBm N  ov 17, 2018 0 2:06:26.986330000  7
           320  66.03655432:32:32:32:32:3 5dBm N  ov 17, 2018 0 2:06:27.033591000  7
           321  66.07800432:32:32:32:32:3 6dBm N  ov 17, 2018 0 2:06:27.075041000  7
           322  66.20238432:32:32:32:32:3 6dBm N  ov 17, 2018 0 2:06:27.199421000  7
           323  66.26682232:32:32:32:32:3 5dBm N  ov 17, 2018 0 2:06:27.263859000  7
           324  66.68858232:32:32:32:32:3 6dBm N  ov 17, 2018 0 2:06:27.685619000  7
           325  67.24426132:32:32:32:32:3 5dBm N  ov 17, 2018 0 2:06:28.241298000  7
           326  67.28807332:32:32:32:32:3 6dBm N  ov 17, 2018 0 2:06:28.285110000  7
           327  68.26091932:32:32:32:32:3 5dBm N  ov 17, 2018 0 2:06:29.257956000  7
           328  68.50823232:32:32:32:32:3 6dBm N  ov 17, 2018 0 2:06:29.505269000  7
           329  68.56561332:32:32:32:32:3 6dBm N  ov 17, 2018 0 2:06:29.562650000  7
           330  69.01872632:32:32:32:32:3 6dBm N  ov 17, 2018 0 2:06:30.015763000  7
           331  69.12011232:32:32:32:32:3 6dBm N  ov 17, 2018 0 2:06:30.117149000  7
           332  69.15806432:32:32:32:32:3 4dBm N  ov 17, 2018 0 2:06:30.155101000  7
           333  69.22502132:32:32:32:32:3 6dBm N  ov 17, 2018 0 2:06:30.222058000  7
           334  69.46947932:32:32:32:32:3 6dBm N  ov 17, 2018 0 2:06:30.466516000  7
           335  69.64448632:32:32:32:32:3 5dBm N  ov 17, 2018 0 2:06:30.641523000  7
           336  69.93218132:32:32:32:32:3 5dBm N  ov 17, 2018 0 2:06:30.929218000  7
           337  69.98554532:32:32:32:32:3 4dBm N  ov 17, 2018 0 2:06:30.982582000  7
           338  70.06845832:32:32:32:32:3 5dBm N  ov 17, 2018 0 2:06:31.065495000  7
           339  70.45019632:32:32:32:32:3 4dBm N  ov 17, 2018 0 2:06:31.447233000  7
           340  70.61742432:32:32:32:32:3 6dBm N  ov 17, 2018 0 2:06:31.614461000  7
           341  70.88924132:32:32:32:32:3 5dBm N  ov 17, 2018 0 2:06:31.886278000  7
           342  71.47142432:32:32:32:32:3 3dBm N  ov 17, 2018 0 2:06:32.468461000  7
           343  7  1.901132:32:32:32:32:3 5dBm N  ov 17, 2018 0 2:06:32.898137000  7
           344  72.17170832:32:32:32:32:3 5dBm N  ov 17, 2018 0 2:06:33.168745000  7
           345  72.31682732:32:32:32:32:3 5dBm N  ov 17, 2018 0 2:06:33.313864000  7
           346  72.40111832:32:32:32:32:3 6dBm N  ov 17, 2018 0 2:06:33.398155000  7
           347  72.43284932:32:32:32:32:3 5dBm N  ov 17, 2018 0 2:06:33.429886000  7
           348  72.52853532:32:32:32:32:3 5dBm N  ov 17, 2018 0 2:06:33.525572000  7
           349  7 2.5843732:32:32:32:32:3 5dBm N  ov 17, 2018 0 2:06:33.581407000  7
           350  72.91786632:32:32:32:32:3 4dBm N  ov 17, 2018 0 2:06:33.914903000  7
           351  73.19989332:32:32:32:32:3 6dBm N  ov 17, 2018 0 2:06:34.196930000  7
           352  73.80615732:32:32:32:32:3 5dBm N  ov 17, 2018 0 2:06:34.803194000  7
           353  7 5.8704332:32:32:32:32:3 5dBm N  ov 17, 2018 0 2:06:36.867467000  7
           354  76.29377632:32:32:32:32:3 8dBm N  ov 17, 2018 0 2:06:37.290813000  7
           355  76.38968432:32:32:32:32:3 6dBm N  ov 17, 2018 0 2:06:37.386721000  7
           356  76.66675232:32:32:32:32:3 6dBm N  ov 17, 2018 0 2:06:37.663789000  7
           357  76.71697232:32:32:32:32:3 5dBm N  ov 17, 2018 0 2:06:37.714009000  7
           358  76.74624532:32:32:32:32:3 5dBm N  ov 17, 2018 0 2:06:37.743282000  7
           359  76.78326532:32:32:32:32:3 5dBm N  ov 17, 2018 0 2:06:37.780302000  7
           360  77.02063232:32:32:32:32:3 7dBm N  ov 17, 2018 0 2:06:38.017669000  7
           361  77.17671432:32:32:32:32:3 6dBm N  ov 17, 2018 0 2:06:38.173751000  7
           362  77.50310232:32:32:32:32:3 5dBm N  ov 17, 2018 0 2:06:38.500139000  7
           363  77.68572632:32:32:32:32:3 4dBm N  ov 17, 2018 0 2:06:38.682763000  7
           364  78.38032332:32:32:32:32:3 5dBm N  ov 17, 2018 0 2:06:39.377360000  7
           365  7 8.6123232:32:32:32:32:3 5dBm N  ov 17, 2018 0 2:06:39.609357000  7
           366  79.15866232:32:32:32:32:3 5dBm N  ov 17, 2018 0 2:06:40.155699000  7
           367  79.50222132:32:32:32:32:3 6dBm N  ov 17, 2018 0 2:06:40.499258000  7
           368  79.60835532:32:32:32:32:3 7dBm N  ov 17, 2018 0 2:06:40.605392000  7
           369  7 9.6440632:32:32:32:32:3 8dBm N  ov 17, 2018 0 2:06:40.641097000  7
           370  7 9.7126232:32:32:32:32:3 7dBm N  ov 17, 2018 0 2:06:40.709657000  7
           371  7 9.9517932:32:32:32:32:3 8dBm N  ov 17, 2018 0 2:06:40.948827000  7
           372  79.97738932:32:32:32:32:3 7dBm N  ov 17, 2018 0 2:06:40.974426000  7
           373  80.53817432:32:32:32:32:3 7dBm N  ov 17, 2018 0 2:06:41.535211000  7
           374  80.55236232:32:32:32:32:3 7dBm N  ov 17, 2018 0 2:06:41.549399000  7
           375  80.60285332:32:32:32:32:3 7dBm N  ov 17, 2018 0 2:06:41.599890000  7
           376  80.63948332:32:32:32:32:3 5dBm N  ov 17, 2018 0 2:06:41.636520000  7
           377  80.64442832:32:32:32:32:3 8dBm N  ov 17, 2018 0 2:06:41.641465000  7
           378  80.67867832:32:32:32:32:3 6dBm N  ov 17, 2018 0 2:06:41.675715000  7
           379  80.78052232:32:32:32:32:3 6dBm N  ov 17, 2018 0 2:06:41.777559000  7
           380  8 0.8376732:32:32:32:32:3 8dBm N  ov 17, 2018 0 2:06:41.834707000  7
           381  80.85491332:32:32:32:32:3 7dBm N  ov 17, 2018 0 2:06:41.851950000  7
           382  80.91553832:32:32:32:32:3 6dBm N  ov 17, 2018 0 2:06:41.912575000  7
           383  8 0.9664832:32:32:32:32:3 6dBm N  ov 17, 2018 0 2:06:41.963517000  7
           384  81.18018132:32:32:32:32:3 6dBm N  ov 17, 2018 0 2:06:42.177218000  7
           385  81.24243132:32:32:32:32:3 6dBm N  ov 17, 2018 0 2:06:42.239468000  7
           386  81.26333932:32:32:32:32:3 6dBm N  ov 17, 2018 0 2:06:42.260376000  7
           387  81.37456732:32:32:32:32:3 8dBm N  ov 17, 2018 0 2:06:42.371604000  7
           388  81.48002532:32:32:32:32:3 7dBm N  ov 17, 2018 0 2:06:42.477062000  7
           389  81.62588332:32:32:32:32:3 5dBm N  ov 17, 2018 0 2:06:42.622920000  7
           390  81.65289232:32:32:32:32:3 6dBm N  ov 17, 2018 0 2:06:42.649929000  7
           391  81.73146732:32:32:32:32:3 6dBm N  ov 17, 2018 0 2:06:42.728504000  7
           392  81.76626832:32:32:32:32:3 7dBm N  ov 17, 2018 0 2:06:42.763305000  7
           393  81.90843232:32:32:32:32:3 7dBm N  ov 17, 2018 0 2:06:42.905469000  7
           394  81.93631832:32:32:32:32:3 8dBm N  ov 17, 2018 0 2:06:42.933355000  7
           395  82.10239232:32:32:32:32:3 6dBm N  ov 17, 2018 0 2:06:43.099429000  7
           396  82.22480832:32:32:32:32:3 8dBm N  ov 17, 2018 0 2:06:43.221845000  7
           397  82.46448132:32:32:32:32:3 7dBm N  ov 17, 2018 0 2:06:43.461518000  7
           398  82.57593532:32:32:32:32:3 9dBm N  ov 17, 2018 0 2:06:43.572972000  7
           399  82.59461932:32:32:32:32:3 5dBm N  ov 17, 2018 0 2:06:43.591656000  7
           400  82.61397932:32:32:32:32:3 6dBm N  ov 17, 2018 0 2:06:43.611016000  7
           401  82.67020832:32:32:32:32:3 5dBm N  ov 17, 2018 0 2:06:43.667245000  7
           402  82.72739932:32:32:32:32:3 5dBm N  ov 17, 2018 0 2:06:43.724436000  7
           403  82.75009732:32:32:32:32:3 7dBm N  ov 17, 2018 0 2:06:43.747134000  7
           404  82.89269932:32:32:32:32:3 7dBm N  ov 17, 2018 0 2:06:43.889736000  7
           405  83.02579332:32:32:32:32:3 8dBm N  ov 17, 2018 0 2:06:44.022830000  7
           406  83.06124232:32:32:32:32:3 5dBm N  ov 17, 2018 0 2:06:44.058279000  7
           407  83.07338932:32:32:32:32:3 8dBm N  ov 17, 2018 0 2:06:44.070426000  7
           408  83.10512432:32:32:32:32:3 2dBm N  ov 17, 2018 0 2:06:44.102161000  7
           409  83.18065132:32:32:32:32:3 5dBm N  ov 17, 2018 0 2:06:44.177688000  7
           410  83.83002332:32:32:32:32:3 7dBm N  ov 17, 2018 0 2:06:44.827060000  7
           411  83.85190532:32:32:32:32:3 7dBm N  ov 17, 2018 0 2:06:44.848942000  7
           412  83.94398232:32:32:32:32:3 6dBm N  ov 17, 2018 0 2:06:44.941019000  7
           413  83.98020132:32:32:32:32:3 6dBm N  ov 17, 2018 0 2:06:44.977238000  7
           414  84.00905632:32:32:32:32:3 7dBm N  ov 17, 2018 0 2:06:45.006093000  7
           415  8 4.0393432:32:32:32:32:3 6dBm N  ov 17, 2018 0 2:06:45.036377000  7
           416  84.05527832:32:32:32:32:3 8dBm N  ov 17, 2018 0 2:06:45.052315000  7
           417  84.07377132:32:32:32:32:3 6dBm N  ov 17, 2018 0 2:06:45.070808000  7
           418  8 4.0956832:32:32:32:32:3 7dBm N  ov 17, 2018 0 2:06:45.092717000  7
           419  84.12397132:32:32:32:32:3 6dBm N  ov 17, 2018 0 2:06:45.121008000  7
           420  84.20655732:32:32:32:32:3 6dBm N  ov 17, 2018 0 2:06:45.203594000  7
           421  84.24012432:32:32:32:32:3 6dBm N  ov 17, 2018 0 2:06:45.237161000  7
           422  8 4.2841332:32:32:32:32:3 7dBm N  ov 17, 2018 0 2:06:45.281167000  7
           423  84.41091432:32:32:32:32:3 7dBm N  ov 17, 2018 0 2:06:45.407951000  7
           424  84.64417332:32:32:32:32:3 4dBm N  ov 17, 2018 0 2:06:45.641210000  7
           425  84.67967132:32:32:32:32:3 6dBm N  ov 17, 2018 0 2:06:45.676708000  7
           426  84.78769832:32:32:32:32:3 8dBm N  ov 17, 2018 0 2:06:45.784735000  7
           427  84.88493532:32:32:32:32:3 6dBm N  ov 17, 2018 0 2:06:45.881972000  7
           428  84.90058732:32:32:32:32:3 8dBm N  ov 17, 2018 0 2:06:45.897624000  7
           429  84.98880732:32:32:32:32:3 8dBm N  ov 17, 2018 0 2:06:45.985844000  7
           430  85.16593132:32:32:32:32:3 7dBm N  ov 17, 2018 0 2:06:46.162968000  7
           431  85.23943532:32:32:32:32:3 6dBm N  ov 17, 2018 0 2:06:46.236472000  7
           432  85.48943632:32:32:32:32:3 7dBm N  ov 17, 2018 0 2:06:46.486473000  7
           433  85.53367432:32:32:32:32:3 6dBm N  ov 17, 2018 0 2:06:46.530711000  7
           434  85.56059932:32:32:32:32:3 6dBm N  ov 17, 2018 0 2:06:46.557636000  7
           435  85.58518532:32:32:32:32:3 6dBm N  ov 17, 2018 0 2:06:46.582222000  7
           436  85.67576732:32:32:32:32:3 7dBm N  ov 17, 2018 0 2:06:46.672804000  7
           437  85.87777532:32:32:32:32:3 7dBm N  ov 17, 2018 0 2:06:46.874812000  7
           438  85.92732132:32:32:32:32:3 7dBm N  ov 17, 2018 0 2:06:46.924358000  7
           439  86.14388232:32:32:32:32:3 5dBm N  ov 17, 2018 0 2:06:47.140919000  7
           440  86.23284332:32:32:32:32:3 5dBm N  ov 17, 2018 0 2:06:47.229880000  7
           441 1170452195          265109    Dec   19, 2055 23: 41:56.262146000 +0  
