    1   0.000000 32:32:32:32:32:32 25dBm Nov 17, 2018 00:57:34.065741000 +07
    2   0.380190 32:32:32:32:32:32 25dBm Nov 17, 2018 00:57:34.445931000 +07
    3   1.202936 32:32:32:32:32:32 25dBm Nov 17, 2018 00:57:35.268677000 +07
    4   1.279425 32:32:32:32:32:32 23dBm Nov 17, 2018 00:57:35.345166000 +07
    5   1.762882 32:32:32:32:32:32 24dBm Nov 17, 2018 00:57:35.828623000 +07
    6   2.082444 32:32:32:32:32:32 23dBm Nov 17, 2018 00:57:36.148185000 +07
    7   2.252014 32:32:32:32:32:32 24dBm Nov 17, 2018 00:57:36.317755000 +07
    8   4.116280 32:32:32:32:32:32 26dBm Nov 17, 2018 00:57:38.182021000 +07
    9   4.532536 32:32:32:32:32:32 25dBm Nov 17, 2018 00:57:38.598277000 +07
   10   5.152018 32:32:32:32:32:32 23dBm Nov 17, 2018 00:57:39.217759000 +07
   11   5.299693 32:32:32:32:32:32 24dBm Nov 17, 2018 00:57:39.365434000 +07
   12   5.333420 32:32:32:32:32:32 25dBm Nov 17, 2018 00:57:39.399161000 +07
   13   5.833181 32:32:32:32:32:32 23dBm Nov 17, 2018 00:57:39.898922000 +07
   14   6.350065 32:32:32:32:32:32 24dBm Nov 17, 2018 00:57:40.415806000 +07
   15   6.618409 32:32:32:32:32:32 26dBm Nov 17, 2018 00:57:40.684150000 +07
   16   7.096139 32:32:32:32:32:32 25dBm Nov 17, 2018 00:57:41.161880000 +07
   17   7.149623 32:32:32:32:32:32 25dBm Nov 17, 2018 00:57:41.215364000 +07
   18   7.548532 32:32:32:32:32:32 25dBm Nov 17, 2018 00:57:41.614273000 +07
   19   7.848265 32:32:32:32:32:32 25dBm Nov 17, 2018 00:57:41.914006000 +07
   20   7.961984 32:32:32:32:32:32 25dBm Nov 17, 2018 00:57:42.027725000 +07
   21   8.376742 32:32:32:32:32:32 25dBm Nov 17, 2018 00:57:42.442483000 +07
   22   8.612835 32:32:32:32:32:32 25dBm Nov 17, 2018 00:57:42.678576000 +07
   23   8.652667 32:32:32:32:32:32 25dBm Nov 17, 2018 00:57:42.718408000 +07
   24   9.421812 32:32:32:32:32:32 24dBm Nov 17, 2018 00:57:43.487553000 +07
   25   9.498277 32:32:32:32:32:32 24dBm Nov 17, 2018 00:57:43.564018000 +07
   26  10.017696 32:32:32:32:32:32 25dBm Nov 17, 2018 00:57:44.083437000 +07
   27  10.102614 32:32:32:32:32:32 25dBm Nov 17, 2018 00:57:44.168355000 +07
   28  10.318054 32:32:32:32:32:32 24dBm Nov 17, 2018 00:57:44.383795000 +07
   29  10.820607 32:32:32:32:32:32 23dBm Nov 17, 2018 00:57:44.886348000 +07
   30  11.123200 32:32:32:32:32:32 25dBm Nov 17, 2018 00:57:45.188941000 +07
   31  11.215371 32:32:32:32:32:32 26dBm Nov 17, 2018 00:57:45.281112000 +07
   32  11.700819 32:32:32:32:32:32 23dBm Nov 17, 2018 00:57:45.766560000 +07
   33  11.944991 32:32:32:32:32:32 25dBm Nov 17, 2018 00:57:46.010732000 +07
   34  12.204991 32:32:32:32:32:32 26dBm Nov 17, 2018 00:57:46.270732000 +07
   35  12.340006 32:32:32:32:32:32 24dBm Nov 17, 2018 00:57:46.405747000 +07
   36  12.634208 32:32:32:32:32:32 24dBm Nov 17, 2018 00:57:46.699949000 +07
   37  12.688565 32:32:32:32:32:32 25dBm Nov 17, 2018 00:57:46.754306000 +07
   38  13.844524 32:32:32:32:32:32 25dBm Nov 17, 2018 00:57:47.910265000 +07
   39  14.343858 32:32:32:32:32:32 24dBm Nov 17, 2018 00:57:48.409599000 +07
   40  14.703230 32:32:32:32:32:32 25dBm Nov 17, 2018 00:57:48.768971000 +07
   41  14.806841 32:32:32:32:32:32 25dBm Nov 17, 2018 00:57:48.872582000 +07
   42  15.736598 32:32:32:32:32:32 22dBm Nov 17, 2018 00:57:49.802339000 +07
   43  15.773178 32:32:32:32:32:32 24dBm Nov 17, 2018 00:57:49.838919000 +07
   44  16.569782 32:32:32:32:32:32 26dBm Nov 17, 2018 00:57:50.635523000 +07
   45  16.820356 32:32:32:32:32:32 24dBm Nov 17, 2018 00:57:50.886097000 +07
   46  16.893598 32:32:32:32:32:32 25dBm Nov 17, 2018 00:57:50.959339000 +07
   47  16.930084 32:32:32:32:32:32 25dBm Nov 17, 2018 00:57:50.995825000 +07
   48  16.991043 32:32:32:32:32:32 24dBm Nov 17, 2018 00:57:51.056784000 +07
   49  17.324067 32:32:32:32:32:32 24dBm Nov 17, 2018 00:57:51.389808000 +07
   50  17.409152 32:32:32:32:32:32 24dBm Nov 17, 2018 00:57:51.474893000 +07
   51  17.560535 32:32:32:32:32:32 25dBm Nov 17, 2018 00:57:51.626276000 +07
   52  17.747574 32:32:32:32:32:32 26dBm Nov 17, 2018 00:57:51.813315000 +07
   53  17.925420 32:32:32:32:32:32 25dBm Nov 17, 2018 00:57:51.991161000 +07
   54  18.810198 32:32:32:32:32:32 23dBm Nov 17, 2018 00:57:52.875939000 +07
   55  18.862338 32:32:32:32:32:32 24dBm Nov 17, 2018 00:57:52.928079000 +07
   56  19.758227 32:32:32:32:32:32 24dBm Nov 17, 2018 00:57:53.823968000 +07
   57  20.075380 32:32:32:32:32:32 24dBm Nov 17, 2018 00:57:54.141121000 +07
   58  20.569408 32:32:32:32:32:32 24dBm Nov 17, 2018 00:57:54.635149000 +07
   59  20.953701 32:32:32:32:32:32 24dBm Nov 17, 2018 00:57:55.019442000 +07
   60  21.062509 32:32:32:32:32:32 25dBm Nov 17, 2018 00:57:55.128250000 +07
   61  21.347796 32:32:32:32:32:32 25dBm Nov 17, 2018 00:57:55.413537000 +07
   62  21.684466 32:32:32:32:32:32 25dBm Nov 17, 2018 00:57:55.750207000 +07
   63  21.902831 32:32:32:32:32:32 25dBm Nov 17, 2018 00:57:55.968572000 +07
   64  22.596767 32:32:32:32:32:32 25dBm Nov 17, 2018 00:57:56.662508000 +07
   65  22.630945 32:32:32:32:32:32 25dBm Nov 17, 2018 00:57:56.696686000 +07
   66  22.822591 32:32:32:32:32:32 24dBm Nov 17, 2018 00:57:56.888332000 +07
   67  23.350482 32:32:32:32:32:32 23dBm Nov 17, 2018 00:57:57.416223000 +07
   68  23.726218 32:32:32:32:32:32 25dBm Nov 17, 2018 00:57:57.791959000 +07
   69  23.803149 32:32:32:32:32:32 25dBm Nov 17, 2018 00:57:57.868890000 +07
   70  23.827709 32:32:32:32:32:32 24dBm Nov 17, 2018 00:57:57.893450000 +07
   71  23.964448 32:32:32:32:32:32 25dBm Nov 17, 2018 00:57:58.030189000 +07
   72  24.354792 32:32:32:32:32:32 24dBm Nov 17, 2018 00:57:58.420533000 +07
   73  24.665693 32:32:32:32:32:32 25dBm Nov 17, 2018 00:57:58.731434000 +07
   74  24.708702 32:32:32:32:32:32 26dBm Nov 17, 2018 00:57:58.774443000 +07
   75  26.761067 32:32:32:32:32:32 21dBm Nov 17, 2018 00:58:00.826808000 +07
   76  27.612846 32:32:32:32:32:32 23dBm Nov 17, 2018 00:58:01.678587000 +07
   77  28.389615 32:32:32:32:32:32 25dBm Nov 17, 2018 00:58:02.455356000 +07
   78  28.701605 32:32:32:32:32:32 25dBm Nov 17, 2018 00:58:02.767346000 +07
   79  28.927327 32:32:32:32:32:32 25dBm Nov 17, 2018 00:58:02.993068000 +07
   80  29.013224 32:32:32:32:32:32 24dBm Nov 17, 2018 00:58:03.078965000 +07
   81  29.045762 32:32:32:32:32:32 25dBm Nov 17, 2018 00:58:03.111503000 +07
   82  29.483247 32:32:32:32:32:32 24dBm Nov 17, 2018 00:58:03.548988000 +07
   83  29.793402 32:32:32:32:32:32 25dBm Nov 17, 2018 00:58:03.859143000 +07
   84  30.035889 32:32:32:32:32:32 24dBm Nov 17, 2018 00:58:04.101630000 +07
   85  30.119924 32:32:32:32:32:32 25dBm Nov 17, 2018 00:58:04.185665000 +07
   86  30.216782 32:32:32:32:32:32 23dBm Nov 17, 2018 00:58:04.282523000 +07
   87  31.132515 32:32:32:32:32:32 25dBm Nov 17, 2018 00:58:05.198256000 +07
   88  31.282769 32:32:32:32:32:32 24dBm Nov 17, 2018 00:58:05.348510000 +07
   89  31.363830 32:32:32:32:32:32 24dBm Nov 17, 2018 00:58:05.429571000 +07
   90  31.444441 32:32:32:32:32:32 25dBm Nov 17, 2018 00:58:05.510182000 +07
   91  31.538945 32:32:32:32:32:32 22dBm Nov 17, 2018 00:58:05.604686000 +07
   92  31.847002 32:32:32:32:32:32 25dBm Nov 17, 2018 00:58:05.912743000 +07
   93  32.089319 32:32:32:32:32:32 25dBm Nov 17, 2018 00:58:06.155060000 +07
   94  32.470261 32:32:32:32:32:32 23dBm Nov 17, 2018 00:58:06.536002000 +07
   95  32.608048 32:32:32:32:32:32 23dBm Nov 17, 2018 00:58:06.673789000 +07
   96  33.529212 32:32:32:32:32:32 25dBm Nov 17, 2018 00:58:07.594953000 +07
   97  34.567371 32:32:32:32:32:32 24dBm Nov 17, 2018 00:58:08.633112000 +07
   98  34.665010 32:32:32:32:32:32 25dBm Nov 17, 2018 00:58:08.730751000 +07
   99  34.755794 32:32:32:32:32:32 26dBm Nov 17, 2018 00:58:08.821535000 +07
  100  34.992988 32:32:32:32:32:32 24dBm Nov 17, 2018 00:58:09.058729000 +07
  101  35.301218 32:32:32:32:32:32 24dBm Nov 17, 2018 00:58:09.366959000 +07
  102  35.539229 32:32:32:32:32:32 23dBm Nov 17, 2018 00:58:09.604970000 +07
  103  35.790946 32:32:32:32:32:32 25dBm Nov 17, 2018 00:58:09.856687000 +07
  104  36.129022 32:32:32:32:32:32 25dBm Nov 17, 2018 00:58:10.194763000 +07
  105  36.237458 32:32:32:32:32:32 22dBm Nov 17, 2018 00:58:10.303199000 +07
  106  36.474483 32:32:32:32:32:32 26dBm Nov 17, 2018 00:58:10.540224000 +07
  107  36.532656 32:32:32:32:32:32 25dBm Nov 17, 2018 00:58:10.598397000 +07
  108  36.637187 32:32:32:32:32:32 23dBm Nov 17, 2018 00:58:10.702928000 +07
  109  36.974779 32:32:32:32:32:32 24dBm Nov 17, 2018 00:58:11.040520000 +07
  110  37.383752 32:32:32:32:32:32 25dBm Nov 17, 2018 00:58:11.449493000 +07
  111  37.525515 32:32:32:32:32:32 24dBm Nov 17, 2018 00:58:11.591256000 +07
  112  37.833081 32:32:32:32:32:32 24dBm Nov 17, 2018 00:58:11.898822000 +07
  113  37.951663 32:32:32:32:32:32 21dBm Nov 17, 2018 00:58:12.017404000 +07
  114  38.020592 32:32:32:32:32:32 26dBm Nov 17, 2018 00:58:12.086333000 +07
  115  38.255533 32:32:32:32:32:32 25dBm Nov 17, 2018 00:58:12.321274000 +07
  116  38.453786 32:32:32:32:32:32 25dBm Nov 17, 2018 00:58:12.519527000 +07
  117  38.514577 32:32:32:32:32:32 26dBm Nov 17, 2018 00:58:12.580318000 +07
  118  38.525042 32:32:32:32:32:32 23dBm Nov 17, 2018 00:58:12.590783000 +07
  119  39.119834 32:32:32:32:32:32 24dBm Nov 17, 2018 00:58:13.185575000 +07
  120  39.337903 32:32:32:32:32:32 23dBm Nov 17, 2018 00:58:13.403644000 +07
  121  39.574642 32:32:32:32:32:32 23dBm Nov 17, 2018 00:58:13.640383000 +07
  122  39.622867 32:32:32:32:32:32 23dBm Nov 17, 2018 00:58:13.688608000 +07
  123  39.968974 32:32:32:32:32:32 24dBm Nov 17, 2018 00:58:14.034715000 +07
  124  40.091774 32:32:32:32:32:32 22dBm Nov 17, 2018 00:58:14.157515000 +07
  125  40.141333 32:32:32:32:32:32 25dBm Nov 17, 2018 00:58:14.207074000 +07
  126  40.205206 32:32:32:32:32:32 25dBm Nov 17, 2018 00:58:14.270947000 +07
  127  40.441777 32:32:32:32:32:32 26dBm Nov 17, 2018 00:58:14.507518000 +07
  128  40.569540 32:32:32:32:32:32 25dBm Nov 17, 2018 00:58:14.635281000 +07
  129  40.636963 32:32:32:32:32:32 23dBm Nov 17, 2018 00:58:14.702704000 +07
  130  40.866019 32:32:32:32:32:32 24dBm Nov 17, 2018 00:58:14.931760000 +07
  131  40.919332 32:32:32:32:32:32 25dBm Nov 17, 2018 00:58:14.985073000 +07
  132  41.202696 32:32:32:32:32:32 23dBm Nov 17, 2018 00:58:15.268437000 +07
  133  42.272074 32:32:32:32:32:32 26dBm Nov 17, 2018 00:58:16.337815000 +07
  134  42.645866 32:32:32:32:32:32 24dBm Nov 17, 2018 00:58:16.711607000 +07
  135  43.840615 32:32:32:32:32:32 20dBm Nov 17, 2018 00:58:17.906356000 +07
  136  43.947737 32:32:32:32:32:32 25dBm Nov 17, 2018 00:58:18.013478000 +07
  137  44.119993 32:32:32:32:32:32 24dBm Nov 17, 2018 00:58:18.185734000 +07
  138  45.349525 32:32:32:32:32:32 25dBm Nov 17, 2018 00:58:19.415266000 +07
  139  45.931392 32:32:32:32:32:32 24dBm Nov 17, 2018 00:58:19.997133000 +07
  140  46.238159 32:32:32:32:32:32 24dBm Nov 17, 2018 00:58:20.303900000 +07
  141  46.333794 32:32:32:32:32:32 25dBm Nov 17, 2018 00:58:20.399535000 +07
  142  46.445559 32:32:32:32:32:32 25dBm Nov 17, 2018 00:58:20.511300000 +07
  143  46.512326 32:32:32:32:32:32 25dBm Nov 17, 2018 00:58:20.578067000 +07
  144  46.611624 32:32:32:32:32:32 25dBm Nov 17, 2018 00:58:20.677365000 +07
  145  47.036046 32:32:32:32:32:32 25dBm Nov 17, 2018 00:58:21.101787000 +07
  146  47.357548 32:32:32:32:32:32 25dBm Nov 17, 2018 00:58:21.423289000 +07
  147  47.836126 32:32:32:32:32:32 24dBm Nov 17, 2018 00:58:21.901867000 +07
  148  48.387006 32:32:32:32:32:32 24dBm Nov 17, 2018 00:58:22.452747000 +07
  149  48.712441 32:32:32:32:32:32 26dBm Nov 17, 2018 00:58:22.778182000 +07
  150  49.268263 32:32:32:32:32:32 24dBm Nov 17, 2018 00:58:23.334004000 +07
  151  49.647531 32:32:32:32:32:32 24dBm Nov 17, 2018 00:58:23.713272000 +07
  152  49.761071 32:32:32:32:32:32 24dBm Nov 17, 2018 00:58:23.826812000 +07
  153  49.937011 32:32:32:32:32:32 22dBm Nov 17, 2018 00:58:24.002752000 +07
  154  50.125057 32:32:32:32:32:32 24dBm Nov 17, 2018 00:58:24.190798000 +07
  155  50.132187 32:32:32:32:32:32 27dBm Nov 17, 2018 00:58:24.197928000 +07
  156  50.645573 32:32:32:32:32:32 26dBm Nov 17, 2018 00:58:24.711314000 +07
  157  50.951568 32:32:32:32:32:32 24dBm Nov 17, 2018 00:58:25.017309000 +07
  158  51.296700 32:32:32:32:32:32 25dBm Nov 17, 2018 00:58:25.362441000 +07
  159  51.389766 32:32:32:32:32:32 25dBm Nov 17, 2018 00:58:25.455507000 +07
  160  51.816782 32:32:32:32:32:32 25dBm Nov 17, 2018 00:58:25.882523000 +07
  161  52.532256 32:32:32:32:32:32 25dBm Nov 17, 2018 00:58:26.597997000 +07
  162  52.667707 32:32:32:32:32:32 25dBm Nov 17, 2018 00:58:26.733448000 +07
  163  53.170241 32:32:32:32:32:32 24dBm Nov 17, 2018 00:58:27.235982000 +07
  164  53.217363 32:32:32:32:32:32 23dBm Nov 17, 2018 00:58:27.283104000 +07
  165  53.624730 32:32:32:32:32:32 25dBm Nov 17, 2018 00:58:27.690471000 +07
  166  53.968753 32:32:32:32:32:32 25dBm Nov 17, 2018 00:58:28.034494000 +07
  167  54.028709 32:32:32:32:32:32 24dBm Nov 17, 2018 00:58:28.094450000 +07
  168  55.026618 32:32:32:32:32:32 26dBm Nov 17, 2018 00:58:29.092359000 +07
  169  55.045144 32:32:32:32:32:32 24dBm Nov 17, 2018 00:58:29.110885000 +07
  170  55.103609 32:32:32:32:32:32 24dBm Nov 17, 2018 00:58:29.169350000 +07
  171  55.207010 32:32:32:32:32:32 26dBm Nov 17, 2018 00:58:29.272751000 +07
  172  55.265742 32:32:32:32:32:32 25dBm Nov 17, 2018 00:58:29.331483000 +07
  173  55.367854 32:32:32:32:32:32 25dBm Nov 17, 2018 00:58:29.433595000 +07
  174  55.617538 32:32:32:32:32:32 24dBm Nov 17, 2018 00:58:29.683279000 +07
  175  55.686897 32:32:32:32:32:32 24dBm Nov 17, 2018 00:58:29.752638000 +07
  176  55.716533 32:32:32:32:32:32 24dBm Nov 17, 2018 00:58:29.782274000 +07
  177  56.323612 32:32:32:32:32:32 25dBm Nov 17, 2018 00:58:30.389353000 +07
  178  57.315650 32:32:32:32:32:32 24dBm Nov 17, 2018 00:58:31.381391000 +07
  179  57.713305 32:32:32:32:32:32 25dBm Nov 17, 2018 00:58:31.779046000 +07
  180  57.831061 32:32:32:32:32:32 24dBm Nov 17, 2018 00:58:31.896802000 +07
  181  58.064780 32:32:32:32:32:32 23dBm Nov 17, 2018 00:58:32.130521000 +07
  182  58.371514 32:32:32:32:32:32 23dBm Nov 17, 2018 00:58:32.437255000 +07
  183  58.526922 32:32:32:32:32:32 26dBm Nov 17, 2018 00:58:32.592663000 +07
  184  58.944210 32:32:32:32:32:32 25dBm Nov 17, 2018 00:58:33.009951000 +07
  185  59.164228 32:32:32:32:32:32 25dBm Nov 17, 2018 00:58:33.229969000 +07
  186  59.534237 32:32:32:32:32:32 24dBm Nov 17, 2018 00:58:33.599978000 +07
  187  59.878289 32:32:32:32:32:32 25dBm Nov 17, 2018 00:58:33.944030000 +07
  188  60.077532 32:32:32:32:32:32 25dBm Nov 17, 2018 00:58:34.143273000 +07
  189  60.112826 32:32:32:32:32:32 26dBm Nov 17, 2018 00:58:34.178567000 +07
  190  60.209862 32:32:32:32:32:32 25dBm Nov 17, 2018 00:58:34.275603000 +07
  191  60.396224 32:32:32:32:32:32 25dBm Nov 17, 2018 00:58:34.461965000 +07
  192  60.606815 32:32:32:32:32:32 23dBm Nov 17, 2018 00:58:34.672556000 +07
  193  61.022699 32:32:32:32:32:32 23dBm Nov 17, 2018 00:58:35.088440000 +07
  194  61.807032 32:32:32:32:32:32 26dBm Nov 17, 2018 00:58:35.872773000 +07
  195  62.463035 32:32:32:32:32:32 22dBm Nov 17, 2018 00:58:36.528776000 +07
  196  62.570342 32:32:32:32:32:32 23dBm Nov 17, 2018 00:58:36.636083000 +07
  197  62.794344 32:32:32:32:32:32 25dBm Nov 17, 2018 00:58:36.860085000 +07
  198  62.843491 32:32:32:32:32:32 24dBm Nov 17, 2018 00:58:36.909232000 +07
  199  63.211228 32:32:32:32:32:32 25dBm Nov 17, 2018 00:58:37.276969000 +07
  200  63.275305 32:32:32:32:32:32 26dBm Nov 17, 2018 00:58:37.341046000 +07
  201  63.327932 32:32:32:32:32:32 23dBm Nov 17, 2018 00:58:37.393673000 +07
  202  63.868860 32:32:32:32:32:32 23dBm Nov 17, 2018 00:58:37.934601000 +07
  203  64.167466 32:32:32:32:32:32 25dBm Nov 17, 2018 00:58:38.233207000 +07
  204  64.555695 32:32:32:32:32:32 25dBm Nov 17, 2018 00:58:38.621436000 +07
  205  64.621177 32:32:32:32:32:32 23dBm Nov 17, 2018 00:58:38.686918000 +07
  206  65.202035 32:32:32:32:32:32 25dBm Nov 17, 2018 00:58:39.267776000 +07
  207  65.622213 32:32:32:32:32:32 24dBm Nov 17, 2018 00:58:39.687954000 +07
  208  65.752019 32:32:32:32:32:32 24dBm Nov 17, 2018 00:58:39.817760000 +07
  209  65.852728 32:32:32:32:32:32 25dBm Nov 17, 2018 00:58:39.918469000 +07
  210  66.241196 32:32:32:32:32:32 25dBm Nov 17, 2018 00:58:40.306937000 +07
  211  66.485337 32:32:32:32:32:32 24dBm Nov 17, 2018 00:58:40.551078000 +07
  212  67.274969 32:32:32:32:32:32 25dBm Nov 17, 2018 00:58:41.340710000 +07
  213  67.438474 32:32:32:32:32:32 23dBm Nov 17, 2018 00:58:41.504215000 +07
  214  67.683931 32:32:32:32:32:32 24dBm Nov 17, 2018 00:58:41.749672000 +07
  215  67.866603 32:32:32:32:32:32 25dBm Nov 17, 2018 00:58:41.932344000 +07
  216  67.931147 32:32:32:32:32:32 25dBm Nov 17, 2018 00:58:41.996888000 +07
  217  67.942721 32:32:32:32:32:32 24dBm Nov 17, 2018 00:58:42.008462000 +07
  218  67.982904 32:32:32:32:32:32 25dBm Nov 17, 2018 00:58:42.048645000 +07
  219  68.589330 32:32:32:32:32:32 26dBm Nov 17, 2018 00:58:42.655071000 +07
  220  68.768394 32:32:32:32:32:32 25dBm Nov 17, 2018 00:58:42.834135000 +07
  221  68.887778 32:32:32:32:32:32 23dBm Nov 17, 2018 00:58:42.953519000 +07
  222  69.464169 32:32:32:32:32:32 23dBm Nov 17, 2018 00:58:43.529910000 +07
  223  69.639037 32:32:32:32:32:32 25dBm Nov 17, 2018 00:58:43.704778000 +07
  224  69.889378 32:32:32:32:32:32 25dBm Nov 17, 2018 00:58:43.955119000 +07
  225  70.145549 32:32:32:32:32:32 24dBm Nov 17, 2018 00:58:44.211290000 +07
  226  70.186449 32:32:32:32:32:32 25dBm Nov 17, 2018 00:58:44.252190000 +07
  227  70.284092 32:32:32:32:32:32 25dBm Nov 17, 2018 00:58:44.349833000 +07
  228  70.356252 32:32:32:32:32:32 24dBm Nov 17, 2018 00:58:44.421993000 +07
  229  70.852059 32:32:32:32:32:32 25dBm Nov 17, 2018 00:58:44.917800000 +07
  230  71.086384 32:32:32:32:32:32 25dBm Nov 17, 2018 00:58:45.152125000 +07
  231  71.410271 32:32:32:32:32:32 26dBm Nov 17, 2018 00:58:45.476012000 +07
  232  71.540898 32:32:32:32:32:32 26dBm Nov 17, 2018 00:58:45.606639000 +07
  233  71.992188 32:32:32:32:32:32 25dBm Nov 17, 2018 00:58:46.057929000 +07
  234  72.038675 32:32:32:32:32:32 26dBm Nov 17, 2018 00:58:46.104416000 +07
  235  72.112757 32:32:32:32:32:32 25dBm Nov 17, 2018 00:58:46.178498000 +07
  236  72.687335 32:32:32:32:32:32 25dBm Nov 17, 2018 00:58:46.753076000 +07
  237  72.807740 32:32:32:32:32:32 24dBm Nov 17, 2018 00:58:46.873481000 +07
  238  73.042876 32:32:32:32:32:32 24dBm Nov 17, 2018 00:58:47.108617000 +07
  239  73.108739 32:32:32:32:32:32 25dBm Nov 17, 2018 00:58:47.174480000 +07
  240  73.282076 32:32:32:32:32:32 24dBm Nov 17, 2018 00:58:47.347817000 +07
  241  74.735361 32:32:32:32:32:32 25dBm Nov 17, 2018 00:58:48.801102000 +07
  242  75.292766 32:32:32:32:32:32 26dBm Nov 17, 2018 00:58:49.358507000 +07
  243  75.335901 32:32:32:32:32:32 26dBm Nov 17, 2018 00:58:49.401642000 +07
  244  75.465519 32:32:32:32:32:32 24dBm Nov 17, 2018 00:58:49.531260000 +07
  245  75.566491 32:32:32:32:32:32 26dBm Nov 17, 2018 00:58:49.632232000 +07
  246  75.689284 32:32:32:32:32:32 23dBm Nov 17, 2018 00:58:49.755025000 +07
  247  75.983563 32:32:32:32:32:32 25dBm Nov 17, 2018 00:58:50.049304000 +07
  248  76.744127 32:32:32:32:32:32 25dBm Nov 17, 2018 00:58:50.809868000 +07
  249  76.951366 32:32:32:32:32:32 25dBm Nov 17, 2018 00:58:51.017107000 +07
  250  77.140231 32:32:32:32:32:32 25dBm Nov 17, 2018 00:58:51.205972000 +07
  251  77.352556 32:32:32:32:32:32 25dBm Nov 17, 2018 00:58:51.418297000 +07
  252  77.860753 32:32:32:32:32:32 25dBm Nov 17, 2018 00:58:51.926494000 +07
  253  78.063871 32:32:32:32:32:32 26dBm Nov 17, 2018 00:58:52.129612000 +07
  254  78.571884 32:32:32:32:32:32 23dBm Nov 17, 2018 00:58:52.637625000 +07
  255  78.675636 32:32:32:32:32:32 23dBm Nov 17, 2018 00:58:52.741377000 +07
  256  78.842319 32:32:32:32:32:32 23dBm Nov 17, 2018 00:58:52.908060000 +07
  257  78.944855 32:32:32:32:32:32 26dBm Nov 17, 2018 00:58:53.010596000 +07
  258  79.001753 32:32:32:32:32:32 24dBm Nov 17, 2018 00:58:53.067494000 +07
  259  79.202736 32:32:32:32:32:32 21dBm Nov 17, 2018 00:58:53.268477000 +07
  260  79.328392 32:32:32:32:32:32 23dBm Nov 17, 2018 00:58:53.394133000 +07
  261  79.441779 32:32:32:32:32:32 23dBm Nov 17, 2018 00:58:53.507520000 +07
  262  79.496998 32:32:32:32:32:32 25dBm Nov 17, 2018 00:58:53.562739000 +07
  263  79.588236 32:32:32:32:32:32 24dBm Nov 17, 2018 00:58:53.653977000 +07
  264  79.784970 32:32:32:32:32:32 25dBm Nov 17, 2018 00:58:53.850711000 +07
  265  79.950841 32:32:32:32:32:32 24dBm Nov 17, 2018 00:58:54.016582000 +07
  266  80.170034 32:32:32:32:32:32 25dBm Nov 17, 2018 00:58:54.235775000 +07
  267  81.553054 32:32:32:32:32:32 24dBm Nov 17, 2018 00:58:55.618795000 +07
  268  82.143500 32:32:32:32:32:32 25dBm Nov 17, 2018 00:58:56.209241000 +07
  269  82.213045 32:32:32:32:32:32 26dBm Nov 17, 2018 00:58:56.278786000 +07
  270  82.782628 32:32:32:32:32:32 24dBm Nov 17, 2018 00:58:56.848369000 +07
  271  82.920693 32:32:32:32:32:32 24dBm Nov 17, 2018 00:58:56.986434000 +07
  272  83.063907 32:32:32:32:32:32 24dBm Nov 17, 2018 00:58:57.129648000 +07
  273  83.401695 32:32:32:32:32:32 25dBm Nov 17, 2018 00:58:57.467436000 +07
  274  83.462579 32:32:32:32:32:32 24dBm Nov 17, 2018 00:58:57.528320000 +07
  275  83.629874 32:32:32:32:32:32 24dBm Nov 17, 2018 00:58:57.695615000 +07
  276  83.748857 32:32:32:32:32:32 23dBm Nov 17, 2018 00:58:57.814598000 +07
  277  83.982727 32:32:32:32:32:32 25dBm Nov 17, 2018 00:58:58.048468000 +07
  278  84.371959 32:32:32:32:32:32 24dBm Nov 17, 2018 00:58:58.437700000 +07
  279  84.633204 32:32:32:32:32:32 26dBm Nov 17, 2018 00:58:58.698945000 +07
  280  85.548811 32:32:32:32:32:32 25dBm Nov 17, 2018 00:58:59.614552000 +07
  281  85.573520 32:32:32:32:32:32 24dBm Nov 17, 2018 00:58:59.639261000 +07
  282  85.888264 32:32:32:32:32:32 25dBm Nov 17, 2018 00:58:59.954005000 +07
  283  86.349281 32:32:32:32:32:32 24dBm Nov 17, 2018 00:59:00.415022000 +07
  284  86.561815 32:32:32:32:32:32 24dBm Nov 17, 2018 00:59:00.627556000 +07
  285  86.696216 32:32:32:32:32:32 25dBm Nov 17, 2018 00:59:00.761957000 +07
  286  87.259462 32:32:32:32:32:32 25dBm Nov 17, 2018 00:59:01.325203000 +07
  287  87.292688 32:32:32:32:32:32 23dBm Nov 17, 2018 00:59:01.358429000 +07
  288  87.559362 32:32:32:32:32:32 25dBm Nov 17, 2018 00:59:01.625103000 +07
  289  87.701421 32:32:32:32:32:32 24dBm Nov 17, 2018 00:59:01.767162000 +07
  290  87.895476 32:32:32:32:32:32 24dBm Nov 17, 2018 00:59:01.961217000 +07
  291  88.191666 32:32:32:32:32:32 24dBm Nov 17, 2018 00:59:02.257407000 +07
  292  88.601444 32:32:32:32:32:32 24dBm Nov 17, 2018 00:59:02.667185000 +07
  293  88.763731 32:32:32:32:32:32 24dBm Nov 17, 2018 00:59:02.829472000 +07
  294  88.954335 32:32:32:32:32:32 23dBm Nov 17, 2018 00:59:03.020076000 +07
  295  89.729232 32:32:32:32:32:32 25dBm Nov 17, 2018 00:59:03.794973000 +07
  296  90.030960 32:32:32:32:32:32 25dBm Nov 17, 2018 00:59:04.096701000 +07
  297  90.163736 32:32:32:32:32:32 23dBm Nov 17, 2018 00:59:04.229477000 +07
  298  90.734653 32:32:32:32:32:32 24dBm Nov 17, 2018 00:59:04.800394000 +07
  299  91.016558 32:32:32:32:32:32 24dBm Nov 17, 2018 00:59:05.082299000 +07
  300  91.082629 32:32:32:32:32:32 24dBm Nov 17, 2018 00:59:05.148370000 +07
  301  92.910315 32:32:32:32:32:32 25dBm Nov 17, 2018 00:59:06.976056000 +07
  302  93.131289 32:32:32:32:32:32 24dBm Nov 17, 2018 00:59:07.197030000 +07
  303  93.279898 32:32:32:32:32:32 24dBm Nov 17, 2018 00:59:07.345639000 +07
  304  94.252784 32:32:32:32:32:32 24dBm Nov 17, 2018 00:59:08.318525000 +07
  305  94.392098 32:32:32:32:32:32 24dBm Nov 17, 2018 00:59:08.457839000 +07
  306  94.520302 32:32:32:32:32:32 24dBm Nov 17, 2018 00:59:08.586043000 +07
  307  94.763655 32:32:32:32:32:32 24dBm Nov 17, 2018 00:59:08.829396000 +07
  308  95.202784 32:32:32:32:32:32 24dBm Nov 17, 2018 00:59:09.268525000 +07
  309  95.394300 32:32:32:32:32:32 25dBm Nov 17, 2018 00:59:09.460041000 +07
  310  96.188054 32:32:32:32:32:32 24dBm Nov 17, 2018 00:59:10.253795000 +07
  311  96.387537 32:32:32:32:32:32 23dBm Nov 17, 2018 00:59:10.453278000 +07
  312  97.059654 32:32:32:32:32:32 24dBm Nov 17, 2018 00:59:11.125395000 +07
  313  97.094610 32:32:32:32:32:32 25dBm Nov 17, 2018 00:59:11.160351000 +07
  314  97.256870 32:32:32:32:32:32 25dBm Nov 17, 2018 00:59:11.322611000 +07
  315  97.404320 32:32:32:32:32:32 25dBm Nov 17, 2018 00:59:11.470061000 +07
  316  97.486456 32:32:32:32:32:32 24dBm Nov 17, 2018 00:59:11.552197000 +07
  317  97.685445 32:32:32:32:32:32 25dBm Nov 17, 2018 00:59:11.751186000 +07
  318  97.785427 32:32:32:32:32:32 23dBm Nov 17, 2018 00:59:11.851168000 +07
  319  98.150760 32:32:32:32:32:32 25dBm Nov 17, 2018 00:59:12.216501000 +07
  320  98.460332 32:32:32:32:32:32 23dBm Nov 17, 2018 00:59:12.526073000 +07
  321  98.488879 32:32:32:32:32:32 24dBm Nov 17, 2018 00:59:12.554620000 +07
  322  98.904742 32:32:32:32:32:32 25dBm Nov 17, 2018 00:59:12.970483000 +07
  323  98.987042 32:32:32:32:32:32 25dBm Nov 17, 2018 00:59:13.052783000 +07
  324  99.283132 32:32:32:32:32:32 24dBm Nov 17, 2018 00:59:13.348873000 +07
  325 100.616592 32:32:32:32:32:32 23dBm Nov 17, 2018 00:59:14.682333000 +07
  326 100.803974 32:32:32:32:32:32 24dBm Nov 17, 2018 00:59:14.869715000 +07
  327 100.973330 32:32:32:32:32:32 25dBm Nov 17, 2018 00:59:15.039071000 +07
  328 101.309748 32:32:32:32:32:32 24dBm Nov 17, 2018 00:59:15.375489000 +07
  329 101.785297 32:32:32:32:32:32 25dBm Nov 17, 2018 00:59:15.851038000 +07
  330 102.058026 32:32:32:32:32:32 24dBm Nov 17, 2018 00:59:16.123767000 +07
  331 102.318209 32:32:32:32:32:32 24dBm Nov 17, 2018 00:59:16.383950000 +07
  332 102.413223 32:32:32:32:32:32 24dBm Nov 17, 2018 00:59:16.478964000 +07
  333 102.508911 32:32:32:32:32:32 26dBm Nov 17, 2018 00:59:16.574652000 +07
  334 102.600661 32:32:32:32:32:32 23dBm Nov 17, 2018 00:59:16.666402000 +07
  335 102.754636 32:32:32:32:32:32 25dBm Nov 17, 2018 00:59:16.820377000 +07
  336 102.914670 32:32:32:32:32:32 25dBm Nov 17, 2018 00:59:16.980411000 +07
  337 103.054243 32:32:32:32:32:32 26dBm Nov 17, 2018 00:59:17.119984000 +07
  338 104.070969 32:32:32:32:32:32 24dBm Nov 17, 2018 00:59:18.136710000 +07
  339 104.160852 32:32:32:32:32:32 25dBm Nov 17, 2018 00:59:18.226593000 +07
  340 105.057489 32:32:32:32:32:32 25dBm Nov 17, 2018 00:59:19.123230000 +07
  341 105.097774 32:32:32:32:32:32 25dBm Nov 17, 2018 00:59:19.163515000 +07
  342 105.151974 32:32:32:32:32:32 22dBm Nov 17, 2018 00:59:19.217715000 +07
  343 105.244074 32:32:32:32:32:32 26dBm Nov 17, 2018 00:59:19.309815000 +07
  344 105.379399 32:32:32:32:32:32 24dBm Nov 17, 2018 00:59:19.445140000 +07
  345 105.513572 32:32:32:32:32:32 25dBm Nov 17, 2018 00:59:19.579313000 +07
  346 105.630172 32:32:32:32:32:32 25dBm Nov 17, 2018 00:59:19.695913000 +07
  347 106.147738 32:32:32:32:32:32 24dBm Nov 17, 2018 00:59:20.213479000 +07
  348 106.433282 32:32:32:32:32:32 24dBm Nov 17, 2018 00:59:20.499023000 +07
  349 106.638064 32:32:32:32:32:32 24dBm Nov 17, 2018 00:59:20.703805000 +07
  350 106.851395 32:32:32:32:32:32 26dBm Nov 17, 2018 00:59:20.917136000 +07
  351 107.086962 32:32:32:32:32:32 23dBm Nov 17, 2018 00:59:21.152703000 +07
  352 107.212087 32:32:32:32:32:32 24dBm Nov 17, 2018 00:59:21.277828000 +07
  353 108.105025 32:32:32:32:32:32 25dBm Nov 17, 2018 00:59:22.170766000 +07
  354 108.611070 32:32:32:32:32:32 25dBm Nov 17, 2018 00:59:22.676811000 +07
  355 109.154840 32:32:32:32:32:32 24dBm Nov 17, 2018 00:59:23.220581000 +07
  356 110.587709 32:32:32:32:32:32 25dBm Nov 17, 2018 00:59:24.653450000 +07
  357 112.125557 32:32:32:32:32:32 24dBm Nov 17, 2018 00:59:26.191298000 +07
  358 112.724509 32:32:32:32:32:32 26dBm Nov 17, 2018 00:59:26.790250000 +07
  359 112.888251 32:32:32:32:32:32 24dBm Nov 17, 2018 00:59:26.953992000 +07
  360 112.943084 32:32:32:32:32:32 26dBm Nov 17, 2018 00:59:27.008825000 +07
  361 113.584588 32:32:32:32:32:32 23dBm Nov 17, 2018 00:59:27.650329000 +07
  362 114.444190 32:32:32:32:32:32 24dBm Nov 17, 2018 00:59:28.509931000 +07
  363 115.153097 32:32:32:32:32:32 23dBm Nov 17, 2018 00:59:29.218838000 +07
  364 115.959054 32:32:32:32:32:32 24dBm Nov 17, 2018 00:59:30.024795000 +07
  365 116.085821 32:32:32:32:32:32 23dBm Nov 17, 2018 00:59:30.151562000 +07
  366 116.337108 32:32:32:32:32:32 24dBm Nov 17, 2018 00:59:30.402849000 +07
  367 116.394076 32:32:32:32:32:32 27dBm Nov 17, 2018 00:59:30.459817000 +07
  368 116.981264 32:32:32:32:32:32 25dBm Nov 17, 2018 00:59:31.047005000 +07
  369 116.994533 32:32:32:32:32:32 26dBm Nov 17, 2018 00:59:31.060274000 +07
  370 117.029075 32:32:32:32:32:32 23dBm Nov 17, 2018 00:59:31.094816000 +07
  371 117.338352 32:32:32:32:32:32 26dBm Nov 17, 2018 00:59:31.404093000 +07
  372 117.571267 32:32:32:32:32:32 22dBm Nov 17, 2018 00:59:31.637008000 +07
  373 118.005331 32:32:32:32:32:32 26dBm Nov 17, 2018 00:59:32.071072000 +07
  374 118.228150 32:32:32:32:32:32 25dBm Nov 17, 2018 00:59:32.293891000 +07
  375 118.360579 32:32:32:32:32:32 24dBm Nov 17, 2018 00:59:32.426320000 +07
  376 119.288160 32:32:32:32:32:32 25dBm Nov 17, 2018 00:59:33.353901000 +07
  377 119.440027 32:32:32:32:32:32 24dBm Nov 17, 2018 00:59:33.505768000 +07
  378 120.437454 32:32:32:32:32:32 25dBm Nov 17, 2018 00:59:34.503195000 +07
  379 120.561562 32:32:32:32:32:32 25dBm Nov 17, 2018 00:59:34.627303000 +07
  380 120.627533 32:32:32:32:32:32 22dBm Nov 17, 2018 00:59:34.693274000 +07
  381 121.069521 32:32:32:32:32:32 25dBm Nov 17, 2018 00:59:35.135262000 +07
  382 121.154555 32:32:32:32:32:32 25dBm Nov 17, 2018 00:59:35.220296000 +07
  383 121.494848 32:32:32:32:32:32 24dBm Nov 17, 2018 00:59:35.560589000 +07
  384 122.118878 32:32:32:32:32:32 25dBm Nov 17, 2018 00:59:36.184619000 +07
  385 122.297938 32:32:32:32:32:32 24dBm Nov 17, 2018 00:59:36.363679000 +07
  386 122.349672 32:32:32:32:32:32 23dBm Nov 17, 2018 00:59:36.415413000 +07
  387 122.477898 32:32:32:32:32:32 22dBm Nov 17, 2018 00:59:36.543639000 +07
  388 123.517082 32:32:32:32:32:32 25dBm Nov 17, 2018 00:59:37.582823000 +07
  389 124.131362 32:32:32:32:32:32 23dBm Nov 17, 2018 00:59:38.197103000 +07
  390 124.261565 32:32:32:32:32:32 24dBm Nov 17, 2018 00:59:38.327306000 +07
  391 124.524141 32:32:32:32:32:32 25dBm Nov 17, 2018 00:59:38.589882000 +07
  392 124.575859 32:32:32:32:32:32 25dBm Nov 17, 2018 00:59:38.641600000 +07
  393 124.635952 32:32:32:32:32:32 25dBm Nov 17, 2018 00:59:38.701693000 +07
  394 124.670683 32:32:32:32:32:32 25dBm Nov 17, 2018 00:59:38.736424000 +07
  395 124.872666 32:32:32:32:32:32 25dBm Nov 17, 2018 00:59:38.938407000 +07
  396 125.771272 32:32:32:32:32:32 24dBm Nov 17, 2018 00:59:39.837013000 +07
  397 125.819649 32:32:32:32:32:32 25dBm Nov 17, 2018 00:59:39.885390000 +07
  398 125.869275 32:32:32:32:32:32 24dBm Nov 17, 2018 00:59:39.935016000 +07
  399 126.045905 32:32:32:32:32:32 25dBm Nov 17, 2018 00:59:40.111646000 +07
  400 126.959271 32:32:32:32:32:32 23dBm Nov 17, 2018 00:59:41.025012000 +07
  401 127.521141 32:32:32:32:32:32 26dBm Nov 17, 2018 00:59:41.586882000 +07
  402 127.703700 32:32:32:32:32:32 25dBm Nov 17, 2018 00:59:41.769441000 +07
  403 127.788734 32:32:32:32:32:32 23dBm Nov 17, 2018 00:59:41.854475000 +07
  404 128.054226 32:32:32:32:32:32 24dBm Nov 17, 2018 00:59:42.119967000 +07
  405 128.144904 32:32:32:32:32:32 25dBm Nov 17, 2018 00:59:42.210645000 +07
  406 128.219828 32:32:32:32:32:32 25dBm Nov 17, 2018 00:59:42.285569000 +07
  407 128.658860 32:32:32:32:32:32 27dBm Nov 17, 2018 00:59:42.724601000 +07
  408 129.101002 32:32:32:32:32:32 27dBm Nov 17, 2018 00:59:43.166743000 +07
  409 129.284310 32:32:32:32:32:32 25dBm Nov 17, 2018 00:59:43.350051000 +07
  410 129.375901 32:32:32:32:32:32 25dBm Nov 17, 2018 00:59:43.441642000 +07
  411 129.424403 32:32:32:32:32:32 26dBm Nov 17, 2018 00:59:43.490144000 +07
  412 129.528506 32:32:32:32:32:32 24dBm Nov 17, 2018 00:59:43.594247000 +07
  413 129.864732 32:32:32:32:32:32 22dBm Nov 17, 2018 00:59:43.930473000 +07
  414 129.909940 32:32:32:32:32:32 25dBm Nov 17, 2018 00:59:43.975681000 +07
  415 130.167685 32:32:32:32:32:32 26dBm Nov 17, 2018 00:59:44.233426000 +07
  416 130.783729 32:32:32:32:32:32 26dBm Nov 17, 2018 00:59:44.849470000 +07
  417 131.115244 32:32:32:32:32:32 26dBm Nov 17, 2018 00:59:45.180985000 +07
  418 132.017882 32:32:32:32:32:32 24dBm Nov 17, 2018 00:59:46.083623000 +07
  419 132.548710 32:32:32:32:32:32 25dBm Nov 17, 2018 00:59:46.614451000 +07
  420 132.820756 32:32:32:32:32:32 25dBm Nov 17, 2018 00:59:46.886497000 +07
  421 133.360771 32:32:32:32:32:32 26dBm Nov 17, 2018 00:59:47.426512000 +07
  422 133.689578 32:32:32:32:32:32 24dBm Nov 17, 2018 00:59:47.755319000 +07
  423 133.863891 32:32:32:32:32:32 26dBm Nov 17, 2018 00:59:47.929632000 +07
  424 134.260886 32:32:32:32:32:32 26dBm Nov 17, 2018 00:59:48.326627000 +07
  425 134.487412 32:32:32:32:32:32 23dBm Nov 17, 2018 00:59:48.553153000 +07
  426 134.530708 32:32:32:32:32:32 26dBm Nov 17, 2018 00:59:48.596449000 +07
  427 134.709947 32:32:32:32:32:32 25dBm Nov 17, 2018 00:59:48.775688000 +07
  428 134.748401 32:32:32:32:32:32 24dBm Nov 17, 2018 00:59:48.814142000 +07
  429 135.079608 32:32:32:32:32:32 25dBm Nov 17, 2018 00:59:49.145349000 +07
  430 135.432989 32:32:32:32:32:32 22dBm Nov 17, 2018 00:59:49.498730000 +07
  431 135.729041 32:32:32:32:32:32 27dBm Nov 17, 2018 00:59:49.794782000 +07
  432 135.846095 32:32:32:32:32:32 24dBm Nov 17, 2018 00:59:49.911836000 +07
  433 136.278361 32:32:32:32:32:32 24dBm Nov 17, 2018 00:59:50.344102000 +07
  434 136.472677 32:32:32:32:32:32 24dBm Nov 17, 2018 00:59:50.538418000 +07
  435 136.529971 32:32:32:32:32:32 26dBm Nov 17, 2018 00:59:50.595712000 +07
  436 136.555532 32:32:32:32:32:32 24dBm Nov 17, 2018 00:59:50.621273000 +07
  437 136.732822 32:32:32:32:32:32 25dBm Nov 17, 2018 00:59:50.798563000 +07
  438 136.886392 32:32:32:32:32:32 25dBm Nov 17, 2018 00:59:50.952133000 +07
  439 136.974061 32:32:32:32:32:32 25dBm Nov 17, 2018 00:59:51.039802000 +07
  440 137.056670 32:32:32:32:32:32 25dBm Nov 17, 2018 00:59:51.122411000 +07
  441 137.227185 32:32:32:32:32:32 24dBm Nov 17, 2018 00:59:51.292926000 +07
  442 137.592665 32:32:32:32:32:32 27dBm Nov 17, 2018 00:59:51.658406000 +07
  443 138.038025 32:32:32:32:32:32 26dBm Nov 17, 2018 00:59:52.103766000 +07
  444 138.085866 32:32:32:32:32:32 24dBm Nov 17, 2018 00:59:52.151607000 +07
  445 138.180310 32:32:32:32:32:32 26dBm Nov 17, 2018 00:59:52.246051000 +07
  446 138.477189 32:32:32:32:32:32 25dBm Nov 17, 2018 00:59:52.542930000 +07
  447 138.586882 32:32:32:32:32:32 24dBm Nov 17, 2018 00:59:52.652623000 +07
  448 138.735114 32:32:32:32:32:32 25dBm Nov 17, 2018 00:59:52.800855000 +07
  449 138.745035 32:32:32:32:32:32 24dBm Nov 17, 2018 00:59:52.810776000 +07
  450 138.875243 32:32:32:32:32:32 25dBm Nov 17, 2018 00:59:52.940984000 +07
  451 138.937502 32:32:32:32:32:32 25dBm Nov 17, 2018 00:59:53.003243000 +07
  452 139.018148 32:32:32:32:32:32 24dBm Nov 17, 2018 00:59:53.083889000 +07
  453 139.754944 32:32:32:32:32:32 25dBm Nov 17, 2018 00:59:53.820685000 +07
  454 139.785127 32:32:32:32:32:32 25dBm Nov 17, 2018 00:59:53.850868000 +07
  455 139.895874 32:32:32:32:32:32 25dBm Nov 17, 2018 00:59:53.961615000 +07
  456 140.310424 32:32:32:32:32:32 26dBm Nov 17, 2018 00:59:54.376165000 +07
  457 140.748090 32:32:32:32:32:32 25dBm Nov 17, 2018 00:59:54.813831000 +07
  458 141.004618 32:32:32:32:32:32 22dBm Nov 17, 2018 00:59:55.070359000 +07
  459 141.184239 32:32:32:32:32:32 27dBm Nov 17, 2018 00:59:55.249980000 +07
  460 141.300349 32:32:32:32:32:32 25dBm Nov 17, 2018 00:59:55.366090000 +07
  461 141.528869 32:32:32:32:32:32 25dBm Nov 17, 2018 00:59:55.594610000 +07
  462 142.000430 32:32:32:32:32:32 27dBm Nov 17, 2018 00:59:56.066171000 +07
  463 142.117542 32:32:32:32:32:32 25dBm Nov 17, 2018 00:59:56.183283000 +07
  464 142.198405 32:32:32:32:32:32 24dBm Nov 17, 2018 00:59:56.264146000 +07
  465 142.823196 32:32:32:32:32:32 26dBm Nov 17, 2018 00:59:56.888937000 +07
