    1   0.000000 32:32:32:32:32:32 10dBm Nov 17, 2018 01:26:30.786299000 +07
    2   0.016873 32:32:32:32:32:32 10dBm Nov 17, 2018 01:26:30.803172000 +07
    3   0.121657 32:32:32:32:32:32 9dBm Nov 17, 2018 01:26:30.907956000 +07
    4   0.154770 32:32:32:32:32:32 9dBm Nov 17, 2018 01:26:30.941069000 +07
    5   0.236970 32:32:32:32:32:32 9dBm Nov 17, 2018 01:26:31.023269000 +07
    6   0.354956 32:32:32:32:32:32 10dBm Nov 17, 2018 01:26:31.141255000 +07
    7   0.425409 32:32:32:32:32:32 9dBm Nov 17, 2018 01:26:31.211708000 +07
    8   0.720964 32:32:32:32:32:32 10dBm Nov 17, 2018 01:26:31.507263000 +07
    9   0.830228 32:32:32:32:32:32 9dBm Nov 17, 2018 01:26:31.616527000 +07
   10   0.868007 32:32:32:32:32:32 10dBm Nov 17, 2018 01:26:31.654306000 +07
   11   0.951161 32:32:32:32:32:32 8dBm Nov 17, 2018 01:26:31.737460000 +07
   12   0.998909 32:32:32:32:32:32 9dBm Nov 17, 2018 01:26:31.785208000 +07
   13   1.090352 32:32:32:32:32:32 9dBm Nov 17, 2018 01:26:31.876651000 +07
   14   1.149681 32:32:32:32:32:32 7dBm Nov 17, 2018 01:26:31.935980000 +07
   15   1.322404 32:32:32:32:32:32 10dBm Nov 17, 2018 01:26:32.108703000 +07
   16   1.521073 32:32:32:32:32:32 7dBm Nov 17, 2018 01:26:32.307372000 +07
   17   1.548181 32:32:32:32:32:32 9dBm Nov 17, 2018 01:26:32.334480000 +07
   18   1.578211 32:32:32:32:32:32 9dBm Nov 17, 2018 01:26:32.364510000 +07
   19   1.727962 32:32:32:32:32:32 10dBm Nov 17, 2018 01:26:32.514261000 +07
   20   1.752185 32:32:32:32:32:32 10dBm Nov 17, 2018 01:26:32.538484000 +07
   21   1.784986 32:32:32:32:32:32 6dBm Nov 17, 2018 01:26:32.571285000 +07
   22   1.796160 32:32:32:32:32:32 11dBm Nov 17, 2018 01:26:32.582459000 +07
   23   1.943730 32:32:32:32:32:32 6dBm Nov 17, 2018 01:26:32.730029000 +07
   24   1.978328 32:32:32:32:32:32 10dBm Nov 17, 2018 01:26:32.764627000 +07
   25   2.061137 32:32:32:32:32:32 7dBm Nov 17, 2018 01:26:32.847436000 +07
   26   2.107595 32:32:32:32:32:32 11dBm Nov 17, 2018 01:26:32.893894000 +07
   27   2.133199 32:32:32:32:32:32 10dBm Nov 17, 2018 01:26:32.919498000 +07
   28   2.223418 32:32:32:32:32:32 9dBm Nov 17, 2018 01:26:33.009717000 +07
   29   2.283881 32:32:32:32:32:32 10dBm Nov 17, 2018 01:26:33.070180000 +07
   30   2.383457 32:32:32:32:32:32 9dBm Nov 17, 2018 01:26:33.169756000 +07
   31   2.444044 32:32:32:32:32:32 9dBm Nov 17, 2018 01:26:33.230343000 +07
   32   2.519336 32:32:32:32:32:32 11dBm Nov 17, 2018 01:26:33.305635000 +07
   33   2.695260 32:32:32:32:32:32 10dBm Nov 17, 2018 01:26:33.481559000 +07
   34   2.714761 32:32:32:32:32:32 9dBm Nov 17, 2018 01:26:33.501060000 +07
   35   2.972155 32:32:32:32:32:32 10dBm Nov 17, 2018 01:26:33.758454000 +07
   36   3.017643 32:32:32:32:32:32 10dBm Nov 17, 2018 01:26:33.803942000 +07
   37   3.108160 32:32:32:32:32:32 9dBm Nov 17, 2018 01:26:33.894459000 +07
   38   3.135788 32:32:32:32:32:32 12dBm Nov 17, 2018 01:26:33.922087000 +07
   39   3.162711 32:32:32:32:32:32 6dBm Nov 17, 2018 01:26:33.949010000 +07
   40   3.304703 32:32:32:32:32:32 10dBm Nov 17, 2018 01:26:34.091002000 +07
   41   3.328630 32:32:32:32:32:32 10dBm Nov 17, 2018 01:26:34.114929000 +07
   42   3.355253 32:32:32:32:32:32 10dBm Nov 17, 2018 01:26:34.141552000 +07
   43   3.460450 32:32:32:32:32:32 9dBm Nov 17, 2018 01:26:34.246749000 +07
   44   3.600361 32:32:32:32:32:32 10dBm Nov 17, 2018 01:26:34.386660000 +07
   45   3.684772 32:32:32:32:32:32 10dBm Nov 17, 2018 01:26:34.471071000 +07
   46   3.735577 32:32:32:32:32:32 10dBm Nov 17, 2018 01:26:34.521876000 +07
   47   3.881627 32:32:32:32:32:32 8dBm Nov 17, 2018 01:26:34.667926000 +07
   48   3.904773 32:32:32:32:32:32 10dBm Nov 17, 2018 01:26:34.691072000 +07
   49   4.108455 32:32:32:32:32:32 9dBm Nov 17, 2018 01:26:34.894754000 +07
   50   4.119874 32:32:32:32:32:32 9dBm Nov 17, 2018 01:26:34.906173000 +07
   51   4.260690 32:32:32:32:32:32 8dBm Nov 17, 2018 01:26:35.046989000 +07
   52   4.315807 32:32:32:32:32:32 10dBm Nov 17, 2018 01:26:35.102106000 +07
   53   4.353240 32:32:32:32:32:32 8dBm Nov 17, 2018 01:26:35.139539000 +07
   54   4.421466 32:32:32:32:32:32 9dBm Nov 17, 2018 01:26:35.207765000 +07
   55   4.512982 32:32:32:32:32:32 10dBm Nov 17, 2018 01:26:35.299281000 +07
   56   4.524813 32:32:32:32:32:32 11dBm Nov 17, 2018 01:26:35.311112000 +07
   57   4.570112 32:32:32:32:32:32 9dBm Nov 17, 2018 01:26:35.356411000 +07
   58   4.751160 32:32:32:32:32:32 10dBm Nov 17, 2018 01:26:35.537459000 +07
   59   4.867528 32:32:32:32:32:32 9dBm Nov 17, 2018 01:26:35.653827000 +07
   60   4.903780 32:32:32:32:32:32 10dBm Nov 17, 2018 01:26:35.690079000 +07
   61   4.924474 32:32:32:32:32:32 8dBm Nov 17, 2018 01:26:35.710773000 +07
   62   4.949201 32:32:32:32:32:32 9dBm Nov 17, 2018 01:26:35.735500000 +07
   63   4.977731 32:32:32:32:32:32 9dBm Nov 17, 2018 01:26:35.764030000 +07
   64   5.043578 32:32:32:32:32:32 8dBm Nov 17, 2018 01:26:35.829877000 +07
   65   5.210893 32:32:32:32:32:32 9dBm Nov 17, 2018 01:26:35.997192000 +07
   66   5.279712 32:32:32:32:32:32 9dBm Nov 17, 2018 01:26:36.066011000 +07
   67   5.311733 32:32:32:32:32:32 11dBm Nov 17, 2018 01:26:36.098032000 +07
   68   5.330753 32:32:32:32:32:32 10dBm Nov 17, 2018 01:26:36.117052000 +07
   69   5.876214 32:32:32:32:32:32 9dBm Nov 17, 2018 01:26:36.662513000 +07
   70   5.944382 32:32:32:32:32:32 10dBm Nov 17, 2018 01:26:36.730681000 +07
   71   6.027914 32:32:32:32:32:32 9dBm Nov 17, 2018 01:26:36.814213000 +07
   72   6.059500 32:32:32:32:32:32 10dBm Nov 17, 2018 01:26:36.845799000 +07
   73   6.100437 32:32:32:32:32:32 11dBm Nov 17, 2018 01:26:36.886736000 +07
   74   6.365843 32:32:32:32:32:32 10dBm Nov 17, 2018 01:26:37.152142000 +07
   75   6.408915 32:32:32:32:32:32 9dBm Nov 17, 2018 01:26:37.195214000 +07
   76   6.491706 32:32:32:32:32:32 9dBm Nov 17, 2018 01:26:37.278005000 +07
   77   6.532212 32:32:32:32:32:32 11dBm Nov 17, 2018 01:26:37.318511000 +07
   78   6.554286 32:32:32:32:32:32 10dBm Nov 17, 2018 01:26:37.340585000 +07
   79   6.569303 32:32:32:32:32:32 11dBm Nov 17, 2018 01:26:37.355602000 +07
   80   6.870955 32:32:32:32:32:32 9dBm Nov 17, 2018 01:26:37.657254000 +07
   81   6.919033 32:32:32:32:32:32 7dBm Nov 17, 2018 01:26:37.705332000 +07
   82   7.004929 32:32:32:32:32:32 7dBm Nov 17, 2018 01:26:37.791228000 +07
   83   7.011390 32:32:32:32:32:32 10dBm Nov 17, 2018 01:26:37.797689000 +07
   84   7.112265 32:32:32:32:32:32 11dBm Nov 17, 2018 01:26:37.898564000 +07
   85   7.207100 32:32:32:32:32:32 10dBm Nov 17, 2018 01:26:37.993399000 +07
   86   7.232099 32:32:32:32:32:32 10dBm Nov 17, 2018 01:26:38.018398000 +07
   87   7.265011 32:32:32:32:32:32 9dBm Nov 17, 2018 01:26:38.051310000 +07
   88   7.286272 32:32:32:32:32:32 10dBm Nov 17, 2018 01:26:38.072571000 +07
   89   7.409908 32:32:32:32:32:32 11dBm Nov 17, 2018 01:26:38.196207000 +07
   90   7.509054 32:32:32:32:32:32 10dBm Nov 17, 2018 01:26:38.295353000 +07
   91   7.742089 32:32:32:32:32:32 12dBm Nov 17, 2018 01:26:38.528388000 +07
   92   7.942620 32:32:32:32:32:32 10dBm Nov 17, 2018 01:26:38.728919000 +07
   93   8.114090 32:32:32:32:32:32 8dBm Nov 17, 2018 01:26:38.900389000 +07
   94   8.145129 32:32:32:32:32:32 10dBm Nov 17, 2018 01:26:38.931428000 +07
   95   8.349400 32:32:32:32:32:32 10dBm Nov 17, 2018 01:26:39.135699000 +07
   96   8.377897 32:32:32:32:32:32 9dBm Nov 17, 2018 01:26:39.164196000 +07
   97   8.471420 32:32:32:32:32:32 10dBm Nov 17, 2018 01:26:39.257719000 +07
   98   8.545192 32:32:32:32:32:32 10dBm Nov 17, 2018 01:26:39.331491000 +07
   99   8.596839 32:32:32:32:32:32 11dBm Nov 17, 2018 01:26:39.383138000 +07
  100   8.728918 32:32:32:32:32:32 10dBm Nov 17, 2018 01:26:39.515217000 +07
  101   8.746478 32:32:32:32:32:32 10dBm Nov 17, 2018 01:26:39.532777000 +07
  102   8.795775 32:32:32:32:32:32 11dBm Nov 17, 2018 01:26:39.582074000 +07
  103   8.928010 32:32:32:32:32:32 11dBm Nov 17, 2018 01:26:39.714309000 +07
  104   9.364949 32:32:32:32:32:32 11dBm Nov 17, 2018 01:26:40.151248000 +07
  105   9.385020 32:32:32:32:32:32 10dBm Nov 17, 2018 01:26:40.171319000 +07
  106   9.412527 32:32:32:32:32:32 11dBm Nov 17, 2018 01:26:40.198826000 +07
  107   9.461127 32:32:32:32:32:32 10dBm Nov 17, 2018 01:26:40.247426000 +07
  108   9.481676 32:32:32:32:32:32 10dBm Nov 17, 2018 01:26:40.267975000 +07
  109   9.525973 32:32:32:32:32:32 11dBm Nov 17, 2018 01:26:40.312272000 +07
  110   9.664413 32:32:32:32:32:32 8dBm Nov 17, 2018 01:26:40.450712000 +07
  111   9.761668 32:32:32:32:32:32 10dBm Nov 17, 2018 01:26:40.547967000 +07
  112  10.063950 32:32:32:32:32:32 7dBm Nov 17, 2018 01:26:40.850249000 +07
  113  10.097995 32:32:32:32:32:32 11dBm Nov 17, 2018 01:26:40.884294000 +07
  114  10.105895 32:32:32:32:32:32 11dBm Nov 17, 2018 01:26:40.892194000 +07
  115  10.115013 32:32:32:32:32:32 10dBm Nov 17, 2018 01:26:40.901312000 +07
  116  10.129493 32:32:32:32:32:32 10dBm Nov 17, 2018 01:26:40.915792000 +07
  117  10.146164 32:32:32:32:32:32 8dBm Nov 17, 2018 01:26:40.932463000 +07
  118  10.235893 32:32:32:32:32:32 12dBm Nov 17, 2018 01:26:41.022192000 +07
  119  10.402141 32:32:32:32:32:32 10dBm Nov 17, 2018 01:26:41.188440000 +07
  120  10.421930 32:32:32:32:32:32 11dBm Nov 17, 2018 01:26:41.208229000 +07
  121  10.445146 32:32:32:32:32:32 10dBm Nov 17, 2018 01:26:41.231445000 +07
  122  10.647818 32:32:32:32:32:32 10dBm Nov 17, 2018 01:26:41.434117000 +07
  123  10.686253 32:32:32:32:32:32 11dBm Nov 17, 2018 01:26:41.472552000 +07
  124  10.836498 32:32:32:32:32:32 10dBm Nov 17, 2018 01:26:41.622797000 +07
  125  11.077169 32:32:32:32:32:32 11dBm Nov 17, 2018 01:26:41.863468000 +07
  126  11.206929 32:32:32:32:32:32 10dBm Nov 17, 2018 01:26:41.993228000 +07
  127  11.247602 32:32:32:32:32:32 9dBm Nov 17, 2018 01:26:42.033901000 +07
  128  11.271439 32:32:32:32:32:32 9dBm Nov 17, 2018 01:26:42.057738000 +07
  129  11.457808 32:32:32:32:32:32 11dBm Nov 17, 2018 01:26:42.244107000 +07
  130  11.490118 32:32:32:32:32:32 10dBm Nov 17, 2018 01:26:42.276417000 +07
  131  11.627264 32:32:32:32:32:32 11dBm Nov 17, 2018 01:26:42.413563000 +07
  132  11.651805 32:32:32:32:32:32 10dBm Nov 17, 2018 01:26:42.438104000 +07
  133  11.936318 32:32:32:32:32:32 10dBm Nov 17, 2018 01:26:42.722617000 +07
  134  11.968528 32:32:32:32:32:32 10dBm Nov 17, 2018 01:26:42.754827000 +07
  135  12.095081 32:32:32:32:32:32 8dBm Nov 17, 2018 01:26:42.881380000 +07
  136  12.150493 32:32:32:32:32:32 10dBm Nov 17, 2018 01:26:42.936792000 +07
  137  12.180722 32:32:32:32:32:32 10dBm Nov 17, 2018 01:26:42.967021000 +07
  138  12.250095 32:32:32:32:32:32 9dBm Nov 17, 2018 01:26:43.036394000 +07
  139  12.277263 32:32:32:32:32:32 11dBm Nov 17, 2018 01:26:43.063562000 +07
  140  12.322635 32:32:32:32:32:32 11dBm Nov 17, 2018 01:26:43.108934000 +07
  141  12.333755 32:32:32:32:32:32 11dBm Nov 17, 2018 01:26:43.120054000 +07
  142  12.495341 32:32:32:32:32:32 9dBm Nov 17, 2018 01:26:43.281640000 +07
  143  12.554929 32:32:32:32:32:32 9dBm Nov 17, 2018 01:26:43.341228000 +07
  144  12.573996 32:32:32:32:32:32 10dBm Nov 17, 2018 01:26:43.360295000 +07
  145  12.814245 32:32:32:32:32:32 9dBm Nov 17, 2018 01:26:43.600544000 +07
  146  12.836667 32:32:32:32:32:32 10dBm Nov 17, 2018 01:26:43.622966000 +07
  147  13.056606 32:32:32:32:32:32 12dBm Nov 17, 2018 01:26:43.842905000 +07
  148  13.084076 32:32:32:32:32:32 11dBm Nov 17, 2018 01:26:43.870375000 +07
  149  13.166038 32:32:32:32:32:32 11dBm Nov 17, 2018 01:26:43.952337000 +07
  150  13.372284 32:32:32:32:32:32 11dBm Nov 17, 2018 01:26:44.158583000 +07
  151  13.690063 32:32:32:32:32:32 12dBm Nov 17, 2018 01:26:44.476362000 +07
  152  13.797398 32:32:32:32:32:32 11dBm Nov 17, 2018 01:26:44.583697000 +07
  153  14.003440 32:32:32:32:32:32 12dBm Nov 17, 2018 01:26:44.789739000 +07
  154  14.256648 32:32:32:32:32:32 10dBm Nov 17, 2018 01:26:45.042947000 +07
  155  14.265003 32:32:32:32:32:32 11dBm Nov 17, 2018 01:26:45.051302000 +07
  156  14.368274 32:32:32:32:32:32 10dBm Nov 17, 2018 01:26:45.154573000 +07
  157  14.545817 32:32:32:32:32:32 9dBm Nov 17, 2018 01:26:45.332116000 +07
  158  14.719119 32:32:32:32:32:32 10dBm Nov 17, 2018 01:26:45.505418000 +07
  159  14.802971 32:32:32:32:32:32 10dBm Nov 17, 2018 01:26:45.589270000 +07
  160  14.831905 32:32:32:32:32:32 10dBm Nov 17, 2018 01:26:45.618204000 +07
  161  14.956499 32:32:32:32:32:32 10dBm Nov 17, 2018 01:26:45.742798000 +07
  162  15.001419 32:32:32:32:32:32 10dBm Nov 17, 2018 01:26:45.787718000 +07
  163  15.011719 32:32:32:32:32:32 9dBm Nov 17, 2018 01:26:45.798018000 +07
  164  15.080359 32:32:32:32:32:32 10dBm Nov 17, 2018 01:26:45.866658000 +07
  165  15.112537 32:32:32:32:32:32 10dBm Nov 17, 2018 01:26:45.898836000 +07
  166  15.183552 32:32:32:32:32:32 9dBm Nov 17, 2018 01:26:45.969851000 +07
  167  15.410883 32:32:32:32:32:32 10dBm Nov 17, 2018 01:26:46.197182000 +07
  168  15.663423 32:32:32:32:32:32 10dBm Nov 17, 2018 01:26:46.449722000 +07
  169  15.697292 32:32:32:32:32:32 9dBm Nov 17, 2018 01:26:46.483591000 +07
  170  15.705772 32:32:32:32:32:32 9dBm Nov 17, 2018 01:26:46.492071000 +07
  171  15.811089 32:32:32:32:32:32 11dBm Nov 17, 2018 01:26:46.597388000 +07
  172  15.966377 32:32:32:32:32:32 9dBm Nov 17, 2018 01:26:46.752676000 +07
  173  16.034653 32:32:32:32:32:32 10dBm Nov 17, 2018 01:26:46.820952000 +07
  174  16.092932 32:32:32:32:32:32 9dBm Nov 17, 2018 01:26:46.879231000 +07
  175  16.122519 32:32:32:32:32:32 10dBm Nov 17, 2018 01:26:46.908818000 +07
  176  16.301133 32:32:32:32:32:32 11dBm Nov 17, 2018 01:26:47.087432000 +07
  177  16.343639 32:32:32:32:32:32 10dBm Nov 17, 2018 01:26:47.129938000 +07
  178  16.363514 32:32:32:32:32:32 11dBm Nov 17, 2018 01:26:47.149813000 +07
  179  16.439863 32:32:32:32:32:32 11dBm Nov 17, 2018 01:26:47.226162000 +07
  180  16.557587 32:32:32:32:32:32 9dBm Nov 17, 2018 01:26:47.343886000 +07
  181  16.711302 32:32:32:32:32:32 9dBm Nov 17, 2018 01:26:47.497601000 +07
  182  16.816369 32:32:32:32:32:32 9dBm Nov 17, 2018 01:26:47.602668000 +07
  183  17.106226 32:32:32:32:32:32 8dBm Nov 17, 2018 01:26:47.892525000 +07
  184  17.129018 32:32:32:32:32:32 9dBm Nov 17, 2018 01:26:47.915317000 +07
  185  17.148404 32:32:32:32:32:32 8dBm Nov 17, 2018 01:26:47.934703000 +07
  186  17.175308 32:32:32:32:32:32 10dBm Nov 17, 2018 01:26:47.961607000 +07
  187  17.187659 32:32:32:32:32:32 9dBm Nov 17, 2018 01:26:47.973958000 +07
  188  17.312701 32:32:32:32:32:32 9dBm Nov 17, 2018 01:26:48.099000000 +07
  189  17.338241 32:32:32:32:32:32 10dBm Nov 17, 2018 01:26:48.124540000 +07
  190  17.478003 32:32:32:32:32:32 9dBm Nov 17, 2018 01:26:48.264302000 +07
  191  17.573471 32:32:32:32:32:32 10dBm Nov 17, 2018 01:26:48.359770000 +07
  192  17.784046 32:32:32:32:32:32 7dBm Nov 17, 2018 01:26:48.570345000 +07
  193  17.823706 32:32:32:32:32:32 10dBm Nov 17, 2018 01:26:48.610005000 +07
  194  17.886385 32:32:32:32:32:32 9dBm Nov 17, 2018 01:26:48.672684000 +07
  195  17.946435 32:32:32:32:32:32 10dBm Nov 17, 2018 01:26:48.732734000 +07
  196  17.986182 32:32:32:32:32:32 11dBm Nov 17, 2018 01:26:48.772481000 +07
  197  18.001266 32:32:32:32:32:32 10dBm Nov 17, 2018 01:26:48.787565000 +07
  198  18.016489 32:32:32:32:32:32 11dBm Nov 17, 2018 01:26:48.802788000 +07
  199  18.072972 32:32:32:32:32:32 10dBm Nov 17, 2018 01:26:48.859271000 +07
  200  18.099243 32:32:32:32:32:32 8dBm Nov 17, 2018 01:26:48.885542000 +07
  201  18.201635 32:32:32:32:32:32 10dBm Nov 17, 2018 01:26:48.987934000 +07
  202  18.402849 32:32:32:32:32:32 9dBm Nov 17, 2018 01:26:49.189148000 +07
  203  18.451090 32:32:32:32:32:32 11dBm Nov 17, 2018 01:26:49.237389000 +07
  204  18.502569 32:32:32:32:32:32 9dBm Nov 17, 2018 01:26:49.288868000 +07
  205  18.637259 32:32:32:32:32:32 8dBm Nov 17, 2018 01:26:49.423558000 +07
  206  18.739458 32:32:32:32:32:32 9dBm Nov 17, 2018 01:26:49.525757000 +07
  207  18.902448 32:32:32:32:32:32 9dBm Nov 17, 2018 01:26:49.688747000 +07
  208  18.953982 32:32:32:32:32:32 11dBm Nov 17, 2018 01:26:49.740281000 +07
  209  19.019313 32:32:32:32:32:32 10dBm Nov 17, 2018 01:26:49.805612000 +07
  210  19.121651 32:32:32:32:32:32 10dBm Nov 17, 2018 01:26:49.907950000 +07
  211  19.348248 32:32:32:32:32:32 11dBm Nov 17, 2018 01:26:50.134547000 +07
  212  19.380125 32:32:32:32:32:32 9dBm Nov 17, 2018 01:26:50.166424000 +07
  213  19.402782 32:32:32:32:32:32 9dBm Nov 17, 2018 01:26:50.189081000 +07
  214  19.449123 32:32:32:32:32:32 10dBm Nov 17, 2018 01:26:50.235422000 +07
  215  19.503808 32:32:32:32:32:32 9dBm Nov 17, 2018 01:26:50.290107000 +07
  216  19.519763 32:32:32:32:32:32 6dBm Nov 17, 2018 01:26:50.306062000 +07
  217  19.534438 32:32:32:32:32:32 9dBm Nov 17, 2018 01:26:50.320737000 +07
  218  19.593295 32:32:32:32:32:32 9dBm Nov 17, 2018 01:26:50.379594000 +07
  219  19.700463 32:32:32:32:32:32 8dBm Nov 17, 2018 01:26:50.486762000 +07
  220  19.826349 32:32:32:32:32:32 9dBm Nov 17, 2018 01:26:50.612648000 +07
  221  19.945502 32:32:32:32:32:32 9dBm Nov 17, 2018 01:26:50.731801000 +07
  222  20.020295 32:32:32:32:32:32 10dBm Nov 17, 2018 01:26:50.806594000 +07
  223  20.079078 32:32:32:32:32:32 10dBm Nov 17, 2018 01:26:50.865377000 +07
  224  20.139096 32:32:32:32:32:32 7dBm Nov 17, 2018 01:26:50.925395000 +07
  225  20.155178 32:32:32:32:32:32 7dBm Nov 17, 2018 01:26:50.941477000 +07
  226  20.638032 32:32:32:32:32:32 11dBm Nov 17, 2018 01:26:51.424331000 +07
  227  20.662367 32:32:32:32:32:32 9dBm Nov 17, 2018 01:26:51.448666000 +07
  228  20.677371 32:32:32:32:32:32 10dBm Nov 17, 2018 01:26:51.463670000 +07
  229  20.886323 32:32:32:32:32:32 10dBm Nov 17, 2018 01:26:51.672622000 +07
  230  20.965435 32:32:32:32:32:32 10dBm Nov 17, 2018 01:26:51.751734000 +07
  231  21.055759 32:32:32:32:32:32 10dBm Nov 17, 2018 01:26:51.842058000 +07
  232  21.078437 32:32:32:32:32:32 9dBm Nov 17, 2018 01:26:51.864736000 +07
  233  21.171303 32:32:32:32:32:32 10dBm Nov 17, 2018 01:26:51.957602000 +07
  234  21.256609 32:32:32:32:32:32 9dBm Nov 17, 2018 01:26:52.042908000 +07
  235  21.337249 32:32:32:32:32:32 10dBm Nov 17, 2018 01:26:52.123548000 +07
  236  21.372804 32:32:32:32:32:32 10dBm Nov 17, 2018 01:26:52.159103000 +07
  237  21.447299 32:32:32:32:32:32 9dBm Nov 17, 2018 01:26:52.233598000 +07
  238  21.518223 32:32:32:32:32:32 9dBm Nov 17, 2018 01:26:52.304522000 +07
  239  21.538053 32:32:32:32:32:32 11dBm Nov 17, 2018 01:26:52.324352000 +07
  240  21.668108 32:32:32:32:32:32 10dBm Nov 17, 2018 01:26:52.454407000 +07
  241  21.690841 32:32:32:32:32:32 10dBm Nov 17, 2018 01:26:52.477140000 +07
  242  21.783573 32:32:32:32:32:32 12dBm Nov 17, 2018 01:26:52.569872000 +07
  243  21.803075 32:32:32:32:32:32 9dBm Nov 17, 2018 01:26:52.589374000 +07
  244  21.807514 32:32:32:32:32:32 9dBm Nov 17, 2018 01:26:52.593813000 +07
  245  21.862812 32:32:32:32:32:32 8dBm Nov 17, 2018 01:26:52.649111000 +07
  246  21.879755 32:32:32:32:32:32 8dBm Nov 17, 2018 01:26:52.666054000 +07
  247  22.024461 32:32:32:32:32:32 7dBm Nov 17, 2018 01:26:52.810760000 +07
  248  22.053263 32:32:32:32:32:32 10dBm Nov 17, 2018 01:26:52.839562000 +07
  249  22.070743 32:32:32:32:32:32 10dBm Nov 17, 2018 01:26:52.857042000 +07
  250  22.091098 32:32:32:32:32:32 9dBm Nov 17, 2018 01:26:52.877397000 +07
  251  22.131823 32:32:32:32:32:32 10dBm Nov 17, 2018 01:26:52.918122000 +07
  252  22.297066 32:32:32:32:32:32 11dBm Nov 17, 2018 01:26:53.083365000 +07
  253  22.385838 32:32:32:32:32:32 10dBm Nov 17, 2018 01:26:53.172137000 +07
  254  22.399580 32:32:32:32:32:32 8dBm Nov 17, 2018 01:26:53.185879000 +07
  255  22.464586 32:32:32:32:32:32 10dBm Nov 17, 2018 01:26:53.250885000 +07
  256  22.593381 32:32:32:32:32:32 10dBm Nov 17, 2018 01:26:53.379680000 +07
  257  22.632610 32:32:32:32:32:32 10dBm Nov 17, 2018 01:26:53.418909000 +07
  258  22.751304 32:32:32:32:32:32 6dBm Nov 17, 2018 01:26:53.537603000 +07
  259  22.928428 32:32:32:32:32:32 10dBm Nov 17, 2018 01:26:53.714727000 +07
  260  22.995813 32:32:32:32:32:32 8dBm Nov 17, 2018 01:26:53.782112000 +07
  261  23.184080 32:32:32:32:32:32 10dBm Nov 17, 2018 01:26:53.970379000 +07
  262  23.202889 32:32:32:32:32:32 10dBm Nov 17, 2018 01:26:53.989188000 +07
  263  23.214339 32:32:32:32:32:32 10dBm Nov 17, 2018 01:26:54.000638000 +07
  264  23.235754 32:32:32:32:32:32 10dBm Nov 17, 2018 01:26:54.022053000 +07
  265  23.281384 32:32:32:32:32:32 10dBm Nov 17, 2018 01:26:54.067683000 +07
  266  23.442591 32:32:32:32:32:32 7dBm Nov 17, 2018 01:26:54.228890000 +07
  267  23.795354 32:32:32:32:32:32 11dBm Nov 17, 2018 01:26:54.581653000 +07
  268  23.813388 32:32:32:32:32:32 9dBm Nov 17, 2018 01:26:54.599687000 +07
  269  23.950432 32:32:32:32:32:32 7dBm Nov 17, 2018 01:26:54.736731000 +07
  270  23.973188 32:32:32:32:32:32 9dBm Nov 17, 2018 01:26:54.759487000 +07
  271  23.987391 32:32:32:32:32:32 10dBm Nov 17, 2018 01:26:54.773690000 +07
  272  24.318763 32:32:32:32:32:32 10dBm Nov 17, 2018 01:26:55.105062000 +07
  273  24.563636 32:32:32:32:32:32 10dBm Nov 17, 2018 01:26:55.349935000 +07
  274  24.669204 32:32:32:32:32:32 10dBm Nov 17, 2018 01:26:55.455503000 +07
  275  24.762362 32:32:32:32:32:32 9dBm Nov 17, 2018 01:26:55.548661000 +07
  276  24.797530 32:32:32:32:32:32 11dBm Nov 17, 2018 01:26:55.583829000 +07
  277  24.818440 32:32:32:32:32:32 9dBm Nov 17, 2018 01:26:55.604739000 +07
  278  25.032726 32:32:32:32:32:32 10dBm Nov 17, 2018 01:26:55.819025000 +07
  279  25.078604 32:32:32:32:32:32 10dBm Nov 17, 2018 01:26:55.864903000 +07
  280  25.177205 32:32:32:32:32:32 11dBm Nov 17, 2018 01:26:55.963504000 +07
  281  25.210039 32:32:32:32:32:32 10dBm Nov 17, 2018 01:26:55.996338000 +07
  282  25.327891 32:32:32:32:32:32 10dBm Nov 17, 2018 01:26:56.114190000 +07
  283  25.366216 32:32:32:32:32:32 10dBm Nov 17, 2018 01:26:56.152515000 +07
  284  25.428843 32:32:32:32:32:32 12dBm Nov 17, 2018 01:26:56.215142000 +07
  285  25.580863 32:32:32:32:32:32 10dBm Nov 17, 2018 01:26:56.367162000 +07
  286  25.649097 32:32:32:32:32:32 10dBm Nov 17, 2018 01:26:56.435396000 +07
  287  25.707418 32:32:32:32:32:32 9dBm Nov 17, 2018 01:26:56.493717000 +07
  288  25.780026 32:32:32:32:32:32 10dBm Nov 17, 2018 01:26:56.566325000 +07
  289  25.842627 32:32:32:32:32:32 10dBm Nov 17, 2018 01:26:56.628926000 +07
  290  25.946323 32:32:32:32:32:32 11dBm Nov 17, 2018 01:26:56.732622000 +07
  291  26.197786 32:32:32:32:32:32 9dBm Nov 17, 2018 01:26:56.984085000 +07
  292  26.313218 32:32:32:32:32:32 10dBm Nov 17, 2018 01:26:57.099517000 +07
  293  26.391234 32:32:32:32:32:32 10dBm Nov 17, 2018 01:26:57.177533000 +07
  294  26.456784 32:32:32:32:32:32 11dBm Nov 17, 2018 01:26:57.243083000 +07
  295  26.702081 32:32:32:32:32:32 9dBm Nov 17, 2018 01:26:57.488380000 +07
  296  26.729396 32:32:32:32:32:32 9dBm Nov 17, 2018 01:26:57.515695000 +07
  297  27.094436 32:32:32:32:32:32 10dBm Nov 17, 2018 01:26:57.880735000 +07
  298  27.178169 32:32:32:32:32:32 10dBm Nov 17, 2018 01:26:57.964468000 +07
  299  27.286282 32:32:32:32:32:32 10dBm Nov 17, 2018 01:26:58.072581000 +07
  300  27.313100 32:32:32:32:32:32 11dBm Nov 17, 2018 01:26:58.099399000 +07
  301  27.333885 32:32:32:32:32:32 10dBm Nov 17, 2018 01:26:58.120184000 +07
  302  27.443695 32:32:32:32:32:32 8dBm Nov 17, 2018 01:26:58.229994000 +07
  303  27.694098 32:32:32:32:32:32 9dBm Nov 17, 2018 01:26:58.480397000 +07
  304  27.855770 32:32:32:32:32:32 11dBm Nov 17, 2018 01:26:58.642069000 +07
  305  27.868829 32:32:32:32:32:32 9dBm Nov 17, 2018 01:26:58.655128000 +07
  306  27.888670 32:32:32:32:32:32 9dBm Nov 17, 2018 01:26:58.674969000 +07
  307  28.149248 32:32:32:32:32:32 9dBm Nov 17, 2018 01:26:58.935547000 +07
  308  28.270456 32:32:32:32:32:32 9dBm Nov 17, 2018 01:26:59.056755000 +07
  309  28.483498 32:32:32:32:32:32 8dBm Nov 17, 2018 01:26:59.269797000 +07
  310  28.645595 32:32:32:32:32:32 10dBm Nov 17, 2018 01:26:59.431894000 +07
  311  28.775952 32:32:32:32:32:32 8dBm Nov 17, 2018 01:26:59.562251000 +07
  312  28.883514 32:32:32:32:32:32 7dBm Nov 17, 2018 01:26:59.669813000 +07
  313  28.933963 32:32:32:32:32:32 9dBm Nov 17, 2018 01:26:59.720262000 +07
  314  28.945850 32:32:32:32:32:32 10dBm Nov 17, 2018 01:26:59.732149000 +07
  315  29.157731 32:32:32:32:32:32 9dBm Nov 17, 2018 01:26:59.944030000 +07
  316  29.331973 32:32:32:32:32:32 9dBm Nov 17, 2018 01:27:00.118272000 +07
  317  29.569117 32:32:32:32:32:32 10dBm Nov 17, 2018 01:27:00.355416000 +07
  318  29.592036 32:32:32:32:32:32 6dBm Nov 17, 2018 01:27:00.378335000 +07
  319  29.629724 32:32:32:32:32:32 10dBm Nov 17, 2018 01:27:00.416023000 +07
  320  29.645178 32:32:32:32:32:32 9dBm Nov 17, 2018 01:27:00.431477000 +07
  321  29.726956 32:32:32:32:32:32 10dBm Nov 17, 2018 01:27:00.513255000 +07
  322  29.762688 32:32:32:32:32:32 8dBm Nov 17, 2018 01:27:00.548987000 +07
  323  29.794923 32:32:32:32:32:32 9dBm Nov 17, 2018 01:27:00.581222000 +07
  324  30.034883 32:32:32:32:32:32 8dBm Nov 17, 2018 01:27:00.821182000 +07
  325  30.078110 32:32:32:32:32:32 9dBm Nov 17, 2018 01:27:00.864409000 +07
  326  30.389907 32:32:32:32:32:32 10dBm Nov 17, 2018 01:27:01.176206000 +07
  327  30.459202 32:32:32:32:32:32 10dBm Nov 17, 2018 01:27:01.245501000 +07
  328  30.577915 32:32:32:32:32:32 9dBm Nov 17, 2018 01:27:01.364214000 +07
  329  30.799914 32:32:32:32:32:32 9dBm Nov 17, 2018 01:27:01.586213000 +07
  330  30.923626 32:32:32:32:32:32 8dBm Nov 17, 2018 01:27:01.709925000 +07
  331  30.984837 32:32:32:32:32:32 7dBm Nov 17, 2018 01:27:01.771136000 +07
  332  31.024250 32:32:32:32:32:32 8dBm Nov 17, 2018 01:27:01.810549000 +07
  333  31.105634 32:32:32:32:32:32 8dBm Nov 17, 2018 01:27:01.891933000 +07
  334  31.261874 32:32:32:32:32:32 11dBm Nov 17, 2018 01:27:02.048173000 +07
  335  31.281290 32:32:32:32:32:32 9dBm Nov 17, 2018 01:27:02.067589000 +07
  336  31.302515 32:32:32:32:32:32 8dBm Nov 17, 2018 01:27:02.088814000 +07
  337  31.390294 32:32:32:32:32:32 9dBm Nov 17, 2018 01:27:02.176593000 +07
  338  31.394582 32:32:32:32:32:32 8dBm Nov 17, 2018 01:27:02.180881000 +07
  339  31.437884 32:32:32:32:32:32 10dBm Nov 17, 2018 01:27:02.224183000 +07
  340  31.569408 32:32:32:32:32:32 10dBm Nov 17, 2018 01:27:02.355707000 +07
  341  31.586174 32:32:32:32:32:32 7dBm Nov 17, 2018 01:27:02.372473000 +07
  342  31.617237 32:32:32:32:32:32 8dBm Nov 17, 2018 01:27:02.403536000 +07
  343  31.630426 32:32:32:32:32:32 9dBm Nov 17, 2018 01:27:02.416725000 +07
  344  31.652738 32:32:32:32:32:32 9dBm Nov 17, 2018 01:27:02.439037000 +07
  345  31.770450 32:32:32:32:32:32 9dBm Nov 17, 2018 01:27:02.556749000 +07
  346  31.809346 32:32:32:32:32:32 8dBm Nov 17, 2018 01:27:02.595645000 +07
  347  31.896774 32:32:32:32:32:32 9dBm Nov 17, 2018 01:27:02.683073000 +07
  348  31.935113 32:32:32:32:32:32 7dBm Nov 17, 2018 01:27:02.721412000 +07
  349  31.969939 32:32:32:32:32:32 8dBm Nov 17, 2018 01:27:02.756238000 +07
  350  31.985985 32:32:32:32:32:32 9dBm Nov 17, 2018 01:27:02.772284000 +07
  351  32.062845 32:32:32:32:32:32 10dBm Nov 17, 2018 01:27:02.849144000 +07
  352  32.145494 32:32:32:32:32:32 10dBm Nov 17, 2018 01:27:02.931793000 +07
  353  32.239220 32:32:32:32:32:32 10dBm Nov 17, 2018 01:27:03.025519000 +07
  354  32.430702 32:32:32:32:32:32 8dBm Nov 17, 2018 01:27:03.217001000 +07
  355  32.453883 32:32:32:32:32:32 10dBm Nov 17, 2018 01:27:03.240182000 +07
  356  32.529836 32:32:32:32:32:32 10dBm Nov 17, 2018 01:27:03.316135000 +07
  357  32.552392 32:32:32:32:32:32 10dBm Nov 17, 2018 01:27:03.338691000 +07
  358  32.596061 32:32:32:32:32:32 9dBm Nov 17, 2018 01:27:03.382360000 +07
  359  32.614720 32:32:32:32:32:32 9dBm Nov 17, 2018 01:27:03.401019000 +07
  360  32.676189 32:32:32:32:32:32 9dBm Nov 17, 2018 01:27:03.462488000 +07
  361  32.884029 32:32:32:32:32:32 10dBm Nov 17, 2018 01:27:03.670328000 +07
  362  33.023805 32:32:32:32:32:32 9dBm Nov 17, 2018 01:27:03.810104000 +07
  363  33.095530 32:32:32:32:32:32 9dBm Nov 17, 2018 01:27:03.881829000 +07
  364  33.229438 32:32:32:32:32:32 9dBm Nov 17, 2018 01:27:04.015737000 +07
  365  33.277915 32:32:32:32:32:32 9dBm Nov 17, 2018 01:27:04.064214000 +07
  366  33.555291 32:32:32:32:32:32 9dBm Nov 17, 2018 01:27:04.341590000 +07
  367  33.601908 32:32:32:32:32:32 8dBm Nov 17, 2018 01:27:04.388207000 +07
  368  33.784734 32:32:32:32:32:32 9dBm Nov 17, 2018 01:27:04.571033000 +07
  369  33.872915 32:32:32:32:32:32 9dBm Nov 17, 2018 01:27:04.659214000 +07
  370  33.967837 32:32:32:32:32:32 6dBm Nov 17, 2018 01:27:04.754136000 +07
  371  33.992938 32:32:32:32:32:32 10dBm Nov 17, 2018 01:27:04.779237000 +07
  372  34.081617 32:32:32:32:32:32 7dBm Nov 17, 2018 01:27:04.867916000 +07
  373  34.203157 32:32:32:32:32:32 8dBm Nov 17, 2018 01:27:04.989456000 +07
  374  34.227343 32:32:32:32:32:32 8dBm Nov 17, 2018 01:27:05.013642000 +07
  375  34.231705 32:32:32:32:32:32 8dBm Nov 17, 2018 01:27:05.018004000 +07
  376  34.339392 32:32:32:32:32:32 9dBm Nov 17, 2018 01:27:05.125691000 +07
  377  34.358564 32:32:32:32:32:32 9dBm Nov 17, 2018 01:27:05.144863000 +07
  378  34.415043 32:32:32:32:32:32 9dBm Nov 17, 2018 01:27:05.201342000 +07
  379  34.439052 32:32:32:32:32:32 10dBm Nov 17, 2018 01:27:05.225351000 +07
  380  34.650572 32:32:32:32:32:32 10dBm Nov 17, 2018 01:27:05.436871000 +07
  381  34.813913 32:32:32:32:32:32 11dBm Nov 17, 2018 01:27:05.600212000 +07
  382  34.923256 32:32:32:32:32:32 8dBm Nov 17, 2018 01:27:05.709555000 +07
  383  35.071637 32:32:32:32:32:32 9dBm Nov 17, 2018 01:27:05.857936000 +07
  384  35.097252 32:32:32:32:32:32 10dBm Nov 17, 2018 01:27:05.883551000 +07
  385  35.393706 32:32:32:32:32:32 9dBm Nov 17, 2018 01:27:06.180005000 +07
  386  35.466903 32:32:32:32:32:32 7dBm Nov 17, 2018 01:27:06.253202000 +07
  387  35.617307 32:32:32:32:32:32 9dBm Nov 17, 2018 01:27:06.403606000 +07
  388  35.695531 32:32:32:32:32:32 10dBm Nov 17, 2018 01:27:06.481830000 +07
  389  35.761506 32:32:32:32:32:32 9dBm Nov 17, 2018 01:27:06.547805000 +07
  390  35.800865 32:32:32:32:32:32 10dBm Nov 17, 2018 01:27:06.587164000 +07
  391  35.820391 32:32:32:32:32:32 10dBm Nov 17, 2018 01:27:06.606690000 +07
  392  35.900981 32:32:32:32:32:32 9dBm Nov 17, 2018 01:27:06.687280000 +07
  393  36.046638 32:32:32:32:32:32 10dBm Nov 17, 2018 01:27:06.832937000 +07
  394  36.112766 32:32:32:32:32:32 8dBm Nov 17, 2018 01:27:06.899065000 +07
  395  36.248764 32:32:32:32:32:32 10dBm Nov 17, 2018 01:27:07.035063000 +07
  396  36.421252 32:32:32:32:32:32 11dBm Nov 17, 2018 01:27:07.207551000 +07
  397  36.467343 32:32:32:32:32:32 8dBm Nov 17, 2018 01:27:07.253642000 +07
  398  36.661749 32:32:32:32:32:32 9dBm Nov 17, 2018 01:27:07.448048000 +07
  399  36.765856 32:32:32:32:32:32 8dBm Nov 17, 2018 01:27:07.552155000 +07
  400  36.828417 32:32:32:32:32:32 9dBm Nov 17, 2018 01:27:07.614716000 +07
  401  36.908975 32:32:32:32:32:32 8dBm Nov 17, 2018 01:27:07.695274000 +07
  402  37.537563 32:32:32:32:32:32 9dBm Nov 17, 2018 01:27:08.323862000 +07
  403  37.608645 32:32:32:32:32:32 10dBm Nov 17, 2018 01:27:08.394944000 +07
  404  37.702180 32:32:32:32:32:32 8dBm Nov 17, 2018 01:27:08.488479000 +07
  405  37.787346 32:32:32:32:32:32 9dBm Nov 17, 2018 01:27:08.573645000 +07
  406  37.939340 32:32:32:32:32:32 11dBm Nov 17, 2018 01:27:08.725639000 +07
  407  37.987219 32:32:32:32:32:32 9dBm Nov 17, 2018 01:27:08.773518000 +07
  408  38.006563 32:32:32:32:32:32 8dBm Nov 17, 2018 01:27:08.792862000 +07
  409  38.015695 32:32:32:32:32:32 8dBm Nov 17, 2018 01:27:08.801994000 +07
  410  38.027083 32:32:32:32:32:32 8dBm Nov 17, 2018 01:27:08.813382000 +07
  411  38.043205 32:32:32:32:32:32 10dBm Nov 17, 2018 01:27:08.829504000 +07
  412  38.063280 32:32:32:32:32:32 8dBm Nov 17, 2018 01:27:08.849579000 +07
  413  38.079538 32:32:32:32:32:32 10dBm Nov 17, 2018 01:27:08.865837000 +07
  414  38.115151 32:32:32:32:32:32 11dBm Nov 17, 2018 01:27:08.901450000 +07
  415  38.251660 32:32:32:32:32:32 9dBm Nov 17, 2018 01:27:09.037959000 +07
  416  38.369685 32:32:32:32:32:32 9dBm Nov 17, 2018 01:27:09.155984000 +07
  417  38.450588 32:32:32:32:32:32 10dBm Nov 17, 2018 01:27:09.236887000 +07
  418  38.495160 32:32:32:32:32:32 9dBm Nov 17, 2018 01:27:09.281459000 +07
  419  38.574461 32:32:32:32:32:32 9dBm Nov 17, 2018 01:27:09.360760000 +07
  420  38.687829 32:32:32:32:32:32 9dBm Nov 17, 2018 01:27:09.474128000 +07
  421  38.736999 32:32:32:32:32:32 9dBm Nov 17, 2018 01:27:09.523298000 +07
  422  38.740880 32:32:32:32:32:32 7dBm Nov 17, 2018 01:27:09.527179000 +07
  423  38.857145 32:32:32:32:32:32 9dBm Nov 17, 2018 01:27:09.643444000 +07
  424  38.947126 32:32:32:32:32:32 6dBm Nov 17, 2018 01:27:09.733425000 +07
  425  38.982669 32:32:32:32:32:32 9dBm Nov 17, 2018 01:27:09.768968000 +07
  426  39.042081 32:32:32:32:32:32 10dBm Nov 17, 2018 01:27:09.828380000 +07
  427  39.184379 32:32:32:32:32:32 11dBm Nov 17, 2018 01:27:09.970678000 +07
  428  39.367301 32:32:32:32:32:32 11dBm Nov 17, 2018 01:27:10.153600000 +07
  429  39.415221 32:32:32:32:32:32 7dBm Nov 17, 2018 01:27:10.201520000 +07
  430  39.503310 32:32:32:32:32:32 10dBm Nov 17, 2018 01:27:10.289609000 +07
  431  39.719298 32:32:32:32:32:32 8dBm Nov 17, 2018 01:27:10.505597000 +07
  432  39.868233 32:32:32:32:32:32 9dBm Nov 17, 2018 01:27:10.654532000 +07
  433  39.898635 32:32:32:32:32:32 9dBm Nov 17, 2018 01:27:10.684934000 +07
  434  39.922727 32:32:32:32:32:32 10dBm Nov 17, 2018 01:27:10.709026000 +07
  435  39.935567 32:32:32:32:32:32 10dBm Nov 17, 2018 01:27:10.721866000 +07
  436  39.955575 32:32:32:32:32:32 10dBm Nov 17, 2018 01:27:10.741874000 +07
  437  39.988349 32:32:32:32:32:32 10dBm Nov 17, 2018 01:27:10.774648000 +07
  438  40.051076 32:32:32:32:32:32 7dBm Nov 17, 2018 01:27:10.837375000 +07
  439  40.075236 32:32:32:32:32:32 10dBm Nov 17, 2018 01:27:10.861535000 +07
  440  40.130645 32:32:32:32:32:32 9dBm Nov 17, 2018 01:27:10.916944000 +07
  441  40.164885 32:32:32:32:32:32 11dBm Nov 17, 2018 01:27:10.951184000 +07
  442  40.201500 32:32:32:32:32:32 9dBm Nov 17, 2018 01:27:10.987799000 +07
  443  40.328964 32:32:32:32:32:32 10dBm Nov 17, 2018 01:27:11.115263000 +07
  444  40.370606 32:32:32:32:32:32 10dBm Nov 17, 2018 01:27:11.156905000 +07
  445  40.664680 32:32:32:32:32:32 9dBm Nov 17, 2018 01:27:11.450979000 +07
  446  40.762410 32:32:32:32:32:32 11dBm Nov 17, 2018 01:27:11.548709000 +07
  447  40.941414 32:32:32:32:32:32 9dBm Nov 17, 2018 01:27:11.727713000 +07
  448  41.172684 32:32:32:32:32:32 10dBm Nov 17, 2018 01:27:11.958983000 +07
  449  41.307073 32:32:32:32:32:32 10dBm Nov 17, 2018 01:27:12.093372000 +07
  450  41.343681 32:32:32:32:32:32 9dBm Nov 17, 2018 01:27:12.129980000 +07
  451  41.385223 32:32:32:32:32:32 7dBm Nov 17, 2018 01:27:12.171522000 +07
  452  41.563967 32:32:32:32:32:32 8dBm Nov 17, 2018 01:27:12.350266000 +07
  453  41.636979 32:32:32:32:32:32 9dBm Nov 17, 2018 01:27:12.423278000 +07
  454  41.664786 32:32:32:32:32:32 10dBm Nov 17, 2018 01:27:12.451085000 +07
  455  41.687761 32:32:32:32:32:32 9dBm Nov 17, 2018 01:27:12.474060000 +07
  456  41.707397 32:32:32:32:32:32 7dBm Nov 17, 2018 01:27:12.493696000 +07
  457  41.734272 32:32:32:32:32:32 10dBm Nov 17, 2018 01:27:12.520571000 +07
  458  41.756542 32:32:32:32:32:32 9dBm Nov 17, 2018 01:27:12.542841000 +07
  459  41.902460 32:32:32:32:32:32 9dBm Nov 17, 2018 01:27:12.688759000 +07
  460  41.964885 32:32:32:32:32:32 9dBm Nov 17, 2018 01:27:12.751184000 +07
  461  41.988211 32:32:32:32:32:32 10dBm Nov 17, 2018 01:27:12.774510000 +07
  462  42.216207 32:32:32:32:32:32 10dBm Nov 17, 2018 01:27:13.002506000 +07
  463  42.276361 32:32:32:32:32:32 9dBm Nov 17, 2018 01:27:13.062660000 +07
  464  42.679923 32:32:32:32:32:32 10dBm Nov 17, 2018 01:27:13.466222000 +07
  465  42.715460 32:32:32:32:32:32 9dBm Nov 17, 2018 01:27:13.501759000 +07
  466  42.810735 32:32:32:32:32:32 9dBm Nov 17, 2018 01:27:13.597034000 +07
  467  42.860478 32:32:32:32:32:32 10dBm Nov 17, 2018 01:27:13.646777000 +07
  468  43.112942 32:32:32:32:32:32 11dBm Nov 17, 2018 01:27:13.899241000 +07
  469  43.132645 32:32:32:32:32:32 8dBm Nov 17, 2018 01:27:13.918944000 +07
  470  43.147058 32:32:32:32:32:32 9dBm Nov 17, 2018 01:27:13.933357000 +07
  471  43.226740 32:32:32:32:32:32 9dBm Nov 17, 2018 01:27:14.013039000 +07
  472  43.285413 32:32:32:32:32:32 10dBm Nov 17, 2018 01:27:14.071712000 +07
  473  43.303995 32:32:32:32:32:32 11dBm Nov 17, 2018 01:27:14.090294000 +07
  474  43.368869 32:32:32:32:32:32 7dBm Nov 17, 2018 01:27:14.155168000 +07
  475  43.383768 32:32:32:32:32:32 11dBm Nov 17, 2018 01:27:14.170067000 +07
  476  43.544110 32:32:32:32:32:32 10dBm Nov 17, 2018 01:27:14.330409000 +07
  477  43.570593 32:32:32:32:32:32 10dBm Nov 17, 2018 01:27:14.356892000 +07
  478  43.591575 32:32:32:32:32:32 9dBm Nov 17, 2018 01:27:14.377874000 +07
  479  43.776360 32:32:32:32:32:32 8dBm Nov 17, 2018 01:27:14.562659000 +07
  480  43.832837 32:32:32:32:32:32 8dBm Nov 17, 2018 01:27:14.619136000 +07
  481  43.996298 32:32:32:32:32:32 9dBm Nov 17, 2018 01:27:14.782597000 +07
  482  44.245053 32:32:32:32:32:32 9dBm Nov 17, 2018 01:27:15.031352000 +07
  483  44.295565 32:32:32:32:32:32 9dBm Nov 17, 2018 01:27:15.081864000 +07
  484  44.307447 32:32:32:32:32:32 10dBm Nov 17, 2018 01:27:15.093746000 +07
  485  44.322835 32:32:32:32:32:32 10dBm Nov 17, 2018 01:27:15.109134000 +07
  486  44.351605 32:32:32:32:32:32 9dBm Nov 17, 2018 01:27:15.137904000 +07
  487  44.476300 32:32:32:32:32:32 10dBm Nov 17, 2018 01:27:15.262599000 +07
  488  44.499312 32:32:32:32:32:32 9dBm Nov 17, 2018 01:27:15.285611000 +07
  489  44.519761 32:32:32:32:32:32 9dBm Nov 17, 2018 01:27:15.306060000 +07
  490  44.541372 32:32:32:32:32:32 10dBm Nov 17, 2018 01:27:15.327671000 +07
  491  44.560992 32:32:32:32:32:32 9dBm Nov 17, 2018 01:27:15.347291000 +07
  492  44.584458 32:32:32:32:32:32 10dBm Nov 17, 2018 01:27:15.370757000 +07
  493  44.791643 32:32:32:32:32:32 9dBm Nov 17, 2018 01:27:15.577942000 +07
  494  44.833494 32:32:32:32:32:32 8dBm Nov 17, 2018 01:27:15.619793000 +07
  495  44.881768 32:32:32:32:32:32 11dBm Nov 17, 2018 01:27:15.668067000 +07
  496  45.016630 32:32:32:32:32:32 9dBm Nov 17, 2018 01:27:15.802929000 +07
  497  45.037664 32:32:32:32:32:32 9dBm Nov 17, 2018 01:27:15.823963000 +07
  498  45.162127 32:32:32:32:32:32 11dBm Nov 17, 2018 01:27:15.948426000 +07
  499  45.333053 32:32:32:32:32:32 10dBm Nov 17, 2018 01:27:16.119352000 +07
  500  45.359509 32:32:32:32:32:32 10dBm Nov 17, 2018 01:27:16.145808000 +07
  501  45.422824 32:32:32:32:32:32 7dBm Nov 17, 2018 01:27:16.209123000 +07
  502  45.489146 32:32:32:32:32:32 9dBm Nov 17, 2018 01:27:16.275445000 +07
  503  45.556087 32:32:32:32:32:32 11dBm Nov 17, 2018 01:27:16.342386000 +07
  504  45.601022 32:32:32:32:32:32 10dBm Nov 17, 2018 01:27:16.387321000 +07
  505  45.689001 32:32:32:32:32:32 9dBm Nov 17, 2018 01:27:16.475300000 +07
  506  45.764090 32:32:32:32:32:32 9dBm Nov 17, 2018 01:27:16.550389000 +07
  507  45.870995 32:32:32:32:32:32 10dBm Nov 17, 2018 01:27:16.657294000 +07
  508  45.941153 32:32:32:32:32:32 11dBm Nov 17, 2018 01:27:16.727452000 +07
  509  45.982149 32:32:32:32:32:32 10dBm Nov 17, 2018 01:27:16.768448000 +07
  510  46.002947 32:32:32:32:32:32 9dBm Nov 17, 2018 01:27:16.789246000 +07
  511  46.030689 32:32:32:32:32:32 9dBm Nov 17, 2018 01:27:16.816988000 +07
  512  46.308925 32:32:32:32:32:32 10dBm Nov 17, 2018 01:27:17.095224000 +07
  513  46.399805 32:32:32:32:32:32 9dBm Nov 17, 2018 01:27:17.186104000 +07
  514  46.561998 32:32:32:32:32:32 10dBm Nov 17, 2018 01:27:17.348297000 +07
  515  46.767874 32:32:32:32:32:32 11dBm Nov 17, 2018 01:27:17.554173000 +07
  516  46.800934 32:32:32:32:32:32 9dBm Nov 17, 2018 01:27:17.587233000 +07
  517  46.882422 32:32:32:32:32:32 9dBm Nov 17, 2018 01:27:17.668721000 +07
  518  46.901798 32:32:32:32:32:32 10dBm Nov 17, 2018 01:27:17.688097000 +07
  519  46.940387 32:32:32:32:32:32 8dBm Nov 17, 2018 01:27:17.726686000 +07
  520  47.065391 32:32:32:32:32:32 10dBm Nov 17, 2018 01:27:17.851690000 +07
  521  47.209046 32:32:32:32:32:32 11dBm Nov 17, 2018 01:27:17.995345000 +07
  522  47.584138 32:32:32:32:32:32 10dBm Nov 17, 2018 01:27:18.370437000 +07
  523  47.664242 32:32:32:32:32:32 9dBm Nov 17, 2018 01:27:18.450541000 +07
  524  47.777802 32:32:32:32:32:32 10dBm Nov 17, 2018 01:27:18.564101000 +07
  525  47.827955 32:32:32:32:32:32 7dBm Nov 17, 2018 01:27:18.614254000 +07
  526  47.900753 32:32:32:32:32:32 10dBm Nov 17, 2018 01:27:18.687052000 +07
  527  47.965406 32:32:32:32:32:32 10dBm Nov 17, 2018 01:27:18.751705000 +07
  528  47.987997 32:32:32:32:32:32 9dBm Nov 17, 2018 01:27:18.774296000 +07
  529  48.078360 32:32:32:32:32:32 10dBm Nov 17, 2018 01:27:18.864659000 +07
  530  48.195286 32:32:32:32:32:32 10dBm Nov 17, 2018 01:27:18.981585000 +07
  531  48.220517 32:32:32:32:32:32 10dBm Nov 17, 2018 01:27:19.006816000 +07
  532  48.262236 32:32:32:32:32:32 6dBm Nov 17, 2018 01:27:19.048535000 +07
  533  48.300411 32:32:32:32:32:32 10dBm Nov 17, 2018 01:27:19.086710000 +07
  534  48.431350 32:32:32:32:32:32 9dBm Nov 17, 2018 01:27:19.217649000 +07
  535  48.548941 32:32:32:32:32:32 9dBm Nov 17, 2018 01:27:19.335240000 +07
  536  48.577837 32:32:32:32:32:32 10dBm Nov 17, 2018 01:27:19.364136000 +07
  537  48.713587 32:32:32:32:32:32 9dBm Nov 17, 2018 01:27:19.499886000 +07
  538  48.728531 32:32:32:32:32:32 8dBm Nov 17, 2018 01:27:19.514830000 +07
  539  48.970022 32:32:32:32:32:32 10dBm Nov 17, 2018 01:27:19.756321000 +07
  540  49.144480 32:32:32:32:32:32 10dBm Nov 17, 2018 01:27:19.930779000 +07
  541  49.294227 32:32:32:32:32:32 10dBm Nov 17, 2018 01:27:20.080526000 +07
  542  49.320399 32:32:32:32:32:32 7dBm Nov 17, 2018 01:27:20.106698000 +07
  543  49.558683 32:32:32:32:32:32 12dBm Nov 17, 2018 01:27:20.344982000 +07
  544  49.643442 32:32:32:32:32:32 9dBm Nov 17, 2018 01:27:20.429741000 +07
  545  49.711463 32:32:32:32:32:32 8dBm Nov 17, 2018 01:27:20.497762000 +07
  546  49.746690 32:32:32:32:32:32 8dBm Nov 17, 2018 01:27:20.532989000 +07
  547  49.783177 32:32:32:32:32:32 10dBm Nov 17, 2018 01:27:20.569476000 +07
  548  49.831969 32:32:32:32:32:32 9dBm Nov 17, 2018 01:27:20.618268000 +07
  549  49.945420 32:32:32:32:32:32 11dBm Nov 17, 2018 01:27:20.731719000 +07
  550  49.990479 32:32:32:32:32:32 12dBm Nov 17, 2018 01:27:20.776778000 +07
  551  50.021998 32:32:32:32:32:32 11dBm Nov 17, 2018 01:27:20.808297000 +07
  552  50.063796 32:32:32:32:32:32 9dBm Nov 17, 2018 01:27:20.850095000 +07
  553  50.081744 32:32:32:32:32:32 6dBm Nov 17, 2018 01:27:20.868043000 +07
  554  50.101596 32:32:32:32:32:32 11dBm Nov 17, 2018 01:27:20.887895000 +07
  555  50.167765 32:32:32:32:32:32 11dBm Nov 17, 2018 01:27:20.954064000 +07
  556  50.331492 32:32:32:32:32:32 12dBm Nov 17, 2018 01:27:21.117791000 +07
  557  50.381504 32:32:32:32:32:32 12dBm Nov 17, 2018 01:27:21.167803000 +07
  558  50.479451 32:32:32:32:32:32 11dBm Nov 17, 2018 01:27:21.265750000 +07
  559  50.533366 32:32:32:32:32:32 11dBm Nov 17, 2018 01:27:21.319665000 +07
  560  50.618671 32:32:32:32:32:32 10dBm Nov 17, 2018 01:27:21.404970000 +07
  561  50.695137 32:32:32:32:32:32 12dBm Nov 17, 2018 01:27:21.481436000 +07
  562  50.780381 32:32:32:32:32:32 11dBm Nov 17, 2018 01:27:21.566680000 +07
  563  50.799114 32:32:32:32:32:32 11dBm Nov 17, 2018 01:27:21.585413000 +07
  564  50.904515 32:32:32:32:32:32 11dBm Nov 17, 2018 01:27:21.690814000 +07
  565  51.062861 32:32:32:32:32:32 11dBm Nov 17, 2018 01:27:21.849160000 +07
  566  51.090754 32:32:32:32:32:32 11dBm Nov 17, 2018 01:27:21.877053000 +07
  567  51.141904 32:32:32:32:32:32 10dBm Nov 17, 2018 01:27:21.928203000 +07
  568  51.176694 32:32:32:32:32:32 10dBm Nov 17, 2018 01:27:21.962993000 +07
  569  51.338822 32:32:32:32:32:32 9dBm Nov 17, 2018 01:27:22.125121000 +07
  570  51.527926 32:32:32:32:32:32 11dBm Nov 17, 2018 01:27:22.314225000 +07
  571  51.546451 32:32:32:32:32:32 11dBm Nov 17, 2018 01:27:22.332750000 +07
  572  51.563935 32:32:32:32:32:32 11dBm Nov 17, 2018 01:27:22.350234000 +07
  573  51.701439 32:32:32:32:32:32 11dBm Nov 17, 2018 01:27:22.487738000 +07
  574  51.732857 32:32:32:32:32:32 12dBm Nov 17, 2018 01:27:22.519156000 +07
  575  51.765123 32:32:32:32:32:32 10dBm Nov 17, 2018 01:27:22.551422000 +07
  576  51.871650 32:32:32:32:32:32 10dBm Nov 17, 2018 01:27:22.657949000 +07
  577  51.985770 32:32:32:32:32:32 11dBm Nov 17, 2018 01:27:22.772069000 +07
  578  52.214203 32:32:32:32:32:32 10dBm Nov 17, 2018 01:27:23.000502000 +07
  579  52.280255 32:32:32:32:32:32 11dBm Nov 17, 2018 01:27:23.066554000 +07
  580  52.308944 32:32:32:32:32:32 12dBm Nov 17, 2018 01:27:23.095243000 +07
  581  52.521232 32:32:32:32:32:32 10dBm Nov 17, 2018 01:27:23.307531000 +07
  582  52.543406 32:32:32:32:32:32 11dBm Nov 17, 2018 01:27:23.329705000 +07
  583  52.577510 32:32:32:32:32:32 10dBm Nov 17, 2018 01:27:23.363809000 +07
  584  52.659867 32:32:32:32:32:32 10dBm Nov 17, 2018 01:27:23.446166000 +07
  585  52.691420 32:32:32:32:32:32 11dBm Nov 17, 2018 01:27:23.477719000 +07
  586  52.989247 32:32:32:32:32:32 10dBm Nov 17, 2018 01:27:23.775546000 +07
  587  53.023655 32:32:32:32:32:32 11dBm Nov 17, 2018 01:27:23.809954000 +07
  588  53.043539 32:32:32:32:32:32 12dBm Nov 17, 2018 01:27:23.829838000 +07
  589  53.059877 32:32:32:32:32:32 11dBm Nov 17, 2018 01:27:23.846176000 +07
  590  53.100632 32:32:32:32:32:32 12dBm Nov 17, 2018 01:27:23.886931000 +07
  591  53.224045 32:32:32:32:32:32 12dBm Nov 17, 2018 01:27:24.010344000 +07
  592  53.328184 32:32:32:32:32:32 12dBm Nov 17, 2018 01:27:24.114483000 +07
  593  53.446078 32:32:32:32:32:32 11dBm Nov 17, 2018 01:27:24.232377000 +07
  594  53.606365 32:32:32:32:32:32 11dBm Nov 17, 2018 01:27:24.392664000 +07
  595  53.803512 32:32:32:32:32:32 10dBm Nov 17, 2018 01:27:24.589811000 +07
  596  53.865887 32:32:32:32:32:32 12dBm Nov 17, 2018 01:27:24.652186000 +07
  597  54.028082 32:32:32:32:32:32 11dBm Nov 17, 2018 01:27:24.814381000 +07
  598  54.119559 32:32:32:32:32:32 12dBm Nov 17, 2018 01:27:24.905858000 +07
  599  54.222162 32:32:32:32:32:32 10dBm Nov 17, 2018 01:27:25.008461000 +07
  600  54.250990 32:32:32:32:32:32 10dBm Nov 17, 2018 01:27:25.037289000 +07
  601  54.301743 32:32:32:32:32:32 10dBm Nov 17, 2018 01:27:25.088042000 +07
  602  54.328870 32:32:32:32:32:32 9dBm Nov 17, 2018 01:27:25.115169000 +07
  603  54.383261 32:32:32:32:32:32 10dBm Nov 17, 2018 01:27:25.169560000 +07
