    1   0.000000 32:32:32:32:32:32 5dBm Nov 17, 2018 01:46:06.317552000 +07
    2   0.019285 32:32:32:32:32:32 6dBm Nov 17, 2018 01:46:06.336837000 +07
    3   0.346062 32:32:32:32:32:32 6dBm Nov 17, 2018 01:46:06.663614000 +07
    4   0.422980 32:32:32:32:32:32 5dBm Nov 17, 2018 01:46:06.740532000 +07
    5   0.579148 32:32:32:32:32:32 6dBm Nov 17, 2018 01:46:06.896700000 +07
    6   0.665363 32:32:32:32:32:32 5dBm Nov 17, 2018 01:46:06.982915000 +07
    7   0.680818 32:32:32:32:32:32 1dBm Nov 17, 2018 01:46:06.998370000 +07
    8   0.699459 32:32:32:32:32:32 6dBm Nov 17, 2018 01:46:07.017011000 +07
    9   0.975798 32:32:32:32:32:32 4dBm Nov 17, 2018 01:46:07.293350000 +07
   10   0.999568 32:32:32:32:32:32 4dBm Nov 17, 2018 01:46:07.317120000 +07
   11   1.015436 32:32:32:32:32:32 4dBm Nov 17, 2018 01:46:07.332988000 +07
   12   1.371748 32:32:32:32:32:32 4dBm Nov 17, 2018 01:46:07.689300000 +07
   13   2.110722 32:32:32:32:32:32 5dBm Nov 17, 2018 01:46:08.428274000 +07
   14   2.297369 32:32:32:32:32:32 3dBm Nov 17, 2018 01:46:08.614921000 +07
   15   2.365939 32:32:32:32:32:32 7dBm Nov 17, 2018 01:46:08.683491000 +07
   16   2.380685 32:32:32:32:32:32 7dBm Nov 17, 2018 01:46:08.698237000 +07
   17   2.416548 32:32:32:32:32:32 6dBm Nov 17, 2018 01:46:08.734100000 +07
   18   2.586013 32:32:32:32:32:32 4dBm Nov 17, 2018 01:46:08.903565000 +07
   19   2.778082 32:32:32:32:32:32 3dBm Nov 17, 2018 01:46:09.095634000 +07
   20   3.896024 32:32:32:32:32:32 5dBm Nov 17, 2018 01:46:10.213576000 +07
   21   4.692841 32:32:32:32:32:32 6dBm Nov 17, 2018 01:46:11.010393000 +07
   22   4.787593 32:32:32:32:32:32 4dBm Nov 17, 2018 01:46:11.105145000 +07
   23   5.059731 32:32:32:32:32:32 6dBm Nov 17, 2018 01:46:11.377283000 +07
   24   5.835367 32:32:32:32:32:32 5dBm Nov 17, 2018 01:46:12.152919000 +07
   25   6.330452 32:32:32:32:32:32 3dBm Nov 17, 2018 01:46:12.648004000 +07
   26   6.355284 32:32:32:32:32:32 3dBm Nov 17, 2018 01:46:12.672836000 +07
   27   6.519747 32:32:32:32:32:32 4dBm Nov 17, 2018 01:46:12.837299000 +07
   28   6.956654 32:32:32:32:32:32 5dBm Nov 17, 2018 01:46:13.274206000 +07
   29   7.225677 32:32:32:32:32:32 4dBm Nov 17, 2018 01:46:13.543229000 +07
   30   7.249997 32:32:32:32:32:32 6dBm Nov 17, 2018 01:46:13.567549000 +07
   31   7.340358 32:32:32:32:32:32 5dBm Nov 17, 2018 01:46:13.657910000 +07
   32   7.390620 32:32:32:32:32:32 5dBm Nov 17, 2018 01:46:13.708172000 +07
   33   9.211612 32:32:32:32:32:32 7dBm Nov 17, 2018 01:46:15.529164000 +07
   34   9.394303 32:32:32:32:32:32 5dBm Nov 17, 2018 01:46:15.711855000 +07
   35   9.419951 32:32:32:32:32:32 6dBm Nov 17, 2018 01:46:15.737503000 +07
   36  10.265605 32:32:32:32:32:32 6dBm Nov 17, 2018 01:46:16.583157000 +07
   37  10.667895 32:32:32:32:32:32 6dBm Nov 17, 2018 01:46:16.985447000 +07
   38  10.873762 32:32:32:32:32:32 7dBm Nov 17, 2018 01:46:17.191314000 +07
   39  10.963863 32:32:32:32:32:32 4dBm Nov 17, 2018 01:46:17.281415000 +07
   40  11.351835 32:32:32:32:32:32 6dBm Nov 17, 2018 01:46:17.669387000 +07
   41  11.448242 32:32:32:32:32:32 8dBm Nov 17, 2018 01:46:17.765794000 +07
   42  11.635277 32:32:32:32:32:32 5dBm Nov 17, 2018 01:46:17.952829000 +07
   43  12.005177 32:32:32:32:32:32 6dBm Nov 17, 2018 01:46:18.322729000 +07
   44  12.034622 32:32:32:32:32:32 6dBm Nov 17, 2018 01:46:18.352174000 +07
   45  13.047023 32:32:32:32:32:32 5dBm Nov 17, 2018 01:46:19.364575000 +07
   46  13.065884 32:32:32:32:32:32 5dBm Nov 17, 2018 01:46:19.383436000 +07
   47  13.674877 32:32:32:32:32:32 5dBm Nov 17, 2018 01:46:19.992429000 +07
   48  13.920821 32:32:32:32:32:32 6dBm Nov 17, 2018 01:46:20.238373000 +07
   49  14.501129 32:32:32:32:32:32 5dBm Nov 17, 2018 01:46:20.818681000 +07
   50  14.722907 32:32:32:32:32:32 5dBm Nov 17, 2018 01:46:21.040459000 +07
   51  15.071260 32:32:32:32:32:32 2dBm Nov 17, 2018 01:46:21.388812000 +07
   52  15.209177 32:32:32:32:32:32 6dBm Nov 17, 2018 01:46:21.526729000 +07
   53  15.269401 32:32:32:32:32:32 4dBm Nov 17, 2018 01:46:21.586953000 +07
   54  15.333782 32:32:32:32:32:32 5dBm Nov 17, 2018 01:46:21.651334000 +07
   55  15.556050 32:32:32:32:32:32 5dBm Nov 17, 2018 01:46:21.873602000 +07
   56  15.776243 32:32:32:32:32:32 6dBm Nov 17, 2018 01:46:22.093795000 +07
   57  15.976680 32:32:32:32:32:32 5dBm Nov 17, 2018 01:46:22.294232000 +07
   58  16.060460 32:32:32:32:32:32 5dBm Nov 17, 2018 01:46:22.378012000 +07
   59  16.457675 32:32:32:32:32:32 5dBm Nov 17, 2018 01:46:22.775227000 +07
   60  16.906430 32:32:32:32:32:32 6dBm Nov 17, 2018 01:46:23.223982000 +07
   61  17.061629 32:32:32:32:32:32 4dBm Nov 17, 2018 01:46:23.379181000 +07
   62  17.103263 32:32:32:32:32:32 5dBm Nov 17, 2018 01:46:23.420815000 +07
   63  17.122110 32:32:32:32:32:32 7dBm Nov 17, 2018 01:46:23.439662000 +07
   64  17.248422 32:32:32:32:32:32 6dBm Nov 17, 2018 01:46:23.565974000 +07
   65  17.397214 32:32:32:32:32:32 4dBm Nov 17, 2018 01:46:23.714766000 +07
   66  17.501492 32:32:32:32:32:32 6dBm Nov 17, 2018 01:46:23.819044000 +07
   67  18.326725 32:32:32:32:32:32 5dBm Nov 17, 2018 01:46:24.644277000 +07
   68  18.473975 32:32:32:32:32:32 4dBm Nov 17, 2018 01:46:24.791527000 +07
   69  18.641631 32:32:32:32:32:32 6dBm Nov 17, 2018 01:46:24.959183000 +07
   70  19.041111 32:32:32:32:32:32 5dBm Nov 17, 2018 01:46:25.358663000 +07
   71  19.739848 32:32:32:32:32:32 5dBm Nov 17, 2018 01:46:26.057400000 +07
   72  20.317275 32:32:32:32:32:32 6dBm Nov 17, 2018 01:46:26.634827000 +07
   73  20.520580 32:32:32:32:32:32 5dBm Nov 17, 2018 01:46:26.838132000 +07
   74  20.555975 32:32:32:32:32:32 6dBm Nov 17, 2018 01:46:26.873527000 +07
   75  20.639423 32:32:32:32:32:32 5dBm Nov 17, 2018 01:46:26.956975000 +07
   76  20.915249 32:32:32:32:32:32 4dBm Nov 17, 2018 01:46:27.232801000 +07
   77  21.317264 32:32:32:32:32:32 4dBm Nov 17, 2018 01:46:27.634816000 +07
   78  21.700080 32:32:32:32:32:32 5dBm Nov 17, 2018 01:46:28.017632000 +07
   79  22.093803 32:32:32:32:32:32 5dBm Nov 17, 2018 01:46:28.411355000 +07
   80  22.231082 32:32:32:32:32:32 5dBm Nov 17, 2018 01:46:28.548634000 +07
   81  22.252273 32:32:32:32:32:32 5dBm Nov 17, 2018 01:46:28.569825000 +07
   82  22.831562 32:32:32:32:32:32 5dBm Nov 17, 2018 01:46:29.149114000 +07
   83  23.719203 32:32:32:32:32:32 4dBm Nov 17, 2018 01:46:30.036755000 +07
   84  23.748644 32:32:32:32:32:32 5dBm Nov 17, 2018 01:46:30.066196000 +07
   85  24.410578 32:32:32:32:32:32 5dBm Nov 17, 2018 01:46:30.728130000 +07
   86  24.913214 32:32:32:32:32:32 6dBm Nov 17, 2018 01:46:31.230766000 +07
   87  25.661147 32:32:32:32:32:32 4dBm Nov 17, 2018 01:46:31.978699000 +07
   88  25.852301 32:32:32:32:32:32 3dBm Nov 17, 2018 01:46:32.169853000 +07
   89  27.320444 32:32:32:32:32:32 5dBm Nov 17, 2018 01:46:33.637996000 +07
   90  27.342747 32:32:32:32:32:32 4dBm Nov 17, 2018 01:46:33.660299000 +07
   91  27.380148 32:32:32:32:32:32 4dBm Nov 17, 2018 01:46:33.697700000 +07
   92  28.657387 32:32:32:32:32:32 5dBm Nov 17, 2018 01:46:34.974939000 +07
   93  28.896154 32:32:32:32:32:32 6dBm Nov 17, 2018 01:46:35.213706000 +07
   94  29.422681 32:32:32:32:32:32 6dBm Nov 17, 2018 01:46:35.740233000 +07
   95  29.718809 32:32:32:32:32:32 7dBm Nov 17, 2018 01:46:36.036361000 +07
   96  30.015038 32:32:32:32:32:32 4dBm Nov 17, 2018 01:46:36.332590000 +07
   97  30.082835 32:32:32:32:32:32 4dBm Nov 17, 2018 01:46:36.400387000 +07
   98  30.152056 32:32:32:32:32:32 5dBm Nov 17, 2018 01:46:36.469608000 +07
   99  30.343429 32:32:32:32:32:32 4dBm Nov 17, 2018 01:46:36.660981000 +07
  100  30.361244 32:32:32:32:32:32 3dBm Nov 17, 2018 01:46:36.678796000 +07
  101  30.437745 32:32:32:32:32:32 5dBm Nov 17, 2018 01:46:36.755297000 +07
  102  31.160370 32:32:32:32:32:32 5dBm Nov 17, 2018 01:46:37.477922000 +07
  103  31.285555 32:32:32:32:32:32 5dBm Nov 17, 2018 01:46:37.603107000 +07
  104  31.783970 32:32:32:32:32:32 4dBm Nov 17, 2018 01:46:38.101522000 +07
  105  31.874051 32:32:32:32:32:32 3dBm Nov 17, 2018 01:46:38.191603000 +07
  106  32.077255 32:32:32:32:32:32 6dBm Nov 17, 2018 01:46:38.394807000 +07
  107  32.632997 32:32:32:32:32:32 6dBm Nov 17, 2018 01:46:38.950549000 +07
  108  32.683710 32:32:32:32:32:32 4dBm Nov 17, 2018 01:46:39.001262000 +07
  109  32.869615 32:32:32:32:32:32 6dBm Nov 17, 2018 01:46:39.187167000 +07
  110  33.072972 32:32:32:32:32:32 4dBm Nov 17, 2018 01:46:39.390524000 +07
  111  33.160881 32:32:32:32:32:32 6dBm Nov 17, 2018 01:46:39.478433000 +07
  112  33.361052 32:32:32:32:32:32 3dBm Nov 17, 2018 01:46:39.678604000 +07
  113  33.766441 32:32:32:32:32:32 5dBm Nov 17, 2018 01:46:40.083993000 +07
  114  34.059204 32:32:32:32:32:32 5dBm Nov 17, 2018 01:46:40.376756000 +07
  115  34.099378 32:32:32:32:32:32 5dBm Nov 17, 2018 01:46:40.416930000 +07
  116  34.593515 32:32:32:32:32:32 6dBm Nov 17, 2018 01:46:40.911067000 +07
  117  35.003853 32:32:32:32:32:32 4dBm Nov 17, 2018 01:46:41.321405000 +07
  118  35.055590 32:32:32:32:32:32 6dBm Nov 17, 2018 01:46:41.373142000 +07
  119  35.698607 32:32:32:32:32:32 3dBm Nov 17, 2018 01:46:42.016159000 +07
  120  35.752613 32:32:32:32:32:32 3dBm Nov 17, 2018 01:46:42.070165000 +07
  121  36.046040 32:32:32:32:32:32 4dBm Nov 17, 2018 01:46:42.363592000 +07
  122  36.291750 32:32:32:32:32:32 4dBm Nov 17, 2018 01:46:42.609302000 +07
  123  36.645644 32:32:32:32:32:32 5dBm Nov 17, 2018 01:46:42.963196000 +07
  124  36.774546 32:32:32:32:32:32 5dBm Nov 17, 2018 01:46:43.092098000 +07
  125  37.396410 32:32:32:32:32:32 5dBm Nov 17, 2018 01:46:43.713962000 +07
  126  37.498303 32:32:32:32:32:32 4dBm Nov 17, 2018 01:46:43.815855000 +07
  127  37.622200 32:32:32:32:32:32 5dBm Nov 17, 2018 01:46:43.939752000 +07
  128  37.764307 32:32:32:32:32:32 4dBm Nov 17, 2018 01:46:44.081859000 +07
  129  37.806990 32:32:32:32:32:32 5dBm Nov 17, 2018 01:46:44.124542000 +07
  130  37.927947 32:32:32:32:32:32 6dBm Nov 17, 2018 01:46:44.245499000 +07
  131  38.097812 32:32:32:32:32:32 5dBm Nov 17, 2018 01:46:44.415364000 +07
  132  38.188726 32:32:32:32:32:32 5dBm Nov 17, 2018 01:46:44.506278000 +07
  133  38.350653 32:32:32:32:32:32 5dBm Nov 17, 2018 01:46:44.668205000 +07
  134  38.598781 32:32:32:32:32:32 5dBm Nov 17, 2018 01:46:44.916333000 +07
  135  38.656750 32:32:32:32:32:32 4dBm Nov 17, 2018 01:46:44.974302000 +07
  136  38.705985 32:32:32:32:32:32 5dBm Nov 17, 2018 01:46:45.023537000 +07
  137  38.748980 32:32:32:32:32:32 5dBm Nov 17, 2018 01:46:45.066532000 +07
  138  38.831416 32:32:32:32:32:32 5dBm Nov 17, 2018 01:46:45.148968000 +07
  139  38.919112 32:32:32:32:32:32 5dBm Nov 17, 2018 01:46:45.236664000 +07
  140  39.175890 32:32:32:32:32:32 6dBm Nov 17, 2018 01:46:45.493442000 +07
  141  39.698413 32:32:32:32:32:32 5dBm Nov 17, 2018 01:46:46.015965000 +07
  142  40.626118 32:32:32:32:32:32 4dBm Nov 17, 2018 01:46:46.943670000 +07
  143  40.646155 32:32:32:32:32:32 5dBm Nov 17, 2018 01:46:46.963707000 +07
  144  41.070565 32:32:32:32:32:32 5dBm Nov 17, 2018 01:46:47.388117000 +07
  145  41.350393 32:32:32:32:32:32 5dBm Nov 17, 2018 01:46:47.667945000 +07
  146  41.385902 32:32:32:32:32:32 5dBm Nov 17, 2018 01:46:47.703454000 +07
  147  41.655229 32:32:32:32:32:32 5dBm Nov 17, 2018 01:46:47.972781000 +07
  148  42.715424 32:32:32:32:32:32 5dBm Nov 17, 2018 01:46:49.032976000 +07
  149  42.994275 32:32:32:32:32:32 4dBm Nov 17, 2018 01:46:49.311827000 +07
  150  43.291022 32:32:32:32:32:32 5dBm Nov 17, 2018 01:46:49.608574000 +07
  151  43.368588 32:32:32:32:32:32 3dBm Nov 17, 2018 01:46:49.686140000 +07
  152  43.845094 32:32:32:32:32:32 4dBm Nov 17, 2018 01:46:50.162646000 +07
  153  43.932822 32:32:32:32:32:32 5dBm Nov 17, 2018 01:46:50.250374000 +07
  154  43.952883 32:32:32:32:32:32 4dBm Nov 17, 2018 01:46:50.270435000 +07
  155  43.984959 32:32:32:32:32:32 5dBm Nov 17, 2018 01:46:50.302511000 +07
  156  44.599390 32:32:32:32:32:32 5dBm Nov 17, 2018 01:46:50.916942000 +07
  157  44.718393 32:32:32:32:32:32 4dBm Nov 17, 2018 01:46:51.035945000 +07
  158  45.115692 32:32:32:32:32:32 6dBm Nov 17, 2018 01:46:51.433244000 +07
  159  45.142939 32:32:32:32:32:32 4dBm Nov 17, 2018 01:46:51.460491000 +07
  160  45.295648 32:32:32:32:32:32 3dBm Nov 17, 2018 01:46:51.613200000 +07
  161  45.387355 32:32:32:32:32:32 5dBm Nov 17, 2018 01:46:51.704907000 +07
  162  45.461260 32:32:32:32:32:32 5dBm Nov 17, 2018 01:46:51.778812000 +07
  163  45.514474 32:32:32:32:32:32 4dBm Nov 17, 2018 01:46:51.832026000 +07
  164  46.119402 32:32:32:32:32:32 5dBm Nov 17, 2018 01:46:52.436954000 +07
  165  46.134559 32:32:32:32:32:32 4dBm Nov 17, 2018 01:46:52.452111000 +07
  166  46.565641 32:32:32:32:32:32 5dBm Nov 17, 2018 01:46:52.883193000 +07
  167  46.602283 32:32:32:32:32:32 6dBm Nov 17, 2018 01:46:52.919835000 +07
  168  46.882734 32:32:32:32:32:32 4dBm Nov 17, 2018 01:46:53.200286000 +07
  169  47.349509 32:32:32:32:32:32 3dBm Nov 17, 2018 01:46:53.667061000 +07
  170  47.368469 32:32:32:32:32:32 3dBm Nov 17, 2018 01:46:53.686021000 +07
  171  48.691013 32:32:32:32:32:32 2dBm Nov 17, 2018 01:46:55.008565000 +07
  172  48.725501 32:32:32:32:32:32 3dBm Nov 17, 2018 01:46:55.043053000 +07
  173  48.964709 32:32:32:32:32:32 6dBm Nov 17, 2018 01:46:55.282261000 +07
  174  49.046727 32:32:32:32:32:32 5dBm Nov 17, 2018 01:46:55.364279000 +07
  175  49.275600 32:32:32:32:32:32 5dBm Nov 17, 2018 01:46:55.593152000 +07
  176  49.428502 32:32:32:32:32:32 4dBm Nov 17, 2018 01:46:55.746054000 +07
  177  50.288730 32:32:32:32:32:32 6dBm Nov 17, 2018 01:46:56.606282000 +07
  178  50.298080 32:32:32:32:32:32 6dBm Nov 17, 2018 01:46:56.615632000 +07
  179  50.528404 32:32:32:32:32:32 5dBm Nov 17, 2018 01:46:56.845956000 +07
  180  50.616512 32:32:32:32:32:32 4dBm Nov 17, 2018 01:46:56.934064000 +07
  181  50.730458 32:32:32:32:32:32 5dBm Nov 17, 2018 01:46:57.048010000 +07
  182  51.727255 32:32:32:32:32:32 6dBm Nov 17, 2018 01:46:58.044807000 +07
  183  51.792406 32:32:32:32:32:32 6dBm Nov 17, 2018 01:46:58.109958000 +07
  184  52.362330 32:32:32:32:32:32 4dBm Nov 17, 2018 01:46:58.679882000 +07
  185  52.972823 32:32:32:32:32:32 5dBm Nov 17, 2018 01:46:59.290375000 +07
  186  53.069891 32:32:32:32:32:32 2dBm Nov 17, 2018 01:46:59.387443000 +07
  187  53.466756 32:32:32:32:32:32 3dBm Nov 17, 2018 01:46:59.784308000 +07
  188  53.793142 32:32:32:32:32:32 5dBm Nov 17, 2018 01:47:00.110694000 +07
  189  53.827093 32:32:32:32:32:32 5dBm Nov 17, 2018 01:47:00.144645000 +07
  190  53.971152 32:32:32:32:32:32 6dBm Nov 17, 2018 01:47:00.288704000 +07
  191  54.006212 32:32:32:32:32:32 5dBm Nov 17, 2018 01:47:00.323764000 +07
  192  54.673705 32:32:32:32:32:32 3dBm Nov 17, 2018 01:47:00.991257000 +07
  193  55.351970 32:32:32:32:32:32 5dBm Nov 17, 2018 01:47:01.669522000 +07
  194  55.393477 32:32:32:32:32:32 6dBm Nov 17, 2018 01:47:01.711029000 +07
  195  55.541937 32:32:32:32:32:32 5dBm Nov 17, 2018 01:47:01.859489000 +07
  196  55.904882 32:32:32:32:32:32 6dBm Nov 17, 2018 01:47:02.222434000 +07
  197  55.989145 32:32:32:32:32:32 6dBm Nov 17, 2018 01:47:02.306697000 +07
  198  56.165067 32:32:32:32:32:32 5dBm Nov 17, 2018 01:47:02.482619000 +07
  199  56.217995 32:32:32:32:32:32 6dBm Nov 17, 2018 01:47:02.535547000 +07
  200  56.254895 32:32:32:32:32:32 5dBm Nov 17, 2018 01:47:02.572447000 +07
  201  56.580953 32:32:32:32:32:32 5dBm Nov 17, 2018 01:47:02.898505000 +07
  202  56.602362 32:32:32:32:32:32 5dBm Nov 17, 2018 01:47:02.919914000 +07
  203  56.871808 32:32:32:32:32:32 5dBm Nov 17, 2018 01:47:03.189360000 +07
  204  57.362889 32:32:32:32:32:32 6dBm Nov 17, 2018 01:47:03.680441000 +07
  205  58.741388 32:32:32:32:32:32 3dBm Nov 17, 2018 01:47:05.058940000 +07
  206  59.003236 32:32:32:32:32:32 5dBm Nov 17, 2018 01:47:05.320788000 +07
  207  59.492679 32:32:32:32:32:32 4dBm Nov 17, 2018 01:47:05.810231000 +07
  208  59.892728 32:32:32:32:32:32 5dBm Nov 17, 2018 01:47:06.210280000 +07
  209  60.263062 32:32:32:32:32:32 6dBm Nov 17, 2018 01:47:06.580614000 +07
  210  60.566522 32:32:32:32:32:32 4dBm Nov 17, 2018 01:47:06.884074000 +07
  211  61.173171 32:32:32:32:32:32 4dBm Nov 17, 2018 01:47:07.490723000 +07
  212  61.801582 32:32:32:32:32:32 4dBm Nov 17, 2018 01:47:08.119134000 +07
  213  62.292462 32:32:32:32:32:32 5dBm Nov 17, 2018 01:47:08.610014000 +07
  214  62.368817 32:32:32:32:32:32 6dBm Nov 17, 2018 01:47:08.686369000 +07
  215  62.473627 32:32:32:32:32:32 5dBm Nov 17, 2018 01:47:08.791179000 +07
  216  62.764425 32:32:32:32:32:32 5dBm Nov 17, 2018 01:47:09.081977000 +07
  217  62.924474 32:32:32:32:32:32 5dBm Nov 17, 2018 01:47:09.242026000 +07
  218  63.087178 32:32:32:32:32:32 6dBm Nov 17, 2018 01:47:09.404730000 +07
  219  63.534083 32:32:32:32:32:32 2dBm Nov 17, 2018 01:47:09.851635000 +07
  220  63.557286 32:32:32:32:32:32 6dBm Nov 17, 2018 01:47:09.874838000 +07
  221  63.642005 32:32:32:32:32:32 5dBm Nov 17, 2018 01:47:09.959557000 +07
  222  64.066057 32:32:32:32:32:32 5dBm Nov 17, 2018 01:47:10.383609000 +07
  223  64.376996 32:32:32:32:32:32 4dBm Nov 17, 2018 01:47:10.694548000 +07
  224  64.444422 32:32:32:32:32:32 6dBm Nov 17, 2018 01:47:10.761974000 +07
  225  64.655129 32:32:32:32:32:32 4dBm Nov 17, 2018 01:47:10.972681000 +07
  226  64.771998 32:32:32:32:32:32 3dBm Nov 17, 2018 01:47:11.089550000 +07
  227  65.670091 32:32:32:32:32:32 6dBm Nov 17, 2018 01:47:11.987643000 +07
  228  65.882101 32:32:32:32:32:32 5dBm Nov 17, 2018 01:47:12.199653000 +07
  229  66.016981 32:32:32:32:32:32 4dBm Nov 17, 2018 01:47:12.334533000 +07
  230  66.183537 32:32:32:32:32:32 6dBm Nov 17, 2018 01:47:12.501089000 +07
  231  66.600085 32:32:32:32:32:32 4dBm Nov 17, 2018 01:47:12.917637000 +07
  232  66.726758 32:32:32:32:32:32 4dBm Nov 17, 2018 01:47:13.044310000 +07
  233  67.070474 32:32:32:32:32:32 5dBm Nov 17, 2018 01:47:13.388026000 +07
  234  67.115583 32:32:32:32:32:32 7dBm Nov 17, 2018 01:47:13.433135000 +07
  235  67.368546 32:32:32:32:32:32 4dBm Nov 17, 2018 01:47:13.686098000 +07
  236  67.484772 32:32:32:32:32:32 5dBm Nov 17, 2018 01:47:13.802324000 +07
  237  67.518951 32:32:32:32:32:32 7dBm Nov 17, 2018 01:47:13.836503000 +07
  238  67.607966 32:32:32:32:32:32 5dBm Nov 17, 2018 01:47:13.925518000 +07
  239  68.019645 32:32:32:32:32:32 4dBm Nov 17, 2018 01:47:14.337197000 +07
  240  68.397110 32:32:32:32:32:32 5dBm Nov 17, 2018 01:47:14.714662000 +07
  241  68.512184 32:32:32:32:32:32 6dBm Nov 17, 2018 01:47:14.829736000 +07
  242  68.534984 32:32:32:32:32:32 6dBm Nov 17, 2018 01:47:14.852536000 +07
  243  68.910085 32:32:32:32:32:32 5dBm Nov 17, 2018 01:47:15.227637000 +07
  244  68.943023 32:32:32:32:32:32 5dBm Nov 17, 2018 01:47:15.260575000 +07
  245  69.610026 32:32:32:32:32:32 4dBm Nov 17, 2018 01:47:15.927578000 +07
  246  69.750650 32:32:32:32:32:32 6dBm Nov 17, 2018 01:47:16.068202000 +07
  247  69.976183 32:32:32:32:32:32 5dBm Nov 17, 2018 01:47:16.293735000 +07
  248  70.657784 32:32:32:32:32:32 4dBm Nov 17, 2018 01:47:16.975336000 +07
  249  70.795852 32:32:32:32:32:32 5dBm Nov 17, 2018 01:47:17.113404000 +07
  250  70.971863 32:32:32:32:32:32 4dBm Nov 17, 2018 01:47:17.289415000 +07
  251  71.015165 32:32:32:32:32:32 5dBm Nov 17, 2018 01:47:17.332717000 +07
  252  71.194395 32:32:32:32:32:32 4dBm Nov 17, 2018 01:47:17.511947000 +07
  253  71.557205 32:32:32:32:32:32 5dBm Nov 17, 2018 01:47:17.874757000 +07
  254  71.575498 32:32:32:32:32:32 4dBm Nov 17, 2018 01:47:17.893050000 +07
  255  71.591735 32:32:32:32:32:32 5dBm Nov 17, 2018 01:47:17.909287000 +07
  256  71.783277 32:32:32:32:32:32 5dBm Nov 17, 2018 01:47:18.100829000 +07
  257  71.792745 32:32:32:32:32:32 4dBm Nov 17, 2018 01:47:18.110297000 +07
  258  71.836744 32:32:32:32:32:32 4dBm Nov 17, 2018 01:47:18.154296000 +07
  259  73.206901 32:32:32:32:32:32 7dBm Nov 17, 2018 01:47:19.524453000 +07
  260  73.335131 32:32:32:32:32:32 4dBm Nov 17, 2018 01:47:19.652683000 +07
  261  73.392922 32:32:32:32:32:32 4dBm Nov 17, 2018 01:47:19.710474000 +07
  262  73.825206 32:32:32:32:32:32 4dBm Nov 17, 2018 01:47:20.142758000 +07
  263  73.937541 32:32:32:32:32:32 6dBm Nov 17, 2018 01:47:20.255093000 +07
  264  73.989284 32:32:32:32:32:32 3dBm Nov 17, 2018 01:47:20.306836000 +07
  265  74.264023 32:32:32:32:32:32 5dBm Nov 17, 2018 01:47:20.581575000 +07
