    1   0.000000 32:32:32:32:32:32 5dBm Nov 18, 2018 02:39:52.638205000 +07
    2   0.148054 32:32:32:32:32:32 6dBm Nov 18, 2018 02:39:52.786259000 +07
    3   0.364328 32:32:32:32:32:32 5dBm Nov 18, 2018 02:39:53.002533000 +07
    4   0.428301 32:32:32:32:32:32 3dBm Nov 18, 2018 02:39:53.066506000 +07
    5   1.176881 32:32:32:32:32:32 6dBm Nov 18, 2018 02:39:53.815086000 +07
    6   1.467500 32:32:32:32:32:32 6dBm Nov 18, 2018 02:39:54.105705000 +07
    7   1.490551 32:32:32:32:32:32 5dBm Nov 18, 2018 02:39:54.128756000 +07
    8   1.520348 32:32:32:32:32:32 6dBm Nov 18, 2018 02:39:54.158553000 +07
    9   1.526237 32:32:32:32:32:32 7dBm Nov 18, 2018 02:39:54.164442000 +07
   10   1.570981 32:32:32:32:32:32 7dBm Nov 18, 2018 02:39:54.209186000 +07
   11   1.646786 32:32:32:32:32:32 5dBm Nov 18, 2018 02:39:54.284991000 +07
   12   1.667213 32:32:32:32:32:32 6dBm Nov 18, 2018 02:39:54.305418000 +07
   13   1.700108 32:32:32:32:32:32 7dBm Nov 18, 2018 02:39:54.338313000 +07
   14   1.715101 32:32:32:32:32:32 5dBm Nov 18, 2018 02:39:54.353306000 +07
   15   1.754273 32:32:32:32:32:32 5dBm Nov 18, 2018 02:39:54.392478000 +07
   16   1.912867 32:32:32:32:32:32 6dBm Nov 18, 2018 02:39:54.551072000 +07
   17   2.013999 32:32:32:32:32:32 3dBm Nov 18, 2018 02:39:54.652204000 +07
   18   2.228184 32:32:32:32:32:32 6dBm Nov 18, 2018 02:39:54.866389000 +07
   19   2.255802 32:32:32:32:32:32 6dBm Nov 18, 2018 02:39:54.894007000 +07
   20   2.319764 32:32:32:32:32:32 5dBm Nov 18, 2018 02:39:54.957969000 +07
   21   2.671866 32:32:32:32:32:32 5dBm Nov 18, 2018 02:39:55.310071000 +07
   22   2.774884 32:32:32:32:32:32 7dBm Nov 18, 2018 02:39:55.413089000 +07
   23   2.854217 32:32:32:32:32:32 5dBm Nov 18, 2018 02:39:55.492422000 +07
   24   3.018184 32:32:32:32:32:32 6dBm Nov 18, 2018 02:39:55.656389000 +07
   25   3.209804 32:32:32:32:32:32 7dBm Nov 18, 2018 02:39:55.848009000 +07
   26   3.256199 32:32:32:32:32:32 8dBm Nov 18, 2018 02:39:55.894404000 +07
   27   3.383677 32:32:32:32:32:32 5dBm Nov 18, 2018 02:39:56.021882000 +07
   28   3.434344 32:32:32:32:32:32 7dBm Nov 18, 2018 02:39:56.072549000 +07
   29   3.470833 32:32:32:32:32:32 6dBm Nov 18, 2018 02:39:56.109038000 +07
   30   3.514969 32:32:32:32:32:32 7dBm Nov 18, 2018 02:39:56.153174000 +07
   31   3.529507 32:32:32:32:32:32 8dBm Nov 18, 2018 02:39:56.167712000 +07
   32   3.553292 32:32:32:32:32:32 7dBm Nov 18, 2018 02:39:56.191497000 +07
   33   3.626987 32:32:32:32:32:32 4dBm Nov 18, 2018 02:39:56.265192000 +07
   34   3.685782 32:32:32:32:32:32 5dBm Nov 18, 2018 02:39:56.323987000 +07
   35   3.712851 32:32:32:32:32:32 4dBm Nov 18, 2018 02:39:56.351056000 +07
   36   3.868685 32:32:32:32:32:32 7dBm Nov 18, 2018 02:39:56.506890000 +07
   37   3.946513 32:32:32:32:32:32 6dBm Nov 18, 2018 02:39:56.584718000 +07
   38   4.079143 32:32:32:32:32:32 6dBm Nov 18, 2018 02:39:56.717348000 +07
   39   4.135820 32:32:32:32:32:32 6dBm Nov 18, 2018 02:39:56.774025000 +07
   40   4.248004 32:32:32:32:32:32 5dBm Nov 18, 2018 02:39:56.886209000 +07
   41   4.280419 32:32:32:32:32:32 6dBm Nov 18, 2018 02:39:56.918624000 +07
   42   4.362208 32:32:32:32:32:32 8dBm Nov 18, 2018 02:39:57.000413000 +07
   43   4.421768 32:32:32:32:32:32 6dBm Nov 18, 2018 02:39:57.059973000 +07
   44   4.564197 32:32:32:32:32:32 8dBm Nov 18, 2018 02:39:57.202402000 +07
   45   4.826083 32:32:32:32:32:32 3dBm Nov 18, 2018 02:39:57.464288000 +07
   46   5.216603 32:32:32:32:32:32 5dBm Nov 18, 2018 02:39:57.854808000 +07
   47   5.661782 32:32:32:32:32:32 5dBm Nov 18, 2018 02:39:58.299987000 +07
   48   5.692282 32:32:32:32:32:32 2dBm Nov 18, 2018 02:39:58.330487000 +07
   49   5.799739 32:32:32:32:32:32 6dBm Nov 18, 2018 02:39:58.437944000 +07
   50   5.813818 32:32:32:32:32:32 5dBm Nov 18, 2018 02:39:58.452023000 +07
   51   5.902886 32:32:32:32:32:32 4dBm Nov 18, 2018 02:39:58.541091000 +07
   52   6.072029 32:32:32:32:32:32 6dBm Nov 18, 2018 02:39:58.710234000 +07
   53   6.122395 32:32:32:32:32:32 6dBm Nov 18, 2018 02:39:58.760600000 +07
   54   6.142771 32:32:32:32:32:32 7dBm Nov 18, 2018 02:39:58.780976000 +07
   55   6.224237 32:32:32:32:32:32 7dBm Nov 18, 2018 02:39:58.862442000 +07
   56   6.496354 32:32:32:32:32:32 6dBm Nov 18, 2018 02:39:59.134559000 +07
   57   6.729667 32:32:32:32:32:32 6dBm Nov 18, 2018 02:39:59.367872000 +07
   58   6.831660 32:32:32:32:32:32 5dBm Nov 18, 2018 02:39:59.469865000 +07
   59   6.935771 32:32:32:32:32:32 7dBm Nov 18, 2018 02:39:59.573976000 +07
   60   6.958381 32:32:32:32:32:32 5dBm Nov 18, 2018 02:39:59.596586000 +07
   61   6.995940 32:32:32:32:32:32 6dBm Nov 18, 2018 02:39:59.634145000 +07
   62   7.041828 32:32:32:32:32:32 5dBm Nov 18, 2018 02:39:59.680033000 +07
   63   7.105348 32:32:32:32:32:32 7dBm Nov 18, 2018 02:39:59.743553000 +07
   64   7.146492 32:32:32:32:32:32 7dBm Nov 18, 2018 02:39:59.784697000 +07
   65   7.225650 32:32:32:32:32:32 4dBm Nov 18, 2018 02:39:59.863855000 +07
   66   7.274558 32:32:32:32:32:32 5dBm Nov 18, 2018 02:39:59.912763000 +07
   67   7.312947 32:32:32:32:32:32 4dBm Nov 18, 2018 02:39:59.951152000 +07
   68   7.374134 32:32:32:32:32:32 5dBm Nov 18, 2018 02:40:00.012339000 +07
   69   7.428488 32:32:32:32:32:32 5dBm Nov 18, 2018 02:40:00.066693000 +07
   70   7.512869 32:32:32:32:32:32 6dBm Nov 18, 2018 02:40:00.151074000 +07
   71   7.566995 32:32:32:32:32:32 2dBm Nov 18, 2018 02:40:00.205200000 +07
   72   7.605650 32:32:32:32:32:32 5dBm Nov 18, 2018 02:40:00.243855000 +07
   73   7.668252 32:32:32:32:32:32 4dBm Nov 18, 2018 02:40:00.306457000 +07
   74   7.872970 32:32:32:32:32:32 3dBm Nov 18, 2018 02:40:00.511175000 +07
   75   8.174830 32:32:32:32:32:32 5dBm Nov 18, 2018 02:40:00.813035000 +07
   76   8.204089 32:32:32:32:32:32 5dBm Nov 18, 2018 02:40:00.842294000 +07
   77   8.744711 32:32:32:32:32:32 4dBm Nov 18, 2018 02:40:01.382916000 +07
   78   8.778076 32:32:32:32:32:32 4dBm Nov 18, 2018 02:40:01.416281000 +07
   79   8.841831 32:32:32:32:32:32 5dBm Nov 18, 2018 02:40:01.480036000 +07
   80   8.854612 32:32:32:32:32:32 7dBm Nov 18, 2018 02:40:01.492817000 +07
   81   8.875787 32:32:32:32:32:32 6dBm Nov 18, 2018 02:40:01.513992000 +07
   82   8.898027 32:32:32:32:32:32 6dBm Nov 18, 2018 02:40:01.536232000 +07
   83   9.072138 32:32:32:32:32:32 3dBm Nov 18, 2018 02:40:01.710343000 +07
   84   9.099943 32:32:32:32:32:32 4dBm Nov 18, 2018 02:40:01.738148000 +07
   85   9.501564 32:32:32:32:32:32 5dBm Nov 18, 2018 02:40:02.139769000 +07
   86   9.553083 32:32:32:32:32:32 5dBm Nov 18, 2018 02:40:02.191288000 +07
   87   9.707858 32:32:32:32:32:32 5dBm Nov 18, 2018 02:40:02.346063000 +07
   88   9.961582 32:32:32:32:32:32 7dBm Nov 18, 2018 02:40:02.599787000 +07
   89   9.988542 32:32:32:32:32:32 8dBm Nov 18, 2018 02:40:02.626747000 +07
   90  10.011131 32:32:32:32:32:32 6dBm Nov 18, 2018 02:40:02.649336000 +07
   91  10.158958 32:32:32:32:32:32 5dBm Nov 18, 2018 02:40:02.797163000 +07
   92  10.218223 32:32:32:32:32:32 4dBm Nov 18, 2018 02:40:02.856428000 +07
   93  10.387945 32:32:32:32:32:32 5dBm Nov 18, 2018 02:40:03.026150000 +07
   94  10.671673 32:32:32:32:32:32 4dBm Nov 18, 2018 02:40:03.309878000 +07
   95  11.119842 32:32:32:32:32:32 5dBm Nov 18, 2018 02:40:03.758047000 +07
   96  11.259104 32:32:32:32:32:32 6dBm Nov 18, 2018 02:40:03.897309000 +07
   97  11.281434 32:32:32:32:32:32 8dBm Nov 18, 2018 02:40:03.919639000 +07
   98  11.361220 32:32:32:32:32:32 5dBm Nov 18, 2018 02:40:03.999425000 +07
   99  11.438856 32:32:32:32:32:32 8dBm Nov 18, 2018 02:40:04.077061000 +07
  100  11.738899 32:32:32:32:32:32 5dBm Nov 18, 2018 02:40:04.377104000 +07
  101  11.810401 32:32:32:32:32:32 7dBm Nov 18, 2018 02:40:04.448606000 +07
  102  11.835505 32:32:32:32:32:32 6dBm Nov 18, 2018 02:40:04.473710000 +07
  103  11.845896 32:32:32:32:32:32 6dBm Nov 18, 2018 02:40:04.484101000 +07
  104  11.922326 32:32:32:32:32:32 5dBm Nov 18, 2018 02:40:04.560531000 +07
  105  12.004841 32:32:32:32:32:32 4dBm Nov 18, 2018 02:40:04.643046000 +07
  106  12.038040 32:32:32:32:32:32 7dBm Nov 18, 2018 02:40:04.676245000 +07
  107  12.056872 32:32:32:32:32:32 5dBm Nov 18, 2018 02:40:04.695077000 +07
  108  12.542820 32:32:32:32:32:32 3dBm Nov 18, 2018 02:40:05.181025000 +07
  109  12.703926 32:32:32:32:32:32 4dBm Nov 18, 2018 02:40:05.342131000 +07
  110  13.137361 32:32:32:32:32:32 6dBm Nov 18, 2018 02:40:05.775566000 +07
  111  13.396854 32:32:32:32:32:32 7dBm Nov 18, 2018 02:40:06.035059000 +07
  112  13.771043 32:32:32:32:32:32 6dBm Nov 18, 2018 02:40:06.409248000 +07
  113  14.063001 32:32:32:32:32:32 6dBm Nov 18, 2018 02:40:06.701206000 +07
  114  14.405901 32:32:32:32:32:32 7dBm Nov 18, 2018 02:40:07.044106000 +07
  115  14.607101 32:32:32:32:32:32 3dBm Nov 18, 2018 02:40:07.245306000 +07
  116  14.733131 32:32:32:32:32:32 4dBm Nov 18, 2018 02:40:07.371336000 +07
  117  14.784689 32:32:32:32:32:32 6dBm Nov 18, 2018 02:40:07.422894000 +07
  118  15.006922 32:32:32:32:32:32 4dBm Nov 18, 2018 02:40:07.645127000 +07
  119  15.114072 32:32:32:32:32:32 8dBm Nov 18, 2018 02:40:07.752277000 +07
  120  15.356294 32:32:32:32:32:32 7dBm Nov 18, 2018 02:40:07.994499000 +07
  121  15.515008 32:32:32:32:32:32 6dBm Nov 18, 2018 02:40:08.153213000 +07
  122  15.603630 32:32:32:32:32:32 7dBm Nov 18, 2018 02:40:08.241835000 +07
  123  15.696416 32:32:32:32:32:32 7dBm Nov 18, 2018 02:40:08.334621000 +07
  124  15.854141 32:32:32:32:32:32 4dBm Nov 18, 2018 02:40:08.492346000 +07
  125  15.885085 32:32:32:32:32:32 7dBm Nov 18, 2018 02:40:08.523290000 +07
  126  16.184454 32:32:32:32:32:32 6dBm Nov 18, 2018 02:40:08.822659000 +07
  127  16.364553 32:32:32:32:32:32 3dBm Nov 18, 2018 02:40:09.002758000 +07
  128  16.433198 32:32:32:32:32:32 6dBm Nov 18, 2018 02:40:09.071403000 +07
  129  16.536968 32:32:32:32:32:32 5dBm Nov 18, 2018 02:40:09.175173000 +07
  130  16.820374 32:32:32:32:32:32 5dBm Nov 18, 2018 02:40:09.458579000 +07
  131  16.884645 32:32:32:32:32:32 7dBm Nov 18, 2018 02:40:09.522850000 +07
  132  16.980524 32:32:32:32:32:32 4dBm Nov 18, 2018 02:40:09.618729000 +07
  133  17.028446 32:32:32:32:32:32 6dBm Nov 18, 2018 02:40:09.666651000 +07
  134  17.487740 32:32:32:32:32:32 6dBm Nov 18, 2018 02:40:10.125945000 +07
  135  17.528761 32:32:32:32:32:32 7dBm Nov 18, 2018 02:40:10.166966000 +07
  136  18.225156 32:32:32:32:32:32 4dBm Nov 18, 2018 02:40:10.863361000 +07
  137  19.199808 32:32:32:32:32:32 6dBm Nov 18, 2018 02:40:11.838013000 +07
  138  19.277612 32:32:32:32:32:32 5dBm Nov 18, 2018 02:40:11.915817000 +07
  139  20.221803 32:32:32:32:32:32 5dBm Nov 18, 2018 02:40:12.860008000 +07
  140  20.517599 32:32:32:32:32:32 5dBm Nov 18, 2018 02:40:13.155804000 +07
  141  20.850613 32:32:32:32:32:32 7dBm Nov 18, 2018 02:40:13.488818000 +07
  142  20.947486 32:32:32:32:32:32 7dBm Nov 18, 2018 02:40:13.585691000 +07
  143  21.250965 32:32:32:32:32:32 4dBm Nov 18, 2018 02:40:13.889170000 +07
  144  22.019060 32:32:32:32:32:32 5dBm Nov 18, 2018 02:40:14.657265000 +07
  145  22.046769 32:32:32:32:32:32 6dBm Nov 18, 2018 02:40:14.684974000 +07
  146  22.331295 32:32:32:32:32:32 3dBm Nov 18, 2018 02:40:14.969500000 +07
  147  22.363489 32:32:32:32:32:32 4dBm Nov 18, 2018 02:40:15.001694000 +07
  148  22.414604 32:32:32:32:32:32 7dBm Nov 18, 2018 02:40:15.052809000 +07
  149  22.651226 32:32:32:32:32:32 6dBm Nov 18, 2018 02:40:15.289431000 +07
  150  22.891608 32:32:32:32:32:32 5dBm Nov 18, 2018 02:40:15.529813000 +07
  151  23.033768 32:32:32:32:32:32 6dBm Nov 18, 2018 02:40:15.671973000 +07
  152  23.114764 32:32:32:32:32:32 5dBm Nov 18, 2018 02:40:15.752969000 +07
  153  23.170133 32:32:32:32:32:32 6dBm Nov 18, 2018 02:40:15.808338000 +07
  154  23.263320 32:32:32:32:32:32 6dBm Nov 18, 2018 02:40:15.901525000 +07
  155  23.466372 32:32:32:32:32:32 5dBm Nov 18, 2018 02:40:16.104577000 +07
  156  23.543421 32:32:32:32:32:32 5dBm Nov 18, 2018 02:40:16.181626000 +07
  157  23.567532 32:32:32:32:32:32 8dBm Nov 18, 2018 02:40:16.205737000 +07
  158  23.823205 32:32:32:32:32:32 6dBm Nov 18, 2018 02:40:16.461410000 +07
  159  23.923914 32:32:32:32:32:32 4dBm Nov 18, 2018 02:40:16.562119000 +07
  160  24.843525 32:32:32:32:32:32 6dBm Nov 18, 2018 02:40:17.481730000 +07
  161  25.126087 32:32:32:32:32:32 6dBm Nov 18, 2018 02:40:17.764292000 +07
  162  25.282452 32:32:32:32:32:32 6dBm Nov 18, 2018 02:40:17.920657000 +07
  163  25.380353 32:32:32:32:32:32 7dBm Nov 18, 2018 02:40:18.018558000 +07
  164  25.445691 32:32:32:32:32:32 6dBm Nov 18, 2018 02:40:18.083896000 +07
  165  26.379991 32:32:32:32:32:32 7dBm Nov 18, 2018 02:40:19.018196000 +07
  166  26.532803 32:32:32:32:32:32 6dBm Nov 18, 2018 02:40:19.171008000 +07
  167  26.665033 32:32:32:32:32:32 5dBm Nov 18, 2018 02:40:19.303238000 +07
  168  26.674927 32:32:32:32:32:32 6dBm Nov 18, 2018 02:40:19.313132000 +07
  169  26.851577 32:32:32:32:32:32 7dBm Nov 18, 2018 02:40:19.489782000 +07
  170  27.013384 32:32:32:32:32:32 8dBm Nov 18, 2018 02:40:19.651589000 +07
  171  27.089269 32:32:32:32:32:32 5dBm Nov 18, 2018 02:40:19.727474000 +07
  172  27.263743 32:32:32:32:32:32 7dBm Nov 18, 2018 02:40:19.901948000 +07
  173  27.294043 32:32:32:32:32:32 6dBm Nov 18, 2018 02:40:19.932248000 +07
  174  27.437191 32:32:32:32:32:32 7dBm Nov 18, 2018 02:40:20.075396000 +07
  175  27.848942 32:32:32:32:32:32 6dBm Nov 18, 2018 02:40:20.487147000 +07
  176  27.971675 32:32:32:32:32:32 5dBm Nov 18, 2018 02:40:20.609880000 +07
  177  28.258703 32:32:32:32:32:32 6dBm Nov 18, 2018 02:40:20.896908000 +07
  178  28.584582 32:32:32:32:32:32 8dBm Nov 18, 2018 02:40:21.222787000 +07
  179  28.793786 32:32:32:32:32:32 6dBm Nov 18, 2018 02:40:21.431991000 +07
  180  29.148516 32:32:32:32:32:32 5dBm Nov 18, 2018 02:40:21.786721000 +07
  181  29.702865 32:32:32:32:32:32 7dBm Nov 18, 2018 02:40:22.341070000 +07
  182  29.719369 32:32:32:32:32:32 7dBm Nov 18, 2018 02:40:22.357574000 +07
  183  30.064142 32:32:32:32:32:32 3dBm Nov 18, 2018 02:40:22.702347000 +07
  184  30.343906 32:32:32:32:32:32 5dBm Nov 18, 2018 02:40:22.982111000 +07
  185  30.375927 32:32:32:32:32:32 5dBm Nov 18, 2018 02:40:23.014132000 +07
  186  30.451045 32:32:32:32:32:32 7dBm Nov 18, 2018 02:40:23.089250000 +07
  187  30.606910 32:32:32:32:32:32 6dBm Nov 18, 2018 02:40:23.245115000 +07
  188  30.891761 32:32:32:32:32:32 7dBm Nov 18, 2018 02:40:23.529966000 +07
  189  32.601067 32:32:32:32:32:32 6dBm Nov 18, 2018 02:40:25.239272000 +07
  190  32.638560 32:32:32:32:32:32 5dBm Nov 18, 2018 02:40:25.276765000 +07
  191  32.794210 32:32:32:32:32:32 4dBm Nov 18, 2018 02:40:25.432415000 +07
  192  33.436798 32:32:32:32:32:32 6dBm Nov 18, 2018 02:40:26.075003000 +07
  193  33.664448 32:32:32:32:32:32 5dBm Nov 18, 2018 02:40:26.302653000 +07
  194  33.962937 32:32:32:32:32:32 6dBm Nov 18, 2018 02:40:26.601142000 +07
  195  34.043998 32:32:32:32:32:32 7dBm Nov 18, 2018 02:40:26.682203000 +07
  196  34.163457 32:32:32:32:32:32 6dBm Nov 18, 2018 02:40:26.801662000 +07
  197  34.400873 32:32:32:32:32:32 5dBm Nov 18, 2018 02:40:27.039078000 +07
  198  34.737242 32:32:32:32:32:32 5dBm Nov 18, 2018 02:40:27.375447000 +07
  199  34.766170 32:32:32:32:32:32 5dBm Nov 18, 2018 02:40:27.404375000 +07
  200  34.805456 32:32:32:32:32:32 5dBm Nov 18, 2018 02:40:27.443661000 +07
  201  34.821318 32:32:32:32:32:32 6dBm Nov 18, 2018 02:40:27.459523000 +07
  202  34.845643 32:32:32:32:32:32 7dBm Nov 18, 2018 02:40:27.483848000 +07
  203  34.889175 32:32:32:32:32:32 6dBm Nov 18, 2018 02:40:27.527380000 +07
  204  34.932082 32:32:32:32:32:32 6dBm Nov 18, 2018 02:40:27.570287000 +07
  205  35.040868 32:32:32:32:32:32 7dBm Nov 18, 2018 02:40:27.679073000 +07
  206  35.053961 32:32:32:32:32:32 6dBm Nov 18, 2018 02:40:27.692166000 +07
  207  35.079910 32:32:32:32:32:32 5dBm Nov 18, 2018 02:40:27.718115000 +07
  208  35.109916 32:32:32:32:32:32 5dBm Nov 18, 2018 02:40:27.748121000 +07
  209  35.155618 32:32:32:32:32:32 6dBm Nov 18, 2018 02:40:27.793823000 +07
  210  35.218992 32:32:32:32:32:32 5dBm Nov 18, 2018 02:40:27.857197000 +07
  211  35.290346 32:32:32:32:32:32 4dBm Nov 18, 2018 02:40:27.928551000 +07
  212  35.395679 32:32:32:32:32:32 6dBm Nov 18, 2018 02:40:28.033884000 +07
  213  35.415572 32:32:32:32:32:32 7dBm Nov 18, 2018 02:40:28.053777000 +07
  214  35.497318 32:32:32:32:32:32 5dBm Nov 18, 2018 02:40:28.135523000 +07
  215  35.586585 32:32:32:32:32:32 5dBm Nov 18, 2018 02:40:28.224790000 +07
  216  36.157880 32:32:32:32:32:32 6dBm Nov 18, 2018 02:40:28.796085000 +07
  217  36.402220 32:32:32:32:32:32 4dBm Nov 18, 2018 02:40:29.040425000 +07
  218  36.431966 32:32:32:32:32:32 7dBm Nov 18, 2018 02:40:29.070171000 +07
  219  36.586285 32:32:32:32:32:32 6dBm Nov 18, 2018 02:40:29.224490000 +07
  220  36.698860 32:32:32:32:32:32 7dBm Nov 18, 2018 02:40:29.337065000 +07
  221  36.854813 32:32:32:32:32:32 7dBm Nov 18, 2018 02:40:29.493018000 +07
  222  36.890515 32:32:32:32:32:32 6dBm Nov 18, 2018 02:40:29.528720000 +07
  223  36.901975 32:32:32:32:32:32 7dBm Nov 18, 2018 02:40:29.540180000 +07
  224  36.905947 32:32:32:32:32:32 7dBm Nov 18, 2018 02:40:29.544152000 +07
  225  36.933534 32:32:32:32:32:32 6dBm Nov 18, 2018 02:40:29.571739000 +07
  226  37.185839 32:32:32:32:32:32 5dBm Nov 18, 2018 02:40:29.824044000 +07
  227  37.262334 32:32:32:32:32:32 6dBm Nov 18, 2018 02:40:29.900539000 +07
  228  37.353038 32:32:32:32:32:32 6dBm Nov 18, 2018 02:40:29.991243000 +07
  229  37.509077 32:32:32:32:32:32 7dBm Nov 18, 2018 02:40:30.147282000 +07
  230  37.567385 32:32:32:32:32:32 6dBm Nov 18, 2018 02:40:30.205590000 +07
  231  37.790463 32:32:32:32:32:32 5dBm Nov 18, 2018 02:40:30.428668000 +07
  232  39.097899 32:32:32:32:32:32 6dBm Nov 18, 2018 02:40:31.736104000 +07
  233  39.177303 32:32:32:32:32:32 6dBm Nov 18, 2018 02:40:31.815508000 +07
  234  39.690205 32:32:32:32:32:32 6dBm Nov 18, 2018 02:40:32.328410000 +07
  235  39.947094 32:32:32:32:32:32 6dBm Nov 18, 2018 02:40:32.585299000 +07
  236  40.295696 32:32:32:32:32:32 6dBm Nov 18, 2018 02:40:32.933901000 +07
  237  40.861165 32:32:32:32:32:32 7dBm Nov 18, 2018 02:40:33.499370000 +07
  238  40.930027 32:32:32:32:32:32 6dBm Nov 18, 2018 02:40:33.568232000 +07
  239  40.998398 32:32:32:32:32:32 6dBm Nov 18, 2018 02:40:33.636603000 +07
  240  41.312763 32:32:32:32:32:32 8dBm Nov 18, 2018 02:40:33.950968000 +07
  241  41.388872 32:32:32:32:32:32 6dBm Nov 18, 2018 02:40:34.027077000 +07
  242  41.645971 32:32:32:32:32:32 6dBm Nov 18, 2018 02:40:34.284176000 +07
  243  41.721704 32:32:32:32:32:32 7dBm Nov 18, 2018 02:40:34.359909000 +07
  244  41.790089 32:32:32:32:32:32 6dBm Nov 18, 2018 02:40:34.428294000 +07
  245  42.089788 32:32:32:32:32:32 6dBm Nov 18, 2018 02:40:34.727993000 +07
  246  42.150846 32:32:32:32:32:32 4dBm Nov 18, 2018 02:40:34.789051000 +07
  247  42.231460 32:32:32:32:32:32 4dBm Nov 18, 2018 02:40:34.869665000 +07
  248  42.283571 32:32:32:32:32:32 5dBm Nov 18, 2018 02:40:34.921776000 +07
  249  42.379794 32:32:32:32:32:32 5dBm Nov 18, 2018 02:40:35.017999000 +07
  250  42.564886 32:32:32:32:32:32 6dBm Nov 18, 2018 02:40:35.203091000 +07
  251  42.642913 32:32:32:32:32:32 5dBm Nov 18, 2018 02:40:35.281118000 +07
  252  42.732717 32:32:32:32:32:32 6dBm Nov 18, 2018 02:40:35.370922000 +07
  253  42.860621 32:32:32:32:32:32 7dBm Nov 18, 2018 02:40:35.498826000 +07
  254  43.109864 32:32:32:32:32:32 6dBm Nov 18, 2018 02:40:35.748069000 +07
  255  43.399798 32:32:32:32:32:32 6dBm Nov 18, 2018 02:40:36.038003000 +07
  256  43.450281 32:32:32:32:32:32 6dBm Nov 18, 2018 02:40:36.088486000 +07
  257  43.528959 32:32:32:32:32:32 6dBm Nov 18, 2018 02:40:36.167164000 +07
  258  43.622621 32:32:32:32:32:32 7dBm Nov 18, 2018 02:40:36.260826000 +07
  259  43.729896 32:32:32:32:32:32 5dBm Nov 18, 2018 02:40:36.368101000 +07
  260  43.763033 32:32:32:32:32:32 5dBm Nov 18, 2018 02:40:36.401238000 +07
  261  43.789708 32:32:32:32:32:32 7dBm Nov 18, 2018 02:40:36.427913000 +07
  262  44.147127 32:32:32:32:32:32 5dBm Nov 18, 2018 02:40:36.785332000 +07
  263  44.197542 32:32:32:32:32:32 4dBm Nov 18, 2018 02:40:36.835747000 +07
  264  44.245409 32:32:32:32:32:32 6dBm Nov 18, 2018 02:40:36.883614000 +07
  265  44.297501 32:32:32:32:32:32 6dBm Nov 18, 2018 02:40:36.935706000 +07
  266  44.365847 32:32:32:32:32:32 6dBm Nov 18, 2018 02:40:37.004052000 +07
  267  44.430758 32:32:32:32:32:32 7dBm Nov 18, 2018 02:40:37.068963000 +07
  268  44.458783 32:32:32:32:32:32 4dBm Nov 18, 2018 02:40:37.096988000 +07
  269  44.484264 32:32:32:32:32:32 6dBm Nov 18, 2018 02:40:37.122469000 +07
  270  44.635619 32:32:32:32:32:32 4dBm Nov 18, 2018 02:40:37.273824000 +07
  271  44.828686 32:32:32:32:32:32 7dBm Nov 18, 2018 02:40:37.466891000 +07
  272  44.864553 32:32:32:32:32:32 5dBm Nov 18, 2018 02:40:37.502758000 +07
  273  44.944597 32:32:32:32:32:32 4dBm Nov 18, 2018 02:40:37.582802000 +07
  274  45.259044 32:32:32:32:32:32 5dBm Nov 18, 2018 02:40:37.897249000 +07
  275  45.446029 32:32:32:32:32:32 4dBm Nov 18, 2018 02:40:38.084234000 +07
  276  45.493504 32:32:32:32:32:32 6dBm Nov 18, 2018 02:40:38.131709000 +07
  277  45.545938 32:32:32:32:32:32 7dBm Nov 18, 2018 02:40:38.184143000 +07
  278  45.823650 32:32:32:32:32:32 6dBm Nov 18, 2018 02:40:38.461855000 +07
  279  46.065818 32:32:32:32:32:32 5dBm Nov 18, 2018 02:40:38.704023000 +07
  280  46.142960 32:32:32:32:32:32 4dBm Nov 18, 2018 02:40:38.781165000 +07
  281  46.164472 32:32:32:32:32:32 7dBm Nov 18, 2018 02:40:38.802677000 +07
  282  46.207794 32:32:32:32:32:32 8dBm Nov 18, 2018 02:40:38.845999000 +07
  283  46.231659 32:32:32:32:32:32 8dBm Nov 18, 2018 02:40:38.869864000 +07
  284  46.288229 32:32:32:32:32:32 5dBm Nov 18, 2018 02:40:38.926434000 +07
  285  46.327137 32:32:32:32:32:32 6dBm Nov 18, 2018 02:40:38.965342000 +07
  286  46.374400 32:32:32:32:32:32 7dBm Nov 18, 2018 02:40:39.012605000 +07
  287  46.426717 32:32:32:32:32:32 3dBm Nov 18, 2018 02:40:39.064922000 +07
  288  46.632279 32:32:32:32:32:32 8dBm Nov 18, 2018 02:40:39.270484000 +07
  289  46.699470 32:32:32:32:32:32 7dBm Nov 18, 2018 02:40:39.337675000 +07
  290  46.804822 32:32:32:32:32:32 4dBm Nov 18, 2018 02:40:39.443027000 +07
  291  46.827841 32:32:32:32:32:32 6dBm Nov 18, 2018 02:40:39.466046000 +07
  292  46.908538 32:32:32:32:32:32 6dBm Nov 18, 2018 02:40:39.546743000 +07
  293  47.257664 32:32:32:32:32:32 5dBm Nov 18, 2018 02:40:39.895869000 +07
  294  47.395620 32:32:32:32:32:32 6dBm Nov 18, 2018 02:40:40.033825000 +07
  295  47.429506 32:32:32:32:32:32 6dBm Nov 18, 2018 02:40:40.067711000 +07
  296  47.558996 32:32:32:32:32:32 5dBm Nov 18, 2018 02:40:40.197201000 +07
  297  47.660273 32:32:32:32:32:32 7dBm Nov 18, 2018 02:40:40.298478000 +07
  298  47.758106 32:32:32:32:32:32 5dBm Nov 18, 2018 02:40:40.396311000 +07
  299  47.783395 32:32:32:32:32:32 5dBm Nov 18, 2018 02:40:40.421600000 +07
  300  47.903956 32:32:32:32:32:32 7dBm Nov 18, 2018 02:40:40.542161000 +07
  301  47.927456 32:32:32:32:32:32 8dBm Nov 18, 2018 02:40:40.565661000 +07
  302  47.951389 32:32:32:32:32:32 6dBm Nov 18, 2018 02:40:40.589594000 +07
  303  48.031794 32:32:32:32:32:32 6dBm Nov 18, 2018 02:40:40.669999000 +07
  304  48.058554 32:32:32:32:32:32 6dBm Nov 18, 2018 02:40:40.696759000 +07
  305  48.302711 32:32:32:32:32:32 6dBm Nov 18, 2018 02:40:40.940916000 +07
  306  48.538248 32:32:32:32:32:32 6dBm Nov 18, 2018 02:40:41.176453000 +07
  307  48.561164 32:32:32:32:32:32 4dBm Nov 18, 2018 02:40:41.199369000 +07
  308  48.785150 32:32:32:32:32:32 6dBm Nov 18, 2018 02:40:41.423355000 +07
  309  48.834845 32:32:32:32:32:32 5dBm Nov 18, 2018 02:40:41.473050000 +07
  310  49.089722 32:32:32:32:32:32 7dBm Nov 18, 2018 02:40:41.727927000 +07
  311  49.193901 32:32:32:32:32:32 7dBm Nov 18, 2018 02:40:41.832106000 +07
  312  49.411346 32:32:32:32:32:32 7dBm Nov 18, 2018 02:40:42.049551000 +07
  313  49.685662 32:32:32:32:32:32 5dBm Nov 18, 2018 02:40:42.323867000 +07
  314  49.751837 32:32:32:32:32:32 5dBm Nov 18, 2018 02:40:42.390042000 +07
  315  49.994092 32:32:32:32:32:32 6dBm Nov 18, 2018 02:40:42.632297000 +07
  316  50.015504 32:32:32:32:32:32 5dBm Nov 18, 2018 02:40:42.653709000 +07
  317  50.142120 32:32:32:32:32:32 7dBm Nov 18, 2018 02:40:42.780325000 +07
  318  50.170337 32:32:32:32:32:32 6dBm Nov 18, 2018 02:40:42.808542000 +07
  319  50.271868 32:32:32:32:32:32 6dBm Nov 18, 2018 02:40:42.910073000 +07
  320  50.372247 32:32:32:32:32:32 6dBm Nov 18, 2018 02:40:43.010452000 +07
  321  50.672170 32:32:32:32:32:32 6dBm Nov 18, 2018 02:40:43.310375000 +07
  322  50.698681 32:32:32:32:32:32 5dBm Nov 18, 2018 02:40:43.336886000 +07
  323  50.728673 32:32:32:32:32:32 5dBm Nov 18, 2018 02:40:43.366878000 +07
  324  50.817727 32:32:32:32:32:32 4dBm Nov 18, 2018 02:40:43.455932000 +07
  325  50.941145 32:32:32:32:32:32 6dBm Nov 18, 2018 02:40:43.579350000 +07
  326  51.045057 32:32:32:32:32:32 6dBm Nov 18, 2018 02:40:43.683262000 +07
  327  51.183696 32:32:32:32:32:32 6dBm Nov 18, 2018 02:40:43.821901000 +07
  328  51.287539 32:32:32:32:32:32 6dBm Nov 18, 2018 02:40:43.925744000 +07
  329  51.314329 32:32:32:32:32:32 5dBm Nov 18, 2018 02:40:43.952534000 +07
  330  51.550101 32:32:32:32:32:32 4dBm Nov 18, 2018 02:40:44.188306000 +07
  331  51.593355 32:32:32:32:32:32 5dBm Nov 18, 2018 02:40:44.231560000 +07
  332  51.689453 32:32:32:32:32:32 5dBm Nov 18, 2018 02:40:44.327658000 +07
  333  51.775999 32:32:32:32:32:32 6dBm Nov 18, 2018 02:40:44.414204000 +07
  334  51.820446 32:32:32:32:32:32 6dBm Nov 18, 2018 02:40:44.458651000 +07
  335  52.057909 32:32:32:32:32:32 6dBm Nov 18, 2018 02:40:44.696114000 +07
  336  52.138003 32:32:32:32:32:32 7dBm Nov 18, 2018 02:40:44.776208000 +07
  337  52.223031 32:32:32:32:32:32 5dBm Nov 18, 2018 02:40:44.861236000 +07
  338  52.372298 32:32:32:32:32:32 5dBm Nov 18, 2018 02:40:45.010503000 +07
  339  52.570278 32:32:32:32:32:32 5dBm Nov 18, 2018 02:40:45.208483000 +07
  340  53.051908 32:32:32:32:32:32 7dBm Nov 18, 2018 02:40:45.690113000 +07
  341  53.114018 32:32:32:32:32:32 6dBm Nov 18, 2018 02:40:45.752223000 +07
  342  53.430297 32:32:32:32:32:32 5dBm Nov 18, 2018 02:40:46.068502000 +07
  343  53.443722 32:32:32:32:32:32 6dBm Nov 18, 2018 02:40:46.081927000 +07
  344  53.488300 32:32:32:32:32:32 5dBm Nov 18, 2018 02:40:46.126505000 +07
  345  53.645220 32:32:32:32:32:32 6dBm Nov 18, 2018 02:40:46.283425000 +07
  346  54.070260 32:32:32:32:32:32 7dBm Nov 18, 2018 02:40:46.708465000 +07
  347  54.211877 32:32:32:32:32:32 7dBm Nov 18, 2018 02:40:46.850082000 +07
  348  54.403879 32:32:32:32:32:32 5dBm Nov 18, 2018 02:40:47.042084000 +07
  349  54.560184 32:32:32:32:32:32 6dBm Nov 18, 2018 02:40:47.198389000 +07
  350  54.978705 32:32:32:32:32:32 5dBm Nov 18, 2018 02:40:47.616910000 +07
  351  55.061809 32:32:32:32:32:32 6dBm Nov 18, 2018 02:40:47.700014000 +07
  352  55.083319 32:32:32:32:32:32 3dBm Nov 18, 2018 02:40:47.721524000 +07
  353  55.208629 32:32:32:32:32:32 6dBm Nov 18, 2018 02:40:47.846834000 +07
  354  55.389401 32:32:32:32:32:32 3dBm Nov 18, 2018 02:40:48.027606000 +07
  355  55.535902 32:32:32:32:32:32 5dBm Nov 18, 2018 02:40:48.174107000 +07
  356  55.621148 32:32:32:32:32:32 6dBm Nov 18, 2018 02:40:48.259353000 +07
  357  55.714187 32:32:32:32:32:32 5dBm Nov 18, 2018 02:40:48.352392000 +07
  358  55.747681 32:32:32:32:32:32 6dBm Nov 18, 2018 02:40:48.385886000 +07
  359  55.814478 32:32:32:32:32:32 5dBm Nov 18, 2018 02:40:48.452683000 +07
  360  55.851760 32:32:32:32:32:32 7dBm Nov 18, 2018 02:40:48.489965000 +07
  361  55.967483 32:32:32:32:32:32 7dBm Nov 18, 2018 02:40:48.605688000 +07
  362  56.060330 32:32:32:32:32:32 5dBm Nov 18, 2018 02:40:48.698535000 +07
  363  56.146987 32:32:32:32:32:32 6dBm Nov 18, 2018 02:40:48.785192000 +07
  364  56.468356 32:32:32:32:32:32 7dBm Nov 18, 2018 02:40:49.106561000 +07
  365  57.051792 32:32:32:32:32:32 6dBm Nov 18, 2018 02:40:49.689997000 +07
  366  57.425312 32:32:32:32:32:32 5dBm Nov 18, 2018 02:40:50.063517000 +07
  367  57.474756 32:32:32:32:32:32 7dBm Nov 18, 2018 02:40:50.112961000 +07
  368  57.559216 32:32:32:32:32:32 4dBm Nov 18, 2018 02:40:50.197421000 +07
  369  57.832430 32:32:32:32:32:32 7dBm Nov 18, 2018 02:40:50.470635000 +07
  370  58.138049 32:32:32:32:32:32 7dBm Nov 18, 2018 02:40:50.776254000 +07
  371  58.297542 32:32:32:32:32:32 5dBm Nov 18, 2018 02:40:50.935747000 +07
  372  58.332205 32:32:32:32:32:32 5dBm Nov 18, 2018 02:40:50.970410000 +07
  373  58.391062 32:32:32:32:32:32 5dBm Nov 18, 2018 02:40:51.029267000 +07
  374  58.426867 32:32:32:32:32:32 5dBm Nov 18, 2018 02:40:51.065072000 +07
  375  58.466669 32:32:32:32:32:32 5dBm Nov 18, 2018 02:40:51.104874000 +07
  376  58.523238 32:32:32:32:32:32 7dBm Nov 18, 2018 02:40:51.161443000 +07
  377  58.584353 32:32:32:32:32:32 4dBm Nov 18, 2018 02:40:51.222558000 +07
  378  58.717838 32:32:32:32:32:32 4dBm Nov 18, 2018 02:40:51.356043000 +07
  379  58.951667 32:32:32:32:32:32 7dBm Nov 18, 2018 02:40:51.589872000 +07
  380  59.062409 32:32:32:32:32:32 7dBm Nov 18, 2018 02:40:51.700614000 +07
  381  59.315700 32:32:32:32:32:32 7dBm Nov 18, 2018 02:40:51.953905000 +07
  382  59.804181 32:32:32:32:32:32 4dBm Nov 18, 2018 02:40:52.442386000 +07
  383  59.897603 32:32:32:32:32:32 5dBm Nov 18, 2018 02:40:52.535808000 +07
  384  60.048866 32:32:32:32:32:32 4dBm Nov 18, 2018 02:40:52.687071000 +07
  385  60.223885 32:32:32:32:32:32 5dBm Nov 18, 2018 02:40:52.862090000 +07
  386  60.259310 32:32:32:32:32:32 7dBm Nov 18, 2018 02:40:52.897515000 +07
  387  60.398444 32:32:32:32:32:32 6dBm Nov 18, 2018 02:40:53.036649000 +07
  388  60.429325 32:32:32:32:32:32 7dBm Nov 18, 2018 02:40:53.067530000 +07
  389  60.515084 32:32:32:32:32:32 7dBm Nov 18, 2018 02:40:53.153289000 +07
  390  60.534252 32:32:32:32:32:32 6dBm Nov 18, 2018 02:40:53.172457000 +07
  391  60.761481 32:32:32:32:32:32 8dBm Nov 18, 2018 02:40:53.399686000 +07
  392  60.895792 32:32:32:32:32:32 6dBm Nov 18, 2018 02:40:53.533997000 +07
  393  61.064330 32:32:32:32:32:32 6dBm Nov 18, 2018 02:40:53.702535000 +07
  394  61.137913 32:32:32:32:32:32 4dBm Nov 18, 2018 02:40:53.776118000 +07
  395  61.189689 32:32:32:32:32:32 5dBm Nov 18, 2018 02:40:53.827894000 +07
  396  61.243689 32:32:32:32:32:32 5dBm Nov 18, 2018 02:40:53.881894000 +07
  397  61.305309 32:32:32:32:32:32 5dBm Nov 18, 2018 02:40:53.943514000 +07
  398  61.520711 32:32:32:32:32:32 6dBm Nov 18, 2018 02:40:54.158916000 +07
  399  61.653703 32:32:32:32:32:32 5dBm Nov 18, 2018 02:40:54.291908000 +07
  400  61.680936 32:32:32:32:32:32 5dBm Nov 18, 2018 02:40:54.319141000 +07
  401  61.846120 32:32:32:32:32:32 4dBm Nov 18, 2018 02:40:54.484325000 +07
  402  61.864234 32:32:32:32:32:32 5dBm Nov 18, 2018 02:40:54.502439000 +07
  403  61.942658 32:32:32:32:32:32 6dBm Nov 18, 2018 02:40:54.580863000 +07
  404  61.999724 32:32:32:32:32:32 6dBm Nov 18, 2018 02:40:54.637929000 +07
  405  62.028636 32:32:32:32:32:32 7dBm Nov 18, 2018 02:40:54.666841000 +07
  406  62.030296 32:32:32:32:32:32 6dBm Nov 18, 2018 02:40:54.668501000 +07
  407  62.072284 32:32:32:32:32:32 7dBm Nov 18, 2018 02:40:54.710489000 +07
  408  62.130130 32:32:32:32:32:32 2dBm Nov 18, 2018 02:40:54.768335000 +07
  409  62.287058 32:32:32:32:32:32 6dBm Nov 18, 2018 02:40:54.925263000 +07
  410  62.365735 32:32:32:32:32:32 5dBm Nov 18, 2018 02:40:55.003940000 +07
  411  62.404967 32:32:32:32:32:32 6dBm Nov 18, 2018 02:40:55.043172000 +07
  412  62.469581 32:32:32:32:32:32 7dBm Nov 18, 2018 02:40:55.107786000 +07
  413  62.662823 32:32:32:32:32:32 6dBm Nov 18, 2018 02:40:55.301028000 +07
  414  62.778488 32:32:32:32:32:32 5dBm Nov 18, 2018 02:40:55.416693000 +07
  415  62.830596 32:32:32:32:32:32 5dBm Nov 18, 2018 02:40:55.468801000 +07
  416  62.855950 32:32:32:32:32:32 7dBm Nov 18, 2018 02:40:55.494155000 +07
  417  63.271429 32:32:32:32:32:32 3dBm Nov 18, 2018 02:40:55.909634000 +07
  418  63.929993 32:32:32:32:32:32 6dBm Nov 18, 2018 02:40:56.568198000 +07
  419  64.513437 32:32:32:32:32:32 5dBm Nov 18, 2018 02:40:57.151642000 +07
  420  65.348061 32:32:32:32:32:32 6dBm Nov 18, 2018 02:40:57.986266000 +07
  421  65.442884 32:32:32:32:32:32 2dBm Nov 18, 2018 02:40:58.081089000 +07
  422  65.814279 32:32:32:32:32:32 6dBm Nov 18, 2018 02:40:58.452484000 +07
  423  65.876049 32:32:32:32:32:32 6dBm Nov 18, 2018 02:40:58.514254000 +07
  424  65.908913 32:32:32:32:32:32 4dBm Nov 18, 2018 02:40:58.547118000 +07
  425  65.938730 32:32:32:32:32:32 1dBm Nov 18, 2018 02:40:58.576935000 +07
  426  66.517247 32:32:32:32:32:32 6dBm Nov 18, 2018 02:40:59.155452000 +07
  427  66.702763 32:32:32:32:32:32 6dBm Nov 18, 2018 02:40:59.340968000 +07
  428  66.720217 32:32:32:32:32:32 4dBm Nov 18, 2018 02:40:59.358422000 +07
  429  67.337163 32:32:32:32:32:32 4dBm Nov 18, 2018 02:40:59.975368000 +07
  430  67.388055 32:32:32:32:32:32 5dBm Nov 18, 2018 02:41:00.026260000 +07
  431  67.486474 32:32:32:32:32:32 4dBm Nov 18, 2018 02:41:00.124679000 +07
  432  67.974700 32:32:32:32:32:32 8dBm Nov 18, 2018 02:41:00.612905000 +07
  433  68.265338 32:32:32:32:32:32 6dBm Nov 18, 2018 02:41:00.903543000 +07
  434  68.455042 32:32:32:32:32:32 5dBm Nov 18, 2018 02:41:01.093247000 +07
  435  68.598658 32:32:32:32:32:32 4dBm Nov 18, 2018 02:41:01.236863000 +07
  436  68.984145 32:32:32:32:32:32 5dBm Nov 18, 2018 02:41:01.622350000 +07
  437  69.821911 32:32:32:32:32:32 5dBm Nov 18, 2018 02:41:02.460116000 +07
  438  69.852272 32:32:32:32:32:32 5dBm Nov 18, 2018 02:41:02.490477000 +07
  439  70.490412 32:32:32:32:32:32 2dBm Nov 18, 2018 02:41:03.128617000 +07
  440  70.536230 32:32:32:32:32:32 4dBm Nov 18, 2018 02:41:03.174435000 +07
  441  70.568546 32:32:32:32:32:32 4dBm Nov 18, 2018 02:41:03.206751000 +07
  442  70.647568 32:32:32:32:32:32 5dBm Nov 18, 2018 02:41:03.285773000 +07
  443  70.695257 32:32:32:32:32:32 6dBm Nov 18, 2018 02:41:03.333462000 +07
  444  71.007184 32:32:32:32:32:32 7dBm Nov 18, 2018 02:41:03.645389000 +07
  445  71.553303 32:32:32:32:32:32 5dBm Nov 18, 2018 02:41:04.191508000 +07
  446  71.739037 32:32:32:32:32:32 6dBm Nov 18, 2018 02:41:04.377242000 +07
  447  71.854442 32:32:32:32:32:32 3dBm Nov 18, 2018 02:41:04.492647000 +07
  448  71.976114 32:32:32:32:32:32 5dBm Nov 18, 2018 02:41:04.614319000 +07
  449  72.007571 32:32:32:32:32:32 5dBm Nov 18, 2018 02:41:04.645776000 +07
  450  72.045065 32:32:32:32:32:32 4dBm Nov 18, 2018 02:41:04.683270000 +07
  451  72.067402 32:32:32:32:32:32 5dBm Nov 18, 2018 02:41:04.705607000 +07
  452  72.088717 32:32:32:32:32:32 3dBm Nov 18, 2018 02:41:04.726922000 +07
  453  72.234322 32:32:32:32:32:32 5dBm Nov 18, 2018 02:41:04.872527000 +07
  454  73.066850 32:32:32:32:32:32 4dBm Nov 18, 2018 02:41:05.705055000 +07
  455  73.265404 32:32:32:32:32:32 5dBm Nov 18, 2018 02:41:05.903609000 +07
  456  73.525140 32:32:32:32:32:32 5dBm Nov 18, 2018 02:41:06.163345000 +07
  457  73.663814 32:32:32:32:32:32 5dBm Nov 18, 2018 02:41:06.302019000 +07
  458  73.708013 32:32:32:32:32:32 5dBm Nov 18, 2018 02:41:06.346218000 +07
  459  74.017850 32:32:32:32:32:32 5dBm Nov 18, 2018 02:41:06.656055000 +07
  460  74.115879 32:32:32:32:32:32 6dBm Nov 18, 2018 02:41:06.754084000 +07
  461  74.374057 32:32:32:32:32:32 4dBm Nov 18, 2018 02:41:07.012262000 +07
  462  74.641974 32:32:32:32:32:32 6dBm Nov 18, 2018 02:41:07.280179000 +07
  463  74.795152 32:32:32:32:32:32 4dBm Nov 18, 2018 02:41:07.433357000 +07
  464  74.847776 32:32:32:32:32:32 6dBm Nov 18, 2018 02:41:07.485981000 +07
  465  75.402034 32:32:32:32:32:32 4dBm Nov 18, 2018 02:41:08.040239000 +07
  466  75.705325 32:32:32:32:32:32 5dBm Nov 18, 2018 02:41:08.343530000 +07
  467  75.742382 32:32:32:32:32:32 3dBm Nov 18, 2018 02:41:08.380587000 +07
  468  76.407624 32:32:32:32:32:32 5dBm Nov 18, 2018 02:41:09.045829000 +07
  469  76.646881 32:32:32:32:32:32 7dBm Nov 18, 2018 02:41:09.285086000 +07
  470  76.934922 32:32:32:32:32:32 5dBm Nov 18, 2018 02:41:09.573127000 +07
  471  77.330681 32:32:32:32:32:32 3dBm Nov 18, 2018 02:41:09.968886000 +07
  472  77.583645 32:32:32:32:32:32 4dBm Nov 18, 2018 02:41:10.221850000 +07
  473  77.709980 32:32:32:32:32:32 5dBm Nov 18, 2018 02:41:10.348185000 +07
  474  77.772047 32:32:32:32:32:32 5dBm Nov 18, 2018 02:41:10.410252000 +07
  475  77.822776 32:32:32:32:32:32 5dBm Nov 18, 2018 02:41:10.460981000 +07
  476  77.856623 32:32:32:32:32:32 5dBm Nov 18, 2018 02:41:10.494828000 +07
  477  77.890529 32:32:32:32:32:32 7dBm Nov 18, 2018 02:41:10.528734000 +07
  478  77.922350 32:32:32:32:32:32 6dBm Nov 18, 2018 02:41:10.560555000 +07
  479  78.067599 32:32:32:32:32:32 7dBm Nov 18, 2018 02:41:10.705804000 +07
  480  78.165399 32:32:32:32:32:32 5dBm Nov 18, 2018 02:41:10.803604000 +07
  481  78.319675 32:32:32:32:32:32 3dBm Nov 18, 2018 02:41:10.957880000 +07
  482  80.234675 32:32:32:32:32:32 4dBm Nov 18, 2018 02:41:12.872880000 +07
  483  80.601524 32:32:32:32:32:32 4dBm Nov 18, 2018 02:41:13.239729000 +07
  484  80.644732 32:32:32:32:32:32 4dBm Nov 18, 2018 02:41:13.282937000 +07
  485  81.492135 32:32:32:32:32:32 6dBm Nov 18, 2018 02:41:14.130340000 +07
  486  81.598850 32:32:32:32:32:32 4dBm Nov 18, 2018 02:41:14.237055000 +07
  487  82.097491 32:32:32:32:32:32 4dBm Nov 18, 2018 02:41:14.735696000 +07
  488  82.166185 32:32:32:32:32:32 6dBm Nov 18, 2018 02:41:14.804390000 +07
  489  82.244986 32:32:32:32:32:32 7dBm Nov 18, 2018 02:41:14.883191000 +07
  490  82.291612 32:32:32:32:32:32 5dBm Nov 18, 2018 02:41:14.929817000 +07
  491  82.524993 32:32:32:32:32:32 5dBm Nov 18, 2018 02:41:15.163198000 +07
  492  82.781866 32:32:32:32:32:32 3dBm Nov 18, 2018 02:41:15.420071000 +07
  493  82.840632 32:32:32:32:32:32 6dBm Nov 18, 2018 02:41:15.478837000 +07
  494  83.040471 32:32:32:32:32:32 5dBm Nov 18, 2018 02:41:15.678676000 +07
  495  83.233705 32:32:32:32:32:32 5dBm Nov 18, 2018 02:41:15.871910000 +07
  496  83.587234 32:32:32:32:32:32 6dBm Nov 18, 2018 02:41:16.225439000 +07
  497  83.673907 32:32:32:32:32:32 4dBm Nov 18, 2018 02:41:16.312112000 +07
  498  83.754482 32:32:32:32:32:32 6dBm Nov 18, 2018 02:41:16.392687000 +07
  499  83.897675 32:32:32:32:32:32 6dBm Nov 18, 2018 02:41:16.535880000 +07
  500  83.955854 32:32:32:32:32:32 4dBm Nov 18, 2018 02:41:16.594059000 +07
  501  84.010000 32:32:32:32:32:32 5dBm Nov 18, 2018 02:41:16.648205000 +07
  502  84.253755 32:32:32:32:32:32 4dBm Nov 18, 2018 02:41:16.891960000 +07
  503  84.395721 32:32:32:32:32:32 4dBm Nov 18, 2018 02:41:17.033926000 +07
  504  84.529872 32:32:32:32:32:32 6dBm Nov 18, 2018 02:41:17.168077000 +07
  505  84.558112 32:32:32:32:32:32 4dBm Nov 18, 2018 02:41:17.196317000 +07
  506  85.105187 32:32:32:32:32:32 4dBm Nov 18, 2018 02:41:17.743392000 +07
  507  85.257859 32:32:32:32:32:32 5dBm Nov 18, 2018 02:41:17.896064000 +07
  508  85.308453 32:32:32:32:32:32 6dBm Nov 18, 2018 02:41:17.946658000 +07
  509  85.373520 32:32:32:32:32:32 6dBm Nov 18, 2018 02:41:18.011725000 +07
  510  85.558413 32:32:32:32:32:32 6dBm Nov 18, 2018 02:41:18.196618000 +07
  511  85.629563 32:32:32:32:32:32 5dBm Nov 18, 2018 02:41:18.267768000 +07
  512  85.874342 32:32:32:32:32:32 6dBm Nov 18, 2018 02:41:18.512547000 +07
  513  85.961027 32:32:32:32:32:32 6dBm Nov 18, 2018 02:41:18.599232000 +07
  514  86.022470 32:32:32:32:32:32 5dBm Nov 18, 2018 02:41:18.660675000 +07
  515  86.044827 32:32:32:32:32:32 5dBm Nov 18, 2018 02:41:18.683032000 +07
  516  86.326171 32:32:32:32:32:32 5dBm Nov 18, 2018 02:41:18.964376000 +07
  517  86.731816 32:32:32:32:32:32 6dBm Nov 18, 2018 02:41:19.370021000 +07
  518  86.816595 32:32:32:32:32:32 5dBm Nov 18, 2018 02:41:19.454800000 +07
  519  86.916007 32:32:32:32:32:32 6dBm Nov 18, 2018 02:41:19.554212000 +07
  520  86.920814 32:32:32:32:32:32 5dBm Nov 18, 2018 02:41:19.559019000 +07
  521  87.016496 32:32:32:32:32:32 7dBm Nov 18, 2018 02:41:19.654701000 +07
  522  87.375553 32:32:32:32:32:32 5dBm Nov 18, 2018 02:41:20.013758000 +07
  523  88.048052 32:32:32:32:32:32 5dBm Nov 18, 2018 02:41:20.686257000 +07
  524  88.422831 32:32:32:32:32:32 5dBm Nov 18, 2018 02:41:21.061036000 +07
  525  88.519651 32:32:32:32:32:32 7dBm Nov 18, 2018 02:41:21.157856000 +07
  526  88.550303 32:32:32:32:32:32 5dBm Nov 18, 2018 02:41:21.188508000 +07
  527  88.626314 32:32:32:32:32:32 6dBm Nov 18, 2018 02:41:21.264519000 +07
  528  88.764697 32:32:32:32:32:32 5dBm Nov 18, 2018 02:41:21.402902000 +07
  529  88.840705 32:32:32:32:32:32 4dBm Nov 18, 2018 02:41:21.478910000 +07
  530  89.366319 32:32:32:32:32:32 5dBm Nov 18, 2018 02:41:22.004524000 +07
  531  89.412099 32:32:32:32:32:32 6dBm Nov 18, 2018 02:41:22.050304000 +07
  532  89.453145 32:32:32:32:32:32 7dBm Nov 18, 2018 02:41:22.091350000 +07
  533  89.525313 32:32:32:32:32:32 5dBm Nov 18, 2018 02:41:22.163518000 +07
  534  89.570752 32:32:32:32:32:32 6dBm Nov 18, 2018 02:41:22.208957000 +07
  535  90.060558 32:32:32:32:32:32 6dBm Nov 18, 2018 02:41:22.698763000 +07
  536  90.189241 32:32:32:32:32:32 3dBm Nov 18, 2018 02:41:22.827446000 +07
  537  90.475739 32:32:32:32:32:32 4dBm Nov 18, 2018 02:41:23.113944000 +07
  538  91.164308 32:32:32:32:32:32 7dBm Nov 18, 2018 02:41:23.802513000 +07
  539  91.347693 32:32:32:32:32:32 4dBm Nov 18, 2018 02:41:23.985898000 +07
  540  91.398749 32:32:32:32:32:32 3dBm Nov 18, 2018 02:41:24.036954000 +07
  541  91.416943 32:32:32:32:32:32 4dBm Nov 18, 2018 02:41:24.055148000 +07
  542  91.571255 32:32:32:32:32:32 4dBm Nov 18, 2018 02:41:24.209460000 +07
  543  91.631372 32:32:32:32:32:32 5dBm Nov 18, 2018 02:41:24.269577000 +07
  544  91.649970 32:32:32:32:32:32 6dBm Nov 18, 2018 02:41:24.288175000 +07
  545  91.747927 32:32:32:32:32:32 4dBm Nov 18, 2018 02:41:24.386132000 +07
  546  91.781678 32:32:32:32:32:32 5dBm Nov 18, 2018 02:41:24.419883000 +07
  547  91.890529 32:32:32:32:32:32 6dBm Nov 18, 2018 02:41:24.528734000 +07
  548  91.935038 32:32:32:32:32:32 4dBm Nov 18, 2018 02:41:24.573243000 +07
  549  92.311002 32:32:32:32:32:32 5dBm Nov 18, 2018 02:41:24.949207000 +07
  550  92.784263 32:32:32:32:32:32 5dBm Nov 18, 2018 02:41:25.422468000 +07
  551  92.981493 32:32:32:32:32:32 6dBm Nov 18, 2018 02:41:25.619698000 +07
  552  93.017779 32:32:32:32:32:32 7dBm Nov 18, 2018 02:41:25.655984000 +07
  553  93.234648 32:32:32:32:32:32 6dBm Nov 18, 2018 02:41:25.872853000 +07
  554  93.651542 32:32:32:32:32:32 5dBm Nov 18, 2018 02:41:26.289747000 +07
  555  94.064769 32:32:32:32:32:32 6dBm Nov 18, 2018 02:41:26.702974000 +07
  556  94.510371 32:32:32:32:32:32 6dBm Nov 18, 2018 02:41:27.148576000 +07
  557  94.643729 32:32:32:32:32:32 5dBm Nov 18, 2018 02:41:27.281934000 +07
  558  94.727532 32:32:32:32:32:32 4dBm Nov 18, 2018 02:41:27.365737000 +07
  559  94.815120 32:32:32:32:32:32 6dBm Nov 18, 2018 02:41:27.453325000 +07
  560  95.435256 32:32:32:32:32:32 5dBm Nov 18, 2018 02:41:28.073461000 +07
  561  95.598393 32:32:32:32:32:32 4dBm Nov 18, 2018 02:41:28.236598000 +07
  562  95.830767 32:32:32:32:32:32 6dBm Nov 18, 2018 02:41:28.468972000 +07
  563  95.896572 32:32:32:32:32:32 6dBm Nov 18, 2018 02:41:28.534777000 +07
  564  95.910352 32:32:32:32:32:32 5dBm Nov 18, 2018 02:41:28.548557000 +07
  565  96.381752 32:32:32:32:32:32 4dBm Nov 18, 2018 02:41:29.019957000 +07
  566  97.386591 32:32:32:32:32:32 4dBm Nov 18, 2018 02:41:30.024796000 +07
  567  97.458255 32:32:32:32:32:32 6dBm Nov 18, 2018 02:41:30.096460000 +07
  568  97.513050 32:32:32:32:32:32 4dBm Nov 18, 2018 02:41:30.151255000 +07
  569  97.873701 32:32:32:32:32:32 3dBm Nov 18, 2018 02:41:30.511906000 +07
  570  97.889178 32:32:32:32:32:32 7dBm Nov 18, 2018 02:41:30.527383000 +07
  571  97.970895 32:32:32:32:32:32 6dBm Nov 18, 2018 02:41:30.609100000 +07
  572  98.097662 32:32:32:32:32:32 5dBm Nov 18, 2018 02:41:30.735867000 +07
  573  98.144326 32:32:32:32:32:32 6dBm Nov 18, 2018 02:41:30.782531000 +07
  574  99.558956 32:32:32:32:32:32 5dBm Nov 18, 2018 02:41:32.197161000 +07
  575  99.580077 32:32:32:32:32:32 6dBm Nov 18, 2018 02:41:32.218282000 +07
  576  99.664058 32:32:32:32:32:32 6dBm Nov 18, 2018 02:41:32.302263000 +07
  577  99.810485 32:32:32:32:32:32 5dBm Nov 18, 2018 02:41:32.448690000 +07
  578 100.434202 32:32:32:32:32:32 5dBm Nov 18, 2018 02:41:33.072407000 +07
  579 100.512017 32:32:32:32:32:32 6dBm Nov 18, 2018 02:41:33.150222000 +07
  580 100.968122 32:32:32:32:32:32 4dBm Nov 18, 2018 02:41:33.606327000 +07
  581 101.450274 32:32:32:32:32:32 7dBm Nov 18, 2018 02:41:34.088479000 +07
  582 101.884689 32:32:32:32:32:32 5dBm Nov 18, 2018 02:41:34.522894000 +07
  583 101.928762 32:32:32:32:32:32 5dBm Nov 18, 2018 02:41:34.566967000 +07
  584 102.011877 32:32:32:32:32:32 5dBm Nov 18, 2018 02:41:34.650082000 +07
  585 102.127075 32:32:32:32:32:32 5dBm Nov 18, 2018 02:41:34.765280000 +07
  586 102.474355 32:32:32:32:32:32 5dBm Nov 18, 2018 02:41:35.112560000 +07
  587 102.632262 32:32:32:32:32:32 5dBm Nov 18, 2018 02:41:35.270467000 +07
  588 102.663417 32:32:32:32:32:32 5dBm Nov 18, 2018 02:41:35.301622000 +07
  589 102.700500 32:32:32:32:32:32 5dBm Nov 18, 2018 02:41:35.338705000 +07
  590 102.712973 32:32:32:32:32:32 6dBm Nov 18, 2018 02:41:35.351178000 +07
  591 102.745743 32:32:32:32:32:32 7dBm Nov 18, 2018 02:41:35.383948000 +07
  592 102.858596 32:32:32:32:32:32 5dBm Nov 18, 2018 02:41:35.496801000 +07
  593 102.915473 32:32:32:32:32:32 6dBm Nov 18, 2018 02:41:35.553678000 +07
  594 103.007265 32:32:32:32:32:32 2dBm Nov 18, 2018 02:41:35.645470000 +07
  595 103.188947 32:32:32:32:32:32 5dBm Nov 18, 2018 02:41:35.827152000 +07
  596 103.328610 32:32:32:32:32:32 5dBm Nov 18, 2018 02:41:35.966815000 +07
  597 103.522759 32:32:32:32:32:32 5dBm Nov 18, 2018 02:41:36.160964000 +07
  598 103.644734 32:32:32:32:32:32 5dBm Nov 18, 2018 02:41:36.282939000 +07
  599 103.820764 32:32:32:32:32:32 6dBm Nov 18, 2018 02:41:36.458969000 +07
  600 103.920025 32:32:32:32:32:32 6dBm Nov 18, 2018 02:41:36.558230000 +07
  601 103.978759 32:32:32:32:32:32 6dBm Nov 18, 2018 02:41:36.616964000 +07
  602 104.004360 32:32:32:32:32:32 8dBm Nov 18, 2018 02:41:36.642565000 +07
  603 104.178541 32:32:32:32:32:32 5dBm Nov 18, 2018 02:41:36.816746000 +07
  604 104.431901 32:32:32:32:32:32 4dBm Nov 18, 2018 02:41:37.070106000 +07
  605 104.519374 32:32:32:32:32:32 6dBm Nov 18, 2018 02:41:37.157579000 +07
  606 104.575446 32:32:32:32:32:32 5dBm Nov 18, 2018 02:41:37.213651000 +07
  607 104.648960 32:32:32:32:32:32 4dBm Nov 18, 2018 02:41:37.287165000 +07
  608 104.667973 32:32:32:32:32:32 7dBm Nov 18, 2018 02:41:37.306178000 +07
  609 104.745236 32:32:32:32:32:32 6dBm Nov 18, 2018 02:41:37.383441000 +07
  610 105.054049 32:32:32:32:32:32 5dBm Nov 18, 2018 02:41:37.692254000 +07
  611 105.110939 32:32:32:32:32:32 6dBm Nov 18, 2018 02:41:37.749144000 +07
  612 105.121297 32:32:32:32:32:32 5dBm Nov 18, 2018 02:41:37.759502000 +07
  613 105.140195 32:32:32:32:32:32 6dBm Nov 18, 2018 02:41:37.778400000 +07
  614 105.182262 32:32:32:32:32:32 5dBm Nov 18, 2018 02:41:37.820467000 +07
  615 105.264961 32:32:32:32:32:32 5dBm Nov 18, 2018 02:41:37.903166000 +07
  616 105.352701 32:32:32:32:32:32 5dBm Nov 18, 2018 02:41:37.990906000 +07
  617 105.404741 32:32:32:32:32:32 6dBm Nov 18, 2018 02:41:38.042946000 +07
  618 105.438315 32:32:32:32:32:32 3dBm Nov 18, 2018 02:41:38.076520000 +07
  619 105.465588 32:32:32:32:32:32 6dBm Nov 18, 2018 02:41:38.103793000 +07
  620 105.524778 32:32:32:32:32:32 7dBm Nov 18, 2018 02:41:38.162983000 +07
  621 105.601094 32:32:32:32:32:32 7dBm Nov 18, 2018 02:41:38.239299000 +07
  622 105.631956 32:32:32:32:32:32 4dBm Nov 18, 2018 02:41:38.270161000 +07
  623 105.654116 32:32:32:32:32:32 7dBm Nov 18, 2018 02:41:38.292321000 +07
  624 105.671422 32:32:32:32:32:32 6dBm Nov 18, 2018 02:41:38.309627000 +07
  625 105.974320 32:32:32:32:32:32 7dBm Nov 18, 2018 02:41:38.612525000 +07
  626 106.032531 32:32:32:32:32:32 6dBm Nov 18, 2018 02:41:38.670736000 +07
  627 106.040628 32:32:32:32:32:32 5dBm Nov 18, 2018 02:41:38.678833000 +07
  628 106.109561 32:32:32:32:32:32 5dBm Nov 18, 2018 02:41:38.747766000 +07
  629 106.326775 32:32:32:32:32:32 5dBm Nov 18, 2018 02:41:38.964980000 +07
  630 106.507772 32:32:32:32:32:32 5dBm Nov 18, 2018 02:41:39.145977000 +07
  631 106.619118 32:32:32:32:32:32 6dBm Nov 18, 2018 02:41:39.257323000 +07
  632 106.643540 32:32:32:32:32:32 7dBm Nov 18, 2018 02:41:39.281745000 +07
  633 107.046647 32:32:32:32:32:32 6dBm Nov 18, 2018 02:41:39.684852000 +07
  634 107.152476 32:32:32:32:32:32 7dBm Nov 18, 2018 02:41:39.790681000 +07
  635 107.315548 32:32:32:32:32:32 7dBm Nov 18, 2018 02:41:39.953753000 +07
  636 107.450088 32:32:32:32:32:32 7dBm Nov 18, 2018 02:41:40.088293000 +07
  637 107.646433 32:32:32:32:32:32 5dBm Nov 18, 2018 02:41:40.284638000 +07
  638 107.776335 32:32:32:32:32:32 5dBm Nov 18, 2018 02:41:40.414540000 +07
  639 107.825622 32:32:32:32:32:32 6dBm Nov 18, 2018 02:41:40.463827000 +07
  640 107.952796 32:32:32:32:32:32 5dBm Nov 18, 2018 02:41:40.591001000 +07
  641 108.170467 32:32:32:32:32:32 6dBm Nov 18, 2018 02:41:40.808672000 +07
  642 108.259212 32:32:32:32:32:32 6dBm Nov 18, 2018 02:41:40.897417000 +07
  643 108.343720 32:32:32:32:32:32 6dBm Nov 18, 2018 02:41:40.981925000 +07
  644 108.384212 32:32:32:32:32:32 6dBm Nov 18, 2018 02:41:41.022417000 +07
  645 108.391200 32:32:32:32:32:32 5dBm Nov 18, 2018 02:41:41.029405000 +07
  646 108.452106 32:32:32:32:32:32 5dBm Nov 18, 2018 02:41:41.090311000 +07
  647 108.470056 32:32:32:32:32:32 4dBm Nov 18, 2018 02:41:41.108261000 +07
  648 108.581309 32:32:32:32:32:32 5dBm Nov 18, 2018 02:41:41.219514000 +07
  649 108.600672 32:32:32:32:32:32 7dBm Nov 18, 2018 02:41:41.238877000 +07
  650 108.603584 32:32:32:32:32:32 6dBm Nov 18, 2018 02:41:41.241789000 +07
  651 108.823505 32:32:32:32:32:32 3dBm Nov 18, 2018 02:41:41.461710000 +07
  652 109.568229 32:32:32:32:32:32 3dBm Nov 18, 2018 02:41:42.206434000 +07
  653 109.740676 32:32:32:32:32:32 5dBm Nov 18, 2018 02:41:42.378881000 +07
  654 109.807709 32:32:32:32:32:32 5dBm Nov 18, 2018 02:41:42.445914000 +07
  655 109.842135 32:32:32:32:32:32 6dBm Nov 18, 2018 02:41:42.480340000 +07
  656 109.877711 32:32:32:32:32:32 6dBm Nov 18, 2018 02:41:42.515916000 +07
  657 110.086423 32:32:32:32:32:32 6dBm Nov 18, 2018 02:41:42.724628000 +07
  658 110.149294 32:32:32:32:32:32 3dBm Nov 18, 2018 02:41:42.787499000 +07
  659 110.209293 32:32:32:32:32:32 6dBm Nov 18, 2018 02:41:42.847498000 +07
  660 110.258306 32:32:32:32:32:32 8dBm Nov 18, 2018 02:41:42.896511000 +07
  661 110.405159 32:32:32:32:32:32 8dBm Nov 18, 2018 02:41:43.043364000 +07
  662 110.471753 32:32:32:32:32:32 5dBm Nov 18, 2018 02:41:43.109958000 +07
  663 110.580593 32:32:32:32:32:32 5dBm Nov 18, 2018 02:41:43.218798000 +07
  664 110.665816 32:32:32:32:32:32 8dBm Nov 18, 2018 02:41:43.304021000 +07
  665 110.816603 32:32:32:32:32:32 7dBm Nov 18, 2018 02:41:43.454808000 +07
  666 110.915954 32:32:32:32:32:32 6dBm Nov 18, 2018 02:41:43.554159000 +07
  667 111.016866 32:32:32:32:32:32 4dBm Nov 18, 2018 02:41:43.655071000 +07
  668 111.105235 32:32:32:32:32:32 5dBm Nov 18, 2018 02:41:43.743440000 +07
  669 111.156698 32:32:32:32:32:32 3dBm Nov 18, 2018 02:41:43.794903000 +07
  670 111.187344 32:32:32:32:32:32 5dBm Nov 18, 2018 02:41:43.825549000 +07
  671 111.276362 32:32:32:32:32:32 5dBm Nov 18, 2018 02:41:43.914567000 +07
  672 111.298858 32:32:32:32:32:32 7dBm Nov 18, 2018 02:41:43.937063000 +07
  673 111.424418 32:32:32:32:32:32 6dBm Nov 18, 2018 02:41:44.062623000 +07
  674 111.454939 32:32:32:32:32:32 5dBm Nov 18, 2018 02:41:44.093144000 +07
  675 111.615884 32:32:32:32:32:32 5dBm Nov 18, 2018 02:41:44.254089000 +07
  676 111.762584 32:32:32:32:32:32 4dBm Nov 18, 2018 02:41:44.400789000 +07
  677 111.812570 32:32:32:32:32:32 5dBm Nov 18, 2018 02:41:44.450775000 +07
  678 112.207818 32:32:32:32:32:32 5dBm Nov 18, 2018 02:41:44.846023000 +07
  679 112.610629 32:32:32:32:32:32 7dBm Nov 18, 2018 02:41:45.248834000 +07
  680 112.637201 32:32:32:32:32:32 7dBm Nov 18, 2018 02:41:45.275406000 +07
  681 112.677207 32:32:32:32:32:32 5dBm Nov 18, 2018 02:41:45.315412000 +07
  682 112.866602 32:32:32:32:32:32 7dBm Nov 18, 2018 02:41:45.504807000 +07
  683 112.939223 32:32:32:32:32:32 6dBm Nov 18, 2018 02:41:45.577428000 +07
  684 113.054346 32:32:32:32:32:32 6dBm Nov 18, 2018 02:41:45.692551000 +07
  685 113.102067 32:32:32:32:32:32 7dBm Nov 18, 2018 02:41:45.740272000 +07
  686 113.413070 32:32:32:32:32:32 7dBm Nov 18, 2018 02:41:46.051275000 +07
  687 113.636969 32:32:32:32:32:32 6dBm Nov 18, 2018 02:41:46.275174000 +07
  688 113.737381 32:32:32:32:32:32 6dBm Nov 18, 2018 02:41:46.375586000 +07
  689 113.868396 32:32:32:32:32:32 8dBm Nov 18, 2018 02:41:46.506601000 +07
  690 113.926887 32:32:32:32:32:32 6dBm Nov 18, 2018 02:41:46.565092000 +07
  691 114.276664 32:32:32:32:32:32 5dBm Nov 18, 2018 02:41:46.914869000 +07
  692 114.352868 32:32:32:32:32:32 4dBm Nov 18, 2018 02:41:46.991073000 +07
  693 114.376321 32:32:32:32:32:32 4dBm Nov 18, 2018 02:41:47.014526000 +07
  694 114.400358 32:32:32:32:32:32 7dBm Nov 18, 2018 02:41:47.038563000 +07
  695 114.427216 32:32:32:32:32:32 4dBm Nov 18, 2018 02:41:47.065421000 +07
  696 114.486367 32:32:32:32:32:32 6dBm Nov 18, 2018 02:41:47.124572000 +07
  697 114.489878 32:32:32:32:32:32 6dBm Nov 18, 2018 02:41:47.128083000 +07
  698 114.517959 32:32:32:32:32:32 5dBm Nov 18, 2018 02:41:47.156164000 +07
  699 114.567659 32:32:32:32:32:32 4dBm Nov 18, 2018 02:41:47.205864000 +07
  700 114.646049 32:32:32:32:32:32 5dBm Nov 18, 2018 02:41:47.284254000 +07
  701 114.705578 32:32:32:32:32:32 6dBm Nov 18, 2018 02:41:47.343783000 +07
  702 114.738919 32:32:32:32:32:32 5dBm Nov 18, 2018 02:41:47.377124000 +07
  703 114.774151 32:32:32:32:32:32 5dBm Nov 18, 2018 02:41:47.412356000 +07
  704 114.939310 32:32:32:32:32:32 5dBm Nov 18, 2018 02:41:47.577515000 +07
  705 115.031580 32:32:32:32:32:32 5dBm Nov 18, 2018 02:41:47.669785000 +07
  706 115.103900 32:32:32:32:32:32 6dBm Nov 18, 2018 02:41:47.742105000 +07
  707 115.569824 32:32:32:32:32:32 6dBm Nov 18, 2018 02:41:48.208029000 +07
  708 115.679928 32:32:32:32:32:32 6dBm Nov 18, 2018 02:41:48.318133000 +07
  709 115.727625 32:32:32:32:32:32 5dBm Nov 18, 2018 02:41:48.365830000 +07
  710 115.881543 32:32:32:32:32:32 5dBm Nov 18, 2018 02:41:48.519748000 +07
  711 115.914560 32:32:32:32:32:32 6dBm Nov 18, 2018 02:41:48.552765000 +07
  712 115.958346 32:32:32:32:32:32 6dBm Nov 18, 2018 02:41:48.596551000 +07
  713 115.979220 32:32:32:32:32:32 6dBm Nov 18, 2018 02:41:48.617425000 +07
  714 116.006385 32:32:32:32:32:32 4dBm Nov 18, 2018 02:41:48.644590000 +07
  715 116.179289 32:32:32:32:32:32 6dBm Nov 18, 2018 02:41:48.817494000 +07
  716 116.629562 32:32:32:32:32:32 7dBm Nov 18, 2018 02:41:49.267767000 +07
  717 116.676006 32:32:32:32:32:32 4dBm Nov 18, 2018 02:41:49.314211000 +07
  718 116.908759 32:32:32:32:32:32 5dBm Nov 18, 2018 02:41:49.546964000 +07
  719 117.029370 32:32:32:32:32:32 5dBm Nov 18, 2018 02:41:49.667575000 +07
  720 117.066751 32:32:32:32:32:32 6dBm Nov 18, 2018 02:41:49.704956000 +07
  721 117.424570 32:32:32:32:32:32 7dBm Nov 18, 2018 02:41:50.062775000 +07
  722 117.616939 32:32:32:32:32:32 5dBm Nov 18, 2018 02:41:50.255144000 +07
  723 117.634116 32:32:32:32:32:32 6dBm Nov 18, 2018 02:41:50.272321000 +07
  724 117.672879 32:32:32:32:32:32 6dBm Nov 18, 2018 02:41:50.311084000 +07
  725 117.694928 32:32:32:32:32:32 6dBm Nov 18, 2018 02:41:50.333133000 +07
  726 117.747957 32:32:32:32:32:32 6dBm Nov 18, 2018 02:41:50.386162000 +07
  727 117.847785 32:32:32:32:32:32 5dBm Nov 18, 2018 02:41:50.485990000 +07
  728 117.921697 32:32:32:32:32:32 6dBm Nov 18, 2018 02:41:50.559902000 +07
  729 117.939631 32:32:32:32:32:32 4dBm Nov 18, 2018 02:41:50.577836000 +07
  730 117.963053 32:32:32:32:32:32 4dBm Nov 18, 2018 02:41:50.601258000 +07
  731 117.997788 32:32:32:32:32:32 4dBm Nov 18, 2018 02:41:50.635993000 +07
  732 118.132825 32:32:32:32:32:32 5dBm Nov 18, 2018 02:41:50.771030000 +07
  733 118.400941 32:32:32:32:32:32 6dBm Nov 18, 2018 02:41:51.039146000 +07
  734 118.422969 32:32:32:32:32:32 5dBm Nov 18, 2018 02:41:51.061174000 +07
  735 118.439671 32:32:32:32:32:32 5dBm Nov 18, 2018 02:41:51.077876000 +07
  736 118.516180 32:32:32:32:32:32 4dBm Nov 18, 2018 02:41:51.154385000 +07
  737 119.048379 32:32:32:32:32:32 6dBm Nov 18, 2018 02:41:51.686584000 +07
  738 119.455829 32:32:32:32:32:32 5dBm Nov 18, 2018 02:41:52.094034000 +07
  739 119.498173 32:32:32:32:32:32 6dBm Nov 18, 2018 02:41:52.136378000 +07
  740 120.011048 32:32:32:32:32:32 4dBm Nov 18, 2018 02:41:52.649253000 +07
  741 120.325077 32:32:32:32:32:32 5dBm Nov 18, 2018 02:41:52.963282000 +07
  742 120.355966 32:32:32:32:32:32 7dBm Nov 18, 2018 02:41:52.994171000 +07
  743 120.694228 32:32:32:32:32:32 6dBm Nov 18, 2018 02:41:53.332433000 +07
  744 121.356106 32:32:32:32:32:32 6dBm Nov 18, 2018 02:41:53.994311000 +07
  745 121.676018 32:32:32:32:32:32 6dBm Nov 18, 2018 02:41:54.314223000 +07
  746 121.831995 32:32:32:32:32:32 4dBm Nov 18, 2018 02:41:54.470200000 +07
  747 122.077340 32:32:32:32:32:32 4dBm Nov 18, 2018 02:41:54.715545000 +07
  748 122.180201 32:32:32:32:32:32 6dBm Nov 18, 2018 02:41:54.818406000 +07
  749 122.837068 32:32:32:32:32:32 6dBm Nov 18, 2018 02:41:55.475273000 +07
  750 123.161177 32:32:32:32:32:32 6dBm Nov 18, 2018 02:41:55.799382000 +07
  751 123.319068 32:32:32:32:32:32 5dBm Nov 18, 2018 02:41:55.957273000 +07
  752 123.438268 32:32:32:32:32:32 4dBm Nov 18, 2018 02:41:56.076473000 +07
  753 123.748433 32:32:32:32:32:32 5dBm Nov 18, 2018 02:41:56.386638000 +07
  754 123.944628 32:32:32:32:32:32 3dBm Nov 18, 2018 02:41:56.582833000 +07
  755 124.003278 32:32:32:32:32:32 5dBm Nov 18, 2018 02:41:56.641483000 +07
  756 124.109129 32:32:32:32:32:32 5dBm Nov 18, 2018 02:41:56.747334000 +07
  757 124.554184 32:32:32:32:32:32 5dBm Nov 18, 2018 02:41:57.192389000 +07
  758 124.598521 32:32:32:32:32:32 5dBm Nov 18, 2018 02:41:57.236726000 +07
  759 124.689451 32:32:32:32:32:32 6dBm Nov 18, 2018 02:41:57.327656000 +07
  760 125.072056 32:32:32:32:32:32 6dBm Nov 18, 2018 02:41:57.710261000 +07
  761 125.155588 32:32:32:32:32:32 5dBm Nov 18, 2018 02:41:57.793793000 +07
  762 125.372418 32:32:32:32:32:32 5dBm Nov 18, 2018 02:41:58.010623000 +07
  763 125.455015 32:32:32:32:32:32 5dBm Nov 18, 2018 02:41:58.093220000 +07
  764 125.508901 32:32:32:32:32:32 5dBm Nov 18, 2018 02:41:58.147106000 +07
  765 125.681353 32:32:32:32:32:32 6dBm Nov 18, 2018 02:41:58.319558000 +07
  766 125.756655 32:32:32:32:32:32 6dBm Nov 18, 2018 02:41:58.394860000 +07
  767 126.158957 32:32:32:32:32:32 6dBm Nov 18, 2018 02:41:58.797162000 +07
  768 126.180625 32:32:32:32:32:32 5dBm Nov 18, 2018 02:41:58.818830000 +07
  769 126.217852 32:32:32:32:32:32 4dBm Nov 18, 2018 02:41:58.856057000 +07
  770 126.358204 32:32:32:32:32:32 5dBm Nov 18, 2018 02:41:58.996409000 +07
  771 126.442186 32:32:32:32:32:32 6dBm Nov 18, 2018 02:41:59.080391000 +07
  772 126.509813 32:32:32:32:32:32 6dBm Nov 18, 2018 02:41:59.148018000 +07
  773 126.596368 32:32:32:32:32:32 7dBm Nov 18, 2018 02:41:59.234573000 +07
  774 126.627773 32:32:32:32:32:32 5dBm Nov 18, 2018 02:41:59.265978000 +07
  775 126.893689 32:32:32:32:32:32 6dBm Nov 18, 2018 02:41:59.531894000 +07
  776 127.102260 32:32:32:32:32:32 6dBm Nov 18, 2018 02:41:59.740465000 +07
  777 127.140942 32:32:32:32:32:32 5dBm Nov 18, 2018 02:41:59.779147000 +07
  778 127.494666 32:32:32:32:32:32 5dBm Nov 18, 2018 02:42:00.132871000 +07
  779 127.560865 32:32:32:32:32:32 3dBm Nov 18, 2018 02:42:00.199070000 +07
  780 127.569172 32:32:32:32:32:32 4dBm Nov 18, 2018 02:42:00.207377000 +07
  781 127.578550 32:32:32:32:32:32 7dBm Nov 18, 2018 02:42:00.216755000 +07
  782 127.611377 32:32:32:32:32:32 5dBm Nov 18, 2018 02:42:00.249582000 +07
  783 127.669383 32:32:32:32:32:32 7dBm Nov 18, 2018 02:42:00.307588000 +07
  784 127.808201 32:32:32:32:32:32 3dBm Nov 18, 2018 02:42:00.446406000 +07
  785 127.920542 32:32:32:32:32:32 6dBm Nov 18, 2018 02:42:00.558747000 +07
  786 128.093597 32:32:32:32:32:32 7dBm Nov 18, 2018 02:42:00.731802000 +07
  787 128.135206 32:32:32:32:32:32 6dBm Nov 18, 2018 02:42:00.773411000 +07
  788 128.166519 32:32:32:32:32:32 5dBm Nov 18, 2018 02:42:00.804724000 +07
  789 128.184205 32:32:32:32:32:32 7dBm Nov 18, 2018 02:42:00.822410000 +07
  790 128.243817 32:32:32:32:32:32 4dBm Nov 18, 2018 02:42:00.882022000 +07
  791 128.324047 32:32:32:32:32:32 6dBm Nov 18, 2018 02:42:00.962252000 +07
  792 128.336311 32:32:32:32:32:32 6dBm Nov 18, 2018 02:42:00.974516000 +07
  793 128.397586 32:32:32:32:32:32 6dBm Nov 18, 2018 02:42:01.035791000 +07
  794 128.418672 32:32:32:32:32:32 5dBm Nov 18, 2018 02:42:01.056877000 +07
  795 128.454819 32:32:32:32:32:32 7dBm Nov 18, 2018 02:42:01.093024000 +07
  796 128.552252 32:32:32:32:32:32 7dBm Nov 18, 2018 02:42:01.190457000 +07
  797 128.649378 32:32:32:32:32:32 4dBm Nov 18, 2018 02:42:01.287583000 +07
  798 128.708095 32:32:32:32:32:32 3dBm Nov 18, 2018 02:42:01.346300000 +07
  799 128.762377 32:32:32:32:32:32 3dBm Nov 18, 2018 02:42:01.400582000 +07
  800 128.785434 32:32:32:32:32:32 4dBm Nov 18, 2018 02:42:01.423639000 +07
  801 129.027130 32:32:32:32:32:32 6dBm Nov 18, 2018 02:42:01.665335000 +07
  802 129.071149 32:32:32:32:32:32 6dBm Nov 18, 2018 02:42:01.709354000 +07
  803 129.101917 32:32:32:32:32:32 7dBm Nov 18, 2018 02:42:01.740122000 +07
  804 129.331543 32:32:32:32:32:32 8dBm Nov 18, 2018 02:42:01.969748000 +07
  805 129.363872 32:32:32:32:32:32 6dBm Nov 18, 2018 02:42:02.002077000 +07
  806 129.390354 32:32:32:32:32:32 4dBm Nov 18, 2018 02:42:02.028559000 +07
  807 129.553292 32:32:32:32:32:32 5dBm Nov 18, 2018 02:42:02.191497000 +07
  808 129.764856 32:32:32:32:32:32 5dBm Nov 18, 2018 02:42:02.403061000 +07
  809 129.932140 32:32:32:32:32:32 5dBm Nov 18, 2018 02:42:02.570345000 +07
  810 130.021482 32:32:32:32:32:32 3dBm Nov 18, 2018 02:42:02.659687000 +07
  811 130.270885 32:32:32:32:32:32 5dBm Nov 18, 2018 02:42:02.909090000 +07
  812 130.293321 32:32:32:32:32:32 5dBm Nov 18, 2018 02:42:02.931526000 +07
  813 130.327475 32:32:32:32:32:32 7dBm Nov 18, 2018 02:42:02.965680000 +07
  814 130.503817 32:32:32:32:32:32 7dBm Nov 18, 2018 02:42:03.142022000 +07
  815 130.751763 32:32:32:32:32:32 6dBm Nov 18, 2018 02:42:03.389968000 +07
  816 131.190632 32:32:32:32:32:32 6dBm Nov 18, 2018 02:42:03.828837000 +07
  817 131.286682 32:32:32:32:32:32 4dBm Nov 18, 2018 02:42:03.924887000 +07
  818 131.367626 32:32:32:32:32:32 7dBm Nov 18, 2018 02:42:04.005831000 +07
  819 131.428289 32:32:32:32:32:32 6dBm Nov 18, 2018 02:42:04.066494000 +07
  820 131.601037 32:32:32:32:32:32 5dBm Nov 18, 2018 02:42:04.239242000 +07
  821 131.645278 32:32:32:32:32:32 3dBm Nov 18, 2018 02:42:04.283483000 +07
  822 131.652618 32:32:32:32:32:32 7dBm Nov 18, 2018 02:42:04.290823000 +07
  823 131.707281 32:32:32:32:32:32 4dBm Nov 18, 2018 02:42:04.345486000 +07
  824 131.773077 32:32:32:32:32:32 4dBm Nov 18, 2018 02:42:04.411282000 +07
  825 131.948100 32:32:32:32:32:32 5dBm Nov 18, 2018 02:42:04.586305000 +07
  826 132.028778 32:32:32:32:32:32 8dBm Nov 18, 2018 02:42:04.666983000 +07
  827 132.163686 32:32:32:32:32:32 5dBm Nov 18, 2018 02:42:04.801891000 +07
  828 132.270792 32:32:32:32:32:32 6dBm Nov 18, 2018 02:42:04.908997000 +07
  829 133.147887 32:32:32:32:32:32 4dBm Nov 18, 2018 02:42:05.786092000 +07
  830 133.227363 32:32:32:32:32:32 6dBm Nov 18, 2018 02:42:05.865568000 +07
  831 133.335131 32:32:32:32:32:32 4dBm Nov 18, 2018 02:42:05.973336000 +07
  832 133.501432 32:32:32:32:32:32 6dBm Nov 18, 2018 02:42:06.139637000 +07
  833 133.553328 32:32:32:32:32:32 6dBm Nov 18, 2018 02:42:06.191533000 +07
  834 133.754832 32:32:32:32:32:32 5dBm Nov 18, 2018 02:42:06.393037000 +07
  835 133.778966 32:32:32:32:32:32 6dBm Nov 18, 2018 02:42:06.417171000 +07
  836 133.841442 32:32:32:32:32:32 6dBm Nov 18, 2018 02:42:06.479647000 +07
  837 133.908880 32:32:32:32:32:32 7dBm Nov 18, 2018 02:42:06.547085000 +07
  838 134.351571 32:32:32:32:32:32 4dBm Nov 18, 2018 02:42:06.989776000 +07
  839 134.497535 32:32:32:32:32:32 4dBm Nov 18, 2018 02:42:07.135740000 +07
  840 134.619573 32:32:32:32:32:32 6dBm Nov 18, 2018 02:42:07.257778000 +07
  841 134.763422 32:32:32:32:32:32 5dBm Nov 18, 2018 02:42:07.401627000 +07
  842 134.786677 32:32:32:32:32:32 6dBm Nov 18, 2018 02:42:07.424882000 +07
  843 134.815107 32:32:32:32:32:32 4dBm Nov 18, 2018 02:42:07.453312000 +07
  844 134.816826 32:32:32:32:32:32 3dBm Nov 18, 2018 02:42:07.455031000 +07
  845 134.858525 32:32:32:32:32:32 6dBm Nov 18, 2018 02:42:07.496730000 +07
  846 134.933850 32:32:32:32:32:32 5dBm Nov 18, 2018 02:42:07.572055000 +07
  847 135.001920 32:32:32:32:32:32 5dBm Nov 18, 2018 02:42:07.640125000 +07
  848 135.349358 32:32:32:32:32:32 7dBm Nov 18, 2018 02:42:07.987563000 +07
  849 135.371171 32:32:32:32:32:32 7dBm Nov 18, 2018 02:42:08.009376000 +07
  850 135.441486 32:32:32:32:32:32 6dBm Nov 18, 2018 02:42:08.079691000 +07
  851 135.512911 32:32:32:32:32:32 5dBm Nov 18, 2018 02:42:08.151116000 +07
  852 135.530418 32:32:32:32:32:32 7dBm Nov 18, 2018 02:42:08.168623000 +07
  853 135.592229 32:32:32:32:32:32 5dBm Nov 18, 2018 02:42:08.230434000 +07
  854 135.689604 32:32:32:32:32:32 5dBm Nov 18, 2018 02:42:08.327809000 +07
  855 135.740897 32:32:32:32:32:32 7dBm Nov 18, 2018 02:42:08.379102000 +07
  856 135.930435 32:32:32:32:32:32 5dBm Nov 18, 2018 02:42:08.568640000 +07
  857 136.089790 32:32:32:32:32:32 6dBm Nov 18, 2018 02:42:08.727995000 +07
  858 136.212961 32:32:32:32:32:32 6dBm Nov 18, 2018 02:42:08.851166000 +07
  859 136.237336 32:32:32:32:32:32 6dBm Nov 18, 2018 02:42:08.875541000 +07
  860 136.294989 32:32:32:32:32:32 5dBm Nov 18, 2018 02:42:08.933194000 +07
  861 136.338273 32:32:32:32:32:32 7dBm Nov 18, 2018 02:42:08.976478000 +07
  862 136.461008 32:32:32:32:32:32 6dBm Nov 18, 2018 02:42:09.099213000 +07
  863 136.673712 32:32:32:32:32:32 5dBm Nov 18, 2018 02:42:09.311917000 +07
  864 137.017686 32:32:32:32:32:32 3dBm Nov 18, 2018 02:42:09.655891000 +07
  865 137.129278 32:32:32:32:32:32 5dBm Nov 18, 2018 02:42:09.767483000 +07
  866 137.538199 32:32:32:32:32:32 6dBm Nov 18, 2018 02:42:10.176404000 +07
  867 137.707770 32:32:32:32:32:32 6dBm Nov 18, 2018 02:42:10.345975000 +07
  868 137.724541 32:32:32:32:32:32 4dBm Nov 18, 2018 02:42:10.362746000 +07
  869 137.775680 32:32:32:32:32:32 6dBm Nov 18, 2018 02:42:10.413885000 +07
  870 137.997512 32:32:32:32:32:32 5dBm Nov 18, 2018 02:42:10.635717000 +07
  871 138.040408 32:32:32:32:32:32 7dBm Nov 18, 2018 02:42:10.678613000 +07
  872 138.098955 32:32:32:32:32:32 7dBm Nov 18, 2018 02:42:10.737160000 +07
  873 138.207701 32:32:32:32:32:32 6dBm Nov 18, 2018 02:42:10.845906000 +07
  874 138.393854 32:32:32:32:32:32 6dBm Nov 18, 2018 02:42:11.032059000 +07
  875 138.420707 32:32:32:32:32:32 3dBm Nov 18, 2018 02:42:11.058912000 +07
  876 138.946270 32:32:32:32:32:32 6dBm Nov 18, 2018 02:42:11.584475000 +07
  877 138.997990 32:32:32:32:32:32 3dBm Nov 18, 2018 02:42:11.636195000 +07
  878 139.053876 32:32:32:32:32:32 6dBm Nov 18, 2018 02:42:11.692081000 +07
  879 139.194706 32:32:32:32:32:32 7dBm Nov 18, 2018 02:42:11.832911000 +07
  880 139.220181 32:32:32:32:32:32 5dBm Nov 18, 2018 02:42:11.858386000 +07
  881 139.233455 32:32:32:32:32:32 6dBm Nov 18, 2018 02:42:11.871660000 +07
  882 139.253084 32:32:32:32:32:32 7dBm Nov 18, 2018 02:42:11.891289000 +07
  883 139.268765 32:32:32:32:32:32 6dBm Nov 18, 2018 02:42:11.906970000 +07
  884 139.344026 32:32:32:32:32:32 4dBm Nov 18, 2018 02:42:11.982231000 +07
  885 139.357232 32:32:32:32:32:32 6dBm Nov 18, 2018 02:42:11.995437000 +07
  886 139.415348 32:32:32:32:32:32 6dBm Nov 18, 2018 02:42:12.053553000 +07
  887 139.641054 32:32:32:32:32:32 6dBm Nov 18, 2018 02:42:12.279259000 +07
  888 139.665198 32:32:32:32:32:32 6dBm Nov 18, 2018 02:42:12.303403000 +07
  889 139.684586 32:32:32:32:32:32 6dBm Nov 18, 2018 02:42:12.322791000 +07
  890 139.769053 32:32:32:32:32:32 6dBm Nov 18, 2018 02:42:12.407258000 +07
  891 139.926092 32:32:32:32:32:32 5dBm Nov 18, 2018 02:42:12.564297000 +07
  892 139.993338 32:32:32:32:32:32 6dBm Nov 18, 2018 02:42:12.631543000 +07
  893 140.037287 32:32:32:32:32:32 7dBm Nov 18, 2018 02:42:12.675492000 +07
  894 140.102490 32:32:32:32:32:32 6dBm Nov 18, 2018 02:42:12.740695000 +07
  895 140.295297 32:32:32:32:32:32 6dBm Nov 18, 2018 02:42:12.933502000 +07
  896 140.412374 32:32:32:32:32:32 6dBm Nov 18, 2018 02:42:13.050579000 +07
  897 140.611244 32:32:32:32:32:32 5dBm Nov 18, 2018 02:42:13.249449000 +07
  898 140.803321 32:32:32:32:32:32 7dBm Nov 18, 2018 02:42:13.441526000 +07
  899 141.013256 32:32:32:32:32:32 6dBm Nov 18, 2018 02:42:13.651461000 +07
  900 141.043765 32:32:32:32:32:32 4dBm Nov 18, 2018 02:42:13.681970000 +07
  901 141.107405 32:32:32:32:32:32 7dBm Nov 18, 2018 02:42:13.745610000 +07
  902 141.201401 32:32:32:32:32:32 6dBm Nov 18, 2018 02:42:13.839606000 +07
  903 141.273708 32:32:32:32:32:32 9dBm Nov 18, 2018 02:42:13.911913000 +07
  904 141.376129 32:32:32:32:32:32 6dBm Nov 18, 2018 02:42:14.014334000 +07
  905 141.394840 32:32:32:32:32:32 7dBm Nov 18, 2018 02:42:14.033045000 +07
  906 141.427572 32:32:32:32:32:32 7dBm Nov 18, 2018 02:42:14.065777000 +07
  907 141.547455 32:32:32:32:32:32 6dBm Nov 18, 2018 02:42:14.185660000 +07
  908 141.710722 32:32:32:32:32:32 6dBm Nov 18, 2018 02:42:14.348927000 +07
  909 141.805831 32:32:32:32:32:32 5dBm Nov 18, 2018 02:42:14.444036000 +07
  910 141.825629 32:32:32:32:32:32 4dBm Nov 18, 2018 02:42:14.463834000 +07
  911 141.886498 32:32:32:32:32:32 5dBm Nov 18, 2018 02:42:14.524703000 +07
  912 141.974853 32:32:32:32:32:32 6dBm Nov 18, 2018 02:42:14.613058000 +07
  913 142.003280 32:32:32:32:32:32 6dBm Nov 18, 2018 02:42:14.641485000 +07
  914 142.208132 32:32:32:32:32:32 5dBm Nov 18, 2018 02:42:14.846337000 +07
  915 142.270483 32:32:32:32:32:32 5dBm Nov 18, 2018 02:42:14.908688000 +07
  916 142.405651 32:32:32:32:32:32 4dBm Nov 18, 2018 02:42:15.043856000 +07
  917 142.495642 32:32:32:32:32:32 3dBm Nov 18, 2018 02:42:15.133847000 +07
  918 142.582929 32:32:32:32:32:32 7dBm Nov 18, 2018 02:42:15.221134000 +07
  919 142.913717 32:32:32:32:32:32 4dBm Nov 18, 2018 02:42:15.551922000 +07
  920 142.969315 32:32:32:32:32:32 5dBm Nov 18, 2018 02:42:15.607520000 +07
  921 143.040583 32:32:32:32:32:32 4dBm Nov 18, 2018 02:42:15.678788000 +07
  922 143.044120 32:32:32:32:32:32 5dBm Nov 18, 2018 02:42:15.682325000 +07
  923 143.069621 32:32:32:32:32:32 6dBm Nov 18, 2018 02:42:15.707826000 +07
  924 143.160268 32:32:32:32:32:32 4dBm Nov 18, 2018 02:42:15.798473000 +07
  925 143.276472 32:32:32:32:32:32 5dBm Nov 18, 2018 02:42:15.914677000 +07
  926 143.528707 32:32:32:32:32:32 4dBm Nov 18, 2018 02:42:16.166912000 +07
  927 143.578799 32:32:32:32:32:32 4dBm Nov 18, 2018 02:42:16.217004000 +07
  928 144.424749 32:32:32:32:32:32 5dBm Nov 18, 2018 02:42:17.062954000 +07
  929 144.483243 32:32:32:32:32:32 5dBm Nov 18, 2018 02:42:17.121448000 +07
  930 144.656306 32:32:32:32:32:32 5dBm Nov 18, 2018 02:42:17.294511000 +07
  931 144.695935 32:32:32:32:32:32 4dBm Nov 18, 2018 02:42:17.334140000 +07
  932 144.758837 32:32:32:32:32:32 6dBm Nov 18, 2018 02:42:17.397042000 +07
  933 144.907068 32:32:32:32:32:32 6dBm Nov 18, 2018 02:42:17.545273000 +07
  934 144.948430 32:32:32:32:32:32 6dBm Nov 18, 2018 02:42:17.586635000 +07
  935 144.969757 32:32:32:32:32:32 5dBm Nov 18, 2018 02:42:17.607962000 +07
  936 144.993794 32:32:32:32:32:32 5dBm Nov 18, 2018 02:42:17.631999000 +07
  937 145.008322 32:32:32:32:32:32 5dBm Nov 18, 2018 02:42:17.646527000 +07
  938 145.030072 32:32:32:32:32:32 4dBm Nov 18, 2018 02:42:17.668277000 +07
  939 145.046847 32:32:32:32:32:32 6dBm Nov 18, 2018 02:42:17.685052000 +07
  940 145.123692 32:32:32:32:32:32 7dBm Nov 18, 2018 02:42:17.761897000 +07
  941 145.176215 32:32:32:32:32:32 7dBm Nov 18, 2018 02:42:17.814420000 +07
  942 145.200210 32:32:32:32:32:32 8dBm Nov 18, 2018 02:42:17.838415000 +07
  943 145.241416 32:32:32:32:32:32 5dBm Nov 18, 2018 02:42:17.879621000 +07
  944 145.257336 32:32:32:32:32:32 6dBm Nov 18, 2018 02:42:17.895541000 +07
  945 145.310821 32:32:32:32:32:32 5dBm Nov 18, 2018 02:42:17.949026000 +07
  946 145.313434 32:32:32:32:32:32 3dBm Nov 18, 2018 02:42:17.951639000 +07
  947 145.688719 32:32:32:32:32:32 6dBm Nov 18, 2018 02:42:18.326924000 +07
  948 145.736575 32:32:32:32:32:32 5dBm Nov 18, 2018 02:42:18.374780000 +07
  949 145.822858 32:32:32:32:32:32 6dBm Nov 18, 2018 02:42:18.461063000 +07
  950 145.935306 32:32:32:32:32:32 6dBm Nov 18, 2018 02:42:18.573511000 +07
  951 146.032557 32:32:32:32:32:32 5dBm Nov 18, 2018 02:42:18.670762000 +07
  952 146.049291 32:32:32:32:32:32 5dBm Nov 18, 2018 02:42:18.687496000 +07
  953 146.170077 32:32:32:32:32:32 8dBm Nov 18, 2018 02:42:18.808282000 +07
  954 146.318958 32:32:32:32:32:32 6dBm Nov 18, 2018 02:42:18.957163000 +07
  955 146.419470 32:32:32:32:32:32 5dBm Nov 18, 2018 02:42:19.057675000 +07
  956 146.438173 32:32:32:32:32:32 5dBm Nov 18, 2018 02:42:19.076378000 +07
  957 146.514178 32:32:32:32:32:32 5dBm Nov 18, 2018 02:42:19.152383000 +07
  958 146.662245 32:32:32:32:32:32 6dBm Nov 18, 2018 02:42:19.300450000 +07
  959 146.723446 32:32:32:32:32:32 5dBm Nov 18, 2018 02:42:19.361651000 +07
  960 146.770198 32:32:32:32:32:32 7dBm Nov 18, 2018 02:42:19.408403000 +07
  961 146.807660 32:32:32:32:32:32 7dBm Nov 18, 2018 02:42:19.445865000 +07
  962 146.899115 32:32:32:32:32:32 6dBm Nov 18, 2018 02:42:19.537320000 +07
  963 146.932162 32:32:32:32:32:32 6dBm Nov 18, 2018 02:42:19.570367000 +07
  964 147.056666 32:32:32:32:32:32 5dBm Nov 18, 2018 02:42:19.694871000 +07
  965 147.180525 32:32:32:32:32:32 7dBm Nov 18, 2018 02:42:19.818730000 +07
  966 147.291969 32:32:32:32:32:32 7dBm Nov 18, 2018 02:42:19.930174000 +07
  967 147.351554 32:32:32:32:32:32 6dBm Nov 18, 2018 02:42:19.989759000 +07
  968 147.438028 32:32:32:32:32:32 6dBm Nov 18, 2018 02:42:20.076233000 +07
  969 147.518806 32:32:32:32:32:32 5dBm Nov 18, 2018 02:42:20.157011000 +07
  970 147.571057 32:32:32:32:32:32 6dBm Nov 18, 2018 02:42:20.209262000 +07
  971 147.621449 32:32:32:32:32:32 5dBm Nov 18, 2018 02:42:20.259654000 +07
  972 147.760764 32:32:32:32:32:32 3dBm Nov 18, 2018 02:42:20.398969000 +07
  973 147.833274 32:32:32:32:32:32 6dBm Nov 18, 2018 02:42:20.471479000 +07
  974 147.942011 32:32:32:32:32:32 7dBm Nov 18, 2018 02:42:20.580216000 +07
  975 147.991509 32:32:32:32:32:32 5dBm Nov 18, 2018 02:42:20.629714000 +07
  976 148.042693 32:32:32:32:32:32 6dBm Nov 18, 2018 02:42:20.680898000 +07
  977 148.071645 32:32:32:32:32:32 5dBm Nov 18, 2018 02:42:20.709850000 +07
  978 148.214707 32:32:32:32:32:32 6dBm Nov 18, 2018 02:42:20.852912000 +07
  979 148.270911 32:32:32:32:32:32 6dBm Nov 18, 2018 02:42:20.909116000 +07
  980 148.309996 32:32:32:32:32:32 7dBm Nov 18, 2018 02:42:20.948201000 +07
  981 148.391891 32:32:32:32:32:32 5dBm Nov 18, 2018 02:42:21.030096000 +07
  982 148.448776 32:32:32:32:32:32 6dBm Nov 18, 2018 02:42:21.086981000 +07
  983 148.510361 32:32:32:32:32:32 6dBm Nov 18, 2018 02:42:21.148566000 +07
  984 148.716315 32:32:32:32:32:32 7dBm Nov 18, 2018 02:42:21.354520000 +07
  985 148.899540 32:32:32:32:32:32 7dBm Nov 18, 2018 02:42:21.537745000 +07
  986 148.968291 32:32:32:32:32:32 5dBm Nov 18, 2018 02:42:21.606496000 +07
  987 149.018961 32:32:32:32:32:32 4dBm Nov 18, 2018 02:42:21.657166000 +07
  988 149.043346 32:32:32:32:32:32 5dBm Nov 18, 2018 02:42:21.681551000 +07
  989 149.102143 32:32:32:32:32:32 7dBm Nov 18, 2018 02:42:21.740348000 +07
  990 149.234553 32:32:32:32:32:32 6dBm Nov 18, 2018 02:42:21.872758000 +07
  991 149.250073 32:32:32:32:32:32 6dBm Nov 18, 2018 02:42:21.888278000 +07
  992 149.311447 32:32:32:32:32:32 6dBm Nov 18, 2018 02:42:21.949652000 +07
  993 149.334059 32:32:32:32:32:32 5dBm Nov 18, 2018 02:42:21.972264000 +07
  994 149.439124 32:32:32:32:32:32 5dBm Nov 18, 2018 02:42:22.077329000 +07
  995 149.512725 32:32:32:32:32:32 7dBm Nov 18, 2018 02:42:22.150930000 +07
  996 149.579856 32:32:32:32:32:32 6dBm Nov 18, 2018 02:42:22.218061000 +07
  997 149.605909 32:32:32:32:32:32 6dBm Nov 18, 2018 02:42:22.244114000 +07
  998 149.692799 32:32:32:32:32:32 5dBm Nov 18, 2018 02:42:22.331004000 +07
  999 149.847432 32:32:32:32:32:32 6dBm Nov 18, 2018 02:42:22.485637000 +07
 1000 149.913344 32:32:32:32:32:32 5dBm Nov 18, 2018 02:42:22.551549000 +07
 1001 149.951966 32:32:32:32:32:32 6dBm Nov 18, 2018 02:42:22.590171000 +07
 1002 150.052573 32:32:32:32:32:32 6dBm Nov 18, 2018 02:42:22.690778000 +07
 1003 150.135165 32:32:32:32:32:32 6dBm Nov 18, 2018 02:42:22.773370000 +07
 1004 150.345508 32:32:32:32:32:32 5dBm Nov 18, 2018 02:42:22.983713000 +07
 1005 150.491617 32:32:32:32:32:32 6dBm Nov 18, 2018 02:42:23.129822000 +07
 1006 150.509471 32:32:32:32:32:32 5dBm Nov 18, 2018 02:42:23.147676000 +07
 1007 150.682795 32:32:32:32:32:32 4dBm Nov 18, 2018 02:42:23.321000000 +07
 1008 150.743840 32:32:32:32:32:32 6dBm Nov 18, 2018 02:42:23.382045000 +07
 1009 150.835605 32:32:32:32:32:32 6dBm Nov 18, 2018 02:42:23.473810000 +07
 1010 151.062216 32:32:32:32:32:32 7dBm Nov 18, 2018 02:42:23.700421000 +07
 1011 151.109338 32:32:32:32:32:32 6dBm Nov 18, 2018 02:42:23.747543000 +07
 1012 151.246446 32:32:32:32:32:32 7dBm Nov 18, 2018 02:42:23.884651000 +07
 1013 151.298115 32:32:32:32:32:32 6dBm Nov 18, 2018 02:42:23.936320000 +07
 1014 151.317267 32:32:32:32:32:32 7dBm Nov 18, 2018 02:42:23.955472000 +07
 1015 151.523514 32:32:32:32:32:32 7dBm Nov 18, 2018 02:42:24.161719000 +07
 1016 151.578312 32:32:32:32:32:32 6dBm Nov 18, 2018 02:42:24.216517000 +07
 1017 151.624648 32:32:32:32:32:32 5dBm Nov 18, 2018 02:42:24.262853000 +07
 1018 151.713617 32:32:32:32:32:32 6dBm Nov 18, 2018 02:42:24.351822000 +07
 1019 151.796059 32:32:32:32:32:32 7dBm Nov 18, 2018 02:42:24.434264000 +07
 1020 151.893801 32:32:32:32:32:32 6dBm Nov 18, 2018 02:42:24.532006000 +07
 1021 151.915073 32:32:32:32:32:32 7dBm Nov 18, 2018 02:42:24.553278000 +07
 1022 152.095324 32:32:32:32:32:32 7dBm Nov 18, 2018 02:42:24.733529000 +07
 1023 152.544392 32:32:32:32:32:32 7dBm Nov 18, 2018 02:42:25.182597000 +07
 1024 152.705615 32:32:32:32:32:32 6dBm Nov 18, 2018 02:42:25.343820000 +07
 1025 152.775683 32:32:32:32:32:32 5dBm Nov 18, 2018 02:42:25.413888000 +07
 1026 152.863385 32:32:32:32:32:32 6dBm Nov 18, 2018 02:42:25.501590000 +07
 1027 152.884506 32:32:32:32:32:32 7dBm Nov 18, 2018 02:42:25.522711000 +07
 1028 153.494204 32:32:32:32:32:32 6dBm Nov 18, 2018 02:42:26.132409000 +07
 1029 153.510963 32:32:32:32:32:32 6dBm Nov 18, 2018 02:42:26.149168000 +07
 1030 153.935293 32:32:32:32:32:32 6dBm Nov 18, 2018 02:42:26.573498000 +07
 1031 154.156171 32:32:32:32:32:32 5dBm Nov 18, 2018 02:42:26.794376000 +07
 1032 154.230012 32:32:32:32:32:32 5dBm Nov 18, 2018 02:42:26.868217000 +07
 1033 154.479667 32:32:32:32:32:32 6dBm Nov 18, 2018 02:42:27.117872000 +07
 1034 154.604243 32:32:32:32:32:32 5dBm Nov 18, 2018 02:42:27.242448000 +07
 1035 154.623839 32:32:32:32:32:32 6dBm Nov 18, 2018 02:42:27.262044000 +07
 1036 154.688624 32:32:32:32:32:32 5dBm Nov 18, 2018 02:42:27.326829000 +07
 1037 154.816810 32:32:32:32:32:32 5dBm Nov 18, 2018 02:42:27.455015000 +07
 1038 154.834504 32:32:32:32:32:32 5dBm Nov 18, 2018 02:42:27.472709000 +07
 1039 154.999292 32:32:32:32:32:32 5dBm Nov 18, 2018 02:42:27.637497000 +07
 1040 155.100321 32:32:32:32:32:32 7dBm Nov 18, 2018 02:42:27.738526000 +07
 1041 155.154981 32:32:32:32:32:32 6dBm Nov 18, 2018 02:42:27.793186000 +07
 1042 155.204330 32:32:32:32:32:32 7dBm Nov 18, 2018 02:42:27.842535000 +07
 1043 155.218051 32:32:32:32:32:32 6dBm Nov 18, 2018 02:42:27.856256000 +07
 1044 155.253485 32:32:32:32:32:32 5dBm Nov 18, 2018 02:42:27.891690000 +07
 1045 155.420761 32:32:32:32:32:32 3dBm Nov 18, 2018 02:42:28.058966000 +07
 1046 155.830017 32:32:32:32:32:32 4dBm Nov 18, 2018 02:42:28.468222000 +07
 1047 155.855573 32:32:32:32:32:32 7dBm Nov 18, 2018 02:42:28.493778000 +07
 1048 155.928222 32:32:32:32:32:32 6dBm Nov 18, 2018 02:42:28.566427000 +07
 1049 155.996865 32:32:32:32:32:32 5dBm Nov 18, 2018 02:42:28.635070000 +07
 1050 156.125590 32:32:32:32:32:32 5dBm Nov 18, 2018 02:42:28.763795000 +07
 1051 156.163260 32:32:32:32:32:32 5dBm Nov 18, 2018 02:42:28.801465000 +07
 1052 156.628699 32:32:32:32:32:32 6dBm Nov 18, 2018 02:42:29.266904000 +07
 1053 156.833287 32:32:32:32:32:32 3dBm Nov 18, 2018 02:42:29.471492000 +07
 1054 156.855461 32:32:32:32:32:32 6dBm Nov 18, 2018 02:42:29.493666000 +07
 1055 156.931362 32:32:32:32:32:32 4dBm Nov 18, 2018 02:42:29.569567000 +07
 1056 157.107816 32:32:32:32:32:32 6dBm Nov 18, 2018 02:42:29.746021000 +07
 1057 157.137380 32:32:32:32:32:32 7dBm Nov 18, 2018 02:42:29.775585000 +07
 1058 157.283546 32:32:32:32:32:32 5dBm Nov 18, 2018 02:42:29.921751000 +07
 1059 157.385097 32:32:32:32:32:32 6dBm Nov 18, 2018 02:42:30.023302000 +07
 1060 157.402685 32:32:32:32:32:32 1dBm Nov 18, 2018 02:42:30.040890000 +07
 1061 158.575025 32:32:32:32:32:32 5dBm Nov 18, 2018 02:42:31.213230000 +07
 1062 158.748452 32:32:32:32:32:32 5dBm Nov 18, 2018 02:42:31.386657000 +07
 1063 158.770761 32:32:32:32:32:32 5dBm Nov 18, 2018 02:42:31.408966000 +07
 1064 158.847485 32:32:32:32:32:32 5dBm Nov 18, 2018 02:42:31.485690000 +07
 1065 158.930722 32:32:32:32:32:32 6dBm Nov 18, 2018 02:42:31.568927000 +07
 1066 159.042113 32:32:32:32:32:32 5dBm Nov 18, 2018 02:42:31.680318000 +07
 1067 159.054950 32:32:32:32:32:32 5dBm Nov 18, 2018 02:42:31.693155000 +07
 1068 159.072290 32:32:32:32:32:32 6dBm Nov 18, 2018 02:42:31.710495000 +07
 1069 159.246224 32:32:32:32:32:32 5dBm Nov 18, 2018 02:42:31.884429000 +07
 1070 159.370255 32:32:32:32:32:32 6dBm Nov 18, 2018 02:42:32.008460000 +07
 1071 159.402516 32:32:32:32:32:32 5dBm Nov 18, 2018 02:42:32.040721000 +07
 1072 159.468720 32:32:32:32:32:32 4dBm Nov 18, 2018 02:42:32.106925000 +07
 1073 159.487032 32:32:32:32:32:32 5dBm Nov 18, 2018 02:42:32.125237000 +07
 1074 159.512396 32:32:32:32:32:32 5dBm Nov 18, 2018 02:42:32.150601000 +07
 1075 159.762308 32:32:32:32:32:32 5dBm Nov 18, 2018 02:42:32.400513000 +07
 1076 159.796757 32:32:32:32:32:32 6dBm Nov 18, 2018 02:42:32.434962000 +07
 1077 159.952961 32:32:32:32:32:32 5dBm Nov 18, 2018 02:42:32.591166000 +07
 1078 161.306790 32:32:32:32:32:32 3dBm Nov 18, 2018 02:42:33.944995000 +07
 1079 161.385862 32:32:32:32:32:32 6dBm Nov 18, 2018 02:42:34.024067000 +07
 1080 161.476654 32:32:32:32:32:32 6dBm Nov 18, 2018 02:42:34.114859000 +07
 1081 161.796698 32:32:32:32:32:32 5dBm Nov 18, 2018 02:42:34.434903000 +07
 1082 161.893798 32:32:32:32:32:32 4dBm Nov 18, 2018 02:42:34.532003000 +07
 1083 162.082039 32:32:32:32:32:32 5dBm Nov 18, 2018 02:42:34.720244000 +07
 1084 162.194351 32:32:32:32:32:32 5dBm Nov 18, 2018 02:42:34.832556000 +07
 1085 162.259771 32:32:32:32:32:32 4dBm Nov 18, 2018 02:42:34.897976000 +07
 1086 162.287044 32:32:32:32:32:32 6dBm Nov 18, 2018 02:42:34.925249000 +07
 1087 162.421791 32:32:32:32:32:32 5dBm Nov 18, 2018 02:42:35.059996000 +07
 1088 162.474924 32:32:32:32:32:32 6dBm Nov 18, 2018 02:42:35.113129000 +07
 1089 162.510437 32:32:32:32:32:32 5dBm Nov 18, 2018 02:42:35.148642000 +07
 1090 162.563955 32:32:32:32:32:32 5dBm Nov 18, 2018 02:42:35.202160000 +07
 1091 162.610620 32:32:32:32:32:32 5dBm Nov 18, 2018 02:42:35.248825000 +07
 1092 162.707794 32:32:32:32:32:32 5dBm Nov 18, 2018 02:42:35.345999000 +07
 1093 162.940384 32:32:32:32:32:32 5dBm Nov 18, 2018 02:42:35.578589000 +07
 1094 162.945753 32:32:32:32:32:32 7dBm Nov 18, 2018 02:42:35.583958000 +07
 1095 162.969433 32:32:32:32:32:32 5dBm Nov 18, 2018 02:42:35.607638000 +07
 1096 163.216677 32:32:32:32:32:32 6dBm Nov 18, 2018 02:42:35.854882000 +07
 1097 163.274063 32:32:32:32:32:32 6dBm Nov 18, 2018 02:42:35.912268000 +07
 1098 163.290718 32:32:32:32:32:32 5dBm Nov 18, 2018 02:42:35.928923000 +07
 1099 163.343238 32:32:32:32:32:32 5dBm Nov 18, 2018 02:42:35.981443000 +07
 1100 163.392561 32:32:32:32:32:32 5dBm Nov 18, 2018 02:42:36.030766000 +07
 1101 163.469726 32:32:32:32:32:32 7dBm Nov 18, 2018 02:42:36.107931000 +07
 1102 163.487463 32:32:32:32:32:32 6dBm Nov 18, 2018 02:42:36.125668000 +07
 1103 163.597453 32:32:32:32:32:32 5dBm Nov 18, 2018 02:42:36.235658000 +07
